%TF.GenerationSoftware,KiCad,Pcbnew,(6.0.0-rc1-323-gb9e66d8b98)*%
%TF.CreationDate,2021-12-06T19:01:44+01:00*%
%TF.ProjectId,MiniALU_LED_ReferenceCard,4d696e69-414c-4555-9f4c-45445f526566,rev?*%
%TF.SameCoordinates,Original*%
%TF.FileFunction,Copper,L1,Top*%
%TF.FilePolarity,Positive*%
%FSLAX46Y46*%
G04 Gerber Fmt 4.6, Leading zero omitted, Abs format (unit mm)*
G04 Created by KiCad (PCBNEW (6.0.0-rc1-323-gb9e66d8b98)) date 2021-12-06 19:01:44*
%MOMM*%
%LPD*%
G01*
G04 APERTURE LIST*
%TA.AperFunction,ComponentPad*%
%ADD10C,3.800000*%
%TD*%
G04 APERTURE END LIST*
D10*
%TO.P,REF\u002A\u002A,1*%
%TO.N,GND*%
X34000000Y9250000D03*
%TD*%
%TA.AperFunction,Conductor*%
%TO.N,GND*%
G36*
X34970057Y11990500D02*
G01*
X34984858Y11988195D01*
X34984861Y11988195D01*
X34993730Y11986814D01*
X35009999Y11988941D01*
X35034567Y11989734D01*
X35251766Y11975498D01*
X35268106Y11973347D01*
X35387788Y11949541D01*
X35507473Y11925734D01*
X35523383Y11921471D01*
X35754484Y11843023D01*
X35769710Y11836716D01*
X35988592Y11728776D01*
X36002866Y11720535D01*
X36205783Y11584950D01*
X36218858Y11574917D01*
X36402347Y11414002D01*
X36414002Y11402347D01*
X36574917Y11218858D01*
X36584950Y11205783D01*
X36720535Y11002866D01*
X36728776Y10988592D01*
X36836716Y10769710D01*
X36843022Y10754486D01*
X36921471Y10523383D01*
X36925735Y10507470D01*
X36973347Y10268106D01*
X36975498Y10251766D01*
X36989264Y10041732D01*
X36988239Y10018696D01*
X36988196Y10015146D01*
X36986814Y10006270D01*
X36988638Y9992322D01*
X36990936Y9974749D01*
X36992000Y9958411D01*
X36992000Y-34950672D01*
X36990500Y-34970056D01*
X36986814Y-34993730D01*
X36988941Y-35009999D01*
X36989734Y-35034567D01*
X36975498Y-35251766D01*
X36973347Y-35268106D01*
X36925735Y-35507470D01*
X36921471Y-35523383D01*
X36886550Y-35626257D01*
X36843023Y-35754484D01*
X36836716Y-35769710D01*
X36728776Y-35988592D01*
X36720535Y-36002866D01*
X36584950Y-36205783D01*
X36574917Y-36218858D01*
X36414002Y-36402347D01*
X36402347Y-36414002D01*
X36218858Y-36574917D01*
X36205783Y-36584950D01*
X36002866Y-36720535D01*
X35988592Y-36728776D01*
X35769710Y-36836716D01*
X35754486Y-36843022D01*
X35523383Y-36921471D01*
X35507473Y-36925734D01*
X35387788Y-36949541D01*
X35268106Y-36973347D01*
X35251766Y-36975498D01*
X35041732Y-36989264D01*
X35018696Y-36988239D01*
X35015146Y-36988196D01*
X35006270Y-36986814D01*
X34977762Y-36990542D01*
X34974749Y-36990936D01*
X34958411Y-36992000D01*
X15049328Y-36992000D01*
X15029943Y-36990500D01*
X15015142Y-36988195D01*
X15015139Y-36988195D01*
X15006270Y-36986814D01*
X14990001Y-36988941D01*
X14965433Y-36989734D01*
X14748234Y-36975498D01*
X14731894Y-36973347D01*
X14612212Y-36949541D01*
X14492527Y-36925734D01*
X14476617Y-36921471D01*
X14245514Y-36843022D01*
X14230290Y-36836716D01*
X14011408Y-36728776D01*
X13997134Y-36720535D01*
X13794217Y-36584950D01*
X13781142Y-36574917D01*
X13597653Y-36414002D01*
X13585998Y-36402347D01*
X13425083Y-36218858D01*
X13415050Y-36205783D01*
X13279465Y-36002866D01*
X13271224Y-35988592D01*
X13163284Y-35769710D01*
X13156977Y-35754484D01*
X13113450Y-35626257D01*
X13078529Y-35523383D01*
X13074265Y-35507470D01*
X13026653Y-35268106D01*
X13024502Y-35251766D01*
X13010974Y-35045376D01*
X13012147Y-35022218D01*
X13011829Y-35022189D01*
X13012264Y-35017333D01*
X13013071Y-35012539D01*
X13013224Y-35000000D01*
X13009273Y-34972412D01*
X13008000Y-34954549D01*
X13008000Y9946793D01*
X13009746Y9967697D01*
X13012264Y9982665D01*
X13013071Y9987461D01*
X13013224Y10000000D01*
X13011502Y10012025D01*
X13010499Y10038129D01*
X13024502Y10251766D01*
X13026653Y10268106D01*
X13074265Y10507470D01*
X13078529Y10523383D01*
X13156978Y10754486D01*
X13163284Y10769710D01*
X13271224Y10988592D01*
X13279465Y11002866D01*
X13415050Y11205783D01*
X13425083Y11218858D01*
X13585998Y11402347D01*
X13597653Y11414002D01*
X13781142Y11574917D01*
X13794217Y11584950D01*
X13997134Y11720535D01*
X14011408Y11728776D01*
X14230290Y11836716D01*
X14245516Y11843023D01*
X14476617Y11921471D01*
X14492527Y11925734D01*
X14612212Y11949541D01*
X14731894Y11973347D01*
X14748234Y11975498D01*
X14958268Y11989264D01*
X14981304Y11988239D01*
X14984854Y11988196D01*
X14993730Y11986814D01*
X15025252Y11990936D01*
X15041589Y11992000D01*
X34950672Y11992000D01*
X34970057Y11990500D01*
G37*
%TD.AperFunction*%
%TD*%
M02*
