%TF.GenerationSoftware,KiCad,Pcbnew,(6.0.8-1)-1*%
%TF.CreationDate,2022-10-13T09:32:41+02:00*%
%TF.ProjectId,Tic_Tac_Toe,5469635f-5461-4635-9f54-6f652e6b6963,rev?*%
%TF.SameCoordinates,Original*%
%TF.FileFunction,Profile,NP*%
%FSLAX46Y46*%
G04 Gerber Fmt 4.6, Leading zero omitted, Abs format (unit mm)*
G04 Created by KiCad (PCBNEW (6.0.8-1)-1) date 2022-10-13 09:32:41*
%MOMM*%
%LPD*%
G01*
G04 APERTURE LIST*
%TA.AperFunction,Profile*%
%ADD10C,0.100000*%
%TD*%
G04 APERTURE END LIST*
D10*
X47500000Y-50000000D02*
X0Y-50000000D01*
X47500000Y-50000000D02*
X57500000Y-60000000D01*
X57500000Y-60000000D02*
X92500000Y-60000000D01*
X102500000Y0D02*
X150000000Y0D01*
X150000000Y-50000000D02*
X102500000Y-50000000D01*
X0Y-50000000D02*
X0Y0D01*
X57500000Y10000000D02*
X47500000Y0D01*
X92500000Y10000000D02*
X57500000Y10000000D01*
X0Y0D02*
X47500000Y0D01*
X92500000Y-60000000D02*
X102500000Y-50000000D01*
X102500000Y0D02*
X92500000Y10000000D01*
X150000000Y0D02*
X150000000Y-50000000D01*
M02*
