%TF.GenerationSoftware,KiCad,Pcbnew,(6.0.2-0)*%
%TF.CreationDate,2022-02-23T16:29:03+01:00*%
%TF.ProjectId,ATtiny_Coin_Toss,41547469-6e79-45f4-936f-696e5f546f73,rev?*%
%TF.SameCoordinates,Original*%
%TF.FileFunction,Copper,L2,Bot*%
%TF.FilePolarity,Positive*%
%FSLAX46Y46*%
G04 Gerber Fmt 4.6, Leading zero omitted, Abs format (unit mm)*
G04 Created by KiCad (PCBNEW (6.0.2-0)) date 2022-02-23 16:29:03*
%MOMM*%
%LPD*%
G01*
G04 APERTURE LIST*
%TA.AperFunction,ComponentPad*%
%ADD10R,1.800000X1.800000*%
%TD*%
%TA.AperFunction,ComponentPad*%
%ADD11C,1.800000*%
%TD*%
%TA.AperFunction,ComponentPad*%
%ADD12C,1.600000*%
%TD*%
%TA.AperFunction,ComponentPad*%
%ADD13O,1.600000X1.600000*%
%TD*%
%TA.AperFunction,ComponentPad*%
%ADD14C,5.600000*%
%TD*%
%TA.AperFunction,ComponentPad*%
%ADD15R,2.600000X2.600000*%
%TD*%
%TA.AperFunction,ComponentPad*%
%ADD16C,2.600000*%
%TD*%
%TA.AperFunction,ComponentPad*%
%ADD17C,2.000000*%
%TD*%
%TA.AperFunction,ComponentPad*%
%ADD18R,2.400000X1.600000*%
%TD*%
%TA.AperFunction,ComponentPad*%
%ADD19O,2.400000X1.600000*%
%TD*%
%TA.AperFunction,SMDPad,CuDef*%
%ADD20C,1.800000*%
%TD*%
%TA.AperFunction,SMDPad,CuDef*%
%ADD21C,2.000000*%
%TD*%
%TA.AperFunction,Conductor*%
%ADD22C,0.300000*%
%TD*%
G04 APERTURE END LIST*
D10*
%TO.P,D2,1,K*%
%TO.N,GND*%
X29500000Y-16775000D03*
D11*
%TO.P,D2,2,A*%
%TO.N,Net-(D2-Pad2)*%
X29500000Y-14235000D03*
%TD*%
D10*
%TO.P,D1,1,K*%
%TO.N,GND*%
X29500000Y-35775000D03*
D11*
%TO.P,D1,2,A*%
%TO.N,Net-(D1-Pad2)*%
X29500000Y-33235000D03*
%TD*%
D12*
%TO.P,R1,1*%
%TO.N,/MOSI*%
X24500000Y-39500000D03*
D13*
%TO.P,R1,2*%
%TO.N,Net-(D1-Pad2)*%
X24500000Y-29340000D03*
%TD*%
D12*
%TO.P,C1,1*%
%TO.N,GND*%
X14250000Y-16500000D03*
%TO.P,C1,2*%
%TO.N,VCC*%
X11750000Y-16500000D03*
%TD*%
%TO.P,R2,1*%
%TO.N,/SCK*%
X24500000Y-20580000D03*
D13*
%TO.P,R2,2*%
%TO.N,Net-(D2-Pad2)*%
X24500000Y-10420000D03*
%TD*%
D14*
%TO.P,H4,1,1*%
%TO.N,GND*%
X46500000Y-3500000D03*
%TD*%
D15*
%TO.P,J1,1,Pin_1*%
%TO.N,GND*%
X15545000Y-5500000D03*
D16*
%TO.P,J1,2,Pin_2*%
%TO.N,VCC*%
X10465000Y-5500000D03*
%TD*%
D14*
%TO.P,H1,1,1*%
%TO.N,GND*%
X3500000Y-46500000D03*
%TD*%
D17*
%TO.P,SW1,1,1*%
%TO.N,Net-(SW1-Pad1)*%
X16250000Y-41750000D03*
X9750000Y-41750000D03*
%TO.P,SW1,2,2*%
%TO.N,GND*%
X9750000Y-46250000D03*
X16250000Y-46250000D03*
%TD*%
D14*
%TO.P,H3,1,1*%
%TO.N,GND*%
X3500000Y-3500000D03*
%TD*%
%TO.P,H2,1,1*%
%TO.N,GND*%
X46500000Y-46500000D03*
%TD*%
D18*
%TO.P,U1,1,~{RESET}/PB5*%
%TO.N,/RST*%
X9190000Y-21190000D03*
D19*
%TO.P,U1,2,XTAL1/PB3*%
%TO.N,Net-(SW1-Pad1)*%
X9190000Y-23730000D03*
%TO.P,U1,3,XTAL2/PB4*%
%TO.N,unconnected-(U1-Pad3)*%
X9190000Y-26270000D03*
%TO.P,U1,4,GND*%
%TO.N,GND*%
X9190000Y-28810000D03*
%TO.P,U1,5,AREF/PB0*%
%TO.N,/MOSI*%
X16810000Y-28810000D03*
%TO.P,U1,6,PB1*%
%TO.N,/MISO*%
X16810000Y-26270000D03*
%TO.P,U1,7,PB2*%
%TO.N,/SCK*%
X16810000Y-23730000D03*
%TO.P,U1,8,VCC*%
%TO.N,VCC*%
X16810000Y-21190000D03*
%TD*%
D20*
%TO.P,MOSI,1,1*%
%TO.N,/MOSI*%
X21000000Y-28810000D03*
%TD*%
D21*
%TO.P,GND,1,1*%
%TO.N,GND*%
X5000000Y-28810000D03*
%TD*%
%TO.P,RESET,1,1*%
%TO.N,/RST*%
X5000000Y-21190000D03*
%TD*%
D20*
%TO.P,VCC,1,1*%
%TO.N,VCC*%
X21000000Y-21190000D03*
%TD*%
%TO.P,MISO,1,1*%
%TO.N,/MISO*%
X21000000Y-26270000D03*
%TD*%
%TO.P,SCK,1,1*%
%TO.N,/SCK*%
X21000000Y-23730000D03*
%TD*%
D22*
%TO.N,Net-(SW1-Pad1)*%
X9750000Y-41750000D02*
X16250000Y-41750000D01*
%TO.N,VCC*%
X16810000Y-21190000D02*
X14190000Y-21190000D01*
X16810000Y-21190000D02*
X21000000Y-21190000D01*
X14190000Y-21190000D02*
X11750000Y-18750000D01*
X11750000Y-18750000D02*
X11750000Y-16500000D01*
%TO.N,/MOSI*%
X16810000Y-28810000D02*
X21000000Y-28810000D01*
%TO.N,/SCK*%
X16810000Y-23730000D02*
X21000000Y-23730000D01*
%TO.N,/MISO*%
X21000000Y-26270000D02*
X16810000Y-26270000D01*
%TO.N,/RST*%
X9190000Y-21190000D02*
X5000000Y-21190000D01*
%TD*%
%TA.AperFunction,Conductor*%
%TO.N,GND*%
G36*
X49759191Y-218907D02*
G01*
X49795155Y-268407D01*
X49800000Y-299000D01*
X49800000Y-49701000D01*
X49781093Y-49759191D01*
X49731593Y-49795155D01*
X49701000Y-49800000D01*
X299000Y-49800000D01*
X240809Y-49781093D01*
X204845Y-49731593D01*
X200000Y-49701000D01*
X200000Y-47259890D01*
X9105150Y-47259890D01*
X9105157Y-47259935D01*
X9110680Y-47266151D01*
X9171179Y-47306575D01*
X9179133Y-47310893D01*
X9373412Y-47394362D01*
X9382024Y-47397160D01*
X9588272Y-47443829D01*
X9597232Y-47445009D01*
X9808544Y-47453311D01*
X9817556Y-47452839D01*
X10026848Y-47422494D01*
X10035630Y-47420385D01*
X10235878Y-47352410D01*
X10244136Y-47348733D01*
X10387750Y-47268305D01*
X10395529Y-47259890D01*
X15605150Y-47259890D01*
X15605157Y-47259935D01*
X15610680Y-47266151D01*
X15671179Y-47306575D01*
X15679133Y-47310893D01*
X15873412Y-47394362D01*
X15882024Y-47397160D01*
X16088272Y-47443829D01*
X16097232Y-47445009D01*
X16308544Y-47453311D01*
X16317556Y-47452839D01*
X16526848Y-47422494D01*
X16535630Y-47420385D01*
X16735878Y-47352410D01*
X16744136Y-47348733D01*
X16887750Y-47268305D01*
X16895952Y-47259432D01*
X16891050Y-47250261D01*
X16261086Y-46620296D01*
X16249203Y-46614242D01*
X16244172Y-46615038D01*
X15611204Y-47248007D01*
X15605150Y-47259890D01*
X10395529Y-47259890D01*
X10395952Y-47259432D01*
X10391050Y-47250261D01*
X9761086Y-46620296D01*
X9749203Y-46614242D01*
X9744172Y-46615038D01*
X9111204Y-47248007D01*
X9105150Y-47259890D01*
X200000Y-47259890D01*
X200000Y-46222981D01*
X8545569Y-46222981D01*
X8559399Y-46434000D01*
X8560812Y-46442921D01*
X8612866Y-46647882D01*
X8615886Y-46656410D01*
X8704417Y-46848449D01*
X8708935Y-46856274D01*
X8731182Y-46887754D01*
X8741867Y-46895733D01*
X8742618Y-46895743D01*
X8748747Y-46892042D01*
X9379704Y-46261086D01*
X9384946Y-46250797D01*
X10114242Y-46250797D01*
X10115038Y-46255828D01*
X10749557Y-46890346D01*
X10760319Y-46895829D01*
X10767819Y-46888619D01*
X10848733Y-46744136D01*
X10852410Y-46735878D01*
X10920385Y-46535630D01*
X10922494Y-46526848D01*
X10953072Y-46315949D01*
X10953565Y-46310161D01*
X10955065Y-46252913D01*
X10954875Y-46247101D01*
X10952659Y-46222981D01*
X15045569Y-46222981D01*
X15059399Y-46434000D01*
X15060812Y-46442921D01*
X15112866Y-46647882D01*
X15115886Y-46656410D01*
X15204417Y-46848449D01*
X15208935Y-46856274D01*
X15231182Y-46887754D01*
X15241867Y-46895733D01*
X15242618Y-46895743D01*
X15248747Y-46892042D01*
X15879704Y-46261086D01*
X15884946Y-46250797D01*
X16614242Y-46250797D01*
X16615038Y-46255828D01*
X17249557Y-46890346D01*
X17260319Y-46895829D01*
X17267819Y-46888619D01*
X17348733Y-46744136D01*
X17352410Y-46735878D01*
X17420385Y-46535630D01*
X17422494Y-46526848D01*
X17453072Y-46315949D01*
X17453565Y-46310161D01*
X17455065Y-46252913D01*
X17454875Y-46247101D01*
X17435376Y-46034898D01*
X17433729Y-46026012D01*
X17376328Y-45822486D01*
X17373087Y-45814042D01*
X17279560Y-45624388D01*
X17274835Y-45616678D01*
X17270408Y-45610749D01*
X17259516Y-45603051D01*
X17258066Y-45603070D01*
X17252975Y-45606236D01*
X16620296Y-46238914D01*
X16614242Y-46250797D01*
X15884946Y-46250797D01*
X15885758Y-46249203D01*
X15884962Y-46244172D01*
X15248694Y-45607905D01*
X15238337Y-45602628D01*
X15230462Y-45610401D01*
X15138705Y-45784802D01*
X15135251Y-45793142D01*
X15072541Y-45995098D01*
X15070660Y-46003948D01*
X15045805Y-46213948D01*
X15045569Y-46222981D01*
X10952659Y-46222981D01*
X10935376Y-46034898D01*
X10933729Y-46026012D01*
X10876328Y-45822486D01*
X10873087Y-45814042D01*
X10779560Y-45624388D01*
X10774835Y-45616678D01*
X10770408Y-45610749D01*
X10759516Y-45603051D01*
X10758066Y-45603070D01*
X10752975Y-45606236D01*
X10120296Y-46238914D01*
X10114242Y-46250797D01*
X9384946Y-46250797D01*
X9385758Y-46249203D01*
X9384962Y-46244172D01*
X8748694Y-45607905D01*
X8738337Y-45602628D01*
X8730462Y-45610401D01*
X8638705Y-45784802D01*
X8635251Y-45793142D01*
X8572541Y-45995098D01*
X8570660Y-46003948D01*
X8545805Y-46213948D01*
X8545569Y-46222981D01*
X200000Y-46222981D01*
X200000Y-45241880D01*
X9104910Y-45241880D01*
X9109605Y-45250395D01*
X9738914Y-45879704D01*
X9750797Y-45885758D01*
X9755828Y-45884962D01*
X10388710Y-45252079D01*
X10393906Y-45241880D01*
X15604910Y-45241880D01*
X15609605Y-45250395D01*
X16238914Y-45879704D01*
X16250797Y-45885758D01*
X16255828Y-45884962D01*
X16888710Y-45252079D01*
X16894588Y-45240542D01*
X16888494Y-45233862D01*
X16800964Y-45178635D01*
X16792906Y-45174530D01*
X16596491Y-45096168D01*
X16587833Y-45093603D01*
X16380426Y-45052347D01*
X16371433Y-45051402D01*
X16159985Y-45048633D01*
X16150970Y-45049343D01*
X15942556Y-45085155D01*
X15933832Y-45087493D01*
X15735436Y-45160684D01*
X15727268Y-45164580D01*
X15613169Y-45232463D01*
X15604910Y-45241880D01*
X10393906Y-45241880D01*
X10394588Y-45240542D01*
X10388494Y-45233862D01*
X10300964Y-45178635D01*
X10292906Y-45174530D01*
X10096491Y-45096168D01*
X10087833Y-45093603D01*
X9880426Y-45052347D01*
X9871433Y-45051402D01*
X9659985Y-45048633D01*
X9650970Y-45049343D01*
X9442556Y-45085155D01*
X9433832Y-45087493D01*
X9235436Y-45160684D01*
X9227268Y-45164580D01*
X9113169Y-45232463D01*
X9104910Y-45241880D01*
X200000Y-45241880D01*
X200000Y-41718440D01*
X8544770Y-41718440D01*
X8559200Y-41938604D01*
X8560316Y-41942997D01*
X8560316Y-41942999D01*
X8612395Y-42148058D01*
X8613511Y-42152452D01*
X8705883Y-42352821D01*
X8833222Y-42533002D01*
X8991264Y-42686961D01*
X9174717Y-42809540D01*
X9377436Y-42896635D01*
X9455165Y-42914223D01*
X9588206Y-42944328D01*
X9588211Y-42944329D01*
X9592632Y-42945329D01*
X9702865Y-42949660D01*
X9808565Y-42953813D01*
X9808566Y-42953813D01*
X9813098Y-42953991D01*
X10031452Y-42922331D01*
X10035751Y-42920872D01*
X10035754Y-42920871D01*
X10236078Y-42852870D01*
X10240379Y-42851410D01*
X10311944Y-42811332D01*
X10428925Y-42745819D01*
X10432884Y-42743602D01*
X10602518Y-42602518D01*
X10743602Y-42432884D01*
X10851410Y-42240379D01*
X10876089Y-42167677D01*
X10912696Y-42118653D01*
X10969834Y-42100500D01*
X15026187Y-42100500D01*
X15084378Y-42119407D01*
X15116093Y-42158053D01*
X15203979Y-42348693D01*
X15203984Y-42348701D01*
X15205883Y-42352821D01*
X15333222Y-42533002D01*
X15491264Y-42686961D01*
X15674717Y-42809540D01*
X15877436Y-42896635D01*
X15955165Y-42914223D01*
X16088206Y-42944328D01*
X16088211Y-42944329D01*
X16092632Y-42945329D01*
X16202865Y-42949660D01*
X16308565Y-42953813D01*
X16308566Y-42953813D01*
X16313098Y-42953991D01*
X16531452Y-42922331D01*
X16535751Y-42920872D01*
X16535754Y-42920871D01*
X16736078Y-42852870D01*
X16740379Y-42851410D01*
X16811944Y-42811332D01*
X16928925Y-42745819D01*
X16932884Y-42743602D01*
X17102518Y-42602518D01*
X17243602Y-42432884D01*
X17351410Y-42240379D01*
X17382749Y-42148058D01*
X17420871Y-42035754D01*
X17420872Y-42035751D01*
X17422331Y-42031452D01*
X17435156Y-41942999D01*
X17453571Y-41815997D01*
X17453571Y-41815991D01*
X17453991Y-41813098D01*
X17455643Y-41750000D01*
X17435454Y-41530289D01*
X17375565Y-41317936D01*
X17373557Y-41313864D01*
X17373555Y-41313859D01*
X17279988Y-41124125D01*
X17277980Y-41120053D01*
X17145967Y-40943267D01*
X16983949Y-40793499D01*
X16797350Y-40675764D01*
X16592421Y-40594006D01*
X16376024Y-40550962D01*
X16267347Y-40549539D01*
X16159946Y-40548133D01*
X16159941Y-40548133D01*
X16155406Y-40548074D01*
X16150933Y-40548843D01*
X16150928Y-40548843D01*
X15942435Y-40584668D01*
X15942429Y-40584670D01*
X15937957Y-40585438D01*
X15910176Y-40595687D01*
X15735220Y-40660231D01*
X15735217Y-40660232D01*
X15730957Y-40661804D01*
X15727054Y-40664126D01*
X15727052Y-40664127D01*
X15707492Y-40675764D01*
X15541341Y-40774614D01*
X15537926Y-40777609D01*
X15537923Y-40777611D01*
X15430036Y-40872225D01*
X15375457Y-40920090D01*
X15238863Y-41093360D01*
X15136131Y-41288620D01*
X15125672Y-41322306D01*
X15123327Y-41329857D01*
X15088015Y-41379824D01*
X15028780Y-41399500D01*
X10973509Y-41399500D01*
X10915318Y-41380593D01*
X10878226Y-41327371D01*
X10875565Y-41317936D01*
X10873557Y-41313864D01*
X10873555Y-41313859D01*
X10779988Y-41124125D01*
X10777980Y-41120053D01*
X10645967Y-40943267D01*
X10483949Y-40793499D01*
X10297350Y-40675764D01*
X10092421Y-40594006D01*
X9876024Y-40550962D01*
X9767347Y-40549539D01*
X9659946Y-40548133D01*
X9659941Y-40548133D01*
X9655406Y-40548074D01*
X9650933Y-40548843D01*
X9650928Y-40548843D01*
X9442435Y-40584668D01*
X9442429Y-40584670D01*
X9437957Y-40585438D01*
X9410176Y-40595687D01*
X9235220Y-40660231D01*
X9235217Y-40660232D01*
X9230957Y-40661804D01*
X9227054Y-40664126D01*
X9227052Y-40664127D01*
X9207492Y-40675764D01*
X9041341Y-40774614D01*
X9037926Y-40777609D01*
X9037923Y-40777611D01*
X8930036Y-40872225D01*
X8875457Y-40920090D01*
X8738863Y-41093360D01*
X8636131Y-41288620D01*
X8570703Y-41499333D01*
X8570169Y-41503843D01*
X8570169Y-41503844D01*
X8567039Y-41530289D01*
X8544770Y-41718440D01*
X200000Y-41718440D01*
X200000Y-39485963D01*
X23494757Y-39485963D01*
X23511175Y-39681483D01*
X23512508Y-39686131D01*
X23512508Y-39686132D01*
X23524320Y-39727323D01*
X23565258Y-39870091D01*
X23567473Y-39874401D01*
X23652731Y-40040296D01*
X23652734Y-40040300D01*
X23654944Y-40044601D01*
X23776818Y-40198369D01*
X23780505Y-40201507D01*
X23780507Y-40201509D01*
X23922550Y-40322397D01*
X23922555Y-40322400D01*
X23926238Y-40325535D01*
X23930460Y-40327895D01*
X23930465Y-40327898D01*
X23971838Y-40351020D01*
X24097513Y-40421257D01*
X24198549Y-40454086D01*
X24279513Y-40480393D01*
X24279516Y-40480394D01*
X24284118Y-40481889D01*
X24478946Y-40505121D01*
X24483768Y-40504750D01*
X24483771Y-40504750D01*
X24669748Y-40490440D01*
X24669753Y-40490439D01*
X24674576Y-40490068D01*
X24863556Y-40437303D01*
X24867869Y-40435124D01*
X24867875Y-40435122D01*
X25034368Y-40351020D01*
X25034370Y-40351018D01*
X25038689Y-40348837D01*
X25065490Y-40327898D01*
X25189487Y-40231022D01*
X25189491Y-40231018D01*
X25193303Y-40228040D01*
X25218915Y-40198369D01*
X25318345Y-40083177D01*
X25318347Y-40083175D01*
X25321509Y-40079511D01*
X25323902Y-40075299D01*
X25416036Y-39913115D01*
X25416037Y-39913112D01*
X25418425Y-39908909D01*
X25429905Y-39874401D01*
X25478831Y-39727323D01*
X25478831Y-39727321D01*
X25480358Y-39722732D01*
X25504949Y-39528071D01*
X25505341Y-39500000D01*
X25504438Y-39490783D01*
X25486666Y-39309546D01*
X25486194Y-39304728D01*
X25429484Y-39116894D01*
X25337370Y-38943653D01*
X25213361Y-38791602D01*
X25062180Y-38666535D01*
X24889585Y-38573213D01*
X24702152Y-38515193D01*
X24697342Y-38514687D01*
X24697340Y-38514687D01*
X24511835Y-38495189D01*
X24511833Y-38495189D01*
X24507019Y-38494683D01*
X24442891Y-38500519D01*
X24316438Y-38512027D01*
X24316435Y-38512028D01*
X24311618Y-38512466D01*
X24306976Y-38513832D01*
X24306972Y-38513833D01*
X24128040Y-38566496D01*
X24128037Y-38566497D01*
X24123393Y-38567864D01*
X23949512Y-38658767D01*
X23945743Y-38661797D01*
X23945742Y-38661798D01*
X23936016Y-38669618D01*
X23796600Y-38781711D01*
X23770186Y-38813190D01*
X23673589Y-38928310D01*
X23673586Y-38928314D01*
X23670480Y-38932016D01*
X23575956Y-39103954D01*
X23574492Y-39108568D01*
X23574491Y-39108571D01*
X23521318Y-39276193D01*
X23516628Y-39290978D01*
X23494757Y-39485963D01*
X200000Y-39485963D01*
X200000Y-36689840D01*
X28400000Y-36689840D01*
X28400948Y-36699462D01*
X28409702Y-36743474D01*
X28417021Y-36761142D01*
X28450389Y-36811082D01*
X28463918Y-36824611D01*
X28513858Y-36857979D01*
X28531526Y-36865298D01*
X28575538Y-36874052D01*
X28585160Y-36875000D01*
X29230320Y-36875000D01*
X29243005Y-36870878D01*
X29246000Y-36866757D01*
X29246000Y-36859320D01*
X29754000Y-36859320D01*
X29758122Y-36872005D01*
X29762243Y-36875000D01*
X30414840Y-36875000D01*
X30424462Y-36874052D01*
X30468474Y-36865298D01*
X30486142Y-36857979D01*
X30536082Y-36824611D01*
X30549611Y-36811082D01*
X30582979Y-36761142D01*
X30590298Y-36743474D01*
X30599052Y-36699462D01*
X30600000Y-36689840D01*
X30600000Y-36044680D01*
X30595878Y-36031995D01*
X30591757Y-36029000D01*
X29769680Y-36029000D01*
X29756995Y-36033122D01*
X29754000Y-36037243D01*
X29754000Y-36859320D01*
X29246000Y-36859320D01*
X29246000Y-36044680D01*
X29241878Y-36031995D01*
X29237757Y-36029000D01*
X28415680Y-36029000D01*
X28402995Y-36033122D01*
X28400000Y-36037243D01*
X28400000Y-36689840D01*
X200000Y-36689840D01*
X200000Y-35505320D01*
X28400000Y-35505320D01*
X28404122Y-35518005D01*
X28408243Y-35521000D01*
X29230320Y-35521000D01*
X29243005Y-35516878D01*
X29246000Y-35512757D01*
X29246000Y-35505320D01*
X29754000Y-35505320D01*
X29758122Y-35518005D01*
X29762243Y-35521000D01*
X30584320Y-35521000D01*
X30597005Y-35516878D01*
X30600000Y-35512757D01*
X30600000Y-34860160D01*
X30599052Y-34850538D01*
X30590298Y-34806526D01*
X30582979Y-34788858D01*
X30549611Y-34738918D01*
X30536082Y-34725389D01*
X30486142Y-34692021D01*
X30468474Y-34684702D01*
X30424462Y-34675948D01*
X30414840Y-34675000D01*
X29769680Y-34675000D01*
X29756995Y-34679122D01*
X29754000Y-34683243D01*
X29754000Y-35505320D01*
X29246000Y-35505320D01*
X29246000Y-34690680D01*
X29241878Y-34677995D01*
X29237757Y-34675000D01*
X28585160Y-34675000D01*
X28575538Y-34675948D01*
X28531526Y-34684702D01*
X28513858Y-34692021D01*
X28463918Y-34725389D01*
X28450389Y-34738918D01*
X28417021Y-34788858D01*
X28409702Y-34806526D01*
X28400948Y-34850538D01*
X28400000Y-34860160D01*
X28400000Y-35505320D01*
X200000Y-35505320D01*
X200000Y-33206069D01*
X28395164Y-33206069D01*
X28408392Y-33407894D01*
X28458178Y-33603928D01*
X28542856Y-33787607D01*
X28659588Y-33952780D01*
X28804466Y-34093913D01*
X28972637Y-34206282D01*
X29158470Y-34286122D01*
X29355740Y-34330760D01*
X29557842Y-34338700D01*
X29611377Y-34330938D01*
X29753519Y-34310329D01*
X29753522Y-34310328D01*
X29758007Y-34309678D01*
X29853769Y-34277171D01*
X29945234Y-34246123D01*
X29945237Y-34246121D01*
X29949531Y-34244664D01*
X30126001Y-34145837D01*
X30281505Y-34016505D01*
X30410837Y-33861001D01*
X30509664Y-33684531D01*
X30574678Y-33493007D01*
X30603700Y-33292842D01*
X30605215Y-33235000D01*
X30586708Y-33033591D01*
X30531807Y-32838926D01*
X30442351Y-32657527D01*
X30321335Y-32495467D01*
X30172812Y-32358174D01*
X30150125Y-32343859D01*
X30005594Y-32252667D01*
X30001757Y-32250246D01*
X29813898Y-32175298D01*
X29615526Y-32135839D01*
X29515930Y-32134535D01*
X29417826Y-32133251D01*
X29417821Y-32133251D01*
X29413286Y-32133192D01*
X29408813Y-32133961D01*
X29408808Y-32133961D01*
X29310245Y-32150898D01*
X29213949Y-32167444D01*
X29024193Y-32237449D01*
X28850371Y-32340862D01*
X28846956Y-32343857D01*
X28846953Y-32343859D01*
X28830630Y-32358174D01*
X28698305Y-32474220D01*
X28573089Y-32633057D01*
X28478914Y-32812053D01*
X28418937Y-33005213D01*
X28395164Y-33206069D01*
X200000Y-33206069D01*
X200000Y-29067303D01*
X7823418Y-29067303D01*
X7823655Y-29079631D01*
X7884841Y-29245929D01*
X7889212Y-29254892D01*
X7990981Y-29419028D01*
X7997071Y-29426936D01*
X8129765Y-29567256D01*
X8137319Y-29573776D01*
X8295518Y-29684549D01*
X8304224Y-29689415D01*
X8481467Y-29766114D01*
X8490982Y-29769132D01*
X8681207Y-29808873D01*
X8688735Y-29809850D01*
X8690284Y-29809931D01*
X8692895Y-29810000D01*
X8920320Y-29810000D01*
X8933005Y-29805878D01*
X8936000Y-29801757D01*
X8936000Y-29794320D01*
X9444000Y-29794320D01*
X9448122Y-29807005D01*
X9452243Y-29810000D01*
X9638266Y-29810000D01*
X9643263Y-29809747D01*
X9787128Y-29795134D01*
X9796897Y-29793129D01*
X9981189Y-29735374D01*
X9990356Y-29731445D01*
X10159278Y-29637811D01*
X10167459Y-29632125D01*
X10314096Y-29506442D01*
X10320983Y-29499209D01*
X10439347Y-29346615D01*
X10444635Y-29338153D01*
X10529903Y-29164868D01*
X10533380Y-29155518D01*
X10553265Y-29079176D01*
X10552528Y-29066775D01*
X10543039Y-29064000D01*
X9459680Y-29064000D01*
X9446995Y-29068122D01*
X9444000Y-29072243D01*
X9444000Y-29794320D01*
X8936000Y-29794320D01*
X8936000Y-29079680D01*
X8931878Y-29066995D01*
X8927757Y-29064000D01*
X7833584Y-29064000D01*
X7823418Y-29067303D01*
X200000Y-29067303D01*
X200000Y-28859126D01*
X15405541Y-28859126D01*
X15435935Y-29060097D01*
X15506119Y-29250852D01*
X15613226Y-29423599D01*
X15752881Y-29571280D01*
X15756986Y-29574154D01*
X15756989Y-29574157D01*
X15895916Y-29671434D01*
X15919379Y-29687863D01*
X15923975Y-29689852D01*
X15923977Y-29689853D01*
X16030240Y-29735837D01*
X16105919Y-29768586D01*
X16304880Y-29810151D01*
X16309432Y-29810390D01*
X16310234Y-29810432D01*
X16310249Y-29810432D01*
X16311539Y-29810500D01*
X17260800Y-29810500D01*
X17263288Y-29810247D01*
X17263294Y-29810247D01*
X17323816Y-29804099D01*
X17412216Y-29795120D01*
X17503233Y-29766597D01*
X17601389Y-29735837D01*
X17601390Y-29735837D01*
X17606172Y-29734338D01*
X17783944Y-29635797D01*
X17938271Y-29503523D01*
X18062848Y-29342919D01*
X18065057Y-29338430D01*
X18065060Y-29338425D01*
X18125403Y-29215791D01*
X18168060Y-29171926D01*
X18214232Y-29160500D01*
X19886309Y-29160500D01*
X19944500Y-29179407D01*
X19976215Y-29218053D01*
X20040952Y-29358479D01*
X20040957Y-29358487D01*
X20042856Y-29362607D01*
X20159588Y-29527780D01*
X20304466Y-29668913D01*
X20472637Y-29781282D01*
X20658470Y-29861122D01*
X20855740Y-29905760D01*
X21057842Y-29913700D01*
X21111377Y-29905938D01*
X21253519Y-29885329D01*
X21253522Y-29885328D01*
X21258007Y-29884678D01*
X21353769Y-29852171D01*
X21445234Y-29821123D01*
X21445237Y-29821121D01*
X21449531Y-29819664D01*
X21626001Y-29720837D01*
X21781505Y-29591505D01*
X21910837Y-29436001D01*
X21917783Y-29423599D01*
X21932412Y-29397476D01*
X21972461Y-29325963D01*
X23494757Y-29325963D01*
X23498293Y-29368071D01*
X23509334Y-29499556D01*
X23511175Y-29521483D01*
X23512508Y-29526131D01*
X23512508Y-29526132D01*
X23559455Y-29689853D01*
X23565258Y-29710091D01*
X23567473Y-29714401D01*
X23652731Y-29880296D01*
X23652734Y-29880300D01*
X23654944Y-29884601D01*
X23776818Y-30038369D01*
X23780505Y-30041507D01*
X23780507Y-30041509D01*
X23922550Y-30162397D01*
X23922555Y-30162400D01*
X23926238Y-30165535D01*
X23930460Y-30167895D01*
X23930465Y-30167898D01*
X23971838Y-30191020D01*
X24097513Y-30261257D01*
X24198549Y-30294086D01*
X24279513Y-30320393D01*
X24279516Y-30320394D01*
X24284118Y-30321889D01*
X24478946Y-30345121D01*
X24483768Y-30344750D01*
X24483771Y-30344750D01*
X24669748Y-30330440D01*
X24669753Y-30330439D01*
X24674576Y-30330068D01*
X24863556Y-30277303D01*
X24867869Y-30275124D01*
X24867875Y-30275122D01*
X25034368Y-30191020D01*
X25034370Y-30191018D01*
X25038689Y-30188837D01*
X25065490Y-30167898D01*
X25189487Y-30071022D01*
X25189491Y-30071018D01*
X25193303Y-30068040D01*
X25218915Y-30038369D01*
X25318345Y-29923177D01*
X25318347Y-29923175D01*
X25321509Y-29919511D01*
X25324911Y-29913522D01*
X25416036Y-29753115D01*
X25416037Y-29753112D01*
X25418425Y-29748909D01*
X25422774Y-29735837D01*
X25478831Y-29567323D01*
X25478831Y-29567321D01*
X25480358Y-29562732D01*
X25484774Y-29527780D01*
X25497934Y-29423599D01*
X25504949Y-29368071D01*
X25505341Y-29340000D01*
X25504438Y-29330783D01*
X25488861Y-29171926D01*
X25486194Y-29144728D01*
X25429484Y-28956894D01*
X25337370Y-28783653D01*
X25237470Y-28661162D01*
X25216422Y-28635355D01*
X25216421Y-28635354D01*
X25213361Y-28631602D01*
X25062180Y-28506535D01*
X24889585Y-28413213D01*
X24702152Y-28355193D01*
X24697342Y-28354687D01*
X24697340Y-28354687D01*
X24511835Y-28335189D01*
X24511833Y-28335189D01*
X24507019Y-28334683D01*
X24442891Y-28340519D01*
X24316438Y-28352027D01*
X24316435Y-28352028D01*
X24311618Y-28352466D01*
X24306976Y-28353832D01*
X24306972Y-28353833D01*
X24128040Y-28406496D01*
X24128037Y-28406497D01*
X24123393Y-28407864D01*
X23949512Y-28498767D01*
X23945743Y-28501797D01*
X23945742Y-28501798D01*
X23936016Y-28509618D01*
X23796600Y-28621711D01*
X23771780Y-28651290D01*
X23673589Y-28768310D01*
X23673586Y-28768314D01*
X23670480Y-28772016D01*
X23575956Y-28943954D01*
X23574492Y-28948568D01*
X23574491Y-28948571D01*
X23536925Y-29066995D01*
X23516628Y-29130978D01*
X23516088Y-29135790D01*
X23516088Y-29135791D01*
X23502209Y-29259531D01*
X23494757Y-29325963D01*
X21972461Y-29325963D01*
X22009664Y-29259531D01*
X22014282Y-29245929D01*
X22054869Y-29126363D01*
X22074678Y-29068007D01*
X22076545Y-29055135D01*
X22103283Y-28870717D01*
X22103700Y-28867842D01*
X22105215Y-28810000D01*
X22102450Y-28779902D01*
X22091078Y-28656148D01*
X22086708Y-28608591D01*
X22031807Y-28413926D01*
X21942351Y-28232527D01*
X21821335Y-28070467D01*
X21672812Y-27933174D01*
X21650125Y-27918859D01*
X21505594Y-27827667D01*
X21501757Y-27825246D01*
X21313898Y-27750298D01*
X21115526Y-27710839D01*
X21015930Y-27709535D01*
X20917826Y-27708251D01*
X20917821Y-27708251D01*
X20913286Y-27708192D01*
X20908813Y-27708961D01*
X20908808Y-27708961D01*
X20810245Y-27725898D01*
X20713949Y-27742444D01*
X20524193Y-27812449D01*
X20350371Y-27915862D01*
X20346956Y-27918857D01*
X20346953Y-27918859D01*
X20328034Y-27935451D01*
X20198305Y-28049220D01*
X20195497Y-28052782D01*
X20078919Y-28200662D01*
X20073089Y-28208057D01*
X19978914Y-28387053D01*
X19977568Y-28391387D01*
X19975832Y-28395579D01*
X19974417Y-28394993D01*
X19942721Y-28439831D01*
X19883496Y-28459500D01*
X18216187Y-28459500D01*
X18157996Y-28440593D01*
X18123276Y-28394683D01*
X18115612Y-28373853D01*
X18113881Y-28369148D01*
X18006774Y-28196401D01*
X17867119Y-28048720D01*
X17863014Y-28045846D01*
X17863011Y-28045843D01*
X17704727Y-27935012D01*
X17700621Y-27932137D01*
X17696025Y-27930148D01*
X17696023Y-27930147D01*
X17518677Y-27853403D01*
X17518678Y-27853403D01*
X17514081Y-27851414D01*
X17315120Y-27809849D01*
X17310568Y-27809610D01*
X17309766Y-27809568D01*
X17309751Y-27809568D01*
X17308461Y-27809500D01*
X16359200Y-27809500D01*
X16356712Y-27809753D01*
X16356706Y-27809753D01*
X16296184Y-27815901D01*
X16207784Y-27824880D01*
X16203004Y-27826378D01*
X16115226Y-27853886D01*
X16013828Y-27885662D01*
X15836056Y-27984203D01*
X15681729Y-28116477D01*
X15557152Y-28277081D01*
X15467413Y-28459455D01*
X15446349Y-28540320D01*
X15422572Y-28631602D01*
X15416178Y-28656148D01*
X15405541Y-28859126D01*
X200000Y-28859126D01*
X200000Y-28540824D01*
X7826735Y-28540824D01*
X7827472Y-28553225D01*
X7836961Y-28556000D01*
X8920320Y-28556000D01*
X8933005Y-28551878D01*
X8936000Y-28547757D01*
X8936000Y-28540320D01*
X9444000Y-28540320D01*
X9448122Y-28553005D01*
X9452243Y-28556000D01*
X10546416Y-28556000D01*
X10556582Y-28552697D01*
X10556345Y-28540369D01*
X10495159Y-28374071D01*
X10490788Y-28365108D01*
X10389019Y-28200972D01*
X10382929Y-28193064D01*
X10250235Y-28052744D01*
X10242681Y-28046224D01*
X10084482Y-27935451D01*
X10075776Y-27930585D01*
X9898533Y-27853886D01*
X9889018Y-27850868D01*
X9698793Y-27811127D01*
X9691265Y-27810150D01*
X9689716Y-27810069D01*
X9687105Y-27810000D01*
X9459680Y-27810000D01*
X9446995Y-27814122D01*
X9444000Y-27818243D01*
X9444000Y-28540320D01*
X8936000Y-28540320D01*
X8936000Y-27825680D01*
X8931878Y-27812995D01*
X8927757Y-27810000D01*
X8741734Y-27810000D01*
X8736737Y-27810253D01*
X8592872Y-27824866D01*
X8583103Y-27826871D01*
X8398811Y-27884626D01*
X8389644Y-27888555D01*
X8220722Y-27982189D01*
X8212541Y-27987875D01*
X8065904Y-28113558D01*
X8059017Y-28120791D01*
X7940653Y-28273385D01*
X7935365Y-28281847D01*
X7850097Y-28455132D01*
X7846620Y-28464482D01*
X7826735Y-28540824D01*
X200000Y-28540824D01*
X200000Y-26319126D01*
X7785541Y-26319126D01*
X7815935Y-26520097D01*
X7886119Y-26710852D01*
X7993226Y-26883599D01*
X8132881Y-27031280D01*
X8136986Y-27034154D01*
X8136989Y-27034157D01*
X8275916Y-27131434D01*
X8299379Y-27147863D01*
X8303975Y-27149852D01*
X8303977Y-27149853D01*
X8368869Y-27177934D01*
X8485919Y-27228586D01*
X8684880Y-27270151D01*
X8689432Y-27270390D01*
X8690234Y-27270432D01*
X8690249Y-27270432D01*
X8691539Y-27270500D01*
X9640800Y-27270500D01*
X9643288Y-27270247D01*
X9643294Y-27270247D01*
X9703816Y-27264099D01*
X9792216Y-27255120D01*
X9986172Y-27194338D01*
X10163944Y-27095797D01*
X10318271Y-26963523D01*
X10442848Y-26802919D01*
X10532587Y-26620545D01*
X10583822Y-26423852D01*
X10589310Y-26319126D01*
X15405541Y-26319126D01*
X15435935Y-26520097D01*
X15506119Y-26710852D01*
X15613226Y-26883599D01*
X15752881Y-27031280D01*
X15756986Y-27034154D01*
X15756989Y-27034157D01*
X15895916Y-27131434D01*
X15919379Y-27147863D01*
X15923975Y-27149852D01*
X15923977Y-27149853D01*
X15988869Y-27177934D01*
X16105919Y-27228586D01*
X16304880Y-27270151D01*
X16309432Y-27270390D01*
X16310234Y-27270432D01*
X16310249Y-27270432D01*
X16311539Y-27270500D01*
X17260800Y-27270500D01*
X17263288Y-27270247D01*
X17263294Y-27270247D01*
X17323816Y-27264099D01*
X17412216Y-27255120D01*
X17606172Y-27194338D01*
X17783944Y-27095797D01*
X17938271Y-26963523D01*
X18062848Y-26802919D01*
X18065057Y-26798430D01*
X18065060Y-26798425D01*
X18125403Y-26675791D01*
X18168060Y-26631926D01*
X18214232Y-26620500D01*
X19886309Y-26620500D01*
X19944500Y-26639407D01*
X19976215Y-26678053D01*
X20040952Y-26818479D01*
X20040957Y-26818487D01*
X20042856Y-26822607D01*
X20159588Y-26987780D01*
X20304466Y-27128913D01*
X20472637Y-27241282D01*
X20658470Y-27321122D01*
X20855740Y-27365760D01*
X21057842Y-27373700D01*
X21111377Y-27365938D01*
X21253519Y-27345329D01*
X21253522Y-27345328D01*
X21258007Y-27344678D01*
X21353769Y-27312171D01*
X21445234Y-27281123D01*
X21445237Y-27281121D01*
X21449531Y-27279664D01*
X21626001Y-27180837D01*
X21781505Y-27051505D01*
X21910837Y-26896001D01*
X21917783Y-26883599D01*
X21932412Y-26857476D01*
X22009664Y-26719531D01*
X22074678Y-26528007D01*
X22076545Y-26515135D01*
X22103283Y-26330717D01*
X22103700Y-26327842D01*
X22105215Y-26270000D01*
X22101162Y-26225885D01*
X22091078Y-26116148D01*
X22086708Y-26068591D01*
X22031807Y-25873926D01*
X21942351Y-25692527D01*
X21821335Y-25530467D01*
X21672812Y-25393174D01*
X21650125Y-25378859D01*
X21505594Y-25287667D01*
X21501757Y-25285246D01*
X21313898Y-25210298D01*
X21115526Y-25170839D01*
X21015930Y-25169535D01*
X20917826Y-25168251D01*
X20917821Y-25168251D01*
X20913286Y-25168192D01*
X20908813Y-25168961D01*
X20908808Y-25168961D01*
X20810245Y-25185898D01*
X20713949Y-25202444D01*
X20524193Y-25272449D01*
X20350371Y-25375862D01*
X20346956Y-25378857D01*
X20346953Y-25378859D01*
X20327119Y-25396253D01*
X20198305Y-25509220D01*
X20195497Y-25512782D01*
X20078919Y-25660662D01*
X20073089Y-25668057D01*
X19978914Y-25847053D01*
X19977568Y-25851387D01*
X19975832Y-25855579D01*
X19974417Y-25854993D01*
X19942721Y-25899831D01*
X19883496Y-25919500D01*
X18216187Y-25919500D01*
X18157996Y-25900593D01*
X18123276Y-25854683D01*
X18115612Y-25833853D01*
X18115611Y-25833851D01*
X18113881Y-25829148D01*
X18006774Y-25656401D01*
X17867119Y-25508720D01*
X17863014Y-25505846D01*
X17863011Y-25505843D01*
X17704727Y-25395012D01*
X17700621Y-25392137D01*
X17696025Y-25390148D01*
X17696023Y-25390147D01*
X17518677Y-25313403D01*
X17518678Y-25313403D01*
X17514081Y-25311414D01*
X17315120Y-25269849D01*
X17310568Y-25269610D01*
X17309766Y-25269568D01*
X17309751Y-25269568D01*
X17308461Y-25269500D01*
X16359200Y-25269500D01*
X16356712Y-25269753D01*
X16356706Y-25269753D01*
X16296184Y-25275901D01*
X16207784Y-25284880D01*
X16013828Y-25345662D01*
X15836056Y-25444203D01*
X15681729Y-25576477D01*
X15557152Y-25737081D01*
X15467413Y-25919455D01*
X15466149Y-25924309D01*
X15429704Y-26064223D01*
X15416178Y-26116148D01*
X15405541Y-26319126D01*
X10589310Y-26319126D01*
X10594459Y-26220874D01*
X10564065Y-26019903D01*
X10493881Y-25829148D01*
X10386774Y-25656401D01*
X10247119Y-25508720D01*
X10243014Y-25505846D01*
X10243011Y-25505843D01*
X10084727Y-25395012D01*
X10080621Y-25392137D01*
X10076025Y-25390148D01*
X10076023Y-25390147D01*
X9898677Y-25313403D01*
X9898678Y-25313403D01*
X9894081Y-25311414D01*
X9695120Y-25269849D01*
X9690568Y-25269610D01*
X9689766Y-25269568D01*
X9689751Y-25269568D01*
X9688461Y-25269500D01*
X8739200Y-25269500D01*
X8736712Y-25269753D01*
X8736706Y-25269753D01*
X8676184Y-25275901D01*
X8587784Y-25284880D01*
X8393828Y-25345662D01*
X8216056Y-25444203D01*
X8061729Y-25576477D01*
X7937152Y-25737081D01*
X7847413Y-25919455D01*
X7846149Y-25924309D01*
X7809704Y-26064223D01*
X7796178Y-26116148D01*
X7785541Y-26319126D01*
X200000Y-26319126D01*
X200000Y-23779126D01*
X7785541Y-23779126D01*
X7815935Y-23980097D01*
X7886119Y-24170852D01*
X7993226Y-24343599D01*
X8132881Y-24491280D01*
X8136986Y-24494154D01*
X8136989Y-24494157D01*
X8275916Y-24591434D01*
X8299379Y-24607863D01*
X8303975Y-24609852D01*
X8303977Y-24609853D01*
X8368869Y-24637934D01*
X8485919Y-24688586D01*
X8684880Y-24730151D01*
X8689432Y-24730390D01*
X8690234Y-24730432D01*
X8690249Y-24730432D01*
X8691539Y-24730500D01*
X9640800Y-24730500D01*
X9643288Y-24730247D01*
X9643294Y-24730247D01*
X9703816Y-24724099D01*
X9792216Y-24715120D01*
X9986172Y-24654338D01*
X10163944Y-24555797D01*
X10318271Y-24423523D01*
X10442848Y-24262919D01*
X10532587Y-24080545D01*
X10583822Y-23883852D01*
X10589310Y-23779126D01*
X15405541Y-23779126D01*
X15435935Y-23980097D01*
X15506119Y-24170852D01*
X15613226Y-24343599D01*
X15752881Y-24491280D01*
X15756986Y-24494154D01*
X15756989Y-24494157D01*
X15895916Y-24591434D01*
X15919379Y-24607863D01*
X15923975Y-24609852D01*
X15923977Y-24609853D01*
X15988869Y-24637934D01*
X16105919Y-24688586D01*
X16304880Y-24730151D01*
X16309432Y-24730390D01*
X16310234Y-24730432D01*
X16310249Y-24730432D01*
X16311539Y-24730500D01*
X17260800Y-24730500D01*
X17263288Y-24730247D01*
X17263294Y-24730247D01*
X17323816Y-24724099D01*
X17412216Y-24715120D01*
X17606172Y-24654338D01*
X17783944Y-24555797D01*
X17938271Y-24423523D01*
X18062848Y-24262919D01*
X18065057Y-24258430D01*
X18065060Y-24258425D01*
X18125403Y-24135791D01*
X18168060Y-24091926D01*
X18214232Y-24080500D01*
X19886309Y-24080500D01*
X19944500Y-24099407D01*
X19976215Y-24138053D01*
X20040952Y-24278479D01*
X20040957Y-24278487D01*
X20042856Y-24282607D01*
X20159588Y-24447780D01*
X20304466Y-24588913D01*
X20472637Y-24701282D01*
X20658470Y-24781122D01*
X20855740Y-24825760D01*
X21057842Y-24833700D01*
X21111377Y-24825938D01*
X21253519Y-24805329D01*
X21253522Y-24805328D01*
X21258007Y-24804678D01*
X21353769Y-24772171D01*
X21445234Y-24741123D01*
X21445237Y-24741121D01*
X21449531Y-24739664D01*
X21626001Y-24640837D01*
X21781505Y-24511505D01*
X21910837Y-24356001D01*
X21917783Y-24343599D01*
X21932412Y-24317476D01*
X22009664Y-24179531D01*
X22074678Y-23988007D01*
X22076545Y-23975135D01*
X22103283Y-23790717D01*
X22103700Y-23787842D01*
X22105215Y-23730000D01*
X22101162Y-23685885D01*
X22091078Y-23576148D01*
X22086708Y-23528591D01*
X22031807Y-23333926D01*
X21942351Y-23152527D01*
X21821335Y-22990467D01*
X21672812Y-22853174D01*
X21650125Y-22838859D01*
X21505594Y-22747667D01*
X21501757Y-22745246D01*
X21313898Y-22670298D01*
X21115526Y-22630839D01*
X21015930Y-22629535D01*
X20917826Y-22628251D01*
X20917821Y-22628251D01*
X20913286Y-22628192D01*
X20908813Y-22628961D01*
X20908808Y-22628961D01*
X20810245Y-22645898D01*
X20713949Y-22662444D01*
X20524193Y-22732449D01*
X20350371Y-22835862D01*
X20346956Y-22838857D01*
X20346953Y-22838859D01*
X20327119Y-22856253D01*
X20198305Y-22969220D01*
X20195497Y-22972782D01*
X20078919Y-23120662D01*
X20073089Y-23128057D01*
X19978914Y-23307053D01*
X19977568Y-23311387D01*
X19975832Y-23315579D01*
X19974417Y-23314993D01*
X19942721Y-23359831D01*
X19883496Y-23379500D01*
X18216187Y-23379500D01*
X18157996Y-23360593D01*
X18123276Y-23314683D01*
X18115612Y-23293853D01*
X18115611Y-23293851D01*
X18113881Y-23289148D01*
X18006774Y-23116401D01*
X17867119Y-22968720D01*
X17863014Y-22965846D01*
X17863011Y-22965843D01*
X17704727Y-22855012D01*
X17700621Y-22852137D01*
X17696025Y-22850148D01*
X17696023Y-22850147D01*
X17518677Y-22773403D01*
X17518678Y-22773403D01*
X17514081Y-22771414D01*
X17315120Y-22729849D01*
X17310568Y-22729610D01*
X17309766Y-22729568D01*
X17309751Y-22729568D01*
X17308461Y-22729500D01*
X16359200Y-22729500D01*
X16356712Y-22729753D01*
X16356706Y-22729753D01*
X16296184Y-22735901D01*
X16207784Y-22744880D01*
X16013828Y-22805662D01*
X15836056Y-22904203D01*
X15681729Y-23036477D01*
X15557152Y-23197081D01*
X15467413Y-23379455D01*
X15466149Y-23384309D01*
X15429704Y-23524223D01*
X15416178Y-23576148D01*
X15405541Y-23779126D01*
X10589310Y-23779126D01*
X10594459Y-23680874D01*
X10564065Y-23479903D01*
X10493881Y-23289148D01*
X10386774Y-23116401D01*
X10247119Y-22968720D01*
X10243014Y-22965846D01*
X10243011Y-22965843D01*
X10084727Y-22855012D01*
X10080621Y-22852137D01*
X10076025Y-22850148D01*
X10076023Y-22850147D01*
X9898677Y-22773403D01*
X9898678Y-22773403D01*
X9894081Y-22771414D01*
X9695120Y-22729849D01*
X9690568Y-22729610D01*
X9689766Y-22729568D01*
X9689751Y-22729568D01*
X9688461Y-22729500D01*
X8739200Y-22729500D01*
X8736712Y-22729753D01*
X8736706Y-22729753D01*
X8676184Y-22735901D01*
X8587784Y-22744880D01*
X8393828Y-22805662D01*
X8216056Y-22904203D01*
X8061729Y-23036477D01*
X7937152Y-23197081D01*
X7847413Y-23379455D01*
X7846149Y-23384309D01*
X7809704Y-23524223D01*
X7796178Y-23576148D01*
X7785541Y-23779126D01*
X200000Y-23779126D01*
X200000Y-21158440D01*
X3794770Y-21158440D01*
X3800428Y-21244760D01*
X3804771Y-21311022D01*
X3809200Y-21378604D01*
X3810316Y-21382997D01*
X3810316Y-21382999D01*
X3855369Y-21560393D01*
X3863511Y-21592452D01*
X3955883Y-21792821D01*
X4083222Y-21973002D01*
X4241264Y-22126961D01*
X4424717Y-22249540D01*
X4627436Y-22336635D01*
X4705165Y-22354223D01*
X4838206Y-22384328D01*
X4838211Y-22384329D01*
X4842632Y-22385329D01*
X4952865Y-22389660D01*
X5058565Y-22393813D01*
X5058566Y-22393813D01*
X5063098Y-22393991D01*
X5281452Y-22362331D01*
X5285751Y-22360872D01*
X5285754Y-22360871D01*
X5486078Y-22292870D01*
X5490379Y-22291410D01*
X5538113Y-22264678D01*
X5654203Y-22199664D01*
X5682884Y-22183602D01*
X5852518Y-22042518D01*
X5875811Y-22014512D01*
X5914485Y-21968011D01*
X5993602Y-21872884D01*
X6066561Y-21742607D01*
X6099192Y-21684340D01*
X6099193Y-21684338D01*
X6101410Y-21680379D01*
X6126089Y-21607677D01*
X6162696Y-21558653D01*
X6219834Y-21540500D01*
X7690500Y-21540500D01*
X7748691Y-21559407D01*
X7784655Y-21608907D01*
X7789500Y-21639500D01*
X7789500Y-22009748D01*
X7794721Y-22035995D01*
X7796661Y-22045747D01*
X7801133Y-22068231D01*
X7845448Y-22134552D01*
X7911769Y-22178867D01*
X7921332Y-22180769D01*
X7921334Y-22180770D01*
X7935573Y-22183602D01*
X7970252Y-22190500D01*
X10409748Y-22190500D01*
X10444427Y-22183602D01*
X10458666Y-22180770D01*
X10458668Y-22180769D01*
X10468231Y-22178867D01*
X10534552Y-22134552D01*
X10578867Y-22068231D01*
X10583340Y-22045747D01*
X10585279Y-22035995D01*
X10590500Y-22009748D01*
X10590500Y-20370252D01*
X10578867Y-20311769D01*
X10534552Y-20245448D01*
X10468231Y-20201133D01*
X10458668Y-20199231D01*
X10458666Y-20199230D01*
X10435995Y-20194721D01*
X10409748Y-20189500D01*
X7970252Y-20189500D01*
X7944005Y-20194721D01*
X7921334Y-20199230D01*
X7921332Y-20199231D01*
X7911769Y-20201133D01*
X7845448Y-20245448D01*
X7801133Y-20311769D01*
X7789500Y-20370252D01*
X7789500Y-20740500D01*
X7770593Y-20798691D01*
X7721093Y-20834655D01*
X7690500Y-20839500D01*
X6223509Y-20839500D01*
X6165318Y-20820593D01*
X6128226Y-20767371D01*
X6125565Y-20757936D01*
X6123557Y-20753864D01*
X6123555Y-20753859D01*
X6029988Y-20564125D01*
X6027980Y-20560053D01*
X5895967Y-20383267D01*
X5755649Y-20253558D01*
X5737279Y-20236577D01*
X5737278Y-20236576D01*
X5733949Y-20233499D01*
X5675934Y-20196894D01*
X5551187Y-20118185D01*
X5547350Y-20115764D01*
X5342421Y-20034006D01*
X5126024Y-19990962D01*
X5017347Y-19989539D01*
X4909946Y-19988133D01*
X4909941Y-19988133D01*
X4905406Y-19988074D01*
X4900933Y-19988843D01*
X4900928Y-19988843D01*
X4692435Y-20024668D01*
X4692429Y-20024670D01*
X4687957Y-20025438D01*
X4660176Y-20035687D01*
X4485220Y-20100231D01*
X4485217Y-20100232D01*
X4480957Y-20101804D01*
X4477054Y-20104126D01*
X4477052Y-20104127D01*
X4412090Y-20142776D01*
X4291341Y-20214614D01*
X4287926Y-20217609D01*
X4287923Y-20217611D01*
X4201345Y-20293538D01*
X4125457Y-20360090D01*
X4122649Y-20363652D01*
X4014812Y-20500444D01*
X3988863Y-20533360D01*
X3986749Y-20537378D01*
X3945069Y-20616599D01*
X3886131Y-20728620D01*
X3820703Y-20939333D01*
X3820169Y-20943843D01*
X3820169Y-20943844D01*
X3815390Y-20984223D01*
X3794770Y-21158440D01*
X200000Y-21158440D01*
X200000Y-16485963D01*
X10744757Y-16485963D01*
X10746425Y-16505828D01*
X10760763Y-16676574D01*
X10761175Y-16681483D01*
X10762508Y-16686131D01*
X10762508Y-16686132D01*
X10813581Y-16864242D01*
X10815258Y-16870091D01*
X10817473Y-16874401D01*
X10902731Y-17040296D01*
X10902734Y-17040300D01*
X10904944Y-17044601D01*
X11026818Y-17198369D01*
X11030505Y-17201507D01*
X11030507Y-17201509D01*
X11172550Y-17322397D01*
X11172555Y-17322400D01*
X11176238Y-17325535D01*
X11180460Y-17327895D01*
X11180465Y-17327898D01*
X11347513Y-17421257D01*
X11346460Y-17423141D01*
X11385876Y-17458117D01*
X11399500Y-17508237D01*
X11399500Y-18702052D01*
X11397282Y-18722888D01*
X11395049Y-18733261D01*
X11396011Y-18741386D01*
X11398814Y-18765071D01*
X11399161Y-18770963D01*
X11399164Y-18770963D01*
X11399500Y-18775030D01*
X11399500Y-18779115D01*
X11400170Y-18783141D01*
X11400171Y-18783152D01*
X11402496Y-18797119D01*
X11403152Y-18801726D01*
X11408764Y-18849138D01*
X11412118Y-18856122D01*
X11412539Y-18857454D01*
X11413812Y-18865103D01*
X11436505Y-18907160D01*
X11438605Y-18911283D01*
X11456580Y-18948717D01*
X11456582Y-18948721D01*
X11459274Y-18954326D01*
X11462592Y-18958274D01*
X11464100Y-18959782D01*
X11465282Y-18961071D01*
X11466148Y-18962097D01*
X11469222Y-18967794D01*
X11475227Y-18973345D01*
X11475231Y-18973350D01*
X11506018Y-19001809D01*
X11508821Y-19004503D01*
X13908255Y-21403937D01*
X13921420Y-21420240D01*
X13922733Y-21422274D01*
X13922736Y-21422278D01*
X13927175Y-21429152D01*
X13952332Y-21448985D01*
X13956737Y-21452899D01*
X13956738Y-21452898D01*
X13959869Y-21455551D01*
X13962746Y-21458428D01*
X13977601Y-21469044D01*
X13981312Y-21471830D01*
X14018811Y-21501392D01*
X14026118Y-21503958D01*
X14027363Y-21504605D01*
X14033669Y-21509111D01*
X14065412Y-21518604D01*
X14079415Y-21522792D01*
X14083851Y-21524233D01*
X14123033Y-21537993D01*
X14123036Y-21537994D01*
X14128906Y-21540055D01*
X14134044Y-21540500D01*
X14136182Y-21540500D01*
X14137901Y-21540574D01*
X14139262Y-21540689D01*
X14145464Y-21542544D01*
X14153635Y-21542223D01*
X14195554Y-21540576D01*
X14199441Y-21540500D01*
X15403813Y-21540500D01*
X15462004Y-21559407D01*
X15496724Y-21605317D01*
X15506119Y-21630852D01*
X15613226Y-21803599D01*
X15752881Y-21951280D01*
X15756986Y-21954154D01*
X15756989Y-21954157D01*
X15895916Y-22051434D01*
X15919379Y-22067863D01*
X15923975Y-22069852D01*
X15923977Y-22069853D01*
X15938968Y-22076340D01*
X16105919Y-22148586D01*
X16304880Y-22190151D01*
X16309432Y-22190390D01*
X16310234Y-22190432D01*
X16310249Y-22190432D01*
X16311539Y-22190500D01*
X17260800Y-22190500D01*
X17263288Y-22190247D01*
X17263294Y-22190247D01*
X17328711Y-22183602D01*
X17412216Y-22175120D01*
X17541669Y-22134552D01*
X17601389Y-22115837D01*
X17601390Y-22115837D01*
X17606172Y-22114338D01*
X17783944Y-22015797D01*
X17938271Y-21883523D01*
X18062848Y-21722919D01*
X18065057Y-21718430D01*
X18065060Y-21718425D01*
X18125403Y-21595791D01*
X18168060Y-21551926D01*
X18214232Y-21540500D01*
X19886309Y-21540500D01*
X19944500Y-21559407D01*
X19976215Y-21598053D01*
X20040952Y-21738479D01*
X20040957Y-21738487D01*
X20042856Y-21742607D01*
X20159588Y-21907780D01*
X20304466Y-22048913D01*
X20472637Y-22161282D01*
X20658470Y-22241122D01*
X20855740Y-22285760D01*
X21057842Y-22293700D01*
X21111377Y-22285938D01*
X21253519Y-22265329D01*
X21253522Y-22265328D01*
X21258007Y-22264678D01*
X21353769Y-22232171D01*
X21445234Y-22201123D01*
X21445237Y-22201121D01*
X21449531Y-22199664D01*
X21626001Y-22100837D01*
X21781505Y-21971505D01*
X21910837Y-21816001D01*
X21917783Y-21803599D01*
X21932412Y-21777476D01*
X22009664Y-21639531D01*
X22014208Y-21626147D01*
X22066589Y-21471835D01*
X22074678Y-21448007D01*
X22076678Y-21434217D01*
X22093492Y-21318249D01*
X22103700Y-21247842D01*
X22105215Y-21190000D01*
X22102751Y-21163177D01*
X22087123Y-20993109D01*
X22086708Y-20988591D01*
X22031807Y-20793926D01*
X21942351Y-20612527D01*
X21907580Y-20565963D01*
X23494757Y-20565963D01*
X23496313Y-20584492D01*
X23510535Y-20753859D01*
X23511175Y-20761483D01*
X23512508Y-20766131D01*
X23512508Y-20766132D01*
X23563467Y-20943844D01*
X23565258Y-20950091D01*
X23567473Y-20954401D01*
X23652731Y-21120296D01*
X23652734Y-21120300D01*
X23654944Y-21124601D01*
X23776818Y-21278369D01*
X23780505Y-21281507D01*
X23780507Y-21281509D01*
X23922550Y-21402397D01*
X23922555Y-21402400D01*
X23926238Y-21405535D01*
X23930460Y-21407895D01*
X23930465Y-21407898D01*
X24039853Y-21469032D01*
X24097513Y-21501257D01*
X24198549Y-21534086D01*
X24279513Y-21560393D01*
X24279516Y-21560394D01*
X24284118Y-21561889D01*
X24478946Y-21585121D01*
X24483768Y-21584750D01*
X24483771Y-21584750D01*
X24669748Y-21570440D01*
X24669753Y-21570439D01*
X24674576Y-21570068D01*
X24863556Y-21517303D01*
X24867869Y-21515124D01*
X24867875Y-21515122D01*
X25034368Y-21431020D01*
X25034370Y-21431018D01*
X25038689Y-21428837D01*
X25042506Y-21425855D01*
X25189487Y-21311022D01*
X25189491Y-21311018D01*
X25193303Y-21308040D01*
X25218915Y-21278369D01*
X25318345Y-21163177D01*
X25318347Y-21163175D01*
X25321509Y-21159511D01*
X25324676Y-21153936D01*
X25416036Y-20993115D01*
X25416039Y-20993109D01*
X25418425Y-20988909D01*
X25429905Y-20954401D01*
X25478831Y-20807323D01*
X25478831Y-20807321D01*
X25480358Y-20802732D01*
X25481471Y-20793926D01*
X25499258Y-20653121D01*
X25504949Y-20608071D01*
X25505341Y-20580000D01*
X25504989Y-20576401D01*
X25495751Y-20482192D01*
X25486194Y-20384728D01*
X25429484Y-20196894D01*
X25373565Y-20091725D01*
X25339643Y-20027927D01*
X25339641Y-20027923D01*
X25337370Y-20023653D01*
X25213361Y-19871602D01*
X25062180Y-19746535D01*
X24889585Y-19653213D01*
X24702152Y-19595193D01*
X24697342Y-19594687D01*
X24697340Y-19594687D01*
X24511835Y-19575189D01*
X24511833Y-19575189D01*
X24507019Y-19574683D01*
X24442891Y-19580519D01*
X24316438Y-19592027D01*
X24316435Y-19592028D01*
X24311618Y-19592466D01*
X24306976Y-19593832D01*
X24306972Y-19593833D01*
X24128040Y-19646496D01*
X24128037Y-19646497D01*
X24123393Y-19647864D01*
X23949512Y-19738767D01*
X23945743Y-19741797D01*
X23945742Y-19741798D01*
X23936016Y-19749618D01*
X23796600Y-19861711D01*
X23770186Y-19893190D01*
X23673589Y-20008310D01*
X23673586Y-20008314D01*
X23670480Y-20012016D01*
X23575956Y-20183954D01*
X23574492Y-20188568D01*
X23574491Y-20188571D01*
X23540456Y-20295862D01*
X23516628Y-20370978D01*
X23516088Y-20375790D01*
X23516088Y-20375791D01*
X23509696Y-20432782D01*
X23494757Y-20565963D01*
X21907580Y-20565963D01*
X21821335Y-20450467D01*
X21672812Y-20313174D01*
X21657734Y-20303660D01*
X21505594Y-20207667D01*
X21501757Y-20205246D01*
X21313898Y-20130298D01*
X21115526Y-20090839D01*
X21015930Y-20089535D01*
X20917826Y-20088251D01*
X20917821Y-20088251D01*
X20913286Y-20088192D01*
X20908813Y-20088961D01*
X20908808Y-20088961D01*
X20820549Y-20104127D01*
X20713949Y-20122444D01*
X20524193Y-20192449D01*
X20350371Y-20295862D01*
X20346956Y-20298857D01*
X20346953Y-20298859D01*
X20269980Y-20366363D01*
X20198305Y-20429220D01*
X20195497Y-20432782D01*
X20078919Y-20580662D01*
X20073089Y-20588057D01*
X19978914Y-20767053D01*
X19977568Y-20771387D01*
X19975832Y-20775579D01*
X19974417Y-20774993D01*
X19942721Y-20819831D01*
X19883496Y-20839500D01*
X18216187Y-20839500D01*
X18157996Y-20820593D01*
X18123276Y-20774683D01*
X18115612Y-20753853D01*
X18113881Y-20749148D01*
X18006774Y-20576401D01*
X17991315Y-20560053D01*
X17870564Y-20432363D01*
X17867119Y-20428720D01*
X17863014Y-20425846D01*
X17863011Y-20425843D01*
X17704727Y-20315012D01*
X17700621Y-20312137D01*
X17696025Y-20310148D01*
X17696023Y-20310147D01*
X17518677Y-20233403D01*
X17518678Y-20233403D01*
X17514081Y-20231414D01*
X17315120Y-20189849D01*
X17310568Y-20189610D01*
X17309766Y-20189568D01*
X17309751Y-20189568D01*
X17308461Y-20189500D01*
X16359200Y-20189500D01*
X16356712Y-20189753D01*
X16356706Y-20189753D01*
X16296184Y-20195901D01*
X16207784Y-20204880D01*
X16203004Y-20206378D01*
X16106639Y-20236577D01*
X16013828Y-20265662D01*
X15836056Y-20364203D01*
X15681729Y-20496477D01*
X15557152Y-20657081D01*
X15554943Y-20661570D01*
X15554940Y-20661575D01*
X15494597Y-20784209D01*
X15451940Y-20828074D01*
X15405768Y-20839500D01*
X14376190Y-20839500D01*
X14317999Y-20820593D01*
X14306186Y-20810504D01*
X12129496Y-18633814D01*
X12101719Y-18579297D01*
X12100500Y-18563810D01*
X12100500Y-17689840D01*
X28400000Y-17689840D01*
X28400948Y-17699462D01*
X28409702Y-17743474D01*
X28417021Y-17761142D01*
X28450389Y-17811082D01*
X28463918Y-17824611D01*
X28513858Y-17857979D01*
X28531526Y-17865298D01*
X28575538Y-17874052D01*
X28585160Y-17875000D01*
X29230320Y-17875000D01*
X29243005Y-17870878D01*
X29246000Y-17866757D01*
X29246000Y-17859320D01*
X29754000Y-17859320D01*
X29758122Y-17872005D01*
X29762243Y-17875000D01*
X30414840Y-17875000D01*
X30424462Y-17874052D01*
X30468474Y-17865298D01*
X30486142Y-17857979D01*
X30536082Y-17824611D01*
X30549611Y-17811082D01*
X30582979Y-17761142D01*
X30590298Y-17743474D01*
X30599052Y-17699462D01*
X30600000Y-17689840D01*
X30600000Y-17044680D01*
X30595878Y-17031995D01*
X30591757Y-17029000D01*
X29769680Y-17029000D01*
X29756995Y-17033122D01*
X29754000Y-17037243D01*
X29754000Y-17859320D01*
X29246000Y-17859320D01*
X29246000Y-17044680D01*
X29241878Y-17031995D01*
X29237757Y-17029000D01*
X28415680Y-17029000D01*
X28402995Y-17033122D01*
X28400000Y-17037243D01*
X28400000Y-17689840D01*
X12100500Y-17689840D01*
X12100500Y-17504803D01*
X12119407Y-17446612D01*
X12154862Y-17416438D01*
X12259963Y-17363348D01*
X13751134Y-17363348D01*
X13758363Y-17370860D01*
X13843488Y-17418435D01*
X13852316Y-17422292D01*
X14029627Y-17479904D01*
X14039027Y-17481971D01*
X14224155Y-17504046D01*
X14233781Y-17504248D01*
X14419659Y-17489945D01*
X14429153Y-17488271D01*
X14608713Y-17438136D01*
X14617693Y-17434654D01*
X14741726Y-17372000D01*
X14749765Y-17364017D01*
X14744573Y-17353783D01*
X14261086Y-16870296D01*
X14249203Y-16864242D01*
X14244172Y-16865038D01*
X13756611Y-17352599D01*
X13751134Y-17363348D01*
X12259963Y-17363348D01*
X12281242Y-17352599D01*
X12284368Y-17351020D01*
X12284370Y-17351018D01*
X12288689Y-17348837D01*
X12315490Y-17327898D01*
X12439487Y-17231022D01*
X12439491Y-17231018D01*
X12443303Y-17228040D01*
X12468915Y-17198369D01*
X12568345Y-17083177D01*
X12568347Y-17083175D01*
X12571509Y-17079511D01*
X12573902Y-17075299D01*
X12666036Y-16913115D01*
X12666037Y-16913112D01*
X12668425Y-16908909D01*
X12670020Y-16904116D01*
X12728831Y-16727323D01*
X12728831Y-16727321D01*
X12730358Y-16722732D01*
X12754949Y-16528071D01*
X12755341Y-16500000D01*
X12754439Y-16490790D01*
X13245664Y-16490790D01*
X13261264Y-16676574D01*
X13263002Y-16686042D01*
X13314388Y-16865248D01*
X13317939Y-16874216D01*
X13378202Y-16991476D01*
X13386330Y-16999547D01*
X13396393Y-16994397D01*
X13879704Y-16511086D01*
X13884946Y-16500797D01*
X14614242Y-16500797D01*
X14615038Y-16505828D01*
X15102520Y-16993310D01*
X15113375Y-16998841D01*
X15120783Y-16991762D01*
X15165577Y-16912911D01*
X15169493Y-16904116D01*
X15228341Y-16727212D01*
X15230475Y-16717818D01*
X15254099Y-16530810D01*
X15254486Y-16525283D01*
X15254764Y-16505320D01*
X28400000Y-16505320D01*
X28404122Y-16518005D01*
X28408243Y-16521000D01*
X29230320Y-16521000D01*
X29243005Y-16516878D01*
X29246000Y-16512757D01*
X29246000Y-16505320D01*
X29754000Y-16505320D01*
X29758122Y-16518005D01*
X29762243Y-16521000D01*
X30584320Y-16521000D01*
X30597005Y-16516878D01*
X30600000Y-16512757D01*
X30600000Y-15860160D01*
X30599052Y-15850538D01*
X30590298Y-15806526D01*
X30582979Y-15788858D01*
X30549611Y-15738918D01*
X30536082Y-15725389D01*
X30486142Y-15692021D01*
X30468474Y-15684702D01*
X30424462Y-15675948D01*
X30414840Y-15675000D01*
X29769680Y-15675000D01*
X29756995Y-15679122D01*
X29754000Y-15683243D01*
X29754000Y-16505320D01*
X29246000Y-16505320D01*
X29246000Y-15690680D01*
X29241878Y-15677995D01*
X29237757Y-15675000D01*
X28585160Y-15675000D01*
X28575538Y-15675948D01*
X28531526Y-15684702D01*
X28513858Y-15692021D01*
X28463918Y-15725389D01*
X28450389Y-15738918D01*
X28417021Y-15788858D01*
X28409702Y-15806526D01*
X28400948Y-15850538D01*
X28400000Y-15860160D01*
X28400000Y-16505320D01*
X15254764Y-16505320D01*
X15254800Y-16502759D01*
X15254570Y-16497261D01*
X15236174Y-16309636D01*
X15234305Y-16300198D01*
X15180418Y-16121718D01*
X15176748Y-16112814D01*
X15121503Y-16008912D01*
X15113086Y-16000784D01*
X15103368Y-16005842D01*
X14620296Y-16488914D01*
X14614242Y-16500797D01*
X13884946Y-16500797D01*
X13885758Y-16499203D01*
X13884962Y-16494172D01*
X13397285Y-16006495D01*
X13386643Y-16001073D01*
X13379029Y-16008452D01*
X13328752Y-16099905D01*
X13324952Y-16108769D01*
X13268583Y-16286467D01*
X13266579Y-16295895D01*
X13245798Y-16481162D01*
X13245664Y-16490790D01*
X12754439Y-16490790D01*
X12754438Y-16490783D01*
X12736666Y-16309546D01*
X12736194Y-16304728D01*
X12679484Y-16116894D01*
X12587370Y-15943653D01*
X12463361Y-15791602D01*
X12383323Y-15725389D01*
X12315907Y-15669618D01*
X12315906Y-15669617D01*
X12312180Y-15666535D01*
X12256894Y-15636642D01*
X13750637Y-15636642D01*
X13755741Y-15646531D01*
X14238914Y-16129704D01*
X14250797Y-16135758D01*
X14255828Y-16134962D01*
X14743657Y-15647133D01*
X14749024Y-15636599D01*
X14741496Y-15628885D01*
X14643645Y-15575976D01*
X14634774Y-15572247D01*
X14456673Y-15517116D01*
X14447239Y-15515179D01*
X14261831Y-15495691D01*
X14252193Y-15495624D01*
X14066532Y-15512520D01*
X14057066Y-15514326D01*
X13878220Y-15566965D01*
X13869296Y-15570570D01*
X13758739Y-15628368D01*
X13750637Y-15636642D01*
X12256894Y-15636642D01*
X12139585Y-15573213D01*
X11952152Y-15515193D01*
X11947342Y-15514687D01*
X11947340Y-15514687D01*
X11761835Y-15495189D01*
X11761833Y-15495189D01*
X11757019Y-15494683D01*
X11692891Y-15500519D01*
X11566438Y-15512027D01*
X11566435Y-15512028D01*
X11561618Y-15512466D01*
X11556976Y-15513832D01*
X11556972Y-15513833D01*
X11378040Y-15566496D01*
X11378037Y-15566497D01*
X11373393Y-15567864D01*
X11199512Y-15658767D01*
X11195743Y-15661797D01*
X11195742Y-15661798D01*
X11186016Y-15669618D01*
X11046600Y-15781711D01*
X11025778Y-15806526D01*
X10923589Y-15928310D01*
X10923586Y-15928314D01*
X10920480Y-15932016D01*
X10825956Y-16103954D01*
X10824492Y-16108568D01*
X10824491Y-16108571D01*
X10815867Y-16135758D01*
X10766628Y-16290978D01*
X10744757Y-16485963D01*
X200000Y-16485963D01*
X200000Y-14206069D01*
X28395164Y-14206069D01*
X28408392Y-14407894D01*
X28458178Y-14603928D01*
X28542856Y-14787607D01*
X28659588Y-14952780D01*
X28804466Y-15093913D01*
X28972637Y-15206282D01*
X29158470Y-15286122D01*
X29355740Y-15330760D01*
X29557842Y-15338700D01*
X29611377Y-15330938D01*
X29753519Y-15310329D01*
X29753522Y-15310328D01*
X29758007Y-15309678D01*
X29853769Y-15277171D01*
X29945234Y-15246123D01*
X29945237Y-15246121D01*
X29949531Y-15244664D01*
X30126001Y-15145837D01*
X30281505Y-15016505D01*
X30410837Y-14861001D01*
X30509664Y-14684531D01*
X30574678Y-14493007D01*
X30603700Y-14292842D01*
X30605215Y-14235000D01*
X30586708Y-14033591D01*
X30531807Y-13838926D01*
X30442351Y-13657527D01*
X30321335Y-13495467D01*
X30172812Y-13358174D01*
X30150125Y-13343859D01*
X30005594Y-13252667D01*
X30001757Y-13250246D01*
X29813898Y-13175298D01*
X29615526Y-13135839D01*
X29515930Y-13134535D01*
X29417826Y-13133251D01*
X29417821Y-13133251D01*
X29413286Y-13133192D01*
X29408813Y-13133961D01*
X29408808Y-13133961D01*
X29310245Y-13150898D01*
X29213949Y-13167444D01*
X29024193Y-13237449D01*
X28850371Y-13340862D01*
X28846956Y-13343857D01*
X28846953Y-13343859D01*
X28830630Y-13358174D01*
X28698305Y-13474220D01*
X28573089Y-13633057D01*
X28478914Y-13812053D01*
X28418937Y-14005213D01*
X28395164Y-14206069D01*
X200000Y-14206069D01*
X200000Y-10405963D01*
X23494757Y-10405963D01*
X23511175Y-10601483D01*
X23512508Y-10606131D01*
X23512508Y-10606132D01*
X23524320Y-10647323D01*
X23565258Y-10790091D01*
X23567473Y-10794401D01*
X23652731Y-10960296D01*
X23652734Y-10960300D01*
X23654944Y-10964601D01*
X23776818Y-11118369D01*
X23780505Y-11121507D01*
X23780507Y-11121509D01*
X23922550Y-11242397D01*
X23922555Y-11242400D01*
X23926238Y-11245535D01*
X23930460Y-11247895D01*
X23930465Y-11247898D01*
X23971838Y-11271020D01*
X24097513Y-11341257D01*
X24198549Y-11374086D01*
X24279513Y-11400393D01*
X24279516Y-11400394D01*
X24284118Y-11401889D01*
X24478946Y-11425121D01*
X24483768Y-11424750D01*
X24483771Y-11424750D01*
X24669748Y-11410440D01*
X24669753Y-11410439D01*
X24674576Y-11410068D01*
X24863556Y-11357303D01*
X24867869Y-11355124D01*
X24867875Y-11355122D01*
X25034368Y-11271020D01*
X25034370Y-11271018D01*
X25038689Y-11268837D01*
X25065490Y-11247898D01*
X25189487Y-11151022D01*
X25189491Y-11151018D01*
X25193303Y-11148040D01*
X25218915Y-11118369D01*
X25318345Y-11003177D01*
X25318347Y-11003175D01*
X25321509Y-10999511D01*
X25323902Y-10995299D01*
X25416036Y-10833115D01*
X25416037Y-10833112D01*
X25418425Y-10828909D01*
X25429905Y-10794401D01*
X25478831Y-10647323D01*
X25478831Y-10647321D01*
X25480358Y-10642732D01*
X25504949Y-10448071D01*
X25505341Y-10420000D01*
X25504438Y-10410783D01*
X25486666Y-10229546D01*
X25486194Y-10224728D01*
X25429484Y-10036894D01*
X25337370Y-9863653D01*
X25213361Y-9711602D01*
X25062180Y-9586535D01*
X24889585Y-9493213D01*
X24702152Y-9435193D01*
X24697342Y-9434687D01*
X24697340Y-9434687D01*
X24511835Y-9415189D01*
X24511833Y-9415189D01*
X24507019Y-9414683D01*
X24442891Y-9420519D01*
X24316438Y-9432027D01*
X24316435Y-9432028D01*
X24311618Y-9432466D01*
X24306976Y-9433832D01*
X24306972Y-9433833D01*
X24128040Y-9486496D01*
X24128037Y-9486497D01*
X24123393Y-9487864D01*
X23949512Y-9578767D01*
X23945743Y-9581797D01*
X23945742Y-9581798D01*
X23936016Y-9589618D01*
X23796600Y-9701711D01*
X23770186Y-9733190D01*
X23673589Y-9848310D01*
X23673586Y-9848314D01*
X23670480Y-9852016D01*
X23575956Y-10023954D01*
X23574492Y-10028568D01*
X23574491Y-10028571D01*
X23521318Y-10196193D01*
X23516628Y-10210978D01*
X23494757Y-10405963D01*
X200000Y-10405963D01*
X200000Y-5463214D01*
X8959806Y-5463214D01*
X8974010Y-5709545D01*
X9028255Y-5950249D01*
X9029784Y-5954013D01*
X9029785Y-5954018D01*
X9116564Y-6167731D01*
X9121084Y-6178861D01*
X9250006Y-6389241D01*
X9252665Y-6392311D01*
X9252666Y-6392312D01*
X9408895Y-6572668D01*
X9411557Y-6575741D01*
X9601399Y-6733351D01*
X9814433Y-6857838D01*
X9818220Y-6859284D01*
X9818224Y-6859286D01*
X9932720Y-6903007D01*
X10044939Y-6945859D01*
X10286726Y-6995052D01*
X10290781Y-6995201D01*
X10290784Y-6995201D01*
X10373474Y-6998233D01*
X10533300Y-7004093D01*
X10537319Y-7003578D01*
X10537323Y-7003578D01*
X10774009Y-6973258D01*
X10774015Y-6973257D01*
X10778041Y-6972741D01*
X10781934Y-6971573D01*
X10781939Y-6971572D01*
X10953132Y-6920211D01*
X11014374Y-6901838D01*
X11191959Y-6814840D01*
X14045000Y-6814840D01*
X14045948Y-6824462D01*
X14054702Y-6868474D01*
X14062021Y-6886142D01*
X14095389Y-6936082D01*
X14108918Y-6949611D01*
X14158858Y-6982979D01*
X14176526Y-6990298D01*
X14220538Y-6999052D01*
X14230160Y-7000000D01*
X15275320Y-7000000D01*
X15288005Y-6995878D01*
X15291000Y-6991757D01*
X15291000Y-6984320D01*
X15799000Y-6984320D01*
X15803122Y-6997005D01*
X15807243Y-7000000D01*
X16859840Y-7000000D01*
X16869462Y-6999052D01*
X16913474Y-6990298D01*
X16931142Y-6982979D01*
X16981082Y-6949611D01*
X16994611Y-6936082D01*
X17027979Y-6886142D01*
X17035298Y-6868474D01*
X17044052Y-6824462D01*
X17045000Y-6814840D01*
X17045000Y-5769680D01*
X17040878Y-5756995D01*
X17036757Y-5754000D01*
X15814680Y-5754000D01*
X15801995Y-5758122D01*
X15799000Y-5762243D01*
X15799000Y-6984320D01*
X15291000Y-6984320D01*
X15291000Y-5769680D01*
X15286878Y-5756995D01*
X15282757Y-5754000D01*
X14060680Y-5754000D01*
X14047995Y-5758122D01*
X14045000Y-5762243D01*
X14045000Y-6814840D01*
X11191959Y-6814840D01*
X11232307Y-6795074D01*
X11232310Y-6795072D01*
X11235954Y-6793287D01*
X11436829Y-6650004D01*
X11611605Y-6475837D01*
X11755588Y-6275463D01*
X11864911Y-6054264D01*
X11866089Y-6050388D01*
X11866091Y-6050382D01*
X11935459Y-5822064D01*
X11935459Y-5822063D01*
X11936639Y-5818180D01*
X11968845Y-5573550D01*
X11970643Y-5500000D01*
X11950425Y-5254089D01*
X11948394Y-5246000D01*
X11944455Y-5230320D01*
X14045000Y-5230320D01*
X14049122Y-5243005D01*
X14053243Y-5246000D01*
X15275320Y-5246000D01*
X15288005Y-5241878D01*
X15291000Y-5237757D01*
X15291000Y-5230320D01*
X15799000Y-5230320D01*
X15803122Y-5243005D01*
X15807243Y-5246000D01*
X17029320Y-5246000D01*
X17042005Y-5241878D01*
X17045000Y-5237757D01*
X17045000Y-4185160D01*
X17044052Y-4175538D01*
X17035298Y-4131526D01*
X17027979Y-4113858D01*
X16994611Y-4063918D01*
X16981082Y-4050389D01*
X16931142Y-4017021D01*
X16913474Y-4009702D01*
X16869462Y-4000948D01*
X16859840Y-4000000D01*
X15814680Y-4000000D01*
X15801995Y-4004122D01*
X15799000Y-4008243D01*
X15799000Y-5230320D01*
X15291000Y-5230320D01*
X15291000Y-4015680D01*
X15286878Y-4002995D01*
X15282757Y-4000000D01*
X14230160Y-4000000D01*
X14220538Y-4000948D01*
X14176526Y-4009702D01*
X14158858Y-4017021D01*
X14108918Y-4050389D01*
X14095389Y-4063918D01*
X14062021Y-4113858D01*
X14054702Y-4131526D01*
X14045948Y-4175538D01*
X14045000Y-4185160D01*
X14045000Y-5230320D01*
X11944455Y-5230320D01*
X11891307Y-5018729D01*
X11890316Y-5014783D01*
X11791928Y-4788507D01*
X11657905Y-4581339D01*
X11491846Y-4398842D01*
X11488660Y-4396326D01*
X11488657Y-4396323D01*
X11301398Y-4248435D01*
X11301392Y-4248431D01*
X11298210Y-4245918D01*
X11082198Y-4126673D01*
X11078367Y-4125316D01*
X11078364Y-4125315D01*
X10853446Y-4045667D01*
X10853442Y-4045666D01*
X10849610Y-4044309D01*
X10606694Y-4001039D01*
X10602633Y-4000989D01*
X10602629Y-4000989D01*
X10489411Y-3999606D01*
X10359972Y-3998025D01*
X10116070Y-4035347D01*
X10028657Y-4063918D01*
X9885397Y-4110742D01*
X9885393Y-4110744D01*
X9881540Y-4112003D01*
X9877940Y-4113877D01*
X9666284Y-4224058D01*
X9666281Y-4224060D01*
X9662679Y-4225935D01*
X9659436Y-4228370D01*
X9659431Y-4228373D01*
X9505900Y-4343648D01*
X9465364Y-4374083D01*
X9294896Y-4552468D01*
X9155851Y-4756300D01*
X9154143Y-4759980D01*
X9154140Y-4759985D01*
X9107357Y-4860771D01*
X9051965Y-4980104D01*
X8986026Y-5217871D01*
X8985593Y-5221919D01*
X8985593Y-5221921D01*
X8983901Y-5237757D01*
X8959806Y-5463214D01*
X200000Y-5463214D01*
X200000Y-299000D01*
X218907Y-240809D01*
X268407Y-204845D01*
X299000Y-200000D01*
X49701000Y-200000D01*
X49759191Y-218907D01*
G37*
%TD.AperFunction*%
%TD*%
M02*
