G04 #@! TF.GenerationSoftware,KiCad,Pcbnew,(5.99.0-11158-gff2190630e)*
G04 #@! TF.CreationDate,2021-10-12T16:46:33+02:00*
G04 #@! TF.ProjectId,SnakePlatine,536e616b-6550-46c6-9174-696e652e6b69,rev?*
G04 #@! TF.SameCoordinates,Original*
G04 #@! TF.FileFunction,Profile,NP*
%FSLAX46Y46*%
G04 Gerber Fmt 4.6, Leading zero omitted, Abs format (unit mm)*
G04 Created by KiCad (PCBNEW (5.99.0-11158-gff2190630e)) date 2021-10-12 16:46:33*
%MOMM*%
%LPD*%
G01*
G04 APERTURE LIST*
G04 #@! TA.AperFunction,Profile*
%ADD10C,0.150000*%
G04 #@! TD*
G04 APERTURE END LIST*
D10*
X-5000Y0D02*
X-5000Y-66040000D01*
X1265000Y-66040000D02*
X3805000Y-68580000D01*
X-5000Y-66040000D02*
X1265000Y-66040000D01*
X38095000Y-68580000D02*
X40635000Y-66040000D01*
X3805000Y-68580000D02*
X38095000Y-68580000D01*
X53335000Y0D02*
X-5000Y0D01*
X40635000Y-66040000D02*
X51811000Y-66040000D01*
X53335000Y0D02*
X53335000Y-64516000D01*
X53335000Y-64516000D02*
X51811000Y-66040000D01*
M02*
