G04 #@! TF.GenerationSoftware,KiCad,Pcbnew,(5.99.0-11158-gff2190630e)*
G04 #@! TF.CreationDate,2021-10-12T16:46:33+02:00*
G04 #@! TF.ProjectId,SnakePlatine,536e616b-6550-46c6-9174-696e652e6b69,rev?*
G04 #@! TF.SameCoordinates,Original*
G04 #@! TF.FileFunction,Paste,Bot*
G04 #@! TF.FilePolarity,Positive*
%FSLAX46Y46*%
G04 Gerber Fmt 4.6, Leading zero omitted, Abs format (unit mm)*
G04 Created by KiCad (PCBNEW (5.99.0-11158-gff2190630e)) date 2021-10-12 16:46:33*
%MOMM*%
%LPD*%
G01*
G04 APERTURE LIST*
G04 Aperture macros list*
%AMRoundRect*
0 Rectangle with rounded corners*
0 $1 Rounding radius*
0 $2 $3 $4 $5 $6 $7 $8 $9 X,Y pos of 4 corners*
0 Add a 4 corners polygon primitive as box body*
4,1,4,$2,$3,$4,$5,$6,$7,$8,$9,$2,$3,0*
0 Add four circle primitives for the rounded corners*
1,1,$1+$1,$2,$3*
1,1,$1+$1,$4,$5*
1,1,$1+$1,$6,$7*
1,1,$1+$1,$8,$9*
0 Add four rect primitives between the rounded corners*
20,1,$1+$1,$2,$3,$4,$5,0*
20,1,$1+$1,$4,$5,$6,$7,0*
20,1,$1+$1,$6,$7,$8,$9,0*
20,1,$1+$1,$8,$9,$2,$3,0*%
G04 Aperture macros list end*
%ADD10RoundRect,0.250000X-0.450000X0.350000X-0.450000X-0.350000X0.450000X-0.350000X0.450000X0.350000X0*%
%ADD11RoundRect,0.250000X-0.350000X-0.450000X0.350000X-0.450000X0.350000X0.450000X-0.350000X0.450000X0*%
%ADD12RoundRect,0.250000X0.475000X-0.337500X0.475000X0.337500X-0.475000X0.337500X-0.475000X-0.337500X0*%
%ADD13RoundRect,0.250000X0.450000X-0.350000X0.450000X0.350000X-0.450000X0.350000X-0.450000X-0.350000X0*%
%ADD14RoundRect,0.150000X-0.875000X-0.150000X0.875000X-0.150000X0.875000X0.150000X-0.875000X0.150000X0*%
G04 APERTURE END LIST*
D10*
X26700000Y-11790000D03*
X26700000Y-13790000D03*
X22800000Y-11790000D03*
X22800000Y-13790000D03*
X30600000Y-11790000D03*
X30600000Y-13790000D03*
D11*
X17200000Y-19540000D03*
X19200000Y-19540000D03*
D12*
X19000000Y-23577500D03*
X19000000Y-21502500D03*
D10*
X22800000Y-9790000D03*
X22800000Y-11790000D03*
X26700000Y-9790000D03*
X26700000Y-11790000D03*
D13*
X34500000Y-11790000D03*
X34500000Y-9790000D03*
D10*
X30600000Y-9790000D03*
X30600000Y-11790000D03*
D14*
X22020000Y-33255000D03*
X22020000Y-31985000D03*
X22020000Y-30715000D03*
X22020000Y-29445000D03*
X22020000Y-28175000D03*
X22020000Y-26905000D03*
X22020000Y-25635000D03*
X22020000Y-24365000D03*
X22020000Y-23095000D03*
X22020000Y-21825000D03*
X22020000Y-20555000D03*
X22020000Y-19285000D03*
X22020000Y-18015000D03*
X22020000Y-16745000D03*
X31320000Y-16745000D03*
X31320000Y-18015000D03*
X31320000Y-19285000D03*
X31320000Y-20555000D03*
X31320000Y-21825000D03*
X31320000Y-23095000D03*
X31320000Y-24365000D03*
X31320000Y-25635000D03*
X31320000Y-26905000D03*
X31320000Y-28175000D03*
X31320000Y-29445000D03*
X31320000Y-30715000D03*
X31320000Y-31985000D03*
X31320000Y-33255000D03*
D11*
X17200000Y-17540000D03*
X19200000Y-17540000D03*
M02*
