M48
; DRILL file {KiCad (5.99.0-11158-gff2190630e)} date Tuesday, October 12, 2021 at 04:46:43 PM
; FORMAT={-:-/ absolute / metric / decimal}
; #@! TF.CreationDate,2021-10-12T16:46:43+02:00
; #@! TF.GenerationSoftware,Kicad,Pcbnew,(5.99.0-11158-gff2190630e)
; #@! TF.FileFunction,Plated,1,2,PTH
FMAT,2
METRIC
; #@! TA.AperFunction,Plated,PTH,ViaDrill
T1C0.400
; #@! TA.AperFunction,Plated,PTH,ComponentDrill
T2C0.800
; #@! TA.AperFunction,Plated,PTH,ComponentDrill
T3C1.000
; #@! TA.AperFunction,Plated,PTH,ComponentDrill
T4C1.016
; #@! TA.AperFunction,Plated,PTH,ComponentDrill
T5C1.100
%
G90
G05
T1
X2.0Y-2.74
X8.0Y-5.34
X8.0Y-10.89
X25.6Y-24.14
X26.8Y-24.14
X27.609Y-21.34
X29.4Y-20.54
X29.675Y-28.175
X29.675Y-29.445
X29.675Y-30.715
X33.0Y-23.09
X37.4Y-31.54
X41.4Y-7.143
X51.55Y-2.74
X51.55Y-10.89
T2
X7.34Y-13.96
X7.34Y-16.5
X7.34Y-19.96
X7.34Y-22.5
X7.34Y-25.96
X7.34Y-28.5
X7.34Y-31.96
X7.34Y-34.5
X46.0Y-13.96
X46.0Y-16.5
X46.0Y-19.96
X46.0Y-22.5
X46.0Y-25.96
X46.0Y-28.5
X46.0Y-31.96
X46.0Y-34.5
T3
X14.67Y-11.11
X14.67Y-13.65
X14.67Y-16.19
X14.67Y-18.73
X14.67Y-21.27
X14.67Y-23.81
X14.67Y-26.35
X14.67Y-28.89
X38.67Y-11.11
X38.67Y-13.65
X38.67Y-16.19
X38.67Y-18.73
X38.67Y-21.27
X38.67Y-23.81
X38.67Y-26.35
X38.67Y-28.89
T4
X2.535Y-27.94
X2.535Y-30.48
X2.535Y-33.02
X2.535Y-35.56
X2.535Y-38.1
X2.535Y-40.64
X2.535Y-43.18
X2.535Y-45.72
X2.535Y-50.8
X2.535Y-53.34
X2.535Y-55.88
X2.535Y-58.42
X2.535Y-60.96
X2.535Y-63.5
X50.795Y-18.796
X50.795Y-21.336
X50.795Y-23.876
X50.795Y-26.416
X50.795Y-28.956
X50.795Y-31.496
X50.795Y-34.036
X50.795Y-36.576
X50.795Y-39.116
X50.795Y-41.656
X50.795Y-45.72
X50.795Y-48.26
X50.795Y-50.8
X50.795Y-53.34
X50.795Y-55.88
X50.795Y-58.42
X50.795Y-60.96
X50.795Y-63.5
T5
X10.09Y-49.25
X10.09Y-55.75
X14.59Y-49.25
X14.59Y-55.75
X23.42Y-42.75
X23.42Y-47.25
X23.42Y-57.75
X23.42Y-62.25
X29.92Y-42.75
X29.92Y-47.25
X29.92Y-57.75
X29.92Y-62.25
X38.75Y-49.25
X38.75Y-55.75
X43.25Y-49.25
X43.25Y-55.75
T0
M30
