"Comment","Designator","Footprint"
"SW_SPDT",SW2,"SW_Toggle_Blue_wSlots"
"SW_SPDT",SW3,"SW_Toggle_Blue_wSlots"
"SW_SPDT",SW1,"SW_Toggle_Blue_wSlots"
"Arduino_Mega2560_Shield",XA1,"Arduino_Mega2560_Shield"
"300",R2,"R_0603_1608Metric_Pad0.98x0.95mm_HandSolder"
"red",D2,"LED_0603_1608Metric_Pad1.05x0.95mm_HandSolder"
"200",R1,"R_0603_1608Metric_Pad0.98x0.95mm_HandSolder"
"green",D1,"LED_0603_1608Metric_Pad1.05x0.95mm_HandSolder"
"LOGO",G***,"uni_logo"
