M48
; DRILL file {KiCad (5.99.0-11158-gff2190630e)} date Wednesday, June 30, 2021 at 01:36:50 PM
; FORMAT={-:-/ absolute / metric / decimal}
; #@! TF.CreationDate,2021-06-30T13:36:50+02:00
; #@! TF.GenerationSoftware,Kicad,Pcbnew,(5.99.0-11158-gff2190630e)
; #@! TF.FileFunction,NonPlated,1,2,NPTH
FMAT,2
METRIC
; #@! TA.AperFunction,NonPlated,NPTH,ComponentDrill
T1C3.200
%
G90
G05
T1
X62.54Y-43.97
X62.54Y-126.52
X67.62Y-96.04
X95.56Y-96.04
X110.8Y-45.24
X110.8Y-120.17
T0
M30
