%TF.GenerationSoftware,KiCad,Pcbnew,(5.99.0-11158-gff2190630e)*%
%TF.CreationDate,2021-06-30T13:36:38+02:00*%
%TF.ProjectId,PCB_Presenter,5043425f-5072-4657-9365-6e7465722e6b,rev?*%
%TF.SameCoordinates,Original*%
%TF.FileFunction,AssemblyDrawing,Bot*%
%FSLAX46Y46*%
G04 Gerber Fmt 4.6, Leading zero omitted, Abs format (unit mm)*
G04 Created by KiCad (PCBNEW (5.99.0-11158-gff2190630e)) date 2021-06-30 13:36:38*
%MOMM*%
%LPD*%
G01*
G04 APERTURE LIST*
G04 APERTURE END LIST*
M02*
