%TF.GenerationSoftware,KiCad,Pcbnew,(6.0.0-rc2-10-g700a334955)*%
%TF.CreationDate,2021-12-19T17:45:56+01:00*%
%TF.ProjectId,MiniALU_UULM,4d696e69-414c-4555-9f55-554c4d2e6b69,rev?*%
%TF.SameCoordinates,Original*%
%TF.FileFunction,Soldermask,Bot*%
%TF.FilePolarity,Negative*%
%FSLAX46Y46*%
G04 Gerber Fmt 4.6, Leading zero omitted, Abs format (unit mm)*
G04 Created by KiCad (PCBNEW (6.0.0-rc2-10-g700a334955)) date 2021-12-19 17:45:56*
%MOMM*%
%LPD*%
G01*
G04 APERTURE LIST*
%ADD10R,2.500000X1.500000*%
%ADD11O,2.500000X1.500000*%
%ADD12O,3.500000X2.200000*%
%ADD13R,1.800000X1.800000*%
%ADD14C,1.800000*%
%ADD15C,1.600000*%
%ADD16O,1.600000X1.600000*%
%ADD17C,5.600000*%
%ADD18R,1.500000X2.500000*%
%ADD19O,1.500000X2.500000*%
%ADD20O,2.200000X3.500000*%
%ADD21R,2.600000X2.600000*%
%ADD22C,2.600000*%
%ADD23R,1.600000X2.400000*%
%ADD24O,1.600000X2.400000*%
G04 APERTURE END LIST*
D10*
%TO.C,SW6*%
X65500000Y-74000000D03*
D11*
X65500000Y-72000000D03*
X65500000Y-70000000D03*
D12*
X65500000Y-76100000D03*
X65500000Y-67900000D03*
%TD*%
D13*
%TO.C,D9*%
X8000000Y-18775000D03*
D14*
X8000000Y-16235000D03*
%TD*%
D10*
%TO.C,SW5*%
X58500000Y-74000000D03*
D11*
X58500000Y-72000000D03*
X58500000Y-70000000D03*
D12*
X58500000Y-67900000D03*
X58500000Y-76100000D03*
%TD*%
D13*
%TO.C,D8*%
X79500000Y-59275000D03*
D14*
X79500000Y-56735000D03*
%TD*%
D13*
%TO.C,D7*%
X72500000Y-59275000D03*
D14*
X72500000Y-56735000D03*
%TD*%
D15*
%TO.C,C1*%
X46250000Y-64500000D03*
X43750000Y-64500000D03*
%TD*%
D10*
%TO.C,SW2*%
X17500000Y-74000000D03*
D11*
X17500000Y-72000000D03*
X17500000Y-70000000D03*
D12*
X17500000Y-67900000D03*
X17500000Y-76100000D03*
%TD*%
D15*
%TO.C,R4*%
X32545000Y-63000000D03*
D16*
X30005000Y-63000000D03*
%TD*%
D15*
%TO.C,R10*%
X35795000Y-10500000D03*
D16*
X33255000Y-10500000D03*
%TD*%
D13*
%TO.C,D3*%
X24545000Y-59275000D03*
D14*
X24545000Y-56735000D03*
%TD*%
D10*
%TO.C,SW1*%
X10500000Y-74000000D03*
D11*
X10500000Y-72000000D03*
X10500000Y-70000000D03*
D12*
X10500000Y-67900000D03*
X10500000Y-76100000D03*
%TD*%
D10*
%TO.C,SW8*%
X79500000Y-74000000D03*
D11*
X79500000Y-72000000D03*
X79500000Y-70000000D03*
D12*
X79500000Y-76100000D03*
X79500000Y-67900000D03*
%TD*%
D17*
%TO.C,H4*%
X86500000Y-3500000D03*
%TD*%
D10*
%TO.C,SW4*%
X31500000Y-74000000D03*
D11*
X31500000Y-72000000D03*
X31500000Y-70000000D03*
D12*
X31500000Y-76100000D03*
X31500000Y-67900000D03*
%TD*%
D17*
%TO.C,H2*%
X3500000Y-76500000D03*
%TD*%
D13*
%TO.C,D5*%
X58500000Y-59275000D03*
D14*
X58500000Y-56735000D03*
%TD*%
D15*
%TO.C,R2*%
X18545000Y-63000000D03*
D16*
X16005000Y-63000000D03*
%TD*%
D13*
%TO.C,D14*%
X84000000Y-20025000D03*
D14*
X84000000Y-17485000D03*
%TD*%
D15*
%TO.C,R14*%
X78500000Y-20045000D03*
D16*
X78500000Y-17505000D03*
%TD*%
D18*
%TO.C,SW9*%
X80000000Y-25955000D03*
D19*
X82000000Y-25955000D03*
X84000000Y-25955000D03*
D20*
X86100000Y-25955000D03*
X77900000Y-25955000D03*
%TD*%
D13*
%TO.C,D12*%
X48750000Y-4225000D03*
D14*
X48750000Y-6765000D03*
%TD*%
D21*
%TO.C,J1*%
X42455000Y-74500000D03*
D22*
X47535000Y-74500000D03*
%TD*%
D15*
%TO.C,R12*%
X49795000Y-10500000D03*
D16*
X47255000Y-10500000D03*
%TD*%
D15*
%TO.C,R7*%
X73545000Y-63000000D03*
D16*
X71005000Y-63000000D03*
%TD*%
D17*
%TO.C,H1*%
X3500000Y-3500000D03*
%TD*%
D15*
%TO.C,R6*%
X66545000Y-63000000D03*
D16*
X64005000Y-63000000D03*
%TD*%
D15*
%TO.C,R9*%
X9045000Y-22500000D03*
D16*
X6505000Y-22500000D03*
%TD*%
D15*
%TO.C,R11*%
X42795000Y-10500000D03*
D16*
X40255000Y-10500000D03*
%TD*%
D23*
%TO.C,U1*%
X56630000Y-46060000D03*
D24*
X59170000Y-46060000D03*
X61710000Y-46060000D03*
X64250000Y-46060000D03*
X66790000Y-46060000D03*
X69330000Y-46060000D03*
X71870000Y-46060000D03*
X71870000Y-38440000D03*
X69330000Y-38440000D03*
X66790000Y-38440000D03*
X64250000Y-38440000D03*
X61710000Y-38440000D03*
X59170000Y-38440000D03*
X56630000Y-38440000D03*
%TD*%
D23*
%TO.C,U2*%
X36110000Y-31310000D03*
D24*
X38650000Y-31310000D03*
X41190000Y-31310000D03*
X43730000Y-31310000D03*
X46270000Y-31310000D03*
X48810000Y-31310000D03*
X51350000Y-31310000D03*
X53890000Y-31310000D03*
X53890000Y-23690000D03*
X51350000Y-23690000D03*
X48810000Y-23690000D03*
X46270000Y-23690000D03*
X43730000Y-23690000D03*
X41190000Y-23690000D03*
X38650000Y-23690000D03*
X36110000Y-23690000D03*
%TD*%
D13*
%TO.C,D4*%
X31500000Y-59275000D03*
D14*
X31500000Y-56735000D03*
%TD*%
D13*
%TO.C,D1*%
X10500000Y-59275000D03*
D14*
X10500000Y-56735000D03*
%TD*%
D13*
%TO.C,D2*%
X17500000Y-59275000D03*
D14*
X17500000Y-56735000D03*
%TD*%
D15*
%TO.C,R1*%
X11545000Y-63000000D03*
D16*
X9005000Y-63000000D03*
%TD*%
D13*
%TO.C,D11*%
X41750000Y-4225000D03*
D14*
X41750000Y-6765000D03*
%TD*%
D13*
%TO.C,D6*%
X65500000Y-59275000D03*
D14*
X65500000Y-56735000D03*
%TD*%
D15*
%TO.C,R8*%
X80545000Y-63000000D03*
D16*
X78005000Y-63000000D03*
%TD*%
D10*
%TO.C,SW3*%
X24500000Y-74000000D03*
D11*
X24500000Y-72000000D03*
X24500000Y-70000000D03*
D12*
X24500000Y-76100000D03*
X24500000Y-67900000D03*
%TD*%
D15*
%TO.C,R3*%
X25545000Y-63000000D03*
D16*
X23005000Y-63000000D03*
%TD*%
D15*
%TO.C,R5*%
X59545000Y-63000000D03*
D16*
X57005000Y-63000000D03*
%TD*%
D13*
%TO.C,D10*%
X34750000Y-4225000D03*
D14*
X34750000Y-6765000D03*
%TD*%
D10*
%TO.C,SW7*%
X72500000Y-74000000D03*
D11*
X72500000Y-72000000D03*
X72500000Y-70000000D03*
D12*
X72500000Y-76100000D03*
X72500000Y-67900000D03*
%TD*%
D15*
%TO.C,R13*%
X56795000Y-10500000D03*
D16*
X54255000Y-10500000D03*
%TD*%
D17*
%TO.C,H3*%
X86500000Y-76500000D03*
%TD*%
D13*
%TO.C,D13*%
X55750000Y-4225000D03*
D14*
X55750000Y-6765000D03*
%TD*%
M02*
