(kicad_symbol_lib (version 20201005) (generator kicad_symbol_editor)
  (symbol "HT16K33:HT16K33" (in_bom yes) (on_board yes)
    (property "Reference" "U" (id 0) (at 10.16 3.81 0)
      (effects (font (size 1.27 1.27)))
    )
    (property "Value" "HT16K33" (id 1) (at 10.16 1.27 0)
      (effects (font (size 1.27 1.27)))
    )
    (property "Footprint" "" (id 2) (at 0 0 0)
      (effects (font (size 1.27 1.27)) hide)
    )
    (property "Datasheet" "" (id 3) (at 0 0 0)
      (effects (font (size 1.27 1.27)) hide)
    )
    (symbol "HT16K33_0_1"
      (rectangle (start 0 0) (end 20.32 -33.02)
        (stroke (width 0.1524)) (fill (type background))
      )
    )
    (symbol "HT16K33_1_1"
      (pin passive line (at -2.54 -2.54 0) (length 2.54)
        (name "VSS" (effects (font (size 1.27 1.27))))
        (number "1" (effects (font (size 1.27 1.27))))
      )
      (pin passive line (at -2.54 -25.4 0) (length 2.54)
        (name "ROW11" (effects (font (size 1.27 1.27))))
        (number "10" (effects (font (size 1.27 1.27))))
      )
      (pin passive line (at -2.54 -27.94 0) (length 2.54)
        (name "ROW10" (effects (font (size 1.27 1.27))))
        (number "11" (effects (font (size 1.27 1.27))))
      )
      (pin passive line (at -2.54 -30.48 0) (length 2.54)
        (name "ROW9" (effects (font (size 1.27 1.27))))
        (number "12" (effects (font (size 1.27 1.27))))
      )
      (pin passive line (at 22.86 -30.48 180) (length 2.54)
        (name "ROW8" (effects (font (size 1.27 1.27))))
        (number "13" (effects (font (size 1.27 1.27))))
      )
      (pin passive line (at 22.86 -27.94 180) (length 2.54)
        (name "ROW7" (effects (font (size 1.27 1.27))))
        (number "14" (effects (font (size 1.27 1.27))))
      )
      (pin passive line (at 22.86 -25.4 180) (length 2.54)
        (name "ROW6" (effects (font (size 1.27 1.27))))
        (number "15" (effects (font (size 1.27 1.27))))
      )
      (pin passive line (at 22.86 -22.86 180) (length 2.54)
        (name "ROW5" (effects (font (size 1.27 1.27))))
        (number "16" (effects (font (size 1.27 1.27))))
      )
      (pin passive line (at 22.86 -20.32 180) (length 2.54)
        (name "ROW4" (effects (font (size 1.27 1.27))))
        (number "17" (effects (font (size 1.27 1.27))))
      )
      (pin passive line (at 22.86 -17.78 180) (length 2.54)
        (name "ROW3" (effects (font (size 1.27 1.27))))
        (number "18" (effects (font (size 1.27 1.27))))
      )
      (pin passive line (at 22.86 -15.24 180) (length 2.54)
        (name "ROW2" (effects (font (size 1.27 1.27))))
        (number "19" (effects (font (size 1.27 1.27))))
      )
      (pin passive line (at -2.54 -5.08 0) (length 2.54)
        (name "COM0/AD" (effects (font (size 1.27 1.27))))
        (number "2" (effects (font (size 1.27 1.27))))
      )
      (pin passive line (at 22.86 -12.7 180) (length 2.54)
        (name "ROW1" (effects (font (size 1.27 1.27))))
        (number "20" (effects (font (size 1.27 1.27))))
      )
      (pin passive line (at 22.86 -10.16 180) (length 2.54)
        (name "ROW0" (effects (font (size 1.27 1.27))))
        (number "21" (effects (font (size 1.27 1.27))))
      )
      (pin passive line (at 22.86 -7.62 180) (length 2.54)
        (name "SCL" (effects (font (size 1.27 1.27))))
        (number "22" (effects (font (size 1.27 1.27))))
      )
      (pin passive line (at 22.86 -5.08 180) (length 2.54)
        (name "SDA" (effects (font (size 1.27 1.27))))
        (number "23" (effects (font (size 1.27 1.27))))
      )
      (pin passive line (at 22.86 -2.54 180) (length 2.54)
        (name "VDD" (effects (font (size 1.27 1.27))))
        (number "24" (effects (font (size 1.27 1.27))))
      )
      (pin passive line (at -2.54 -7.62 0) (length 2.54)
        (name "COM1/KS0" (effects (font (size 1.27 1.27))))
        (number "3" (effects (font (size 1.27 1.27))))
      )
      (pin passive line (at -2.54 -10.16 0) (length 2.54)
        (name "COM2/KS1" (effects (font (size 1.27 1.27))))
        (number "4" (effects (font (size 1.27 1.27))))
      )
      (pin passive line (at -2.54 -12.7 0) (length 2.54)
        (name "COM3/KS2" (effects (font (size 1.27 1.27))))
        (number "5" (effects (font (size 1.27 1.27))))
      )
      (pin passive line (at -2.54 -15.24 0) (length 2.54)
        (name "COM4" (effects (font (size 1.27 1.27))))
        (number "6" (effects (font (size 1.27 1.27))))
      )
      (pin passive line (at -2.54 -17.78 0) (length 2.54)
        (name "COM5" (effects (font (size 1.27 1.27))))
        (number "7" (effects (font (size 1.27 1.27))))
      )
      (pin passive line (at -2.54 -20.32 0) (length 2.54)
        (name "COM6" (effects (font (size 1.27 1.27))))
        (number "8" (effects (font (size 1.27 1.27))))
      )
      (pin passive line (at -2.54 -22.86 0) (length 2.54)
        (name "COM7" (effects (font (size 1.27 1.27))))
        (number "9" (effects (font (size 1.27 1.27))))
      )
    )
  )
)
