%TF.GenerationSoftware,KiCad,Pcbnew,(6.99.0)*%
%TF.CreationDate,2021-12-23T22:54:06+01:00*%
%TF.ProjectId,MiniALU_LED_ReferenceCard_2Complement,4d696e69-414c-4555-9f4c-45445f526566,rev?*%
%TF.SameCoordinates,Original*%
%TF.FileFunction,Legend,Bot*%
%TF.FilePolarity,Positive*%
%FSLAX46Y46*%
G04 Gerber Fmt 4.6, Leading zero omitted, Abs format (unit mm)*
G04 Created by KiCad (PCBNEW (6.99.0)) date 2021-12-23 22:54:06*
%MOMM*%
%LPD*%
G01*
G04 APERTURE LIST*
%ADD10C,0.150000*%
%ADD11C,0.120000*%
%ADD12C,0.810000*%
%ADD13C,0.560000*%
G04 APERTURE END LIST*
D10*
X32733333Y-37066666D02*
X33066666Y-37066666D01*
X33066666Y-36366666D01*
X32500000Y-36700000D02*
X32266666Y-36700000D01*
X32166666Y-37066666D02*
X32500000Y-37066666D01*
X32500000Y-36366666D01*
X32166666Y-36366666D01*
X31866666Y-37066666D02*
X31866666Y-36366666D01*
X31700000Y-36366666D01*
X31600000Y-36400000D01*
X31533333Y-36466666D01*
X31500000Y-36533333D01*
X31466666Y-36666666D01*
X31466666Y-36766666D01*
X31500000Y-36900000D01*
X31533333Y-36966666D01*
X31600000Y-37033333D01*
X31700000Y-37066666D01*
X31866666Y-37066666D01*
X31166666Y-36800000D02*
X30633333Y-36800000D01*
X29900000Y-37066666D02*
X30133333Y-36733333D01*
X30300000Y-37066666D02*
X30300000Y-36366666D01*
X30033333Y-36366666D01*
X29966666Y-36400000D01*
X29933333Y-36433333D01*
X29900000Y-36500000D01*
X29900000Y-36600000D01*
X29933333Y-36666666D01*
X29966666Y-36700000D01*
X30033333Y-36733333D01*
X30300000Y-36733333D01*
X29333333Y-37033333D02*
X29400000Y-37066666D01*
X29533333Y-37066666D01*
X29600000Y-37033333D01*
X29633333Y-36966666D01*
X29633333Y-36700000D01*
X29600000Y-36633333D01*
X29533333Y-36600000D01*
X29400000Y-36600000D01*
X29333333Y-36633333D01*
X29300000Y-36700000D01*
X29300000Y-36766666D01*
X29633333Y-36833333D01*
X29100000Y-36600000D02*
X28833333Y-36600000D01*
X29000000Y-37066666D02*
X29000000Y-36466666D01*
X28966666Y-36400000D01*
X28900000Y-36366666D01*
X28833333Y-36366666D01*
X28333333Y-37033333D02*
X28400000Y-37066666D01*
X28533333Y-37066666D01*
X28600000Y-37033333D01*
X28633333Y-36966666D01*
X28633333Y-36700000D01*
X28600000Y-36633333D01*
X28533333Y-36600000D01*
X28400000Y-36600000D01*
X28333333Y-36633333D01*
X28300000Y-36700000D01*
X28300000Y-36766666D01*
X28633333Y-36833333D01*
X28000000Y-37066666D02*
X28000000Y-36600000D01*
X28000000Y-36733333D02*
X27966666Y-36666666D01*
X27933333Y-36633333D01*
X27866666Y-36600000D01*
X27800000Y-36600000D01*
X27300000Y-37033333D02*
X27366666Y-37066666D01*
X27500000Y-37066666D01*
X27566666Y-37033333D01*
X27600000Y-36966666D01*
X27600000Y-36700000D01*
X27566666Y-36633333D01*
X27500000Y-36600000D01*
X27366666Y-36600000D01*
X27300000Y-36633333D01*
X27266666Y-36700000D01*
X27266666Y-36766666D01*
X27600000Y-36833333D01*
X26966666Y-36600000D02*
X26966666Y-37066666D01*
X26966666Y-36666666D02*
X26933333Y-36633333D01*
X26866666Y-36600000D01*
X26766666Y-36600000D01*
X26700000Y-36633333D01*
X26666666Y-36700000D01*
X26666666Y-37066666D01*
X26400000Y-36600000D02*
X26033333Y-36600000D01*
X26400000Y-37066666D01*
X26033333Y-37066666D01*
X25766666Y-37066666D02*
X25766666Y-36366666D01*
X25700000Y-36800000D02*
X25500000Y-37066666D01*
X25500000Y-36600000D02*
X25766666Y-36866666D01*
X24900000Y-37066666D02*
X24900000Y-36700000D01*
X24933333Y-36633333D01*
X25000000Y-36600000D01*
X25133333Y-36600000D01*
X25200000Y-36633333D01*
X24900000Y-37033333D02*
X24966666Y-37066666D01*
X25133333Y-37066666D01*
X25200000Y-37033333D01*
X25233333Y-36966666D01*
X25233333Y-36900000D01*
X25200000Y-36833333D01*
X25133333Y-36800000D01*
X24966666Y-36800000D01*
X24900000Y-36766666D01*
X24566666Y-37066666D02*
X24566666Y-36600000D01*
X24566666Y-36733333D02*
X24533333Y-36666666D01*
X24500000Y-36633333D01*
X24433333Y-36600000D01*
X24366666Y-36600000D01*
X24233333Y-36600000D02*
X23966666Y-36600000D01*
X24133333Y-36366666D02*
X24133333Y-36966666D01*
X24100000Y-37033333D01*
X24033333Y-37066666D01*
X23966666Y-37066666D01*
X23466666Y-37033333D02*
X23533333Y-37066666D01*
X23666666Y-37066666D01*
X23733333Y-37033333D01*
X23766666Y-36966666D01*
X23766666Y-36700000D01*
X23733333Y-36633333D01*
X23666666Y-36600000D01*
X23533333Y-36600000D01*
X23466666Y-36633333D01*
X23433333Y-36700000D01*
X23433333Y-36766666D01*
X23766666Y-36833333D01*
X22700000Y-36600000D02*
X22433333Y-36600000D01*
X22600000Y-37066666D02*
X22600000Y-36466666D01*
X22566666Y-36400000D01*
X22500000Y-36366666D01*
X22433333Y-36366666D01*
X21900000Y-36600000D02*
X21900000Y-37066666D01*
X22200000Y-36600000D02*
X22200000Y-36966666D01*
X22166666Y-37033333D01*
X22100000Y-37066666D01*
X22000000Y-37066666D01*
X21933333Y-37033333D01*
X21900000Y-37000000D01*
X22166666Y-36366666D02*
X22133333Y-36400000D01*
X22166666Y-36433333D01*
X22200000Y-36400000D01*
X22166666Y-36366666D01*
X22166666Y-36433333D01*
X21900000Y-36366666D02*
X21866666Y-36400000D01*
X21900000Y-36433333D01*
X21933333Y-36400000D01*
X21900000Y-36366666D01*
X21900000Y-36433333D01*
X21566666Y-37066666D02*
X21566666Y-36600000D01*
X21566666Y-36733333D02*
X21533333Y-36666666D01*
X21500000Y-36633333D01*
X21433333Y-36600000D01*
X21366666Y-36600000D01*
X20600000Y-37066666D02*
X20600000Y-36366666D01*
X20366666Y-36866666D01*
X20133333Y-36366666D01*
X20133333Y-37066666D01*
X19800000Y-37066666D02*
X19800000Y-36600000D01*
X19800000Y-36366666D02*
X19833333Y-36400000D01*
X19800000Y-36433333D01*
X19766666Y-36400000D01*
X19800000Y-36366666D01*
X19800000Y-36433333D01*
X19466666Y-36600000D02*
X19466666Y-37066666D01*
X19466666Y-36666666D02*
X19433333Y-36633333D01*
X19366666Y-36600000D01*
X19266666Y-36600000D01*
X19200000Y-36633333D01*
X19166666Y-36700000D01*
X19166666Y-37066666D01*
X18833333Y-37066666D02*
X18833333Y-36600000D01*
X18833333Y-36366666D02*
X18866666Y-36400000D01*
X18833333Y-36433333D01*
X18800000Y-36400000D01*
X18833333Y-36366666D01*
X18833333Y-36433333D01*
X18533333Y-36866666D02*
X18200000Y-36866666D01*
X18600000Y-37066666D02*
X18366666Y-36366666D01*
X18133333Y-37066666D01*
X17566666Y-37066666D02*
X17900000Y-37066666D01*
X17900000Y-36366666D01*
X17333333Y-36366666D02*
X17333333Y-36933333D01*
X17300000Y-37000000D01*
X17266666Y-37033333D01*
X17200000Y-37066666D01*
X17066666Y-37066666D01*
X17000000Y-37033333D01*
X16966666Y-37000000D01*
X16933333Y-36933333D01*
X16933333Y-36366666D01*
X18607142Y-1434523D02*
X18547619Y-1375000D01*
X18428571Y-1315476D01*
X18130952Y-1315476D01*
X18011904Y-1375000D01*
X17952380Y-1434523D01*
X17892857Y-1553571D01*
X17892857Y-1672619D01*
X17952380Y-1851190D01*
X18666666Y-2565476D01*
X17892857Y-2565476D01*
X19321428Y-32089285D02*
X18369047Y-32089285D01*
X17833333Y-31434523D02*
X17773809Y-31375000D01*
X17654761Y-31315476D01*
X17357142Y-31315476D01*
X17238095Y-31375000D01*
X17178571Y-31434523D01*
X17119047Y-31553571D01*
X17119047Y-31672619D01*
X17178571Y-31851190D01*
X17892857Y-32565476D01*
X17119047Y-32565476D01*
D11*
X36000000Y5500000D02*
G75*
G03*
X35000000Y6500000I-999999J1D01*
G01*
D10*
X19321428Y-24589285D02*
X18369047Y-24589285D01*
X17178571Y-23815476D02*
X17773809Y-23815476D01*
X17833333Y-24410714D01*
X17773809Y-24351190D01*
X17654761Y-24291666D01*
X17357142Y-24291666D01*
X17238095Y-24351190D01*
X17178571Y-24410714D01*
X17119047Y-24529761D01*
X17119047Y-24827380D01*
X17178571Y-24946428D01*
X17238095Y-25005952D01*
X17357142Y-25065476D01*
X17654761Y-25065476D01*
X17773809Y-25005952D01*
X17833333Y-24946428D01*
X18011904Y-11315476D02*
X18250000Y-11315476D01*
X18369047Y-11375000D01*
X18428571Y-11434523D01*
X18547619Y-11613095D01*
X18607142Y-11851190D01*
X18607142Y-12327380D01*
X18547619Y-12446428D01*
X18488095Y-12505952D01*
X18369047Y-12565476D01*
X18130952Y-12565476D01*
X18011904Y-12505952D01*
X17952380Y-12446428D01*
X17892857Y-12327380D01*
X17892857Y-12029761D01*
X17952380Y-11910714D01*
X18011904Y-11851190D01*
X18130952Y-11791666D01*
X18369047Y-11791666D01*
X18488095Y-11851190D01*
X18547619Y-11910714D01*
X18607142Y-12029761D01*
D11*
X28000000Y-17000000D02*
G75*
G03*
X28000000Y-17000000I-750000J0D01*
G01*
D12*
X32655000Y-27000000D02*
G75*
G03*
X32655000Y-27000000I-405000J0D01*
G01*
D11*
X28000000Y-19500000D02*
G75*
G03*
X28000000Y-19500000I-750000J0D01*
G01*
D12*
X32655000Y-32000000D02*
G75*
G03*
X32655000Y-32000000I-405000J0D01*
G01*
D11*
X30500000Y3000000D02*
G75*
G03*
X30500000Y3000000I-750000J0D01*
G01*
X30500000Y-19500000D02*
G75*
G03*
X30500000Y-19500000I-750000J0D01*
G01*
D12*
X27655000Y-2000000D02*
G75*
G03*
X27655000Y-2000000I-405000J0D01*
G01*
X25155000Y-29500000D02*
G75*
G03*
X25155000Y-29500000I-405000J0D01*
G01*
D11*
X25500000Y-27000000D02*
G75*
G03*
X25500000Y-27000000I-750000J0D01*
G01*
X25500000Y-32000000D02*
G75*
G03*
X25500000Y-32000000I-750000J0D01*
G01*
X30500000Y-22000000D02*
G75*
G03*
X30500000Y-22000000I-750000J0D01*
G01*
X33000000Y-4500000D02*
G75*
G03*
X33000000Y-4500000I-750000J0D01*
G01*
X25500000Y-2000000D02*
G75*
G03*
X25500000Y-2000000I-750000J0D01*
G01*
X30500000Y-4500000D02*
G75*
G03*
X30500000Y-4500000I-750000J0D01*
G01*
X33000000Y-14500000D02*
G75*
G03*
X33000000Y-14500000I-750000J0D01*
G01*
D12*
X30155000Y-12000000D02*
G75*
G03*
X30155000Y-12000000I-405000J0D01*
G01*
X30155000Y-14500000D02*
G75*
G03*
X30155000Y-14500000I-405000J0D01*
G01*
X30155000Y-7000000D02*
G75*
G03*
X30155000Y-7000000I-405000J0D01*
G01*
X25155000Y-9500000D02*
G75*
G03*
X25155000Y-9500000I-405000J0D01*
G01*
D11*
X33000000Y-7000000D02*
G75*
G03*
X33000000Y-7000000I-750000J0D01*
G01*
X30500000Y-24500000D02*
G75*
G03*
X30500000Y-24500000I-750000J0D01*
G01*
D12*
X27655000Y-32000000D02*
G75*
G03*
X27655000Y-32000000I-405000J0D01*
G01*
X30155000Y-29500000D02*
G75*
G03*
X30155000Y-29500000I-405000J0D01*
G01*
X25155000Y-4500000D02*
G75*
G03*
X25155000Y-4500000I-405000J0D01*
G01*
D11*
X33000000Y500000D02*
G75*
G03*
X33000000Y500000I-750000J0D01*
G01*
X25500000Y-12000000D02*
G75*
G03*
X25500000Y-12000000I-750000J0D01*
G01*
X30500000Y-2000000D02*
G75*
G03*
X30500000Y-2000000I-750000J0D01*
G01*
X33000000Y3000000D02*
G75*
G03*
X33000000Y3000000I-750000J0D01*
G01*
X28000000Y-29500000D02*
G75*
G03*
X28000000Y-29500000I-750000J0D01*
G01*
D12*
X27655000Y-22000000D02*
G75*
G03*
X27655000Y-22000000I-405000J0D01*
G01*
X32655000Y-29500000D02*
G75*
G03*
X32655000Y-29500000I-405000J0D01*
G01*
X25155000Y-34500000D02*
G75*
G03*
X25155000Y-34500000I-405000J0D01*
G01*
X27655000Y-24500000D02*
G75*
G03*
X27655000Y-24500000I-405000J0D01*
G01*
D11*
X28000000Y-27000000D02*
G75*
G03*
X28000000Y-27000000I-750000J0D01*
G01*
X28000000Y3000000D02*
G75*
G03*
X28000000Y3000000I-750000J0D01*
G01*
D12*
X27655000Y-12000000D02*
G75*
G03*
X27655000Y-12000000I-405000J0D01*
G01*
X25155000Y500000D02*
G75*
G03*
X25155000Y500000I-405000J0D01*
G01*
D11*
X25500000Y-7000000D02*
G75*
G03*
X25500000Y-7000000I-750000J0D01*
G01*
X25500000Y-17000000D02*
G75*
G03*
X25500000Y-17000000I-750000J0D01*
G01*
X28000000Y-9500000D02*
G75*
G03*
X28000000Y-9500000I-750000J0D01*
G01*
X33000000Y-2000000D02*
G75*
G03*
X33000000Y-2000000I-750000J0D01*
G01*
X28000000Y-7000000D02*
G75*
G03*
X28000000Y-7000000I-750000J0D01*
G01*
D12*
X27655000Y-4500000D02*
G75*
G03*
X27655000Y-4500000I-405000J0D01*
G01*
D11*
X33000000Y-9500000D02*
G75*
G03*
X33000000Y-9500000I-750000J0D01*
G01*
D12*
X32655000Y-17000000D02*
G75*
G03*
X32655000Y-17000000I-405000J0D01*
G01*
D11*
X33000000Y-12000000D02*
G75*
G03*
X33000000Y-12000000I-750000J0D01*
G01*
X25500000Y3000000D02*
G75*
G03*
X25500000Y3000000I-750000J0D01*
G01*
D12*
X30155000Y-9500000D02*
G75*
G03*
X30155000Y-9500000I-405000J0D01*
G01*
X30155000Y-34500000D02*
G75*
G03*
X30155000Y-34500000I-405000J0D01*
G01*
X32655000Y-19500000D02*
G75*
G03*
X32655000Y-19500000I-405000J0D01*
G01*
X30155000Y-27000000D02*
G75*
G03*
X30155000Y-27000000I-405000J0D01*
G01*
X25155000Y-24500000D02*
G75*
G03*
X25155000Y-24500000I-405000J0D01*
G01*
X25155000Y-19500000D02*
G75*
G03*
X25155000Y-19500000I-405000J0D01*
G01*
X27655000Y-14500000D02*
G75*
G03*
X27655000Y-14500000I-405000J0D01*
G01*
X30155000Y-32000000D02*
G75*
G03*
X30155000Y-32000000I-405000J0D01*
G01*
X27655000Y-34500000D02*
G75*
G03*
X27655000Y-34500000I-405000J0D01*
G01*
X32655000Y-22000000D02*
G75*
G03*
X32655000Y-22000000I-405000J0D01*
G01*
X32655000Y-34500000D02*
G75*
G03*
X32655000Y-34500000I-405000J0D01*
G01*
D11*
X30500000Y-17000000D02*
G75*
G03*
X30500000Y-17000000I-750000J0D01*
G01*
X25500000Y-22000000D02*
G75*
G03*
X25500000Y-22000000I-750000J0D01*
G01*
X28000000Y500000D02*
G75*
G03*
X28000000Y500000I-750000J0D01*
G01*
D12*
X32655000Y-24500000D02*
G75*
G03*
X32655000Y-24500000I-405000J0D01*
G01*
D11*
X30500000Y500000D02*
G75*
G03*
X30500000Y500000I-750000J0D01*
G01*
D12*
X25155000Y-14500000D02*
G75*
G03*
X25155000Y-14500000I-405000J0D01*
G01*
D10*
X34095238Y5571428D02*
X33952380Y5523809D01*
X33904761Y5476190D01*
X33857142Y5380952D01*
X33857142Y5238095D01*
X33904761Y5142857D01*
X33952380Y5095238D01*
X34047619Y5047619D01*
X34428571Y5047619D01*
X34428571Y6047619D01*
X34095238Y6047619D01*
X34000000Y6000000D01*
X33952380Y5952380D01*
X33904761Y5857142D01*
X33904761Y5761904D01*
X33952380Y5666666D01*
X34000000Y5619047D01*
X34095238Y5571428D01*
X34428571Y5571428D01*
X33428571Y5047619D02*
X33428571Y5714285D01*
X33428571Y6047619D02*
X33476190Y6000000D01*
X33428571Y5952380D01*
X33380952Y6000000D01*
X33428571Y6047619D01*
X33428571Y5952380D01*
X32952380Y5714285D02*
X32952380Y5047619D01*
X32952380Y5619047D02*
X32904761Y5666666D01*
X32809523Y5714285D01*
X32666666Y5714285D01*
X32571428Y5666666D01*
X32523809Y5571428D01*
X32523809Y5047619D01*
X31619047Y5047619D02*
X31619047Y5571428D01*
X31666666Y5666666D01*
X31761904Y5714285D01*
X31952380Y5714285D01*
X32047619Y5666666D01*
X31619047Y5095238D02*
X31714285Y5047619D01*
X31952380Y5047619D01*
X32047619Y5095238D01*
X32095238Y5190476D01*
X32095238Y5285714D01*
X32047619Y5380952D01*
X31952380Y5428571D01*
X31714285Y5428571D01*
X31619047Y5476190D01*
X32047619Y6047619D02*
X32000000Y6000000D01*
X32047619Y5952380D01*
X32095238Y6000000D01*
X32047619Y6047619D01*
X32047619Y5952380D01*
X31666666Y6047619D02*
X31619047Y6000000D01*
X31666666Y5952380D01*
X31714285Y6000000D01*
X31666666Y6047619D01*
X31666666Y5952380D01*
X31142857Y5047619D02*
X31142857Y5714285D01*
X31142857Y5523809D02*
X31095238Y5619047D01*
X31047619Y5666666D01*
X30952380Y5714285D01*
X30857142Y5714285D01*
X30095238Y5047619D02*
X30095238Y6047619D01*
X30095238Y5095238D02*
X30190476Y5047619D01*
X30380952Y5047619D01*
X30476190Y5095238D01*
X30523809Y5142857D01*
X30571428Y5238095D01*
X30571428Y5523809D01*
X30523809Y5619047D01*
X30476190Y5666666D01*
X30380952Y5714285D01*
X30190476Y5714285D01*
X30095238Y5666666D01*
X29190476Y5047619D02*
X29190476Y5571428D01*
X29238095Y5666666D01*
X29333333Y5714285D01*
X29523809Y5714285D01*
X29619047Y5666666D01*
X29190476Y5095238D02*
X29285714Y5047619D01*
X29523809Y5047619D01*
X29619047Y5095238D01*
X29666666Y5190476D01*
X29666666Y5285714D01*
X29619047Y5380952D01*
X29523809Y5428571D01*
X29285714Y5428571D01*
X29190476Y5476190D01*
X28714285Y5047619D02*
X28714285Y5714285D01*
X28714285Y5523809D02*
X28666666Y5619047D01*
X28619047Y5666666D01*
X28523809Y5714285D01*
X28428571Y5714285D01*
X28142857Y5095238D02*
X28047619Y5047619D01*
X27857142Y5047619D01*
X27761904Y5095238D01*
X27714285Y5190476D01*
X27714285Y5238095D01*
X27761904Y5333333D01*
X27857142Y5380952D01*
X28000000Y5380952D01*
X28095238Y5428571D01*
X28142857Y5523809D01*
X28142857Y5571428D01*
X28095238Y5666666D01*
X28000000Y5714285D01*
X27857142Y5714285D01*
X27761904Y5666666D01*
X27428571Y5714285D02*
X27047619Y5714285D01*
X27285714Y6047619D02*
X27285714Y5190476D01*
X27238095Y5095238D01*
X27142857Y5047619D01*
X27047619Y5047619D01*
X26333333Y5095238D02*
X26428571Y5047619D01*
X26619047Y5047619D01*
X26714285Y5095238D01*
X26761904Y5190476D01*
X26761904Y5571428D01*
X26714285Y5666666D01*
X26619047Y5714285D01*
X26428571Y5714285D01*
X26333333Y5666666D01*
X26285714Y5571428D01*
X26285714Y5476190D01*
X26761904Y5380952D01*
X25714285Y5047619D02*
X25809523Y5095238D01*
X25857142Y5190476D01*
X25857142Y6047619D01*
X25190476Y5047619D02*
X25285714Y5095238D01*
X25333333Y5190476D01*
X25333333Y6047619D01*
X24380952Y5714285D02*
X24380952Y5047619D01*
X24809523Y5714285D02*
X24809523Y5190476D01*
X24761904Y5095238D01*
X24666666Y5047619D01*
X24523809Y5047619D01*
X24428571Y5095238D01*
X24380952Y5142857D01*
X23904761Y5714285D02*
X23904761Y5047619D01*
X23904761Y5619047D02*
X23857142Y5666666D01*
X23761904Y5714285D01*
X23619047Y5714285D01*
X23523809Y5666666D01*
X23476190Y5571428D01*
X23476190Y5047619D01*
X22571428Y5714285D02*
X22571428Y4904761D01*
X22619047Y4809523D01*
X22666666Y4761904D01*
X22761904Y4714285D01*
X22904761Y4714285D01*
X23000000Y4761904D01*
X22571428Y5095238D02*
X22666666Y5047619D01*
X22857142Y5047619D01*
X22952380Y5095238D01*
X23000000Y5142857D01*
X23047619Y5238095D01*
X23047619Y5523809D01*
X23000000Y5619047D01*
X22952380Y5666666D01*
X22857142Y5714285D01*
X22666666Y5714285D01*
X22571428Y5666666D01*
D11*
X15000000Y6500000D02*
X35000000Y6500000D01*
X14000000Y5500000D02*
X14000000Y-35000000D01*
X21750000Y-36000000D02*
X21750000Y6500000D01*
D10*
X18666666Y-13815476D02*
X17833333Y-13815476D01*
X18369047Y-15065476D01*
X19321428Y-17089285D02*
X18369047Y-17089285D01*
X17595238Y-16851190D02*
X17714285Y-16791666D01*
X17773809Y-16732142D01*
X17833333Y-16613095D01*
X17833333Y-16553571D01*
X17773809Y-16434523D01*
X17714285Y-16375000D01*
X17595238Y-16315476D01*
X17357142Y-16315476D01*
X17238095Y-16375000D01*
X17178571Y-16434523D01*
X17119047Y-16553571D01*
X17119047Y-16613095D01*
X17178571Y-16732142D01*
X17238095Y-16791666D01*
X17357142Y-16851190D01*
X17595238Y-16851190D01*
X17714285Y-16910714D01*
X17773809Y-16970238D01*
X17833333Y-17089285D01*
X17833333Y-17327380D01*
X17773809Y-17446428D01*
X17714285Y-17505952D01*
X17595238Y-17565476D01*
X17357142Y-17565476D01*
X17238095Y-17505952D01*
X17178571Y-17446428D01*
X17119047Y-17327380D01*
X17119047Y-17089285D01*
X17178571Y-16970238D01*
X17238095Y-16910714D01*
X17357142Y-16851190D01*
X18666666Y-3815476D02*
X17892857Y-3815476D01*
X18309523Y-4291666D01*
X18130952Y-4291666D01*
X18011904Y-4351190D01*
X17952380Y-4410714D01*
X17892857Y-4529761D01*
X17892857Y-4827380D01*
X17952380Y-4946428D01*
X18011904Y-5005952D01*
X18130952Y-5065476D01*
X18488095Y-5065476D01*
X18607142Y-5005952D01*
X18666666Y-4946428D01*
X18309523Y3684523D02*
X18190476Y3684523D01*
X18071428Y3625000D01*
X18011904Y3565476D01*
X17952380Y3446428D01*
X17892857Y3208333D01*
X17892857Y2910714D01*
X17952380Y2672619D01*
X18011904Y2553571D01*
X18071428Y2494047D01*
X18190476Y2434523D01*
X18309523Y2434523D01*
X18428571Y2494047D01*
X18488095Y2553571D01*
X18547619Y2672619D01*
X18607142Y2910714D01*
X18607142Y3208333D01*
X18547619Y3446428D01*
X18488095Y3565476D01*
X18428571Y3625000D01*
X18309523Y3684523D01*
X17892857Y-65476D02*
X18607142Y-65476D01*
X18250000Y-65476D02*
X18250000Y1184523D01*
X18369047Y1005952D01*
X18488095Y886904D01*
X18607142Y827380D01*
D11*
X36000000Y-35000000D02*
X36000000Y5500000D01*
X15000000Y6500000D02*
G75*
G03*
X14000000Y5500000I-1J-999999D01*
G01*
D10*
X19321428Y-34589285D02*
X18369047Y-34589285D01*
X17119047Y-35065476D02*
X17833333Y-35065476D01*
X17476190Y-35065476D02*
X17476190Y-33815476D01*
X17595238Y-33994047D01*
X17714285Y-34113095D01*
X17833333Y-34172619D01*
X17952380Y-8815476D02*
X18547619Y-8815476D01*
X18607142Y-9410714D01*
X18547619Y-9351190D01*
X18428571Y-9291666D01*
X18130952Y-9291666D01*
X18011904Y-9351190D01*
X17952380Y-9410714D01*
X17892857Y-9529761D01*
X17892857Y-9827380D01*
X17952380Y-9946428D01*
X18011904Y-10005952D01*
X18130952Y-10065476D01*
X18428571Y-10065476D01*
X18547619Y-10005952D01*
X18607142Y-9946428D01*
X19321428Y-19589285D02*
X18369047Y-19589285D01*
X17892857Y-18815476D02*
X17059523Y-18815476D01*
X17595238Y-20065476D01*
X20964285Y5047619D02*
X20964285Y6047619D01*
X20726190Y6047619D01*
X20583333Y6000000D01*
X20488095Y5904761D01*
X20440476Y5809523D01*
X20392857Y5619047D01*
X20392857Y5476190D01*
X20440476Y5285714D01*
X20488095Y5190476D01*
X20583333Y5095238D01*
X20726190Y5047619D01*
X20964285Y5047619D01*
X19583333Y5095238D02*
X19678571Y5047619D01*
X19869047Y5047619D01*
X19964285Y5095238D01*
X20011904Y5190476D01*
X20011904Y5571428D01*
X19964285Y5666666D01*
X19869047Y5714285D01*
X19678571Y5714285D01*
X19583333Y5666666D01*
X19535714Y5571428D01*
X19535714Y5476190D01*
X20011904Y5380952D01*
X19202380Y5714285D02*
X18678571Y5714285D01*
X19202380Y5047619D01*
X18678571Y5047619D01*
X18297619Y5047619D02*
X18297619Y5714285D01*
X18297619Y6047619D02*
X18345238Y6000000D01*
X18297619Y5952380D01*
X18250000Y6000000D01*
X18297619Y6047619D01*
X18297619Y5952380D01*
X17821428Y5047619D02*
X17821428Y5714285D01*
X17821428Y5619047D02*
X17773809Y5666666D01*
X17678571Y5714285D01*
X17535714Y5714285D01*
X17440476Y5666666D01*
X17392857Y5571428D01*
X17392857Y5047619D01*
X17392857Y5571428D02*
X17345238Y5666666D01*
X17250000Y5714285D01*
X17107142Y5714285D01*
X17011904Y5666666D01*
X16964285Y5571428D01*
X16964285Y5047619D01*
X16059523Y5047619D02*
X16059523Y5571428D01*
X16107142Y5666666D01*
X16202380Y5714285D01*
X16392857Y5714285D01*
X16488095Y5666666D01*
X16059523Y5095238D02*
X16154761Y5047619D01*
X16392857Y5047619D01*
X16488095Y5095238D01*
X16535714Y5190476D01*
X16535714Y5285714D01*
X16488095Y5380952D01*
X16392857Y5428571D01*
X16154761Y5428571D01*
X16059523Y5476190D01*
X15440476Y5047619D02*
X15535714Y5095238D01*
X15583333Y5190476D01*
X15583333Y6047619D01*
D11*
X15000000Y-36000000D02*
X35000000Y-36000000D01*
D10*
X19321428Y-29589285D02*
X18369047Y-29589285D01*
X17892857Y-28815476D02*
X17119047Y-28815476D01*
X17535714Y-29291666D01*
X17357142Y-29291666D01*
X17238095Y-29351190D01*
X17178571Y-29410714D01*
X17119047Y-29529761D01*
X17119047Y-29827380D01*
X17178571Y-29946428D01*
X17238095Y-30005952D01*
X17357142Y-30065476D01*
X17714285Y-30065476D01*
X17833333Y-30005952D01*
X17892857Y-29946428D01*
X18011904Y-6732142D02*
X18011904Y-7565476D01*
X18309523Y-6255952D02*
X18607142Y-7148809D01*
X17833333Y-7148809D01*
X19321428Y-22089285D02*
X18369047Y-22089285D01*
X17238095Y-21315476D02*
X17476190Y-21315476D01*
X17595238Y-21375000D01*
X17654761Y-21434523D01*
X17773809Y-21613095D01*
X17833333Y-21851190D01*
X17833333Y-22327380D01*
X17773809Y-22446428D01*
X17714285Y-22505952D01*
X17595238Y-22565476D01*
X17357142Y-22565476D01*
X17238095Y-22505952D01*
X17178571Y-22446428D01*
X17119047Y-22327380D01*
X17119047Y-22029761D01*
X17178571Y-21910714D01*
X17238095Y-21851190D01*
X17357142Y-21791666D01*
X17595238Y-21791666D01*
X17714285Y-21851190D01*
X17773809Y-21910714D01*
X17833333Y-22029761D01*
X19321428Y-27089285D02*
X18369047Y-27089285D01*
X17238095Y-26732142D02*
X17238095Y-27565476D01*
X17535714Y-26255952D02*
X17833333Y-27148809D01*
X17059523Y-27148809D01*
D11*
X14000000Y-35000000D02*
G75*
G03*
X15000000Y-36000000I999999J-1D01*
G01*
X14000000Y4500000D02*
X36000000Y4500000D01*
X35000000Y-36000000D02*
G75*
G03*
X36000000Y-35000000I1J999999D01*
G01*
X30000000Y10000000D02*
X30000000Y8500000D01*
X27500000Y8500000D02*
G75*
G03*
X27500000Y8500000I-500000J0D01*
G01*
D13*
X20280000Y8500000D02*
G75*
G03*
X20280000Y8500000I-280000J0D01*
G01*
D11*
X29000000Y7500000D02*
X15000000Y7500000D01*
X15000000Y11000000D02*
X29000000Y11000000D01*
X15000000Y11000000D02*
G75*
G03*
X14000000Y10000000I-1J-999999D01*
G01*
X14000000Y9250000D02*
X30000000Y9250000D01*
X14000000Y8500000D02*
G75*
G03*
X15000000Y7500000I999999J-1D01*
G01*
X29000000Y7500000D02*
G75*
G03*
X30000000Y8500000I1J999999D01*
G01*
X14000000Y10000000D02*
X14000000Y8500000D01*
X30000000Y10000000D02*
G75*
G03*
X29000000Y11000000I-999999J1D01*
G01*
D10*
X19164404Y8571428D02*
X18402500Y8571428D01*
X18402500Y8285714D02*
X19164404Y8285714D01*
X17497738Y8047619D02*
X17497738Y8571428D01*
X17545357Y8666666D01*
X17640595Y8714285D01*
X17831071Y8714285D01*
X17926309Y8666666D01*
X17497738Y8095238D02*
X17592976Y8047619D01*
X17831071Y8047619D01*
X17926309Y8095238D01*
X17973928Y8190476D01*
X17973928Y8285714D01*
X17926309Y8380952D01*
X17831071Y8428571D01*
X17592976Y8428571D01*
X17497738Y8476190D01*
X17021547Y8714285D02*
X17021547Y8047619D01*
X17021547Y8619047D02*
X16973928Y8666666D01*
X16878690Y8714285D01*
X16735833Y8714285D01*
X16640595Y8666666D01*
X16592976Y8571428D01*
X16592976Y8047619D01*
X26190476Y8571428D02*
X25428571Y8571428D01*
X25428571Y8285714D02*
X26190476Y8285714D01*
X24523809Y8047619D02*
X24523809Y8571428D01*
X24571428Y8666666D01*
X24666666Y8714285D01*
X24857142Y8714285D01*
X24952380Y8666666D01*
X24523809Y8095238D02*
X24619047Y8047619D01*
X24857142Y8047619D01*
X24952380Y8095238D01*
X25000000Y8190476D01*
X25000000Y8285714D01*
X24952380Y8380952D01*
X24857142Y8428571D01*
X24619047Y8428571D01*
X24523809Y8476190D01*
X23619047Y8714285D02*
X23619047Y8047619D01*
X24047619Y8714285D02*
X24047619Y8190476D01*
X24000000Y8095238D01*
X23904761Y8047619D01*
X23761904Y8047619D01*
X23666666Y8095238D01*
X23619047Y8142857D01*
X23190476Y8095238D02*
X23095238Y8047619D01*
X22904761Y8047619D01*
X22809523Y8095238D01*
X22761904Y8190476D01*
X22761904Y8238095D01*
X22809523Y8333333D01*
X22904761Y8380952D01*
X23047619Y8380952D01*
X23142857Y8428571D01*
X23190476Y8523809D01*
X23190476Y8571428D01*
X23142857Y8666666D01*
X23047619Y8714285D01*
X22904761Y8714285D01*
X22809523Y8666666D01*
X28380952Y9547619D02*
X28857142Y9547619D01*
X28857142Y10547619D01*
X28047619Y10071428D02*
X27714285Y10071428D01*
X27571428Y9547619D02*
X28047619Y9547619D01*
X28047619Y10547619D01*
X27571428Y10547619D01*
X27142857Y9547619D02*
X27142857Y10547619D01*
X26904761Y10547619D01*
X26761904Y10500000D01*
X26666666Y10404761D01*
X26619047Y10309523D01*
X26571428Y10119047D01*
X26571428Y9976190D01*
X26619047Y9785714D01*
X26666666Y9690476D01*
X26761904Y9595238D01*
X26904761Y9547619D01*
X27142857Y9547619D01*
X26142857Y9928571D02*
X25380952Y9928571D01*
X24333333Y9547619D02*
X24666666Y10023809D01*
X24904761Y9547619D02*
X24904761Y10547619D01*
X24523809Y10547619D01*
X24428571Y10500000D01*
X24380952Y10452380D01*
X24333333Y10357142D01*
X24333333Y10214285D01*
X24380952Y10119047D01*
X24428571Y10071428D01*
X24523809Y10023809D01*
X24904761Y10023809D01*
X23523809Y9595238D02*
X23619047Y9547619D01*
X23809523Y9547619D01*
X23904761Y9595238D01*
X23952380Y9690476D01*
X23952380Y10071428D01*
X23904761Y10166666D01*
X23809523Y10214285D01*
X23619047Y10214285D01*
X23523809Y10166666D01*
X23476190Y10071428D01*
X23476190Y9976190D01*
X23952380Y9880952D01*
X23190476Y10214285D02*
X22809523Y10214285D01*
X23047619Y9547619D02*
X23047619Y10404761D01*
X23000000Y10500000D01*
X22904761Y10547619D01*
X22809523Y10547619D01*
X22095238Y9595238D02*
X22190476Y9547619D01*
X22380952Y9547619D01*
X22476190Y9595238D01*
X22523809Y9690476D01*
X22523809Y10071428D01*
X22476190Y10166666D01*
X22380952Y10214285D01*
X22190476Y10214285D01*
X22095238Y10166666D01*
X22047619Y10071428D01*
X22047619Y9976190D01*
X22523809Y9880952D01*
X21619047Y9547619D02*
X21619047Y10214285D01*
X21619047Y10023809D02*
X21571428Y10119047D01*
X21523809Y10166666D01*
X21428571Y10214285D01*
X21333333Y10214285D01*
X20619047Y9595238D02*
X20714285Y9547619D01*
X20904761Y9547619D01*
X21000000Y9595238D01*
X21047619Y9690476D01*
X21047619Y10071428D01*
X21000000Y10166666D01*
X20904761Y10214285D01*
X20714285Y10214285D01*
X20619047Y10166666D01*
X20571428Y10071428D01*
X20571428Y9976190D01*
X21047619Y9880952D01*
X20142857Y10214285D02*
X20142857Y9547619D01*
X20142857Y10119047D02*
X20095238Y10166666D01*
X20000000Y10214285D01*
X19857142Y10214285D01*
X19761904Y10166666D01*
X19714285Y10071428D01*
X19714285Y9547619D01*
X19333333Y10214285D02*
X18809523Y10214285D01*
X19333333Y9547619D01*
X18809523Y9547619D01*
X18428571Y9547619D02*
X18428571Y10547619D01*
X18333333Y9928571D02*
X18047619Y9547619D01*
X18047619Y10214285D02*
X18428571Y9833333D01*
X17190476Y9547619D02*
X17190476Y10071428D01*
X17238095Y10166666D01*
X17333333Y10214285D01*
X17523809Y10214285D01*
X17619047Y10166666D01*
X17190476Y9595238D02*
X17285714Y9547619D01*
X17523809Y9547619D01*
X17619047Y9595238D01*
X17666666Y9690476D01*
X17666666Y9785714D01*
X17619047Y9880952D01*
X17523809Y9928571D01*
X17285714Y9928571D01*
X17190476Y9976190D01*
X16714285Y9547619D02*
X16714285Y10214285D01*
X16714285Y10023809D02*
X16666666Y10119047D01*
X16619047Y10166666D01*
X16523809Y10214285D01*
X16428571Y10214285D01*
X16238095Y10214285D02*
X15857142Y10214285D01*
X16095238Y10547619D02*
X16095238Y9690476D01*
X16047619Y9595238D01*
X15952380Y9547619D01*
X15857142Y9547619D01*
X15142857Y9595238D02*
X15238095Y9547619D01*
X15428571Y9547619D01*
X15523809Y9595238D01*
X15571428Y9690476D01*
X15571428Y10071428D01*
X15523809Y10166666D01*
X15428571Y10214285D01*
X15238095Y10214285D01*
X15142857Y10166666D01*
X15095238Y10071428D01*
X15095238Y9976190D01*
X15571428Y9880952D01*
M02*
