Comment,Designator,Footprint
"GPIOs (right / top)",J5,"PinSocket_2x15_P2.54mm_Vertical_SMD_With_Vias"
"100n",C1,"C_0805_1.0x1.4mm_Pad"
"100n",C2,"C_0805_1.0x1.4mm_Pad"
"100n",C3,"C_0805_1.0x1.4mm_Pad"
"BME280",U2,"Bosch_LGA-8_2.5x2.5mm_P0.65mm_ClockwisePinNumbering"
"R_DNI_0805",R2,"R_0805_1.0x1.4mm_Pad"
"R_DNI_0805",R1,"R_0805_1.0x1.4mm_Pad"
"M3",H1,"MountingHole_M3_DIN965_Pad"
"M3",H4,"MountingHole_M3_DIN965_Pad"
"M3",H3,"MountingHole_M3_DIN965_Pad"
"M3",H2,"MountingHole_M3_DIN965_Pad"
"SHT4x",U1,"Sensirion_SHT4x"
"Bussystems (left / top)",J4,"PinSocket_2x15_P2.54mm_Vertical_SMD_With_Vias"
"Bussystems (left / bottom)",J6,"PinHeader_2x15_P2.54mm_Vertical_SMD"
"GPIOs (right / bottom)",J7,"PinHeader_2x15_P2.54mm_Vertical_SMD"
