(export (version "E")
  (design
    (source "/Users/falkoschmidt/Documents/05_Eletronik-Projekte/compass-pcb/pcb-design/Compass-PCB-Arduino_Uno.kicad_sch")
    (date "Wednesday, 27 October 2021 at 00:53:00")
    (tool "Eeschema (5.99.0-11158-gff2190630e)")
    (sheet (number "1") (name "/") (tstamps "/")
      (title_block
        (title "Compass for Arduino Uno")
        (company "Falko Schmidt - UULM")
        (rev "V1.0")
        (date "2021-10-22")
        (source "Compass-PCB-Arduino_Uno.kicad_sch")
        (comment (number "1") (value ""))
        (comment (number "2") (value ""))
        (comment (number "3") (value ""))
        (comment (number "4") (value ""))
        (comment (number "5") (value ""))
        (comment (number "6") (value ""))
        (comment (number "7") (value ""))
        (comment (number "8") (value ""))
        (comment (number "9") (value "")))))
  (components
    (comp (ref "A1")
      (value "Arduino_UNO")
      (footprint "KiCAD_Schematic_Symbols:Arduino_Uno_Shield")
      (datasheet "https://www.arduino.cc/en/Main/arduinoBoardUno")
      (libsource (lib "MCU_Module") (part "Arduino_UNO_R3") (description "Arduino UNO Microcontroller Module, release 3"))
      (property (name "Sheetname") (value ""))
      (property (name "Sheetfile") (value "Compass-PCB-Arduino_Uno.kicad_sch"))
      (sheetpath (names "/") (tstamps "/"))
      (tstamps "d0dd992e-8e82-4f2e-a067-4fdb7bc0562a"))
    (comp (ref "C1")
      (value "100n")
      (footprint "Capacitor_SMD:C_0805_2012Metric_Pad1.18x1.45mm_HandSolder")
      (datasheet "~")
      (fields
        (field (name "Details") "Place close to IC"))
      (libsource (lib "Device") (part "C_Small") (description "Unpolarized capacitor, small symbol"))
      (property (name "Details") (value "Place close to IC"))
      (property (name "Sheetname") (value ""))
      (property (name "Sheetfile") (value "Compass-PCB-Arduino_Uno.kicad_sch"))
      (sheetpath (names "/") (tstamps "/"))
      (tstamps "dad3e9bc-8779-4eec-9808-cf31b396e98c"))
    (comp (ref "C2")
      (value "1u")
      (footprint "Capacitor_SMD:C_0805_2012Metric_Pad1.18x1.45mm_HandSolder")
      (datasheet "~")
      (libsource (lib "Device") (part "C_Small") (description "Unpolarized capacitor, small symbol"))
      (property (name "Sheetname") (value ""))
      (property (name "Sheetfile") (value "Compass-PCB-Arduino_Uno.kicad_sch"))
      (sheetpath (names "/") (tstamps "/"))
      (tstamps "9ad22af1-9c34-4706-a7be-30d17077f2dc"))
    (comp (ref "C3")
      (value "100n")
      (footprint "Capacitor_SMD:C_0805_2012Metric_Pad1.18x1.45mm_HandSolder")
      (datasheet "~")
      (fields
        (field (name "Details") "Place close to IC"))
      (libsource (lib "Device") (part "C_Small") (description "Unpolarized capacitor, small symbol"))
      (property (name "Details") (value "Place close to IC"))
      (property (name "Sheetname") (value ""))
      (property (name "Sheetfile") (value "Compass-PCB-Arduino_Uno.kicad_sch"))
      (sheetpath (names "/") (tstamps "/"))
      (tstamps "9e241839-a3d1-45ce-83d0-96180ec209dc"))
    (comp (ref "C4")
      (value "100n")
      (footprint "Capacitor_SMD:C_0805_2012Metric_Pad1.18x1.45mm_HandSolder")
      (datasheet "~")
      (libsource (lib "Device") (part "C_Small") (description "Unpolarized capacitor, small symbol"))
      (property (name "Sheetname") (value ""))
      (property (name "Sheetfile") (value "Compass-PCB-Arduino_Uno.kicad_sch"))
      (sheetpath (names "/") (tstamps "/"))
      (tstamps "cf84d5e5-d26a-4565-a5c0-f73a03d7abc7"))
    (comp (ref "D1")
      (value "red")
      (footprint "LED_SMD:LED_0805_2012Metric_Pad1.15x1.40mm_HandSolder")
      (datasheet "~")
      (libsource (lib "Device") (part "LED") (description "Light emitting diode"))
      (property (name "Sheetname") (value ""))
      (property (name "Sheetfile") (value "Compass-PCB-Arduino_Uno.kicad_sch"))
      (sheetpath (names "/") (tstamps "/"))
      (tstamps "22070e5d-ca90-4c7a-9dd4-c1b254359383"))
    (comp (ref "D2")
      (value "red")
      (footprint "LED_SMD:LED_0805_2012Metric_Pad1.15x1.40mm_HandSolder")
      (datasheet "~")
      (libsource (lib "Device") (part "LED") (description "Light emitting diode"))
      (property (name "Sheetname") (value ""))
      (property (name "Sheetfile") (value "Compass-PCB-Arduino_Uno.kicad_sch"))
      (sheetpath (names "/") (tstamps "/"))
      (tstamps "134cbfab-5db7-4d05-9a55-e500db2d8bc7"))
    (comp (ref "D3")
      (value "red")
      (footprint "LED_SMD:LED_0805_2012Metric_Pad1.15x1.40mm_HandSolder")
      (datasheet "~")
      (libsource (lib "Device") (part "LED") (description "Light emitting diode"))
      (property (name "Sheetname") (value ""))
      (property (name "Sheetfile") (value "Compass-PCB-Arduino_Uno.kicad_sch"))
      (sheetpath (names "/") (tstamps "/"))
      (tstamps "75dc4a12-9208-4471-980f-3f0032bd4a1b"))
    (comp (ref "D4")
      (value "red")
      (footprint "LED_SMD:LED_0805_2012Metric_Pad1.15x1.40mm_HandSolder")
      (datasheet "~")
      (libsource (lib "Device") (part "LED") (description "Light emitting diode"))
      (property (name "Sheetname") (value ""))
      (property (name "Sheetfile") (value "Compass-PCB-Arduino_Uno.kicad_sch"))
      (sheetpath (names "/") (tstamps "/"))
      (tstamps "fa7e3418-243a-43b4-a022-93bf883ee9b9"))
    (comp (ref "D5")
      (value "red")
      (footprint "LED_SMD:LED_0805_2012Metric_Pad1.15x1.40mm_HandSolder")
      (datasheet "~")
      (libsource (lib "Device") (part "LED") (description "Light emitting diode"))
      (property (name "Sheetname") (value ""))
      (property (name "Sheetfile") (value "Compass-PCB-Arduino_Uno.kicad_sch"))
      (sheetpath (names "/") (tstamps "/"))
      (tstamps "0e53df04-9134-447b-b510-8710c2d8b218"))
    (comp (ref "D6")
      (value "red")
      (footprint "LED_SMD:LED_0805_2012Metric_Pad1.15x1.40mm_HandSolder")
      (datasheet "~")
      (libsource (lib "Device") (part "LED") (description "Light emitting diode"))
      (property (name "Sheetname") (value ""))
      (property (name "Sheetfile") (value "Compass-PCB-Arduino_Uno.kicad_sch"))
      (sheetpath (names "/") (tstamps "/"))
      (tstamps "4c5d7800-fc0f-4cbc-ba81-58e8a24bf8e1"))
    (comp (ref "D7")
      (value "red")
      (footprint "LED_SMD:LED_0805_2012Metric_Pad1.15x1.40mm_HandSolder")
      (datasheet "~")
      (libsource (lib "Device") (part "LED") (description "Light emitting diode"))
      (property (name "Sheetname") (value ""))
      (property (name "Sheetfile") (value "Compass-PCB-Arduino_Uno.kicad_sch"))
      (sheetpath (names "/") (tstamps "/"))
      (tstamps "d16bc10f-5961-4b84-9ea1-c42e6dd295ba"))
    (comp (ref "D8")
      (value "red")
      (footprint "LED_SMD:LED_0805_2012Metric_Pad1.15x1.40mm_HandSolder")
      (datasheet "~")
      (libsource (lib "Device") (part "LED") (description "Light emitting diode"))
      (property (name "Sheetname") (value ""))
      (property (name "Sheetfile") (value "Compass-PCB-Arduino_Uno.kicad_sch"))
      (sheetpath (names "/") (tstamps "/"))
      (tstamps "67324ec6-5948-4310-8259-d07f08a260ff"))
    (comp (ref "Q1")
      (value "BSS83P")
      (footprint "Package_TO_SOT_SMD:SOT-23")
      (datasheet "http://www.farnell.com/datasheets/1835997.pdf")
      (libsource (lib "Transistor_FET") (part "BSS83P") (description "-0.33A Id, -60V Vds, P-Channel MOSFET, SOT-23"))
      (property (name "Sheetname") (value ""))
      (property (name "Sheetfile") (value "Compass-PCB-Arduino_Uno.kicad_sch"))
      (sheetpath (names "/") (tstamps "/"))
      (tstamps "2343c99e-d72c-4bf8-8d16-732fa23df73e"))
    (comp (ref "R1")
      (value "200")
      (footprint "Resistor_SMD:R_0805_2012Metric_Pad1.20x1.40mm_HandSolder")
      (datasheet "~")
      (libsource (lib "Device") (part "R_Small") (description "Resistor, small symbol"))
      (property (name "Sheetname") (value ""))
      (property (name "Sheetfile") (value "Compass-PCB-Arduino_Uno.kicad_sch"))
      (sheetpath (names "/") (tstamps "/"))
      (tstamps "826e4f6f-98ee-47f1-a315-e1fe1b71a610"))
    (comp (ref "R2")
      (value "200")
      (footprint "Resistor_SMD:R_0805_2012Metric_Pad1.20x1.40mm_HandSolder")
      (datasheet "~")
      (libsource (lib "Device") (part "R_Small") (description "Resistor, small symbol"))
      (property (name "Sheetname") (value ""))
      (property (name "Sheetfile") (value "Compass-PCB-Arduino_Uno.kicad_sch"))
      (sheetpath (names "/") (tstamps "/"))
      (tstamps "8c4b1d91-97c7-445b-826e-aa4d2f53c291"))
    (comp (ref "R3")
      (value "200")
      (footprint "Resistor_SMD:R_0805_2012Metric_Pad1.20x1.40mm_HandSolder")
      (datasheet "~")
      (libsource (lib "Device") (part "R_Small") (description "Resistor, small symbol"))
      (property (name "Sheetname") (value ""))
      (property (name "Sheetfile") (value "Compass-PCB-Arduino_Uno.kicad_sch"))
      (sheetpath (names "/") (tstamps "/"))
      (tstamps "7a2bce66-fec8-443e-894f-41a7bd9df649"))
    (comp (ref "R4")
      (value "200")
      (footprint "Resistor_SMD:R_0805_2012Metric_Pad1.20x1.40mm_HandSolder")
      (datasheet "~")
      (libsource (lib "Device") (part "R_Small") (description "Resistor, small symbol"))
      (property (name "Sheetname") (value ""))
      (property (name "Sheetfile") (value "Compass-PCB-Arduino_Uno.kicad_sch"))
      (sheetpath (names "/") (tstamps "/"))
      (tstamps "ef11bc00-7f62-4f59-a79b-9ccd773b5673"))
    (comp (ref "R5")
      (value "200")
      (footprint "Resistor_SMD:R_0805_2012Metric_Pad1.20x1.40mm_HandSolder")
      (datasheet "~")
      (libsource (lib "Device") (part "R_Small") (description "Resistor, small symbol"))
      (property (name "Sheetname") (value ""))
      (property (name "Sheetfile") (value "Compass-PCB-Arduino_Uno.kicad_sch"))
      (sheetpath (names "/") (tstamps "/"))
      (tstamps "1681f07c-7d43-4315-8e05-b5e6fab11f4d"))
    (comp (ref "R6")
      (value "200")
      (footprint "Resistor_SMD:R_0805_2012Metric_Pad1.20x1.40mm_HandSolder")
      (datasheet "~")
      (libsource (lib "Device") (part "R_Small") (description "Resistor, small symbol"))
      (property (name "Sheetname") (value ""))
      (property (name "Sheetfile") (value "Compass-PCB-Arduino_Uno.kicad_sch"))
      (sheetpath (names "/") (tstamps "/"))
      (tstamps "0ec9d67e-2ac6-4de6-8caa-afc7dd2ce3c5"))
    (comp (ref "R7")
      (value "200")
      (footprint "Resistor_SMD:R_0805_2012Metric_Pad1.20x1.40mm_HandSolder")
      (datasheet "~")
      (libsource (lib "Device") (part "R_Small") (description "Resistor, small symbol"))
      (property (name "Sheetname") (value ""))
      (property (name "Sheetfile") (value "Compass-PCB-Arduino_Uno.kicad_sch"))
      (sheetpath (names "/") (tstamps "/"))
      (tstamps "a6bcd36e-0978-4a98-ad9d-b4f5d153b91e"))
    (comp (ref "R8")
      (value "200")
      (footprint "Resistor_SMD:R_0805_2012Metric_Pad1.20x1.40mm_HandSolder")
      (datasheet "~")
      (libsource (lib "Device") (part "R_Small") (description "Resistor, small symbol"))
      (property (name "Sheetname") (value ""))
      (property (name "Sheetfile") (value "Compass-PCB-Arduino_Uno.kicad_sch"))
      (sheetpath (names "/") (tstamps "/"))
      (tstamps "d2344415-6ec2-47ec-b5f5-af0ec07ca9fc"))
    (comp (ref "R9")
      (value "10k")
      (footprint "Resistor_SMD:R_0805_2012Metric_Pad1.20x1.40mm_HandSolder")
      (datasheet "~")
      (libsource (lib "Device") (part "R_Small") (description "Resistor, small symbol"))
      (property (name "Sheetname") (value ""))
      (property (name "Sheetfile") (value "Compass-PCB-Arduino_Uno.kicad_sch"))
      (sheetpath (names "/") (tstamps "/"))
      (tstamps "1fbebb74-c282-4eb2-9002-fb9455eab417"))
    (comp (ref "R10")
      (value "100")
      (footprint "Resistor_SMD:R_0805_2012Metric_Pad1.20x1.40mm_HandSolder")
      (datasheet "~")
      (libsource (lib "Device") (part "R_Small") (description "Resistor, small symbol"))
      (property (name "Sheetname") (value ""))
      (property (name "Sheetfile") (value "Compass-PCB-Arduino_Uno.kicad_sch"))
      (sheetpath (names "/") (tstamps "/"))
      (tstamps "3e746de0-8796-4c4a-a9a7-9423e1ca4ba1"))
    (comp (ref "R11")
      (value "DNI")
      (footprint "Resistor_SMD:R_0805_2012Metric_Pad1.20x1.40mm_HandSolder")
      (datasheet "~")
      (libsource (lib "Device") (part "R_Small") (description "Resistor, small symbol"))
      (property (name "Sheetname") (value ""))
      (property (name "Sheetfile") (value "Compass-PCB-Arduino_Uno.kicad_sch"))
      (sheetpath (names "/") (tstamps "/"))
      (tstamps "841ac85e-f025-401a-924d-957fdaf7e605"))
    (comp (ref "R12")
      (value "DNI")
      (footprint "Resistor_SMD:R_0805_2012Metric_Pad1.20x1.40mm_HandSolder")
      (datasheet "~")
      (libsource (lib "Device") (part "R_Small") (description "Resistor, small symbol"))
      (property (name "Sheetname") (value ""))
      (property (name "Sheetfile") (value "Compass-PCB-Arduino_Uno.kicad_sch"))
      (sheetpath (names "/") (tstamps "/"))
      (tstamps "ecbb1592-a962-4b65-801c-e83cc6f8547d"))
    (comp (ref "R13")
      (value "DNI")
      (footprint "Resistor_SMD:R_0805_2012Metric_Pad1.20x1.40mm_HandSolder")
      (datasheet "~")
      (libsource (lib "Device") (part "R_Small") (description "Resistor, small symbol"))
      (property (name "Sheetname") (value ""))
      (property (name "Sheetfile") (value "Compass-PCB-Arduino_Uno.kicad_sch"))
      (sheetpath (names "/") (tstamps "/"))
      (tstamps "376ea597-0164-497c-928c-2fc0fb6d7e63"))
    (comp (ref "R14")
      (value "0")
      (footprint "Resistor_SMD:R_0805_2012Metric_Pad1.20x1.40mm_HandSolder")
      (datasheet "~")
      (libsource (lib "Device") (part "R_Small") (description "Resistor, small symbol"))
      (property (name "Sheetname") (value ""))
      (property (name "Sheetfile") (value "Compass-PCB-Arduino_Uno.kicad_sch"))
      (sheetpath (names "/") (tstamps "/"))
      (tstamps "fb67bc2a-ce44-4303-a59a-fad0ad7d536d"))
    (comp (ref "U1")
      (value "LIS3MDL")
      (footprint "Package_LGA:LGA-12_2x2mm_P0.5mm")
      (datasheet "https://datasheet.lcsc.com/lcsc/1912311012_STMicroelectronics-LIS3MDLTR_C478483.pdf")
      (libsource (lib "KiCAD_Schematic_Symbols") (part "LIS3MDL") (description ""))
      (property (name "Sheetname") (value ""))
      (property (name "Sheetfile") (value "Compass-PCB-Arduino_Uno.kicad_sch"))
      (sheetpath (names "/") (tstamps "/"))
      (tstamps "ddcc390b-5db2-4b0e-ac98-a9ef59fc50a8")))
  (libparts
    (libpart (lib "Device") (part "C_Small")
      (description "Unpolarized capacitor, small symbol")
      (docs "~")
      (footprints
        (fp "C_*"))
      (fields
        (field (name "Reference") "C")
        (field (name "Value") "C_Small")
        (field (name "Datasheet") "~"))
      (pins
        (pin (num "1") (name "") (type "passive"))
        (pin (num "2") (name "") (type "passive"))))
    (libpart (lib "Device") (part "LED")
      (description "Light emitting diode")
      (docs "~")
      (footprints
        (fp "LED*")
        (fp "LED_SMD:*")
        (fp "LED_THT:*"))
      (fields
        (field (name "Reference") "D")
        (field (name "Value") "LED")
        (field (name "Datasheet") "~"))
      (pins
        (pin (num "1") (name "K") (type "passive"))
        (pin (num "2") (name "A") (type "passive"))))
    (libpart (lib "Device") (part "R_Small")
      (description "Resistor, small symbol")
      (docs "~")
      (footprints
        (fp "R_*"))
      (fields
        (field (name "Reference") "R")
        (field (name "Value") "R_Small")
        (field (name "Datasheet") "~"))
      (pins
        (pin (num "1") (name "") (type "passive"))
        (pin (num "2") (name "") (type "passive"))))
    (libpart (lib "KiCAD_Schematic_Symbols") (part "LIS3MDL")
      (docs "https://datasheet.lcsc.com/lcsc/1912311012_STMicroelectronics-LIS3MDLTR_C478483.pdf")
      (fields
        (field (name "Reference") "U")
        (field (name "Value") "LIS3MDL")
        (field (name "Footprint") "Package_LGA:LGA-12_2x2mm_P0.5mm")
        (field (name "Datasheet") "https://datasheet.lcsc.com/lcsc/1912311012_STMicroelectronics-LIS3MDLTR_C478483.pdf"))
      (pins
        (pin (num "1") (name "SCL/SPC") (type "passive"))
        (pin (num "2") (name "RES") (type "passive"))
        (pin (num "3") (name "GND") (type "passive"))
        (pin (num "4") (name "C1") (type "passive"))
        (pin (num "5") (name "V_DD") (type "passive"))
        (pin (num "6") (name "V_DD_IO") (type "passive"))
        (pin (num "7") (name "INT") (type "passive"))
        (pin (num "8") (name "DRDY") (type "passive"))
        (pin (num "9") (name "SD0/SA1") (type "passive"))
        (pin (num "10") (name "CS") (type "passive"))
        (pin (num "11") (name "SDA/SDI/SDO") (type "passive"))
        (pin (num "12") (name "RES") (type "passive"))))
    (libpart (lib "MCU_Module") (part "Arduino_UNO_R3")
      (description "Arduino UNO Microcontroller Module, release 3")
      (docs "https://www.arduino.cc/en/Main/arduinoBoardUno")
      (footprints
        (fp "Arduino*UNO*R3*"))
      (fields
        (field (name "Reference") "A")
        (field (name "Value") "Arduino_UNO_R3")
        (field (name "Footprint") "Module:Arduino_UNO_R3")
        (field (name "Datasheet") "https://www.arduino.cc/en/Main/arduinoBoardUno"))
      (pins
        (pin (num "1") (name "NC") (type "no_connect"))
        (pin (num "2") (name "IOREF") (type "output"))
        (pin (num "3") (name "~RESET") (type "input"))
        (pin (num "4") (name "3V3") (type "power_out"))
        (pin (num "5") (name "+5V") (type "power_out"))
        (pin (num "6") (name "GND") (type "power_in"))
        (pin (num "7") (name "GND") (type "power_in"))
        (pin (num "8") (name "VIN") (type "power_in"))
        (pin (num "9") (name "A0") (type "bidirectional"))
        (pin (num "10") (name "A1") (type "bidirectional"))
        (pin (num "11") (name "A2") (type "bidirectional"))
        (pin (num "12") (name "A3") (type "bidirectional"))
        (pin (num "13") (name "SDA/A4") (type "bidirectional"))
        (pin (num "14") (name "SCL/A5") (type "bidirectional"))
        (pin (num "15") (name "D0/RX") (type "bidirectional"))
        (pin (num "16") (name "D1/TX") (type "bidirectional"))
        (pin (num "17") (name "D2") (type "bidirectional"))
        (pin (num "18") (name "D3") (type "bidirectional"))
        (pin (num "19") (name "D4") (type "bidirectional"))
        (pin (num "20") (name "D5") (type "bidirectional"))
        (pin (num "21") (name "D6") (type "bidirectional"))
        (pin (num "22") (name "D7") (type "bidirectional"))
        (pin (num "23") (name "D8") (type "bidirectional"))
        (pin (num "24") (name "D9") (type "bidirectional"))
        (pin (num "25") (name "D10") (type "bidirectional"))
        (pin (num "26") (name "D11") (type "bidirectional"))
        (pin (num "27") (name "D12") (type "bidirectional"))
        (pin (num "28") (name "D13") (type "bidirectional"))
        (pin (num "29") (name "GND") (type "power_in"))
        (pin (num "30") (name "AREF") (type "input"))
        (pin (num "31") (name "SDA/A4") (type "bidirectional"))
        (pin (num "32") (name "SCL/A5") (type "bidirectional"))))
    (libpart (lib "Transistor_FET") (part "BSS83P")
      (description "-0.33A Id, -60V Vds, P-Channel MOSFET, SOT-23")
      (docs "http://www.farnell.com/datasheets/1835997.pdf")
      (footprints
        (fp "SOT?23*"))
      (fields
        (field (name "Reference") "Q")
        (field (name "Value") "BSS83P")
        (field (name "Footprint") "Package_TO_SOT_SMD:SOT-23")
        (field (name "Datasheet") "http://www.farnell.com/datasheets/1835997.pdf"))
      (pins
        (pin (num "1") (name "G") (type "input"))
        (pin (num "2") (name "S") (type "passive"))
        (pin (num "3") (name "D") (type "passive")))))
  (libraries
    (library (logical "Device")
      (uri "/Library/Application Support/kicad/library/Device.lib"))
    (library (logical "KiCAD_Schematic_Symbols")
      (uri "/Users/falkoschmidt/Documents/07_KiCAD-Libraries/kicad-schematic-symbols/KiCAD_Schematic_Symbols.kicad_sym"))
    (library (logical "MCU_Module")
      (uri "/Library/Application Support/kicad/library/MCU_Module.lib"))
    (library (logical "Transistor_FET")
      (uri "/Library/Application Support/kicad/library/Transistor_FET.lib")))
  (nets
    (net (code "1") (name "+3V3")
      (node (ref "A1") (pin "4") (pinfunction "3V3") (pintype "power_out"))
      (node (ref "C1") (pin "2") (pintype "passive"))
      (node (ref "C2") (pin "1") (pintype "passive"))
      (node (ref "C3") (pin "1") (pintype "passive"))
      (node (ref "U1") (pin "10") (pinfunction "CS") (pintype "passive"))
      (node (ref "U1") (pin "5") (pinfunction "V_DD") (pintype "passive"))
      (node (ref "U1") (pin "6") (pinfunction "V_DD_IO") (pintype "passive")))
    (net (code "2") (name "+5V")
      (node (ref "A1") (pin "5") (pinfunction "+5V") (pintype "power_out"))
      (node (ref "Q1") (pin "2") (pinfunction "S") (pintype "passive"))
      (node (ref "R11") (pin "2") (pintype "passive"))
      (node (ref "R12") (pin "1") (pintype "passive"))
      (node (ref "R13") (pin "1") (pintype "passive"))
      (node (ref "R9") (pin "1") (pintype "passive")))
    (net (code "3") (name "/C1")
      (node (ref "C4") (pin "1") (pintype "passive"))
      (node (ref "U1") (pin "4") (pinfunction "C1") (pintype "passive")))
    (net (code "4") (name "GND")
      (node (ref "A1") (pin "29") (pinfunction "GND") (pintype "power_in"))
      (node (ref "A1") (pin "6") (pinfunction "GND") (pintype "power_in"))
      (node (ref "A1") (pin "7") (pinfunction "GND") (pintype "power_in"))
      (node (ref "C1") (pin "1") (pintype "passive"))
      (node (ref "C2") (pin "2") (pintype "passive"))
      (node (ref "C3") (pin "2") (pintype "passive"))
      (node (ref "C4") (pin "2") (pintype "passive"))
      (node (ref "R14") (pin "2") (pintype "passive"))
      (node (ref "U1") (pin "12") (pinfunction "RES") (pintype "passive"))
      (node (ref "U1") (pin "2") (pinfunction "RES") (pintype "passive"))
      (node (ref "U1") (pin "3") (pinfunction "GND") (pintype "passive")))
    (net (code "5") (name "I2C_SCL")
      (node (ref "A1") (pin "14") (pinfunction "SCL/A5") (pintype "bidirectional"))
      (node (ref "R12") (pin "2") (pintype "passive"))
      (node (ref "U1") (pin "1") (pinfunction "SCL/SPC") (pintype "passive")))
    (net (code "6") (name "I2C_SDA")
      (node (ref "A1") (pin "13") (pinfunction "SDA/A4") (pintype "bidirectional"))
      (node (ref "R11") (pin "1") (pintype "passive"))
      (node (ref "U1") (pin "11") (pinfunction "SDA/SDI/SDO") (pintype "passive")))
    (net (code "7") (name "LED_0")
      (node (ref "A1") (pin "28") (pinfunction "D13") (pintype "bidirectional"))
      (node (ref "D1") (pin "1") (pinfunction "K") (pintype "passive")))
    (net (code "8") (name "LED_1")
      (node (ref "A1") (pin "19") (pinfunction "D4") (pintype "bidirectional"))
      (node (ref "D5") (pin "1") (pinfunction "K") (pintype "passive")))
    (net (code "9") (name "LED_2")
      (node (ref "A1") (pin "27") (pinfunction "D12") (pintype "bidirectional"))
      (node (ref "D2") (pin "1") (pinfunction "K") (pintype "passive")))
    (net (code "10") (name "LED_3")
      (node (ref "A1") (pin "11") (pinfunction "A2") (pintype "bidirectional"))
      (node (ref "D6") (pin "1") (pinfunction "K") (pintype "passive")))
    (net (code "11") (name "LED_4")
      (node (ref "A1") (pin "24") (pinfunction "D9") (pintype "bidirectional"))
      (node (ref "D3") (pin "1") (pinfunction "K") (pintype "passive")))
    (net (code "12") (name "LED_5")
      (node (ref "A1") (pin "10") (pinfunction "A1") (pintype "bidirectional"))
      (node (ref "D7") (pin "1") (pinfunction "K") (pintype "passive")))
    (net (code "13") (name "LED_6")
      (node (ref "A1") (pin "23") (pinfunction "D8") (pintype "bidirectional"))
      (node (ref "D4") (pin "1") (pinfunction "K") (pintype "passive")))
    (net (code "14") (name "LED_7")
      (node (ref "A1") (pin "9") (pinfunction "A0") (pintype "bidirectional"))
      (node (ref "D8") (pin "1") (pinfunction "K") (pintype "passive")))
    (net (code "15") (name "Net-(D1-Pad2)")
      (node (ref "D1") (pin "2") (pinfunction "A") (pintype "passive"))
      (node (ref "R1") (pin "1") (pintype "passive")))
    (net (code "16") (name "Net-(D2-Pad2)")
      (node (ref "D2") (pin "2") (pinfunction "A") (pintype "passive"))
      (node (ref "R2") (pin "1") (pintype "passive")))
    (net (code "17") (name "Net-(D3-Pad2)")
      (node (ref "D3") (pin "2") (pinfunction "A") (pintype "passive"))
      (node (ref "R3") (pin "1") (pintype "passive")))
    (net (code "18") (name "Net-(D4-Pad2)")
      (node (ref "D4") (pin "2") (pinfunction "A") (pintype "passive"))
      (node (ref "R4") (pin "1") (pintype "passive")))
    (net (code "19") (name "Net-(D5-Pad2)")
      (node (ref "D5") (pin "2") (pinfunction "A") (pintype "passive"))
      (node (ref "R5") (pin "1") (pintype "passive")))
    (net (code "20") (name "Net-(D6-Pad2)")
      (node (ref "D6") (pin "2") (pinfunction "A") (pintype "passive"))
      (node (ref "R6") (pin "1") (pintype "passive")))
    (net (code "21") (name "Net-(D7-Pad2)")
      (node (ref "D7") (pin "2") (pinfunction "A") (pintype "passive"))
      (node (ref "R7") (pin "1") (pintype "passive")))
    (net (code "22") (name "Net-(D8-Pad2)")
      (node (ref "D8") (pin "2") (pinfunction "A") (pintype "passive"))
      (node (ref "R8") (pin "1") (pintype "passive")))
    (net (code "23") (name "Net-(Q1-Pad1)")
      (node (ref "Q1") (pin "1") (pinfunction "G") (pintype "input"))
      (node (ref "R10") (pin "1") (pintype "passive"))
      (node (ref "R9") (pin "2") (pintype "passive")))
    (net (code "24") (name "Net-(Q1-Pad3)")
      (node (ref "Q1") (pin "3") (pinfunction "D") (pintype "passive"))
      (node (ref "R1") (pin "2") (pintype "passive"))
      (node (ref "R2") (pin "2") (pintype "passive"))
      (node (ref "R3") (pin "2") (pintype "passive"))
      (node (ref "R4") (pin "2") (pintype "passive"))
      (node (ref "R5") (pin "2") (pintype "passive"))
      (node (ref "R6") (pin "2") (pintype "passive"))
      (node (ref "R7") (pin "2") (pintype "passive"))
      (node (ref "R8") (pin "2") (pintype "passive")))
    (net (code "25") (name "Net-(R13-Pad2)")
      (node (ref "R13") (pin "2") (pintype "passive"))
      (node (ref "R14") (pin "1") (pintype "passive"))
      (node (ref "U1") (pin "9") (pinfunction "SD0/SA1") (pintype "passive")))
    (net (code "26") (name "V_PWM")
      (node (ref "A1") (pin "18") (pinfunction "D3") (pintype "bidirectional"))
      (node (ref "R10") (pin "2") (pintype "passive")))
    (net (code "27") (name "unconnected-(A1-Pad1)")
      (node (ref "A1") (pin "1") (pinfunction "NC") (pintype "no_connect")))
    (net (code "28") (name "unconnected-(A1-Pad2)")
      (node (ref "A1") (pin "2") (pinfunction "IOREF") (pintype "output+no_connect")))
    (net (code "29") (name "unconnected-(A1-Pad3)")
      (node (ref "A1") (pin "3") (pinfunction "~RESET") (pintype "input+no_connect")))
    (net (code "30") (name "unconnected-(A1-Pad8)")
      (node (ref "A1") (pin "8") (pinfunction "VIN") (pintype "power_in+no_connect")))
    (net (code "31") (name "unconnected-(A1-Pad12)")
      (node (ref "A1") (pin "12") (pinfunction "A3") (pintype "bidirectional+no_connect")))
    (net (code "32") (name "unconnected-(A1-Pad15)")
      (node (ref "A1") (pin "15") (pinfunction "D0/RX") (pintype "bidirectional+no_connect")))
    (net (code "33") (name "unconnected-(A1-Pad16)")
      (node (ref "A1") (pin "16") (pinfunction "D1/TX") (pintype "bidirectional+no_connect")))
    (net (code "34") (name "unconnected-(A1-Pad17)")
      (node (ref "A1") (pin "17") (pinfunction "D2") (pintype "bidirectional+no_connect")))
    (net (code "35") (name "unconnected-(A1-Pad20)")
      (node (ref "A1") (pin "20") (pinfunction "D5") (pintype "bidirectional+no_connect")))
    (net (code "36") (name "unconnected-(A1-Pad21)")
      (node (ref "A1") (pin "21") (pinfunction "D6") (pintype "bidirectional+no_connect")))
    (net (code "37") (name "unconnected-(A1-Pad22)")
      (node (ref "A1") (pin "22") (pinfunction "D7") (pintype "bidirectional+no_connect")))
    (net (code "38") (name "unconnected-(A1-Pad25)")
      (node (ref "A1") (pin "25") (pinfunction "D10") (pintype "bidirectional+no_connect")))
    (net (code "39") (name "unconnected-(A1-Pad26)")
      (node (ref "A1") (pin "26") (pinfunction "D11") (pintype "bidirectional+no_connect")))
    (net (code "40") (name "unconnected-(A1-Pad30)")
      (node (ref "A1") (pin "30") (pinfunction "AREF") (pintype "input+no_connect")))
    (net (code "41") (name "unconnected-(A1-Pad31)")
      (node (ref "A1") (pin "31") (pinfunction "SDA/A4") (pintype "bidirectional+no_connect")))
    (net (code "42") (name "unconnected-(A1-Pad32)")
      (node (ref "A1") (pin "32") (pinfunction "SCL/A5") (pintype "bidirectional+no_connect")))
    (net (code "43") (name "unconnected-(U1-Pad7)")
      (node (ref "U1") (pin "7") (pinfunction "INT") (pintype "passive+no_connect")))
    (net (code "44") (name "unconnected-(U1-Pad8)")
      (node (ref "U1") (pin "8") (pinfunction "DRDY") (pintype "passive+no_connect")))))