%TF.GenerationSoftware,KiCad,Pcbnew,(6.0.0-rc1-323-gb9e66d8b98)*%
%TF.CreationDate,2021-12-06T19:01:45+01:00*%
%TF.ProjectId,MiniALU_LED_ReferenceCard,4d696e69-414c-4555-9f4c-45445f526566,rev?*%
%TF.SameCoordinates,Original*%
%TF.FileFunction,Soldermask,Top*%
%TF.FilePolarity,Negative*%
%FSLAX46Y46*%
G04 Gerber Fmt 4.6, Leading zero omitted, Abs format (unit mm)*
G04 Created by KiCad (PCBNEW (6.0.0-rc1-323-gb9e66d8b98)) date 2021-12-06 19:01:45*
%MOMM*%
%LPD*%
G01*
G04 APERTURE LIST*
%ADD10C,3.800000*%
G04 APERTURE END LIST*
D10*
%TO.C,REF\u002A\u002A*%
X34000000Y9250000D03*
%TD*%
M02*
