(kicad_sch (version 20211123) (generator eeschema)

  (uuid 6aa748c2-fb81-4c6d-99e7-68e0b9e82bcd)

  (paper "A4")

  (lib_symbols
    (symbol "Device:FerriteBead" (pin_numbers hide) (pin_names (offset 0)) (in_bom yes) (on_board yes)
      (property "Reference" "FB" (id 0) (at -3.81 0.635 90)
        (effects (font (size 1.27 1.27)))
      )
      (property "Value" "FerriteBead" (id 1) (at 3.81 0 90)
        (effects (font (size 1.27 1.27)))
      )
      (property "Footprint" "" (id 2) (at -1.778 0 90)
        (effects (font (size 1.27 1.27)) hide)
      )
      (property "Datasheet" "~" (id 3) (at 0 0 0)
        (effects (font (size 1.27 1.27)) hide)
      )
      (property "ki_keywords" "L ferrite bead inductor filter" (id 4) (at 0 0 0)
        (effects (font (size 1.27 1.27)) hide)
      )
      (property "ki_description" "Ferrite bead" (id 5) (at 0 0 0)
        (effects (font (size 1.27 1.27)) hide)
      )
      (property "ki_fp_filters" "Inductor_* L_* *Ferrite*" (id 6) (at 0 0 0)
        (effects (font (size 1.27 1.27)) hide)
      )
      (symbol "FerriteBead_0_1"
        (polyline
          (pts
            (xy 0 -1.27)
            (xy 0 -1.2192)
          )
          (stroke (width 0) (type default) (color 0 0 0 0))
          (fill (type none))
        )
        (polyline
          (pts
            (xy 0 1.27)
            (xy 0 1.2954)
          )
          (stroke (width 0) (type default) (color 0 0 0 0))
          (fill (type none))
        )
        (polyline
          (pts
            (xy -2.7686 0.4064)
            (xy -1.7018 2.2606)
            (xy 2.7686 -0.3048)
            (xy 1.6764 -2.159)
            (xy -2.7686 0.4064)
          )
          (stroke (width 0) (type default) (color 0 0 0 0))
          (fill (type none))
        )
      )
      (symbol "FerriteBead_1_1"
        (pin passive line (at 0 3.81 270) (length 2.54)
          (name "~" (effects (font (size 1.27 1.27))))
          (number "1" (effects (font (size 1.27 1.27))))
        )
        (pin passive line (at 0 -3.81 90) (length 2.54)
          (name "~" (effects (font (size 1.27 1.27))))
          (number "2" (effects (font (size 1.27 1.27))))
        )
      )
    )
    (symbol "KiCAD_Library_FalkoSchmidt_UULM:Barrel_Jack_Switch_Kycon_KLDX-0202-A" (pin_names hide) (in_bom yes) (on_board yes)
      (property "Reference" "J" (id 0) (at 0 5.334 0)
        (effects (font (size 1.27 1.27)))
      )
      (property "Value" "Barrel_Jack_Switch_Kycon_KLDX-0202-A" (id 1) (at 0 -5.08 0)
        (effects (font (size 1.27 1.27)))
      )
      (property "Footprint" "footprints:BarrelJack_Kycon_KLDX-0202-A" (id 2) (at 0 -13.97 0)
        (effects (font (size 1.27 1.27)) hide)
      )
      (property "Datasheet" "http://www.kycon.com/2013Catalogpage/DC%20Power/KLDX_0202_LT.pdf" (id 3) (at 0 -16.51 0)
        (effects (font (size 1.27 1.27)) hide)
      )
      (property "ki_keywords" "DC power barrel jack connector" (id 4) (at 0 0 0)
        (effects (font (size 1.27 1.27)) hide)
      )
      (property "ki_description" "DC Barrel Jack with an internal switch" (id 5) (at 0 0 0)
        (effects (font (size 1.27 1.27)) hide)
      )
      (property "ki_fp_filters" "BarrelJack*" (id 6) (at 0 0 0)
        (effects (font (size 1.27 1.27)) hide)
      )
      (symbol "Barrel_Jack_Switch_Kycon_KLDX-0202-A_0_1"
        (rectangle (start -5.08 3.81) (end 5.08 -3.81)
          (stroke (width 0.254) (type default) (color 0 0 0 0))
          (fill (type background))
        )
        (arc (start -3.302 3.175) (mid -3.937 2.54) (end -3.302 1.905)
          (stroke (width 0.254) (type default) (color 0 0 0 0))
          (fill (type none))
        )
        (arc (start -3.302 3.175) (mid -3.937 2.54) (end -3.302 1.905)
          (stroke (width 0.254) (type default) (color 0 0 0 0))
          (fill (type outline))
        )
        (polyline
          (pts
            (xy 1.27 -2.286)
            (xy 1.905 -1.651)
          )
          (stroke (width 0.254) (type default) (color 0 0 0 0))
          (fill (type none))
        )
        (polyline
          (pts
            (xy 5.08 2.54)
            (xy 3.81 2.54)
          )
          (stroke (width 0.254) (type default) (color 0 0 0 0))
          (fill (type none))
        )
        (polyline
          (pts
            (xy 5.08 0)
            (xy 1.27 0)
            (xy 1.27 -2.286)
            (xy 0.635 -1.651)
          )
          (stroke (width 0.254) (type default) (color 0 0 0 0))
          (fill (type none))
        )
        (polyline
          (pts
            (xy -3.81 -2.54)
            (xy -2.54 -2.54)
            (xy -1.27 -1.27)
            (xy 0 -2.54)
            (xy 2.54 -2.54)
            (xy 5.08 -2.54)
          )
          (stroke (width 0.254) (type default) (color 0 0 0 0))
          (fill (type none))
        )
        (rectangle (start 3.683 3.175) (end -3.302 1.905)
          (stroke (width 0.254) (type default) (color 0 0 0 0))
          (fill (type outline))
        )
      )
      (symbol "Barrel_Jack_Switch_Kycon_KLDX-0202-A_1_1"
        (pin passive line (at 7.62 2.54 180) (length 2.54)
          (name "~" (effects (font (size 1.27 1.27))))
          (number "1" (effects (font (size 1.27 1.27))))
        )
        (pin passive line (at 7.62 -2.54 180) (length 2.54)
          (name "~" (effects (font (size 1.27 1.27))))
          (number "2" (effects (font (size 1.27 1.27))))
        )
        (pin passive line (at 7.62 0 180) (length 2.54)
          (name "~" (effects (font (size 1.27 1.27))))
          (number "3" (effects (font (size 1.27 1.27))))
        )
      )
    )
    (symbol "KiCAD_Library_FalkoSchmidt_UULM:C_0805" (pin_numbers hide) (pin_names (offset 0.254) hide) (in_bom yes) (on_board yes)
      (property "Reference" "C" (id 0) (at 0.254 1.778 0)
        (effects (font (size 1.27 1.27)) (justify left))
      )
      (property "Value" "C_0805" (id 1) (at 0.254 -2.032 0)
        (effects (font (size 1.27 1.27)) (justify left))
      )
      (property "Footprint" "footprints:C_0805_1.0x1.4mm_Pad" (id 2) (at 0 -9.525 0)
        (effects (font (size 1.27 1.27)) hide)
      )
      (property "Datasheet" "~" (id 3) (at 0 0 0)
        (effects (font (size 1.27 1.27)) hide)
      )
      (property "ki_keywords" "capacitor cap" (id 4) (at 0 0 0)
        (effects (font (size 1.27 1.27)) hide)
      )
      (property "ki_description" "Unpolarized capacitor, small symbol" (id 5) (at 0 0 0)
        (effects (font (size 1.27 1.27)) hide)
      )
      (property "ki_fp_filters" "C_*" (id 6) (at 0 0 0)
        (effects (font (size 1.27 1.27)) hide)
      )
      (symbol "C_0805_0_1"
        (polyline
          (pts
            (xy -1.524 -0.508)
            (xy 1.524 -0.508)
          )
          (stroke (width 0.3302) (type default) (color 0 0 0 0))
          (fill (type none))
        )
        (polyline
          (pts
            (xy -1.524 0.508)
            (xy 1.524 0.508)
          )
          (stroke (width 0.3048) (type default) (color 0 0 0 0))
          (fill (type none))
        )
      )
      (symbol "C_0805_1_1"
        (pin passive line (at 0 2.54 270) (length 2.032)
          (name "~" (effects (font (size 1.27 1.27))))
          (number "1" (effects (font (size 1.27 1.27))))
        )
        (pin passive line (at 0 -2.54 90) (length 2.032)
          (name "~" (effects (font (size 1.27 1.27))))
          (number "2" (effects (font (size 1.27 1.27))))
        )
      )
    )
    (symbol "KiCAD_Library_FalkoSchmidt_UULM:USB_C_GCT_USB4105-GF-A" (pin_names (offset 1.016)) (in_bom yes) (on_board yes)
      (property "Reference" "J" (id 0) (at -10.16 29.21 0)
        (effects (font (size 1.27 1.27)) (justify left))
      )
      (property "Value" "USB_C_GCT_USB4105-GF-A" (id 1) (at 10.16 29.21 0)
        (effects (font (size 1.27 1.27)) (justify right))
      )
      (property "Footprint" "footprints:USB_C_USB4105-GF-A" (id 2) (at 0 -53.34 0)
        (effects (font (size 1.27 1.27)) hide)
      )
      (property "Datasheet" "https://www.usb.org/sites/default/files/documents/usb_type-c.zip" (id 3) (at 0 -55.88 0)
        (effects (font (size 1.27 1.27)) hide)
      )
      (property "ki_keywords" "usb universal serial bus type-C full-featured" (id 4) (at 0 0 0)
        (effects (font (size 1.27 1.27)) hide)
      )
      (property "ki_description" "USB Full-Featured Type-C Receptacle connector" (id 5) (at 0 0 0)
        (effects (font (size 1.27 1.27)) hide)
      )
      (property "ki_fp_filters" "USB*C*Receptacle*" (id 6) (at 0 0 0)
        (effects (font (size 1.27 1.27)) hide)
      )
      (symbol "USB_C_GCT_USB4105-GF-A_0_0"
        (rectangle (start -0.254 -35.56) (end 0.254 -34.544)
          (stroke (width 0) (type default) (color 0 0 0 0))
          (fill (type none))
        )
        (rectangle (start 10.16 -32.766) (end 9.144 -33.274)
          (stroke (width 0) (type default) (color 0 0 0 0))
          (fill (type none))
        )
        (rectangle (start 10.16 -30.226) (end 9.144 -30.734)
          (stroke (width 0) (type default) (color 0 0 0 0))
          (fill (type none))
        )
        (rectangle (start 10.16 -25.146) (end 9.144 -25.654)
          (stroke (width 0) (type default) (color 0 0 0 0))
          (fill (type none))
        )
        (rectangle (start 10.16 -22.606) (end 9.144 -23.114)
          (stroke (width 0) (type default) (color 0 0 0 0))
          (fill (type none))
        )
        (rectangle (start 10.16 -17.526) (end 9.144 -18.034)
          (stroke (width 0) (type default) (color 0 0 0 0))
          (fill (type none))
        )
        (rectangle (start 10.16 -14.986) (end 9.144 -15.494)
          (stroke (width 0) (type default) (color 0 0 0 0))
          (fill (type none))
        )
        (rectangle (start 10.16 -9.906) (end 9.144 -10.414)
          (stroke (width 0) (type default) (color 0 0 0 0))
          (fill (type none))
        )
        (rectangle (start 10.16 -7.366) (end 9.144 -7.874)
          (stroke (width 0) (type default) (color 0 0 0 0))
          (fill (type none))
        )
        (rectangle (start 10.16 -2.286) (end 9.144 -2.794)
          (stroke (width 0) (type default) (color 0 0 0 0))
          (fill (type none))
        )
        (rectangle (start 10.16 0.254) (end 9.144 -0.254)
          (stroke (width 0) (type default) (color 0 0 0 0))
          (fill (type none))
        )
        (rectangle (start 10.16 5.334) (end 9.144 4.826)
          (stroke (width 0) (type default) (color 0 0 0 0))
          (fill (type none))
        )
        (rectangle (start 10.16 7.874) (end 9.144 7.366)
          (stroke (width 0) (type default) (color 0 0 0 0))
          (fill (type none))
        )
        (rectangle (start 10.16 10.414) (end 9.144 9.906)
          (stroke (width 0) (type default) (color 0 0 0 0))
          (fill (type none))
        )
        (rectangle (start 10.16 12.954) (end 9.144 12.446)
          (stroke (width 0) (type default) (color 0 0 0 0))
          (fill (type none))
        )
        (rectangle (start 10.16 18.034) (end 9.144 17.526)
          (stroke (width 0) (type default) (color 0 0 0 0))
          (fill (type none))
        )
        (rectangle (start 10.16 20.574) (end 9.144 20.066)
          (stroke (width 0) (type default) (color 0 0 0 0))
          (fill (type none))
        )
        (rectangle (start 10.16 25.654) (end 9.144 25.146)
          (stroke (width 0) (type default) (color 0 0 0 0))
          (fill (type none))
        )
      )
      (symbol "USB_C_GCT_USB4105-GF-A_0_1"
        (rectangle (start -10.16 27.94) (end 10.16 -35.56)
          (stroke (width 0.254) (type default) (color 0 0 0 0))
          (fill (type background))
        )
        (arc (start -8.89 -3.81) (mid -6.985 -5.715) (end -5.08 -3.81)
          (stroke (width 0.508) (type default) (color 0 0 0 0))
          (fill (type none))
        )
        (arc (start -7.62 -3.81) (mid -6.985 -4.445) (end -6.35 -3.81)
          (stroke (width 0.254) (type default) (color 0 0 0 0))
          (fill (type none))
        )
        (arc (start -7.62 -3.81) (mid -6.985 -4.445) (end -6.35 -3.81)
          (stroke (width 0.254) (type default) (color 0 0 0 0))
          (fill (type outline))
        )
        (rectangle (start -7.62 -3.81) (end -6.35 3.81)
          (stroke (width 0.254) (type default) (color 0 0 0 0))
          (fill (type outline))
        )
        (arc (start -6.35 3.81) (mid -6.985 4.445) (end -7.62 3.81)
          (stroke (width 0.254) (type default) (color 0 0 0 0))
          (fill (type none))
        )
        (arc (start -6.35 3.81) (mid -6.985 4.445) (end -7.62 3.81)
          (stroke (width 0.254) (type default) (color 0 0 0 0))
          (fill (type outline))
        )
        (arc (start -5.08 3.81) (mid -6.985 5.715) (end -8.89 3.81)
          (stroke (width 0.508) (type default) (color 0 0 0 0))
          (fill (type none))
        )
        (polyline
          (pts
            (xy -8.89 -3.81)
            (xy -8.89 3.81)
          )
          (stroke (width 0.508) (type default) (color 0 0 0 0))
          (fill (type none))
        )
        (polyline
          (pts
            (xy -5.08 3.81)
            (xy -5.08 -3.81)
          )
          (stroke (width 0.508) (type default) (color 0 0 0 0))
          (fill (type none))
        )
      )
      (symbol "USB_C_GCT_USB4105-GF-A_1_1"
        (circle (center -2.54 1.143) (radius 0.635)
          (stroke (width 0.254) (type default) (color 0 0 0 0))
          (fill (type outline))
        )
        (circle (center 0 -5.842) (radius 1.27)
          (stroke (width 0) (type default) (color 0 0 0 0))
          (fill (type outline))
        )
        (polyline
          (pts
            (xy 0 -5.842)
            (xy 0 4.318)
          )
          (stroke (width 0.508) (type default) (color 0 0 0 0))
          (fill (type none))
        )
        (polyline
          (pts
            (xy 0 -3.302)
            (xy -2.54 -0.762)
            (xy -2.54 0.508)
          )
          (stroke (width 0.508) (type default) (color 0 0 0 0))
          (fill (type none))
        )
        (polyline
          (pts
            (xy 0 -2.032)
            (xy 2.54 0.508)
            (xy 2.54 1.778)
          )
          (stroke (width 0.508) (type default) (color 0 0 0 0))
          (fill (type none))
        )
        (polyline
          (pts
            (xy -1.27 4.318)
            (xy 0 6.858)
            (xy 1.27 4.318)
            (xy -1.27 4.318)
          )
          (stroke (width 0.254) (type default) (color 0 0 0 0))
          (fill (type outline))
        )
        (rectangle (start 1.905 1.778) (end 3.175 3.048)
          (stroke (width 0.254) (type default) (color 0 0 0 0))
          (fill (type outline))
        )
        (pin bidirectional line (at 15.24 -15.24 180) (length 5.08)
          (name "RX2-" (effects (font (size 1.27 1.27))))
          (number "A10" (effects (font (size 1.27 1.27))))
        )
        (pin bidirectional line (at 15.24 -17.78 180) (length 5.08)
          (name "RX2+" (effects (font (size 1.27 1.27))))
          (number "A11" (effects (font (size 1.27 1.27))))
        )
        (pin passive line (at 0 -40.64 90) (length 5.08) hide
          (name "GND" (effects (font (size 1.27 1.27))))
          (number "A1_B12" (effects (font (size 1.27 1.27))))
        )
        (pin bidirectional line (at 15.24 -10.16 180) (length 5.08)
          (name "TX1+" (effects (font (size 1.27 1.27))))
          (number "A2" (effects (font (size 1.27 1.27))))
        )
        (pin bidirectional line (at 15.24 -7.62 180) (length 5.08)
          (name "TX1-" (effects (font (size 1.27 1.27))))
          (number "A3" (effects (font (size 1.27 1.27))))
        )
        (pin passive line (at 15.24 25.4 180) (length 5.08) hide
          (name "VBUS" (effects (font (size 1.27 1.27))))
          (number "A4_B9" (effects (font (size 1.27 1.27))))
        )
        (pin bidirectional line (at 15.24 20.32 180) (length 5.08)
          (name "CC1" (effects (font (size 1.27 1.27))))
          (number "A5" (effects (font (size 1.27 1.27))))
        )
        (pin bidirectional line (at 15.24 7.62 180) (length 5.08)
          (name "D+" (effects (font (size 1.27 1.27))))
          (number "A6" (effects (font (size 1.27 1.27))))
        )
        (pin bidirectional line (at 15.24 12.7 180) (length 5.08)
          (name "D-" (effects (font (size 1.27 1.27))))
          (number "A7" (effects (font (size 1.27 1.27))))
        )
        (pin bidirectional line (at 15.24 -30.48 180) (length 5.08)
          (name "SBU1" (effects (font (size 1.27 1.27))))
          (number "A8" (effects (font (size 1.27 1.27))))
        )
        (pin bidirectional line (at 15.24 0 180) (length 5.08)
          (name "RX1-" (effects (font (size 1.27 1.27))))
          (number "B10" (effects (font (size 1.27 1.27))))
        )
        (pin bidirectional line (at 15.24 -2.54 180) (length 5.08)
          (name "RX1+" (effects (font (size 1.27 1.27))))
          (number "B11" (effects (font (size 1.27 1.27))))
        )
        (pin passive line (at 0 -40.64 90) (length 5.08)
          (name "GND" (effects (font (size 1.27 1.27))))
          (number "B1_A12" (effects (font (size 1.27 1.27))))
        )
        (pin bidirectional line (at 15.24 -25.4 180) (length 5.08)
          (name "TX2+" (effects (font (size 1.27 1.27))))
          (number "B2" (effects (font (size 1.27 1.27))))
        )
        (pin bidirectional line (at 15.24 -22.86 180) (length 5.08)
          (name "TX2-" (effects (font (size 1.27 1.27))))
          (number "B3" (effects (font (size 1.27 1.27))))
        )
        (pin passive line (at 15.24 25.4 180) (length 5.08)
          (name "VBUS" (effects (font (size 1.27 1.27))))
          (number "B4_A9" (effects (font (size 1.27 1.27))))
        )
        (pin bidirectional line (at 15.24 17.78 180) (length 5.08)
          (name "CC2" (effects (font (size 1.27 1.27))))
          (number "B5" (effects (font (size 1.27 1.27))))
        )
        (pin bidirectional line (at 15.24 5.08 180) (length 5.08)
          (name "D+" (effects (font (size 1.27 1.27))))
          (number "B6" (effects (font (size 1.27 1.27))))
        )
        (pin bidirectional line (at 15.24 10.16 180) (length 5.08)
          (name "D-" (effects (font (size 1.27 1.27))))
          (number "B7" (effects (font (size 1.27 1.27))))
        )
        (pin bidirectional line (at 15.24 -33.02 180) (length 5.08)
          (name "SBU2" (effects (font (size 1.27 1.27))))
          (number "B8" (effects (font (size 1.27 1.27))))
        )
        (pin passive line (at -7.62 -40.64 90) (length 5.08)
          (name "SHIELD" (effects (font (size 1.27 1.27))))
          (number "S" (effects (font (size 1.27 1.27))))
        )
      )
    )
    (symbol "Power_Management:LTC4365TS8" (pin_names (offset 1.016)) (in_bom yes) (on_board yes)
      (property "Reference" "U" (id 0) (at -7.62 8.89 0)
        (effects (font (size 1.27 1.27)) (justify left))
      )
      (property "Value" "LTC4365TS8" (id 1) (at 2.54 8.89 0)
        (effects (font (size 1.27 1.27)) (justify left))
      )
      (property "Footprint" "" (id 2) (at -7.62 6.35 0)
        (effects (font (size 1.27 1.27)) hide)
      )
      (property "Datasheet" "https://www.analog.com/media/en/technical-documentation/data-sheets/4365fa.pdf" (id 3) (at 0 2.54 0)
        (effects (font (size 1.27 1.27)) hide)
      )
      (property "ki_keywords" "overvoltage undervoltage reverse-polarity protection" (id 4) (at 0 0 0)
        (effects (font (size 1.27 1.27)) hide)
      )
      (property "ki_description" "Overvoltage, Undervoltage and Reverse Supply Protection Controller, TSOT23-8 package, 50Hz/60Hz noise rejection" (id 5) (at 0 0 0)
        (effects (font (size 1.27 1.27)) hide)
      )
      (property "ki_fp_filters" "*SOT?23*" (id 6) (at 0 0 0)
        (effects (font (size 1.27 1.27)) hide)
      )
      (symbol "LTC4365TS8_0_1"
        (rectangle (start -7.62 7.62) (end 7.62 -7.62)
          (stroke (width 0.254) (type default) (color 0 0 0 0))
          (fill (type background))
        )
      )
      (symbol "LTC4365TS8_1_1"
        (pin power_in line (at -10.16 5.08 0) (length 2.54)
          (name "Vin" (effects (font (size 1.27 1.27))))
          (number "1" (effects (font (size 1.27 1.27))))
        )
        (pin input line (at -10.16 -2.54 0) (length 2.54)
          (name "UV" (effects (font (size 1.27 1.27))))
          (number "2" (effects (font (size 1.27 1.27))))
        )
        (pin input line (at -10.16 -5.08 0) (length 2.54)
          (name "OV" (effects (font (size 1.27 1.27))))
          (number "3" (effects (font (size 1.27 1.27))))
        )
        (pin power_in line (at 0 -10.16 90) (length 2.54)
          (name "GND" (effects (font (size 1.27 1.27))))
          (number "4" (effects (font (size 1.27 1.27))))
        )
        (pin input line (at -10.16 2.54 0) (length 2.54)
          (name "~{SHDN}" (effects (font (size 1.27 1.27))))
          (number "5" (effects (font (size 1.27 1.27))))
        )
        (pin open_collector line (at 10.16 2.54 180) (length 2.54)
          (name "~{FAULT}" (effects (font (size 1.27 1.27))))
          (number "6" (effects (font (size 1.27 1.27))))
        )
        (pin input line (at 10.16 5.08 180) (length 2.54)
          (name "Vout" (effects (font (size 1.27 1.27))))
          (number "7" (effects (font (size 1.27 1.27))))
        )
        (pin output line (at 0 10.16 270) (length 2.54)
          (name "GATE" (effects (font (size 1.27 1.27))))
          (number "8" (effects (font (size 1.27 1.27))))
        )
      )
    )
    (symbol "Power_Protection:TPD2EUSB30" (pin_names (offset 0)) (in_bom yes) (on_board yes)
      (property "Reference" "U" (id 0) (at 0 6.35 0)
        (effects (font (size 1.27 1.27)))
      )
      (property "Value" "TPD2EUSB30" (id 1) (at 7.62 -7.62 0)
        (effects (font (size 1.27 1.27)))
      )
      (property "Footprint" "Package_TO_SOT_SMD:Texas_DRT-3" (id 2) (at -19.05 -7.62 0)
        (effects (font (size 1.27 1.27)) hide)
      )
      (property "Datasheet" "http://www.ti.com/lit/ds/symlink/tpd2eusb30a.pdf" (id 3) (at 0 0 0)
        (effects (font (size 1.27 1.27)) hide)
      )
      (property "ki_keywords" "ESD protection USB 3.0" (id 4) (at 0 0 0)
        (effects (font (size 1.27 1.27)) hide)
      )
      (property "ki_description" "2-Channel ESD Protection for Super-Speed USB 3.0 Interface, DRT-3" (id 5) (at 0 0 0)
        (effects (font (size 1.27 1.27)) hide)
      )
      (property "ki_fp_filters" "Texas*DRT*" (id 6) (at 0 0 0)
        (effects (font (size 1.27 1.27)) hide)
      )
      (symbol "TPD2EUSB30_0_1"
        (rectangle (start -5.08 5.08) (end 5.08 -5.08)
          (stroke (width 0.254) (type default) (color 0 0 0 0))
          (fill (type background))
        )
        (circle (center -3.175 0) (radius 0.2794)
          (stroke (width 0) (type default) (color 0 0 0 0))
          (fill (type outline))
        )
        (rectangle (start -3.175 3.81) (end 3.175 -3.81)
          (stroke (width 0) (type default) (color 0 0 0 0))
          (fill (type none))
        )
        (circle (center 0 -3.81) (radius 0.2794)
          (stroke (width 0) (type default) (color 0 0 0 0))
          (fill (type outline))
        )
        (polyline
          (pts
            (xy -5.08 0)
            (xy -3.175 0)
          )
          (stroke (width 0) (type default) (color 0 0 0 0))
          (fill (type none))
        )
        (polyline
          (pts
            (xy -3.81 -1.27)
            (xy -2.54 -1.27)
          )
          (stroke (width 0) (type default) (color 0 0 0 0))
          (fill (type none))
        )
        (polyline
          (pts
            (xy -3.81 2.54)
            (xy -2.54 2.54)
          )
          (stroke (width 0) (type default) (color 0 0 0 0))
          (fill (type none))
        )
        (polyline
          (pts
            (xy 0 3.81)
            (xy 0 -5.08)
          )
          (stroke (width 0) (type default) (color 0 0 0 0))
          (fill (type none))
        )
        (polyline
          (pts
            (xy 2.54 -1.27)
            (xy 3.81 -1.27)
          )
          (stroke (width 0) (type default) (color 0 0 0 0))
          (fill (type none))
        )
        (polyline
          (pts
            (xy 2.54 2.54)
            (xy 3.81 2.54)
          )
          (stroke (width 0) (type default) (color 0 0 0 0))
          (fill (type none))
        )
        (polyline
          (pts
            (xy 5.08 0)
            (xy 3.175 0)
          )
          (stroke (width 0) (type default) (color 0 0 0 0))
          (fill (type none))
        )
        (polyline
          (pts
            (xy 0.762 0.762)
            (xy -0.762 0.762)
            (xy -0.762 0.508)
          )
          (stroke (width 0) (type default) (color 0 0 0 0))
          (fill (type none))
        )
        (polyline
          (pts
            (xy -2.54 -2.54)
            (xy -3.81 -2.54)
            (xy -3.175 -1.27)
            (xy -2.54 -2.54)
          )
          (stroke (width 0) (type default) (color 0 0 0 0))
          (fill (type none))
        )
        (polyline
          (pts
            (xy -2.54 1.27)
            (xy -3.81 1.27)
            (xy -3.175 2.54)
            (xy -2.54 1.27)
          )
          (stroke (width 0) (type default) (color 0 0 0 0))
          (fill (type none))
        )
        (polyline
          (pts
            (xy 0.635 -0.508)
            (xy -0.635 -0.508)
            (xy 0 0.762)
            (xy 0.635 -0.508)
          )
          (stroke (width 0) (type default) (color 0 0 0 0))
          (fill (type none))
        )
        (polyline
          (pts
            (xy 3.81 -2.54)
            (xy 2.54 -2.54)
            (xy 3.175 -1.27)
            (xy 3.81 -2.54)
          )
          (stroke (width 0) (type default) (color 0 0 0 0))
          (fill (type none))
        )
        (polyline
          (pts
            (xy 3.81 1.27)
            (xy 2.54 1.27)
            (xy 3.175 2.54)
            (xy 3.81 1.27)
          )
          (stroke (width 0) (type default) (color 0 0 0 0))
          (fill (type none))
        )
        (circle (center 0 3.81) (radius 0.2794)
          (stroke (width 0) (type default) (color 0 0 0 0))
          (fill (type outline))
        )
        (circle (center 3.175 0) (radius 0.2794)
          (stroke (width 0) (type default) (color 0 0 0 0))
          (fill (type outline))
        )
      )
      (symbol "TPD2EUSB30_1_1"
        (pin passive line (at -10.16 0 0) (length 5.08)
          (name "D+" (effects (font (size 1.27 1.27))))
          (number "1" (effects (font (size 1.27 1.27))))
        )
        (pin passive line (at 10.16 0 180) (length 5.08)
          (name "D-" (effects (font (size 1.27 1.27))))
          (number "2" (effects (font (size 1.27 1.27))))
        )
        (pin passive line (at 0 -10.16 90) (length 5.08)
          (name "GND" (effects (font (size 1.27 1.27))))
          (number "3" (effects (font (size 1.27 1.27))))
        )
      )
    )
    (symbol "power:GND" (power) (pin_names (offset 0)) (in_bom yes) (on_board yes)
      (property "Reference" "#PWR" (id 0) (at 0 -6.35 0)
        (effects (font (size 1.27 1.27)) hide)
      )
      (property "Value" "GND" (id 1) (at 0 -3.81 0)
        (effects (font (size 1.27 1.27)))
      )
      (property "Footprint" "" (id 2) (at 0 0 0)
        (effects (font (size 1.27 1.27)) hide)
      )
      (property "Datasheet" "" (id 3) (at 0 0 0)
        (effects (font (size 1.27 1.27)) hide)
      )
      (property "ki_keywords" "power-flag" (id 4) (at 0 0 0)
        (effects (font (size 1.27 1.27)) hide)
      )
      (property "ki_description" "Power symbol creates a global label with name \"GND\" , ground" (id 5) (at 0 0 0)
        (effects (font (size 1.27 1.27)) hide)
      )
      (symbol "GND_0_1"
        (polyline
          (pts
            (xy 0 0)
            (xy 0 -1.27)
            (xy 1.27 -1.27)
            (xy 0 -2.54)
            (xy -1.27 -1.27)
            (xy 0 -1.27)
          )
          (stroke (width 0) (type default) (color 0 0 0 0))
          (fill (type none))
        )
      )
      (symbol "GND_1_1"
        (pin power_in line (at 0 0 270) (length 0) hide
          (name "GND" (effects (font (size 1.27 1.27))))
          (number "1" (effects (font (size 1.27 1.27))))
        )
      )
    )
  )

  (junction (at 76.2 102.87) (diameter 0) (color 0 0 0 0)
    (uuid 6a8a8cd2-aa1f-45d6-847d-bd22ceb6b33b)
  )
  (junction (at 39.37 166.37) (diameter 0) (color 0 0 0 0)
    (uuid 713d9772-f37e-44c4-8987-4bb24b533d1d)
  )
  (junction (at 48.26 45.72) (diameter 0) (color 0 0 0 0)
    (uuid 7fc3f62a-dce5-4e3c-86ba-ab3e1efd9c92)
  )
  (junction (at 57.15 96.52) (diameter 0) (color 0 0 0 0)
    (uuid 8923fbb0-3db4-4688-918f-8e79a51e0d71)
  )
  (junction (at 57.15 116.84) (diameter 0) (color 0 0 0 0)
    (uuid c3204f77-280c-4e0c-862b-bfa352084894)
  )
  (junction (at 76.2 123.19) (diameter 0) (color 0 0 0 0)
    (uuid d0902669-920d-45ef-bce5-05867e65d051)
  )
  (junction (at 57.15 109.22) (diameter 0) (color 0 0 0 0)
    (uuid e46cd085-8b2d-4062-b49d-77c232510c9d)
  )

  (no_connect (at 54.61 154.94) (uuid 69888f5b-9505-446e-b3c6-0b66b986704d))
  (no_connect (at 54.61 152.4) (uuid 69888f5b-9505-446e-b3c6-0b66b986704e))
  (no_connect (at 54.61 147.32) (uuid 69888f5b-9505-446e-b3c6-0b66b986704f))
  (no_connect (at 54.61 144.78) (uuid 69888f5b-9505-446e-b3c6-0b66b9867050))
  (no_connect (at 54.61 139.7) (uuid 69888f5b-9505-446e-b3c6-0b66b9867051))
  (no_connect (at 54.61 137.16) (uuid 69888f5b-9505-446e-b3c6-0b66b9867052))
  (no_connect (at 54.61 132.08) (uuid 69888f5b-9505-446e-b3c6-0b66b9867053))
  (no_connect (at 54.61 129.54) (uuid 69888f5b-9505-446e-b3c6-0b66b9867054))
  (no_connect (at 54.61 124.46) (uuid 69888f5b-9505-446e-b3c6-0b66b9867055))
  (no_connect (at 54.61 121.92) (uuid 69888f5b-9505-446e-b3c6-0b66b9867056))
  (no_connect (at 54.61 104.14) (uuid 69888f5b-9505-446e-b3c6-0b66b9867057))
  (no_connect (at 54.61 101.6) (uuid 69888f5b-9505-446e-b3c6-0b66b9867058))

  (wire (pts (xy 54.61 111.76) (xy 57.15 111.76))
    (stroke (width 0) (type default) (color 0 0 0 0))
    (uuid 0e70bab6-ce9d-4438-b613-4db3b3345496)
  )
  (wire (pts (xy 66.04 96.52) (xy 67.31 96.52))
    (stroke (width 0) (type default) (color 0 0 0 0))
    (uuid 1416a02a-36d8-4f8c-87cc-09a27ceaaf69)
  )
  (wire (pts (xy 86.36 113.03) (xy 87.63 113.03))
    (stroke (width 0) (type default) (color 0 0 0 0))
    (uuid 14919555-2d04-4234-beb2-a93fa1899eb9)
  )
  (wire (pts (xy 31.75 162.56) (xy 31.75 166.37))
    (stroke (width 0) (type default) (color 0 0 0 0))
    (uuid 15ca40c8-3002-4673-bf8d-d6ff77e657e5)
  )
  (wire (pts (xy 54.61 116.84) (xy 57.15 116.84))
    (stroke (width 0) (type default) (color 0 0 0 0))
    (uuid 15e8261a-9fc3-47a1-89ca-22f82a0348c0)
  )
  (wire (pts (xy 46.99 43.18) (xy 48.26 43.18))
    (stroke (width 0) (type default) (color 0 0 0 0))
    (uuid 1c297131-deeb-400e-918a-e0d68f026d4d)
  )
  (wire (pts (xy 48.26 40.64) (xy 46.99 40.64))
    (stroke (width 0) (type default) (color 0 0 0 0))
    (uuid 237297a1-afb3-46e7-b820-3f38e676d83b)
  )
  (wire (pts (xy 57.15 109.22) (xy 54.61 109.22))
    (stroke (width 0) (type default) (color 0 0 0 0))
    (uuid 3904015b-defd-406c-98cf-4894eb643cc9)
  )
  (wire (pts (xy 57.15 123.19) (xy 57.15 116.84))
    (stroke (width 0) (type default) (color 0 0 0 0))
    (uuid 43f5bf40-f81b-4599-a1d4-9e3d4e31a145)
  )
  (wire (pts (xy 39.37 162.56) (xy 39.37 166.37))
    (stroke (width 0) (type default) (color 0 0 0 0))
    (uuid 522dc806-0594-4fc1-97fa-e703f9f8b9ed)
  )
  (wire (pts (xy 57.15 90.17) (xy 57.15 96.52))
    (stroke (width 0) (type default) (color 0 0 0 0))
    (uuid 60991980-2d22-436f-a8d6-9d172ab28e9a)
  )
  (wire (pts (xy 76.2 123.19) (xy 57.15 123.19))
    (stroke (width 0) (type default) (color 0 0 0 0))
    (uuid 685fbd85-fc6a-498f-800a-e40ab4fd85d5)
  )
  (wire (pts (xy 48.26 43.18) (xy 48.26 45.72))
    (stroke (width 0) (type default) (color 0 0 0 0))
    (uuid 727a407a-3666-4c64-a29b-bd49f89ca8f9)
  )
  (wire (pts (xy 31.75 166.37) (xy 39.37 166.37))
    (stroke (width 0) (type default) (color 0 0 0 0))
    (uuid 79342b09-f33d-4ba5-9854-017c303d658d)
  )
  (wire (pts (xy 54.61 96.52) (xy 57.15 96.52))
    (stroke (width 0) (type default) (color 0 0 0 0))
    (uuid 7df6fdfa-b2b9-456c-9463-7925942a69e5)
  )
  (wire (pts (xy 39.37 166.37) (xy 39.37 167.64))
    (stroke (width 0) (type default) (color 0 0 0 0))
    (uuid 836b1eda-684e-4ca7-8e9f-496a3ccb5c07)
  )
  (wire (pts (xy 76.2 102.87) (xy 57.15 102.87))
    (stroke (width 0) (type default) (color 0 0 0 0))
    (uuid 850c353d-1627-4a30-a1f8-e56f1c0ce289)
  )
  (wire (pts (xy 76.2 123.19) (xy 88.9 123.19))
    (stroke (width 0) (type default) (color 0 0 0 0))
    (uuid 9ae112ab-ac72-4a00-8185-501659bcc254)
  )
  (wire (pts (xy 76.2 102.87) (xy 88.9 102.87))
    (stroke (width 0) (type default) (color 0 0 0 0))
    (uuid acce61f6-58fe-445c-85e2-72c9fcd0ce5b)
  )
  (wire (pts (xy 54.61 114.3) (xy 57.15 114.3))
    (stroke (width 0) (type default) (color 0 0 0 0))
    (uuid b6ee10b5-2066-457f-a73e-b17fd435fa4c)
  )
  (wire (pts (xy 48.26 46.99) (xy 48.26 45.72))
    (stroke (width 0) (type default) (color 0 0 0 0))
    (uuid c01a1ec2-d369-43c0-8853-79d68af82daa)
  )
  (wire (pts (xy 48.26 45.72) (xy 46.99 45.72))
    (stroke (width 0) (type default) (color 0 0 0 0))
    (uuid c21404c2-c0a8-47c1-b84b-d5bbab3079a4)
  )
  (wire (pts (xy 57.15 111.76) (xy 57.15 109.22))
    (stroke (width 0) (type default) (color 0 0 0 0))
    (uuid c7283596-b68f-4d62-bb58-667dea50ba1b)
  )
  (wire (pts (xy 57.15 96.52) (xy 60.96 96.52))
    (stroke (width 0) (type default) (color 0 0 0 0))
    (uuid cd0fe9e5-b681-4422-a5ab-cdf97467beee)
  )
  (wire (pts (xy 57.15 114.3) (xy 57.15 116.84))
    (stroke (width 0) (type default) (color 0 0 0 0))
    (uuid d72902a0-6dc8-4feb-af2c-b21b739876db)
  )
  (wire (pts (xy 57.15 102.87) (xy 57.15 109.22))
    (stroke (width 0) (type default) (color 0 0 0 0))
    (uuid dd1ab101-296a-4e62-8875-702a8b62977d)
  )

  (global_label "V_USB" (shape input) (at 57.15 82.55 90) (fields_autoplaced)
    (effects (font (size 1.27 1.27)) (justify left))
    (uuid 0091152b-c2f8-415b-b749-238cc80a86d7)
    (property "Intersheet References" "${INTERSHEET_REFS}" (id 0) (at 57.2294 74.2707 90)
      (effects (font (size 1.27 1.27)) (justify left) hide)
    )
  )
  (global_label "USB_D+" (shape input) (at 88.9 123.19 0) (fields_autoplaced)
    (effects (font (size 1.27 1.27)) (justify left))
    (uuid 0edcedff-1c90-4587-8ea3-7a5d6c372f58)
    (property "Intersheet References" "${INTERSHEET_REFS}" (id 0) (at 98.9331 123.1106 0)
      (effects (font (size 1.27 1.27)) (justify left) hide)
    )
  )
  (global_label "V_BARREL_JACK" (shape input) (at 48.26 40.64 0) (fields_autoplaced)
    (effects (font (size 1.27 1.27)) (justify left))
    (uuid 9a14e573-a845-4527-947f-4ebdc3988204)
    (property "Intersheet References" "${INTERSHEET_REFS}" (id 0) (at 65.3688 40.5606 0)
      (effects (font (size 1.27 1.27)) (justify left) hide)
    )
  )
  (global_label "USB_D-" (shape input) (at 88.9 102.87 0) (fields_autoplaced)
    (effects (font (size 1.27 1.27)) (justify left))
    (uuid c3a8d7c2-f273-4384-bce4-28ea730a08e8)
    (property "Intersheet References" "${INTERSHEET_REFS}" (id 0) (at 98.9331 102.7906 0)
      (effects (font (size 1.27 1.27)) (justify left) hide)
    )
  )

  (symbol (lib_id "power:GND") (at 87.63 113.03 90) (unit 1)
    (in_bom yes) (on_board yes) (fields_autoplaced)
    (uuid 43816182-1c7d-4dff-b3ab-d4104a28c8a4)
    (property "Reference" "#PWR0114" (id 0) (at 93.98 113.03 0)
      (effects (font (size 1.27 1.27)) hide)
    )
    (property "Value" "GND" (id 1) (at 91.44 113.0299 90)
      (effects (font (size 1.27 1.27)) (justify right))
    )
    (property "Footprint" "" (id 2) (at 87.63 113.03 0)
      (effects (font (size 1.27 1.27)) hide)
    )
    (property "Datasheet" "" (id 3) (at 87.63 113.03 0)
      (effects (font (size 1.27 1.27)) hide)
    )
    (pin "1" (uuid 54727094-238d-4225-9ce4-711465bf5811))
  )

  (symbol (lib_id "power:GND") (at 48.26 46.99 0) (unit 1)
    (in_bom yes) (on_board yes) (fields_autoplaced)
    (uuid 8389107a-3790-487c-a35d-b10b81b2e942)
    (property "Reference" "#PWR0127" (id 0) (at 48.26 53.34 0)
      (effects (font (size 1.27 1.27)) hide)
    )
    (property "Value" "GND" (id 1) (at 48.26 52.07 0))
    (property "Footprint" "" (id 2) (at 48.26 46.99 0)
      (effects (font (size 1.27 1.27)) hide)
    )
    (property "Datasheet" "" (id 3) (at 48.26 46.99 0)
      (effects (font (size 1.27 1.27)) hide)
    )
    (pin "1" (uuid bf187706-0785-4159-b047-a416e599d273))
  )

  (symbol (lib_id "power:GND") (at 39.37 167.64 0) (unit 1)
    (in_bom yes) (on_board yes) (fields_autoplaced)
    (uuid 85a22996-8545-45fd-b458-1bf642be86f6)
    (property "Reference" "#PWR0112" (id 0) (at 39.37 173.99 0)
      (effects (font (size 1.27 1.27)) hide)
    )
    (property "Value" "GND" (id 1) (at 39.37 172.72 0))
    (property "Footprint" "" (id 2) (at 39.37 167.64 0)
      (effects (font (size 1.27 1.27)) hide)
    )
    (property "Datasheet" "" (id 3) (at 39.37 167.64 0)
      (effects (font (size 1.27 1.27)) hide)
    )
    (pin "1" (uuid 2948f2c4-3d31-4643-9fa2-6212fa16994b))
  )

  (symbol (lib_id "Device:FerriteBead") (at 57.15 86.36 0) (unit 1)
    (in_bom yes) (on_board yes)
    (uuid 8ab18adf-1921-479b-8ffe-fdcb7076f1b8)
    (property "Reference" "FB1" (id 0) (at 60.96 82.55 0)
      (effects (font (size 1.27 1.27)) (justify left))
    )
    (property "Value" "300@100MHz" (id 1) (at 60.96 85.09 0)
      (effects (font (size 1.27 1.27)) (justify left))
    )
    (property "Footprint" "" (id 2) (at 55.372 86.36 90)
      (effects (font (size 1.27 1.27)) hide)
    )
    (property "Datasheet" "~" (id 3) (at 57.15 86.36 0)
      (effects (font (size 1.27 1.27)) hide)
    )
    (property "Current" "> 500mA" (id 4) (at 64.77 87.63 0))
    (pin "1" (uuid 946354fa-163c-4de6-9b8d-2d0843202dd1))
    (pin "2" (uuid d52e3e8e-59dd-4eb1-a991-bc23a18f8356))
  )

  (symbol (lib_id "power:GND") (at 67.31 96.52 90) (unit 1)
    (in_bom yes) (on_board yes) (fields_autoplaced)
    (uuid 9103a013-5d87-4fed-bd55-8ecfefb27148)
    (property "Reference" "#PWR0113" (id 0) (at 73.66 96.52 0)
      (effects (font (size 1.27 1.27)) hide)
    )
    (property "Value" "GND" (id 1) (at 71.12 96.5199 90)
      (effects (font (size 1.27 1.27)) (justify right))
    )
    (property "Footprint" "" (id 2) (at 67.31 96.52 0)
      (effects (font (size 1.27 1.27)) hide)
    )
    (property "Datasheet" "" (id 3) (at 67.31 96.52 0)
      (effects (font (size 1.27 1.27)) hide)
    )
    (pin "1" (uuid 867bb3f4-c1f9-4438-94ca-0cfae8cf2815))
  )

  (symbol (lib_id "KiCAD_Library_FalkoSchmidt_UULM:C_0805") (at 63.5 96.52 90) (unit 1)
    (in_bom yes) (on_board yes)
    (uuid 962b2139-b2ac-49c2-a53d-5baa98ad60fe)
    (property "Reference" "C6" (id 0) (at 63.5 91.44 90))
    (property "Value" "10n" (id 1) (at 63.5 93.98 90))
    (property "Footprint" "footprints:C_0805_1.0x1.4mm_Pad" (id 2) (at 73.025 96.52 0)
      (effects (font (size 1.27 1.27)) hide)
    )
    (property "Datasheet" "~" (id 3) (at 63.5 96.52 0)
      (effects (font (size 1.27 1.27)) hide)
    )
    (pin "1" (uuid 15039543-b1d8-4883-8870-da957997fdd7))
    (pin "2" (uuid defdcc3f-5dd1-462d-9a3c-629711ed4f38))
  )

  (symbol (lib_id "KiCAD_Library_FalkoSchmidt_UULM:Barrel_Jack_Switch_Kycon_KLDX-0202-A") (at 39.37 43.18 0) (unit 1)
    (in_bom yes) (on_board yes) (fields_autoplaced)
    (uuid 9b074e52-c4af-4e4a-b07a-d6eb0c17adde)
    (property "Reference" "J5" (id 0) (at 39.37 34.29 0))
    (property "Value" "Barrel_Jack_Switch_Kycon_KLDX-0202-A" (id 1) (at 39.37 36.83 0))
    (property "Footprint" "footprints:BarrelJack_Kycon_KLDX-0202-A" (id 2) (at 39.37 57.15 0)
      (effects (font (size 1.27 1.27)) hide)
    )
    (property "Datasheet" "http://www.kycon.com/2013Catalogpage/DC%20Power/KLDX_0202_LT.pdf" (id 3) (at 39.37 59.69 0)
      (effects (font (size 1.27 1.27)) hide)
    )
    (pin "1" (uuid ee0fd4b4-732c-4e40-80a2-4e13caf53f34))
    (pin "2" (uuid 8a59129f-f143-45c2-b177-87234f22ab7e))
    (pin "3" (uuid ea010a5b-70d0-46ba-bc77-2cd58f251dd6))
  )

  (symbol (lib_id "Power_Protection:TPD2EUSB30") (at 76.2 113.03 90) (unit 1)
    (in_bom yes) (on_board yes) (fields_autoplaced)
    (uuid b83474c6-4446-45d8-b915-14963eb49218)
    (property "Reference" "U3" (id 0) (at 69.85 111.7599 90)
      (effects (font (size 1.27 1.27)) (justify left))
    )
    (property "Value" "TPD2EUSB30" (id 1) (at 69.85 114.2999 90)
      (effects (font (size 1.27 1.27)) (justify left))
    )
    (property "Footprint" "Package_TO_SOT_SMD:Texas_DRT-3" (id 2) (at 83.82 132.08 0)
      (effects (font (size 1.27 1.27)) hide)
    )
    (property "Datasheet" "http://www.ti.com/lit/ds/symlink/tpd2eusb30a.pdf" (id 3) (at 76.2 113.03 0)
      (effects (font (size 1.27 1.27)) hide)
    )
    (pin "1" (uuid cebc1c26-ebeb-4ceb-8568-2306ba86b7db))
    (pin "2" (uuid 1461d729-5018-4627-8add-6ee17b9c990d))
    (pin "3" (uuid ef1324cc-4979-46c1-9c01-2c019e5b453e))
  )

  (symbol (lib_id "KiCAD_Library_FalkoSchmidt_UULM:USB_C_GCT_USB4105-GF-A") (at 39.37 121.92 0) (unit 1)
    (in_bom yes) (on_board yes) (fields_autoplaced)
    (uuid bb1ca998-8005-4961-aed9-e9914eaf37ac)
    (property "Reference" "J6" (id 0) (at 39.37 88.9 0))
    (property "Value" "USB_C_GCT_USB4105-GF-A" (id 1) (at 39.37 91.44 0))
    (property "Footprint" "footprints:USB_C_USB4105-GF-A" (id 2) (at 39.37 175.26 0)
      (effects (font (size 1.27 1.27)) hide)
    )
    (property "Datasheet" "https://www.usb.org/sites/default/files/documents/usb_type-c.zip" (id 3) (at 39.37 177.8 0)
      (effects (font (size 1.27 1.27)) hide)
    )
    (pin "A10" (uuid 7f6dc177-cd3e-4766-bad9-d1b54b86c330))
    (pin "A11" (uuid 2a47b8e9-33be-4a16-a687-94de1b617c5a))
    (pin "A1_B12" (uuid 91334293-e190-425a-a75f-3e228d2c6eae))
    (pin "A2" (uuid 5621dee8-5825-4721-a8d6-3dbd648bf6ab))
    (pin "A3" (uuid b21213cc-5e34-499b-a299-d72658288bbd))
    (pin "A4_B9" (uuid 5289fb4a-fa4a-4f63-a0e4-7a108b56bb04))
    (pin "A5" (uuid d775be93-8f51-44f0-afc6-370d2d1dcc1f))
    (pin "A6" (uuid 4fb329bc-d7f3-4880-84e7-0c2aab6dfe09))
    (pin "A7" (uuid f57704ef-1403-424d-8e91-ba7088b89e39))
    (pin "A8" (uuid a00bdb69-e1d2-414b-8c21-c417473a0278))
    (pin "B10" (uuid a9de1302-77bb-439d-8b7c-c756fc05dbe0))
    (pin "B11" (uuid 82888e2f-64bb-4678-8193-2c1c7f6783d7))
    (pin "B1_A12" (uuid 79680bff-ce9d-46be-ab70-cc9673d0e95d))
    (pin "B2" (uuid a601d937-38b2-46e0-ae39-10157598a9de))
    (pin "B3" (uuid 40af6fa0-96cc-4c13-b1a2-23a3ce9254a8))
    (pin "B4_A9" (uuid fdbdd28a-5c66-44ab-86f6-458ef8f329d7))
    (pin "B5" (uuid 66acfd08-104c-403f-b10f-be67255862ef))
    (pin "B6" (uuid b7c815c9-9068-4c4c-b3b9-96af7587bf75))
    (pin "B7" (uuid 11c3b63c-b766-4dc1-8c82-d0423cd98df1))
    (pin "B8" (uuid 25738ffa-32ed-43d6-b0bf-b4e2fa7733e0))
    (pin "S" (uuid 8586efa2-c48e-4726-b1f2-6806ca1f5630))
  )

  (symbol (lib_id "Power_Management:LTC4365TS8") (at 101.6 43.18 0) (unit 1)
    (in_bom yes) (on_board yes) (fields_autoplaced)
    (uuid cc45deac-a041-46aa-8b02-6cf0b031580b)
    (property "Reference" "U5" (id 0) (at 103.6194 30.48 0)
      (effects (font (size 1.27 1.27)) (justify left))
    )
    (property "Value" "LTC4365TS8" (id 1) (at 103.6194 33.02 0)
      (effects (font (size 1.27 1.27)) (justify left))
    )
    (property "Footprint" "" (id 2) (at 93.98 36.83 0)
      (effects (font (size 1.27 1.27)) hide)
    )
    (property "Datasheet" "https://www.analog.com/media/en/technical-documentation/data-sheets/4365fa.pdf" (id 3) (at 101.6 40.64 0)
      (effects (font (size 1.27 1.27)) hide)
    )
    (pin "1" (uuid 8fd17404-6fc3-41ad-844e-87a243184cb4))
    (pin "2" (uuid aa33d0ed-6b8f-4ecf-9a64-48a0f7096537))
    (pin "3" (uuid 9e1a9220-d530-42d8-b8d1-1a6e4b61d6ad))
    (pin "4" (uuid 8e98a0f5-dce7-465d-951f-5ecb2812ca98))
    (pin "5" (uuid 0031c659-0d07-4eb8-8ec5-29e10e25a97e))
    (pin "6" (uuid 7f2dcc7f-8df6-418c-bfb1-25548c00ee04))
    (pin "7" (uuid 10122c64-d962-4d38-8060-268f0fb27a74))
    (pin "8" (uuid c868b7c6-1413-4f08-a56b-d9576ae0ed8b))
  )
)
