M48
; DRILL file {KiCad (6.0.2-0)} date 2022 March 13, Sunday 10:01:56
; FORMAT={-:-/ absolute / metric / decimal}
; #@! TF.CreationDate,2022-03-13T10:01:56+01:00
; #@! TF.GenerationSoftware,Kicad,Pcbnew,(6.0.2-0)
; #@! TF.FileFunction,NonPlated,1,2,NPTH
FMAT,2
METRIC
; #@! TA.AperFunction,NonPlated,NPTH,ComponentDrill
T1C3.200
%
G90
G05
T1
X2.54Y-13.97
X7.62Y-66.04
X35.56Y-66.04
X50.8Y-15.24
T0
M30
