%TF.GenerationSoftware,KiCad,Pcbnew,(6.0.2-0)*%
%TF.CreationDate,2022-03-13T10:01:49+01:00*%
%TF.ProjectId,Programmer_ATtiny_X4,50726f67-7261-46d6-9d65-725f41547469,rev?*%
%TF.SameCoordinates,Original*%
%TF.FileFunction,Profile,NP*%
%FSLAX46Y46*%
G04 Gerber Fmt 4.6, Leading zero omitted, Abs format (unit mm)*
G04 Created by KiCad (PCBNEW (6.0.2-0)) date 2022-03-13 10:01:49*
%MOMM*%
%LPD*%
G01*
G04 APERTURE LIST*
%TA.AperFunction,Profile*%
%ADD10C,0.150000*%
%TD*%
G04 APERTURE END LIST*
D10*
%TO.C,A1*%
X0Y-66040000D02*
X1270000Y-66040000D01*
X53340000Y-64516000D02*
X51816000Y-66040000D01*
X53340000Y0D02*
X0Y0D01*
X0Y0D02*
X0Y-66040000D01*
X40640000Y-66040000D02*
X51816000Y-66040000D01*
X53340000Y0D02*
X53340000Y-64516000D01*
X38100000Y-68580000D02*
X40640000Y-66040000D01*
X1270000Y-66040000D02*
X3810000Y-68580000D01*
X3810000Y-68580000D02*
X38100000Y-68580000D01*
%TD*%
M02*
