%TF.GenerationSoftware,KiCad,Pcbnew,(6.0.2-0)*%
%TF.CreationDate,2022-03-13T10:01:49+01:00*%
%TF.ProjectId,Programmer_ATtiny_X4,50726f67-7261-46d6-9d65-725f41547469,rev?*%
%TF.SameCoordinates,Original*%
%TF.FileFunction,Soldermask,Top*%
%TF.FilePolarity,Negative*%
%FSLAX46Y46*%
G04 Gerber Fmt 4.6, Leading zero omitted, Abs format (unit mm)*
G04 Created by KiCad (PCBNEW (6.0.2-0)) date 2022-03-13 10:01:49*
%MOMM*%
%LPD*%
G01*
G04 APERTURE LIST*
G04 Aperture macros list*
%AMRoundRect*
0 Rectangle with rounded corners*
0 $1 Rounding radius*
0 $2 $3 $4 $5 $6 $7 $8 $9 X,Y pos of 4 corners*
0 Add a 4 corners polygon primitive as box body*
4,1,4,$2,$3,$4,$5,$6,$7,$8,$9,$2,$3,0*
0 Add four circle primitives for the rounded corners*
1,1,$1+$1,$2,$3*
1,1,$1+$1,$4,$5*
1,1,$1+$1,$6,$7*
1,1,$1+$1,$8,$9*
0 Add four rect primitives between the rounded corners*
20,1,$1+$1,$2,$3,$4,$5,0*
20,1,$1+$1,$4,$5,$6,$7,0*
20,1,$1+$1,$6,$7,$8,$9,0*
20,1,$1+$1,$8,$9,$2,$3,0*%
G04 Aperture macros list end*
%ADD10RoundRect,0.243902X-0.256098X-0.456098X0.256098X-0.456098X0.256098X0.456098X-0.256098X0.456098X0*%
%ADD11R,2.000000X1.440000*%
%ADD12O,2.000000X1.440000*%
%ADD13C,3.200000*%
%ADD14O,2.400000X1.600000*%
%ADD15RoundRect,0.250000X-0.250000X-0.450000X0.250000X-0.450000X0.250000X0.450000X-0.250000X0.450000X0*%
G04 APERTURE END LIST*
D10*
%TO.C,R1*%
X41257500Y-59000000D03*
X43082500Y-59000000D03*
%TD*%
%TO.C,C1*%
X5087500Y-36600000D03*
X6912500Y-36600000D03*
%TD*%
%TO.C,R2*%
X28337500Y-59000000D03*
X30162500Y-59000000D03*
%TD*%
D11*
%TO.C,J1*%
X22790000Y-26460000D03*
D12*
X22790000Y-29000000D03*
X22790000Y-31540000D03*
X22790000Y-34080000D03*
X22790000Y-36620000D03*
X22790000Y-39160000D03*
X22790000Y-41700000D03*
X30410000Y-41700000D03*
X30410000Y-39160000D03*
X30410000Y-36620000D03*
X30410000Y-34080000D03*
X30410000Y-31540000D03*
X30410000Y-29000000D03*
X30410000Y-26460000D03*
%TD*%
D13*
%TO.C,A1*%
X35560000Y-66040000D03*
X7620000Y-66040000D03*
X50800000Y-15240000D03*
X2540000Y-13970000D03*
D14*
X2540000Y-27940000D03*
X2540000Y-30480000D03*
X2540000Y-33020000D03*
X2540000Y-35560000D03*
X2540000Y-38100000D03*
X2540000Y-40640000D03*
X2540000Y-43180000D03*
X2540000Y-45720000D03*
X2540000Y-50800000D03*
X2540000Y-53340000D03*
X2540000Y-55880000D03*
X2540000Y-58420000D03*
X2540000Y-60960000D03*
X2540000Y-63500000D03*
X50800000Y-63500000D03*
X50800000Y-60960000D03*
X50800000Y-58420000D03*
X50800000Y-55880000D03*
X50800000Y-53340000D03*
X50800000Y-50800000D03*
X50800000Y-48260000D03*
X50800000Y-45720000D03*
X50800000Y-41656000D03*
X50800000Y-39116000D03*
X50800000Y-36576000D03*
X50800000Y-34036000D03*
X50800000Y-31496000D03*
X50800000Y-28956000D03*
X50800000Y-26416000D03*
X50800000Y-23876000D03*
X50800000Y-21336000D03*
X50800000Y-18796000D03*
%TD*%
D15*
%TO.C,D1*%
X36232500Y-59000000D03*
X38107500Y-59000000D03*
%TD*%
D10*
%TO.C,R3*%
X15257500Y-59000000D03*
X17082500Y-59000000D03*
%TD*%
D15*
%TO.C,D2*%
X23312500Y-59000000D03*
X25187500Y-59000000D03*
%TD*%
%TO.C,D3*%
X10232500Y-59000000D03*
X12107500Y-59000000D03*
%TD*%
M02*
