%TF.GenerationSoftware,KiCad,Pcbnew,(6.0.6-0)*%
%TF.CreationDate,2022-07-10T12:34:55+02:00*%
%TF.ProjectId,UULM_Simon_Says,55554c4d-5f53-4696-9d6f-6e5f53617973,rev?*%
%TF.SameCoordinates,Original*%
%TF.FileFunction,Legend,Top*%
%TF.FilePolarity,Positive*%
%FSLAX46Y46*%
G04 Gerber Fmt 4.6, Leading zero omitted, Abs format (unit mm)*
G04 Created by KiCad (PCBNEW (6.0.6-0)) date 2022-07-10 12:34:55*
%MOMM*%
%LPD*%
G01*
G04 APERTURE LIST*
%ADD10C,0.200000*%
%ADD11C,0.400000*%
%ADD12C,0.300000*%
%ADD13C,0.150000*%
%ADD14C,0.120000*%
G04 APERTURE END LIST*
D10*
X19000000Y-54000000D02*
X19000000Y-45000000D01*
X19000000Y-25000000D02*
X19000000Y-16000000D01*
X27000000Y-69000000D02*
X1000000Y-69000000D01*
X1000000Y-69000000D02*
X1000000Y-45000000D01*
X1000000Y-45000000D02*
X27000000Y-45000000D01*
X27000000Y-45000000D02*
X27000000Y-69000000D01*
X19000000Y-54000000D02*
X27000000Y-54000000D01*
X19000000Y-16000000D02*
X27000000Y-16000000D01*
X43000000Y-16000000D02*
X51000000Y-16000000D01*
X27000000Y-25000000D02*
X1000000Y-25000000D01*
X1000000Y-25000000D02*
X1000000Y-1000000D01*
X1000000Y-1000000D02*
X27000000Y-1000000D01*
X27000000Y-1000000D02*
X27000000Y-25000000D01*
X69000000Y-25000000D02*
X43000000Y-25000000D01*
X43000000Y-25000000D02*
X43000000Y-1000000D01*
X43000000Y-1000000D02*
X69000000Y-1000000D01*
X69000000Y-1000000D02*
X69000000Y-25000000D01*
X51000000Y-54000000D02*
X51000000Y-45000000D01*
X51000000Y-25000000D02*
X51000000Y-16000000D01*
X43000000Y-54000000D02*
X51000000Y-54000000D01*
X69000000Y-69000000D02*
X43000000Y-69000000D01*
X43000000Y-69000000D02*
X43000000Y-45000000D01*
X43000000Y-45000000D02*
X69000000Y-45000000D01*
X69000000Y-45000000D02*
X69000000Y-69000000D01*
D11*
X8071428Y-22357142D02*
X7071428Y-20928571D01*
X6357142Y-22357142D02*
X6357142Y-19357142D01*
X7500000Y-19357142D01*
X7785714Y-19500000D01*
X7928571Y-19642857D01*
X8071428Y-19928571D01*
X8071428Y-20357142D01*
X7928571Y-20642857D01*
X7785714Y-20785714D01*
X7500000Y-20928571D01*
X6357142Y-20928571D01*
X9357142Y-20785714D02*
X10357142Y-20785714D01*
X10785714Y-22357142D02*
X9357142Y-22357142D01*
X9357142Y-19357142D01*
X10785714Y-19357142D01*
X12071428Y-22357142D02*
X12071428Y-19357142D01*
X12785714Y-19357142D01*
X13214285Y-19500000D01*
X13500000Y-19785714D01*
X13642857Y-20071428D01*
X13785714Y-20642857D01*
X13785714Y-21071428D01*
X13642857Y-21642857D01*
X13500000Y-21928571D01*
X13214285Y-22214285D01*
X12785714Y-22357142D01*
X12071428Y-22357142D01*
D12*
X27928571Y-73607142D02*
X29071428Y-73607142D01*
D11*
X52928571Y-49928571D02*
X52928571Y-51357142D01*
X51928571Y-48357142D02*
X52928571Y-49928571D01*
X53928571Y-48357142D01*
X54928571Y-49785714D02*
X55928571Y-49785714D01*
X56357142Y-51357142D02*
X54928571Y-51357142D01*
X54928571Y-48357142D01*
X56357142Y-48357142D01*
X59071428Y-51357142D02*
X57642857Y-51357142D01*
X57642857Y-48357142D01*
X61500000Y-51357142D02*
X60071428Y-51357142D01*
X60071428Y-48357142D01*
X63071428Y-48357142D02*
X63642857Y-48357142D01*
X63928571Y-48500000D01*
X64214285Y-48785714D01*
X64357142Y-49357142D01*
X64357142Y-50357142D01*
X64214285Y-50928571D01*
X63928571Y-51214285D01*
X63642857Y-51357142D01*
X63071428Y-51357142D01*
X62785714Y-51214285D01*
X62500000Y-50928571D01*
X62357142Y-50357142D01*
X62357142Y-49357142D01*
X62500000Y-48785714D01*
X62785714Y-48500000D01*
X63071428Y-48357142D01*
X65357142Y-48357142D02*
X66071428Y-51357142D01*
X66642857Y-49214285D01*
X67214285Y-51357142D01*
X67928571Y-48357142D01*
D12*
X40928571Y-73607142D02*
X42071428Y-73607142D01*
X41500000Y-74178571D02*
X41500000Y-73035714D01*
X31485714Y-61514285D02*
X32600000Y-61514285D01*
X32000000Y-62200000D01*
X32257142Y-62200000D01*
X32428571Y-62285714D01*
X32514285Y-62371428D01*
X32600000Y-62542857D01*
X32600000Y-62971428D01*
X32514285Y-63142857D01*
X32428571Y-63228571D01*
X32257142Y-63314285D01*
X31742857Y-63314285D01*
X31571428Y-63228571D01*
X31485714Y-63142857D01*
X33371428Y-63142857D02*
X33457142Y-63228571D01*
X33371428Y-63314285D01*
X33285714Y-63228571D01*
X33371428Y-63142857D01*
X33371428Y-63314285D01*
X34228571Y-63142857D02*
X34314285Y-63228571D01*
X34228571Y-63314285D01*
X34142857Y-63228571D01*
X34228571Y-63142857D01*
X34228571Y-63314285D01*
X35085714Y-63142857D02*
X35171428Y-63228571D01*
X35085714Y-63314285D01*
X35000000Y-63228571D01*
X35085714Y-63142857D01*
X35085714Y-63314285D01*
X36800000Y-61514285D02*
X35942857Y-61514285D01*
X35857142Y-62371428D01*
X35942857Y-62285714D01*
X36114285Y-62200000D01*
X36542857Y-62200000D01*
X36714285Y-62285714D01*
X36800000Y-62371428D01*
X36885714Y-62542857D01*
X36885714Y-62971428D01*
X36800000Y-63142857D01*
X36714285Y-63228571D01*
X36542857Y-63314285D01*
X36114285Y-63314285D01*
X35942857Y-63228571D01*
X35857142Y-63142857D01*
X37400000Y-61514285D02*
X38000000Y-63314285D01*
X38600000Y-61514285D01*
D11*
X56071428Y-20785714D02*
X56500000Y-20928571D01*
X56642857Y-21071428D01*
X56785714Y-21357142D01*
X56785714Y-21785714D01*
X56642857Y-22071428D01*
X56500000Y-22214285D01*
X56214285Y-22357142D01*
X55071428Y-22357142D01*
X55071428Y-19357142D01*
X56071428Y-19357142D01*
X56357142Y-19500000D01*
X56500000Y-19642857D01*
X56642857Y-19928571D01*
X56642857Y-20214285D01*
X56500000Y-20500000D01*
X56357142Y-20642857D01*
X56071428Y-20785714D01*
X55071428Y-20785714D01*
X59500000Y-22357142D02*
X58071428Y-22357142D01*
X58071428Y-19357142D01*
X60500000Y-19357142D02*
X60500000Y-21785714D01*
X60642857Y-22071428D01*
X60785714Y-22214285D01*
X61071428Y-22357142D01*
X61642857Y-22357142D01*
X61928571Y-22214285D01*
X62071428Y-22071428D01*
X62214285Y-21785714D01*
X62214285Y-19357142D01*
X63642857Y-20785714D02*
X64642857Y-20785714D01*
X65071428Y-22357142D02*
X63642857Y-22357142D01*
X63642857Y-19357142D01*
X65071428Y-19357142D01*
D12*
X37571428Y-21107142D02*
X36428571Y-21107142D01*
X37000000Y-21678571D02*
X37000000Y-20535714D01*
D11*
X5000000Y-48500000D02*
X4714285Y-48357142D01*
X4285714Y-48357142D01*
X3857142Y-48500000D01*
X3571428Y-48785714D01*
X3428571Y-49071428D01*
X3285714Y-49642857D01*
X3285714Y-50071428D01*
X3428571Y-50642857D01*
X3571428Y-50928571D01*
X3857142Y-51214285D01*
X4285714Y-51357142D01*
X4571428Y-51357142D01*
X5000000Y-51214285D01*
X5142857Y-51071428D01*
X5142857Y-50071428D01*
X4571428Y-50071428D01*
X8142857Y-51357142D02*
X7142857Y-49928571D01*
X6428571Y-51357142D02*
X6428571Y-48357142D01*
X7571428Y-48357142D01*
X7857142Y-48500000D01*
X8000000Y-48642857D01*
X8142857Y-48928571D01*
X8142857Y-49357142D01*
X8000000Y-49642857D01*
X7857142Y-49785714D01*
X7571428Y-49928571D01*
X6428571Y-49928571D01*
X9428571Y-49785714D02*
X10428571Y-49785714D01*
X10857142Y-51357142D02*
X9428571Y-51357142D01*
X9428571Y-48357142D01*
X10857142Y-48357142D01*
X12142857Y-49785714D02*
X13142857Y-49785714D01*
X13571428Y-51357142D02*
X12142857Y-51357142D01*
X12142857Y-48357142D01*
X13571428Y-48357142D01*
X14857142Y-51357142D02*
X14857142Y-48357142D01*
X16571428Y-51357142D01*
X16571428Y-48357142D01*
D12*
X4166666Y1433333D02*
X4366666Y1366666D01*
X4700000Y1366666D01*
X4833333Y1433333D01*
X4900000Y1500000D01*
X4966666Y1633333D01*
X4966666Y1766666D01*
X4900000Y1900000D01*
X4833333Y1966666D01*
X4700000Y2033333D01*
X4433333Y2100000D01*
X4300000Y2166666D01*
X4233333Y2233333D01*
X4166666Y2366666D01*
X4166666Y2500000D01*
X4233333Y2633333D01*
X4300000Y2700000D01*
X4433333Y2766666D01*
X4766666Y2766666D01*
X4966666Y2700000D01*
X5566666Y1366666D02*
X5566666Y2300000D01*
X5566666Y2766666D02*
X5500000Y2700000D01*
X5566666Y2633333D01*
X5633333Y2700000D01*
X5566666Y2766666D01*
X5566666Y2633333D01*
X6233333Y1366666D02*
X6233333Y2300000D01*
X6233333Y2166666D02*
X6300000Y2233333D01*
X6433333Y2300000D01*
X6633333Y2300000D01*
X6766666Y2233333D01*
X6833333Y2100000D01*
X6833333Y1366666D01*
X6833333Y2100000D02*
X6900000Y2233333D01*
X7033333Y2300000D01*
X7233333Y2300000D01*
X7366666Y2233333D01*
X7433333Y2100000D01*
X7433333Y1366666D01*
X8300000Y1366666D02*
X8166666Y1433333D01*
X8100000Y1500000D01*
X8033333Y1633333D01*
X8033333Y2033333D01*
X8100000Y2166666D01*
X8166666Y2233333D01*
X8300000Y2300000D01*
X8500000Y2300000D01*
X8633333Y2233333D01*
X8700000Y2166666D01*
X8766666Y2033333D01*
X8766666Y1633333D01*
X8700000Y1500000D01*
X8633333Y1433333D01*
X8500000Y1366666D01*
X8300000Y1366666D01*
X9366666Y2300000D02*
X9366666Y1366666D01*
X9366666Y2166666D02*
X9433333Y2233333D01*
X9566666Y2300000D01*
X9766666Y2300000D01*
X9900000Y2233333D01*
X9966666Y2100000D01*
X9966666Y1366666D01*
X11633333Y1433333D02*
X11833333Y1366666D01*
X12166666Y1366666D01*
X12300000Y1433333D01*
X12366666Y1500000D01*
X12433333Y1633333D01*
X12433333Y1766666D01*
X12366666Y1900000D01*
X12300000Y1966666D01*
X12166666Y2033333D01*
X11900000Y2100000D01*
X11766666Y2166666D01*
X11700000Y2233333D01*
X11633333Y2366666D01*
X11633333Y2500000D01*
X11700000Y2633333D01*
X11766666Y2700000D01*
X11900000Y2766666D01*
X12233333Y2766666D01*
X12433333Y2700000D01*
X13633333Y1366666D02*
X13633333Y2100000D01*
X13566666Y2233333D01*
X13433333Y2300000D01*
X13166666Y2300000D01*
X13033333Y2233333D01*
X13633333Y1433333D02*
X13500000Y1366666D01*
X13166666Y1366666D01*
X13033333Y1433333D01*
X12966666Y1566666D01*
X12966666Y1700000D01*
X13033333Y1833333D01*
X13166666Y1900000D01*
X13500000Y1900000D01*
X13633333Y1966666D01*
X14166666Y2300000D02*
X14500000Y1366666D01*
X14833333Y2300000D02*
X14500000Y1366666D01*
X14366666Y1033333D01*
X14300000Y966666D01*
X14166666Y900000D01*
X15300000Y1433333D02*
X15433333Y1366666D01*
X15700000Y1366666D01*
X15833333Y1433333D01*
X15900000Y1566666D01*
X15900000Y1633333D01*
X15833333Y1766666D01*
X15700000Y1833333D01*
X15500000Y1833333D01*
X15366666Y1900000D01*
X15300000Y2033333D01*
X15300000Y2100000D01*
X15366666Y2233333D01*
X15500000Y2300000D01*
X15700000Y2300000D01*
X15833333Y2233333D01*
X17433333Y2300000D02*
X17766666Y1366666D01*
X18100000Y2300000D01*
X19366666Y1366666D02*
X18566666Y1366666D01*
X18966666Y1366666D02*
X18966666Y2766666D01*
X18833333Y2566666D01*
X18700000Y2433333D01*
X18566666Y2366666D01*
X19966666Y1500000D02*
X20033333Y1433333D01*
X19966666Y1366666D01*
X19900000Y1433333D01*
X19966666Y1500000D01*
X19966666Y1366666D01*
X21366666Y1366666D02*
X20566666Y1366666D01*
X20966666Y1366666D02*
X20966666Y2766666D01*
X20833333Y2566666D01*
X20700000Y2433333D01*
X20566666Y2366666D01*
X23366666Y900000D02*
X23366666Y2900000D01*
X25433333Y2766666D02*
X25433333Y1633333D01*
X25500000Y1500000D01*
X25566666Y1433333D01*
X25700000Y1366666D01*
X25966666Y1366666D01*
X26100000Y1433333D01*
X26166666Y1500000D01*
X26233333Y1633333D01*
X26233333Y2766666D01*
X26900000Y2300000D02*
X26900000Y1366666D01*
X26900000Y2166666D02*
X26966666Y2233333D01*
X27100000Y2300000D01*
X27300000Y2300000D01*
X27433333Y2233333D01*
X27500000Y2100000D01*
X27500000Y1366666D01*
X28166666Y1366666D02*
X28166666Y2300000D01*
X28166666Y2766666D02*
X28100000Y2700000D01*
X28166666Y2633333D01*
X28233333Y2700000D01*
X28166666Y2766666D01*
X28166666Y2633333D01*
X28700000Y2300000D02*
X29033333Y1366666D01*
X29366666Y2300000D01*
X30433333Y1433333D02*
X30300000Y1366666D01*
X30033333Y1366666D01*
X29900000Y1433333D01*
X29833333Y1566666D01*
X29833333Y2100000D01*
X29900000Y2233333D01*
X30033333Y2300000D01*
X30300000Y2300000D01*
X30433333Y2233333D01*
X30500000Y2100000D01*
X30500000Y1966666D01*
X29833333Y1833333D01*
X31100000Y1366666D02*
X31100000Y2300000D01*
X31100000Y2033333D02*
X31166666Y2166666D01*
X31233333Y2233333D01*
X31366666Y2300000D01*
X31500000Y2300000D01*
X31900000Y1433333D02*
X32033333Y1366666D01*
X32300000Y1366666D01*
X32433333Y1433333D01*
X32500000Y1566666D01*
X32500000Y1633333D01*
X32433333Y1766666D01*
X32300000Y1833333D01*
X32100000Y1833333D01*
X31966666Y1900000D01*
X31900000Y2033333D01*
X31900000Y2100000D01*
X31966666Y2233333D01*
X32100000Y2300000D01*
X32300000Y2300000D01*
X32433333Y2233333D01*
X33100000Y1366666D02*
X33100000Y2300000D01*
X33100000Y2766666D02*
X33033333Y2700000D01*
X33100000Y2633333D01*
X33166666Y2700000D01*
X33100000Y2766666D01*
X33100000Y2633333D01*
X33566666Y2300000D02*
X34100000Y2300000D01*
X33766666Y2766666D02*
X33766666Y1566666D01*
X33833333Y1433333D01*
X33966666Y1366666D01*
X34100000Y1366666D01*
X34433333Y2300000D02*
X34766666Y1366666D01*
X35100000Y2300000D02*
X34766666Y1366666D01*
X34633333Y1033333D01*
X34566666Y966666D01*
X34433333Y900000D01*
X36900000Y1366666D02*
X36766666Y1433333D01*
X36700000Y1500000D01*
X36633333Y1633333D01*
X36633333Y2033333D01*
X36700000Y2166666D01*
X36766666Y2233333D01*
X36900000Y2300000D01*
X37100000Y2300000D01*
X37233333Y2233333D01*
X37300000Y2166666D01*
X37366666Y2033333D01*
X37366666Y1633333D01*
X37300000Y1500000D01*
X37233333Y1433333D01*
X37100000Y1366666D01*
X36900000Y1366666D01*
X37766666Y2300000D02*
X38300000Y2300000D01*
X37966666Y1366666D02*
X37966666Y2566666D01*
X38033333Y2700000D01*
X38166666Y2766666D01*
X38300000Y2766666D01*
X39833333Y2766666D02*
X39833333Y1633333D01*
X39900000Y1500000D01*
X39966666Y1433333D01*
X40100000Y1366666D01*
X40366666Y1366666D01*
X40500000Y1433333D01*
X40566666Y1500000D01*
X40633333Y1633333D01*
X40633333Y2766666D01*
X41500000Y1366666D02*
X41366666Y1433333D01*
X41300000Y1566666D01*
X41300000Y2766666D01*
X42033333Y1366666D02*
X42033333Y2300000D01*
X42033333Y2166666D02*
X42100000Y2233333D01*
X42233333Y2300000D01*
X42433333Y2300000D01*
X42566666Y2233333D01*
X42633333Y2100000D01*
X42633333Y1366666D01*
X42633333Y2100000D02*
X42700000Y2233333D01*
X42833333Y2300000D01*
X43033333Y2300000D01*
X43166666Y2233333D01*
X43233333Y2100000D01*
X43233333Y1366666D01*
X45300000Y900000D02*
X45300000Y2900000D01*
X47833333Y2100000D02*
X47366666Y2100000D01*
X47366666Y1366666D02*
X47366666Y2766666D01*
X48033333Y2766666D01*
X48566666Y1500000D02*
X48633333Y1433333D01*
X48566666Y1366666D01*
X48500000Y1433333D01*
X48566666Y1500000D01*
X48566666Y1366666D01*
X49166666Y1433333D02*
X49366666Y1366666D01*
X49700000Y1366666D01*
X49833333Y1433333D01*
X49900000Y1500000D01*
X49966666Y1633333D01*
X49966666Y1766666D01*
X49900000Y1900000D01*
X49833333Y1966666D01*
X49700000Y2033333D01*
X49433333Y2100000D01*
X49300000Y2166666D01*
X49233333Y2233333D01*
X49166666Y2366666D01*
X49166666Y2500000D01*
X49233333Y2633333D01*
X49300000Y2700000D01*
X49433333Y2766666D01*
X49766666Y2766666D01*
X49966666Y2700000D01*
X51166666Y1433333D02*
X51033333Y1366666D01*
X50766666Y1366666D01*
X50633333Y1433333D01*
X50566666Y1500000D01*
X50500000Y1633333D01*
X50500000Y2033333D01*
X50566666Y2166666D01*
X50633333Y2233333D01*
X50766666Y2300000D01*
X51033333Y2300000D01*
X51166666Y2233333D01*
X51766666Y1366666D02*
X51766666Y2766666D01*
X52366666Y1366666D02*
X52366666Y2100000D01*
X52300000Y2233333D01*
X52166666Y2300000D01*
X51966666Y2300000D01*
X51833333Y2233333D01*
X51766666Y2166666D01*
X53033333Y1366666D02*
X53033333Y2300000D01*
X53033333Y2166666D02*
X53100000Y2233333D01*
X53233333Y2300000D01*
X53433333Y2300000D01*
X53566666Y2233333D01*
X53633333Y2100000D01*
X53633333Y1366666D01*
X53633333Y2100000D02*
X53700000Y2233333D01*
X53833333Y2300000D01*
X54033333Y2300000D01*
X54166666Y2233333D01*
X54233333Y2100000D01*
X54233333Y1366666D01*
X54900000Y1366666D02*
X54900000Y2300000D01*
X54900000Y2766666D02*
X54833333Y2700000D01*
X54900000Y2633333D01*
X54966666Y2700000D01*
X54900000Y2766666D01*
X54900000Y2633333D01*
X56166666Y1366666D02*
X56166666Y2766666D01*
X56166666Y1433333D02*
X56033333Y1366666D01*
X55766666Y1366666D01*
X55633333Y1433333D01*
X55566666Y1500000D01*
X55500000Y1633333D01*
X55500000Y2033333D01*
X55566666Y2166666D01*
X55633333Y2233333D01*
X55766666Y2300000D01*
X56033333Y2300000D01*
X56166666Y2233333D01*
X56633333Y2300000D02*
X57166666Y2300000D01*
X56833333Y2766666D02*
X56833333Y1566666D01*
X56900000Y1433333D01*
X57033333Y1366666D01*
X57166666Y1366666D01*
X59033333Y900000D02*
X59033333Y2900000D01*
X61033333Y2633333D02*
X61100000Y2700000D01*
X61233333Y2766666D01*
X61566666Y2766666D01*
X61700000Y2700000D01*
X61766666Y2633333D01*
X61833333Y2500000D01*
X61833333Y2366666D01*
X61766666Y2166666D01*
X60966666Y1366666D01*
X61833333Y1366666D01*
X62700000Y2766666D02*
X62833333Y2766666D01*
X62966666Y2700000D01*
X63033333Y2633333D01*
X63100000Y2500000D01*
X63166666Y2233333D01*
X63166666Y1900000D01*
X63100000Y1633333D01*
X63033333Y1500000D01*
X62966666Y1433333D01*
X62833333Y1366666D01*
X62700000Y1366666D01*
X62566666Y1433333D01*
X62500000Y1500000D01*
X62433333Y1633333D01*
X62366666Y1900000D01*
X62366666Y2233333D01*
X62433333Y2500000D01*
X62500000Y2633333D01*
X62566666Y2700000D01*
X62700000Y2766666D01*
X63700000Y2633333D02*
X63766666Y2700000D01*
X63900000Y2766666D01*
X64233333Y2766666D01*
X64366666Y2700000D01*
X64433333Y2633333D01*
X64500000Y2500000D01*
X64500000Y2366666D01*
X64433333Y2166666D01*
X63633333Y1366666D01*
X64500000Y1366666D01*
X65033333Y2633333D02*
X65100000Y2700000D01*
X65233333Y2766666D01*
X65566666Y2766666D01*
X65700000Y2700000D01*
X65766666Y2633333D01*
X65833333Y2500000D01*
X65833333Y2366666D01*
X65766666Y2166666D01*
X64966666Y1366666D01*
X65833333Y1366666D01*
D13*
%TO.C,R1*%
X34833332Y-24896596D02*
X34499999Y-24420406D01*
X34261903Y-24896596D02*
X34261903Y-23896596D01*
X34642856Y-23896596D01*
X34738094Y-23944216D01*
X34785713Y-23991835D01*
X34833332Y-24087073D01*
X34833332Y-24229930D01*
X34785713Y-24325168D01*
X34738094Y-24372787D01*
X34642856Y-24420406D01*
X34261903Y-24420406D01*
X35785713Y-24896596D02*
X35214284Y-24896596D01*
X35499999Y-24896596D02*
X35499999Y-23896596D01*
X35404760Y-24039454D01*
X35309522Y-24134692D01*
X35214284Y-24182311D01*
%TO.C,R2*%
X52253333Y-39822380D02*
X51920000Y-39346190D01*
X51681904Y-39822380D02*
X51681904Y-38822380D01*
X52062857Y-38822380D01*
X52158095Y-38870000D01*
X52205714Y-38917619D01*
X52253333Y-39012857D01*
X52253333Y-39155714D01*
X52205714Y-39250952D01*
X52158095Y-39298571D01*
X52062857Y-39346190D01*
X51681904Y-39346190D01*
X52634285Y-38917619D02*
X52681904Y-38870000D01*
X52777142Y-38822380D01*
X53015238Y-38822380D01*
X53110476Y-38870000D01*
X53158095Y-38917619D01*
X53205714Y-39012857D01*
X53205714Y-39108095D01*
X53158095Y-39250952D01*
X52586666Y-39822380D01*
X53205714Y-39822380D01*
%TO.C,D2*%
X22261904Y-17652380D02*
X22261904Y-16652380D01*
X22500000Y-16652380D01*
X22642857Y-16700000D01*
X22738095Y-16795238D01*
X22785714Y-16890476D01*
X22833333Y-17080952D01*
X22833333Y-17223809D01*
X22785714Y-17414285D01*
X22738095Y-17509523D01*
X22642857Y-17604761D01*
X22500000Y-17652380D01*
X22261904Y-17652380D01*
X23214285Y-16747619D02*
X23261904Y-16700000D01*
X23357142Y-16652380D01*
X23595238Y-16652380D01*
X23690476Y-16700000D01*
X23738095Y-16747619D01*
X23785714Y-16842857D01*
X23785714Y-16938095D01*
X23738095Y-17080952D01*
X23166666Y-17652380D01*
X23785714Y-17652380D01*
%TO.C,SW3*%
X8666666Y-67404761D02*
X8809523Y-67452380D01*
X9047619Y-67452380D01*
X9142857Y-67404761D01*
X9190476Y-67357142D01*
X9238095Y-67261904D01*
X9238095Y-67166666D01*
X9190476Y-67071428D01*
X9142857Y-67023809D01*
X9047619Y-66976190D01*
X8857142Y-66928571D01*
X8761904Y-66880952D01*
X8714285Y-66833333D01*
X8666666Y-66738095D01*
X8666666Y-66642857D01*
X8714285Y-66547619D01*
X8761904Y-66500000D01*
X8857142Y-66452380D01*
X9095238Y-66452380D01*
X9238095Y-66500000D01*
X9571428Y-66452380D02*
X9809523Y-67452380D01*
X10000000Y-66738095D01*
X10190476Y-67452380D01*
X10428571Y-66452380D01*
X10714285Y-66452380D02*
X11333333Y-66452380D01*
X11000000Y-66833333D01*
X11142857Y-66833333D01*
X11238095Y-66880952D01*
X11285714Y-66928571D01*
X11333333Y-67023809D01*
X11333333Y-67261904D01*
X11285714Y-67357142D01*
X11238095Y-67404761D01*
X11142857Y-67452380D01*
X10857142Y-67452380D01*
X10761904Y-67404761D01*
X10714285Y-67357142D01*
%TO.C,R3*%
X17413333Y-31082380D02*
X17080000Y-30606190D01*
X16841904Y-31082380D02*
X16841904Y-30082380D01*
X17222857Y-30082380D01*
X17318095Y-30130000D01*
X17365714Y-30177619D01*
X17413333Y-30272857D01*
X17413333Y-30415714D01*
X17365714Y-30510952D01*
X17318095Y-30558571D01*
X17222857Y-30606190D01*
X16841904Y-30606190D01*
X17746666Y-30082380D02*
X18365714Y-30082380D01*
X18032380Y-30463333D01*
X18175238Y-30463333D01*
X18270476Y-30510952D01*
X18318095Y-30558571D01*
X18365714Y-30653809D01*
X18365714Y-30891904D01*
X18318095Y-30987142D01*
X18270476Y-31034761D01*
X18175238Y-31082380D01*
X17889523Y-31082380D01*
X17794285Y-31034761D01*
X17746666Y-30987142D01*
%TO.C,D1*%
X46261904Y-46652380D02*
X46261904Y-45652380D01*
X46500000Y-45652380D01*
X46642857Y-45700000D01*
X46738095Y-45795238D01*
X46785714Y-45890476D01*
X46833333Y-46080952D01*
X46833333Y-46223809D01*
X46785714Y-46414285D01*
X46738095Y-46509523D01*
X46642857Y-46604761D01*
X46500000Y-46652380D01*
X46261904Y-46652380D01*
X47785714Y-46652380D02*
X47214285Y-46652380D01*
X47500000Y-46652380D02*
X47500000Y-45652380D01*
X47404761Y-45795238D01*
X47309523Y-45890476D01*
X47214285Y-45938095D01*
%TO.C,SW4*%
X58396666Y-3204761D02*
X58539523Y-3252380D01*
X58777619Y-3252380D01*
X58872857Y-3204761D01*
X58920476Y-3157142D01*
X58968095Y-3061904D01*
X58968095Y-2966666D01*
X58920476Y-2871428D01*
X58872857Y-2823809D01*
X58777619Y-2776190D01*
X58587142Y-2728571D01*
X58491904Y-2680952D01*
X58444285Y-2633333D01*
X58396666Y-2538095D01*
X58396666Y-2442857D01*
X58444285Y-2347619D01*
X58491904Y-2300000D01*
X58587142Y-2252380D01*
X58825238Y-2252380D01*
X58968095Y-2300000D01*
X59301428Y-2252380D02*
X59539523Y-3252380D01*
X59730000Y-2538095D01*
X59920476Y-3252380D01*
X60158571Y-2252380D01*
X60968095Y-2585714D02*
X60968095Y-3252380D01*
X60730000Y-2204761D02*
X60491904Y-2919047D01*
X61110952Y-2919047D01*
%TO.C,R5*%
X52253333Y-30952380D02*
X51920000Y-30476190D01*
X51681904Y-30952380D02*
X51681904Y-29952380D01*
X52062857Y-29952380D01*
X52158095Y-30000000D01*
X52205714Y-30047619D01*
X52253333Y-30142857D01*
X52253333Y-30285714D01*
X52205714Y-30380952D01*
X52158095Y-30428571D01*
X52062857Y-30476190D01*
X51681904Y-30476190D01*
X53158095Y-29952380D02*
X52681904Y-29952380D01*
X52634285Y-30428571D01*
X52681904Y-30380952D01*
X52777142Y-30333333D01*
X53015238Y-30333333D01*
X53110476Y-30380952D01*
X53158095Y-30428571D01*
X53205714Y-30523809D01*
X53205714Y-30761904D01*
X53158095Y-30857142D01*
X53110476Y-30904761D01*
X53015238Y-30952380D01*
X52777142Y-30952380D01*
X52681904Y-30904761D01*
X52634285Y-30857142D01*
%TO.C,SW2*%
X8396666Y-3204761D02*
X8539523Y-3252380D01*
X8777619Y-3252380D01*
X8872857Y-3204761D01*
X8920476Y-3157142D01*
X8968095Y-3061904D01*
X8968095Y-2966666D01*
X8920476Y-2871428D01*
X8872857Y-2823809D01*
X8777619Y-2776190D01*
X8587142Y-2728571D01*
X8491904Y-2680952D01*
X8444285Y-2633333D01*
X8396666Y-2538095D01*
X8396666Y-2442857D01*
X8444285Y-2347619D01*
X8491904Y-2300000D01*
X8587142Y-2252380D01*
X8825238Y-2252380D01*
X8968095Y-2300000D01*
X9301428Y-2252380D02*
X9539523Y-3252380D01*
X9730000Y-2538095D01*
X9920476Y-3252380D01*
X10158571Y-2252380D01*
X10491904Y-2347619D02*
X10539523Y-2300000D01*
X10634761Y-2252380D01*
X10872857Y-2252380D01*
X10968095Y-2300000D01*
X11015714Y-2347619D01*
X11063333Y-2442857D01*
X11063333Y-2538095D01*
X11015714Y-2680952D01*
X10444285Y-3252380D01*
X11063333Y-3252380D01*
%TO.C,R4*%
X17413333Y-39952380D02*
X17080000Y-39476190D01*
X16841904Y-39952380D02*
X16841904Y-38952380D01*
X17222857Y-38952380D01*
X17318095Y-39000000D01*
X17365714Y-39047619D01*
X17413333Y-39142857D01*
X17413333Y-39285714D01*
X17365714Y-39380952D01*
X17318095Y-39428571D01*
X17222857Y-39476190D01*
X16841904Y-39476190D01*
X18270476Y-39285714D02*
X18270476Y-39952380D01*
X18032380Y-38904761D02*
X17794285Y-39619047D01*
X18413333Y-39619047D01*
%TO.C,D3*%
X22261904Y-46652380D02*
X22261904Y-45652380D01*
X22500000Y-45652380D01*
X22642857Y-45700000D01*
X22738095Y-45795238D01*
X22785714Y-45890476D01*
X22833333Y-46080952D01*
X22833333Y-46223809D01*
X22785714Y-46414285D01*
X22738095Y-46509523D01*
X22642857Y-46604761D01*
X22500000Y-46652380D01*
X22261904Y-46652380D01*
X23166666Y-45652380D02*
X23785714Y-45652380D01*
X23452380Y-46033333D01*
X23595238Y-46033333D01*
X23690476Y-46080952D01*
X23738095Y-46128571D01*
X23785714Y-46223809D01*
X23785714Y-46461904D01*
X23738095Y-46557142D01*
X23690476Y-46604761D01*
X23595238Y-46652380D01*
X23309523Y-46652380D01*
X23214285Y-46604761D01*
X23166666Y-46557142D01*
%TO.C,BZ1*%
X34119047Y-5057786D02*
X34261904Y-5105405D01*
X34309523Y-5153024D01*
X34357142Y-5248262D01*
X34357142Y-5391119D01*
X34309523Y-5486357D01*
X34261904Y-5533976D01*
X34166666Y-5581595D01*
X33785714Y-5581595D01*
X33785714Y-4581595D01*
X34119047Y-4581595D01*
X34214285Y-4629215D01*
X34261904Y-4676834D01*
X34309523Y-4772072D01*
X34309523Y-4867310D01*
X34261904Y-4962548D01*
X34214285Y-5010167D01*
X34119047Y-5057786D01*
X33785714Y-5057786D01*
X34690476Y-4581595D02*
X35357142Y-4581595D01*
X34690476Y-5581595D01*
X35357142Y-5581595D01*
X36261904Y-5581595D02*
X35690476Y-5581595D01*
X35976190Y-5581595D02*
X35976190Y-4581595D01*
X35880952Y-4724453D01*
X35785714Y-4819691D01*
X35690476Y-4867310D01*
%TO.C,J1*%
X28452380Y-69833333D02*
X29166666Y-69833333D01*
X29309523Y-69880952D01*
X29404761Y-69976190D01*
X29452380Y-70119047D01*
X29452380Y-70214285D01*
X29452380Y-68833333D02*
X29452380Y-69404761D01*
X29452380Y-69119047D02*
X28452380Y-69119047D01*
X28595238Y-69214285D01*
X28690476Y-69309523D01*
X28738095Y-69404761D01*
%TO.C,C1*%
X25607142Y-43166666D02*
X25654761Y-43214285D01*
X25702380Y-43357142D01*
X25702380Y-43452380D01*
X25654761Y-43595238D01*
X25559523Y-43690476D01*
X25464285Y-43738095D01*
X25273809Y-43785714D01*
X25130952Y-43785714D01*
X24940476Y-43738095D01*
X24845238Y-43690476D01*
X24750000Y-43595238D01*
X24702380Y-43452380D01*
X24702380Y-43357142D01*
X24750000Y-43214285D01*
X24797619Y-43166666D01*
X25702380Y-42214285D02*
X25702380Y-42785714D01*
X25702380Y-42500000D02*
X24702380Y-42500000D01*
X24845238Y-42595238D01*
X24940476Y-42690476D01*
X24988095Y-42785714D01*
%TO.C,U1*%
X24652380Y-35761904D02*
X25461904Y-35761904D01*
X25557142Y-35714285D01*
X25604761Y-35666666D01*
X25652380Y-35571428D01*
X25652380Y-35380952D01*
X25604761Y-35285714D01*
X25557142Y-35238095D01*
X25461904Y-35190476D01*
X24652380Y-35190476D01*
X25652380Y-34190476D02*
X25652380Y-34761904D01*
X25652380Y-34476190D02*
X24652380Y-34476190D01*
X24795238Y-34571428D01*
X24890476Y-34666666D01*
X24938095Y-34761904D01*
%TO.C,D4*%
X46261904Y-17652380D02*
X46261904Y-16652380D01*
X46500000Y-16652380D01*
X46642857Y-16700000D01*
X46738095Y-16795238D01*
X46785714Y-16890476D01*
X46833333Y-17080952D01*
X46833333Y-17223809D01*
X46785714Y-17414285D01*
X46738095Y-17509523D01*
X46642857Y-17604761D01*
X46500000Y-17652380D01*
X46261904Y-17652380D01*
X47690476Y-16985714D02*
X47690476Y-17652380D01*
X47452380Y-16604761D02*
X47214285Y-17319047D01*
X47833333Y-17319047D01*
%TO.C,SW1*%
X58666666Y-67404761D02*
X58809523Y-67452380D01*
X59047619Y-67452380D01*
X59142857Y-67404761D01*
X59190476Y-67357142D01*
X59238095Y-67261904D01*
X59238095Y-67166666D01*
X59190476Y-67071428D01*
X59142857Y-67023809D01*
X59047619Y-66976190D01*
X58857142Y-66928571D01*
X58761904Y-66880952D01*
X58714285Y-66833333D01*
X58666666Y-66738095D01*
X58666666Y-66642857D01*
X58714285Y-66547619D01*
X58761904Y-66500000D01*
X58857142Y-66452380D01*
X59095238Y-66452380D01*
X59238095Y-66500000D01*
X59571428Y-66452380D02*
X59809523Y-67452380D01*
X60000000Y-66738095D01*
X60190476Y-67452380D01*
X60428571Y-66452380D01*
X61333333Y-67452380D02*
X60761904Y-67452380D01*
X61047619Y-67452380D02*
X61047619Y-66452380D01*
X60952380Y-66595238D01*
X60857142Y-66690476D01*
X60761904Y-66738095D01*
D14*
%TO.C,R1*%
X31730000Y-25630000D02*
X31730000Y-28370000D01*
X39040000Y-27000000D02*
X38270000Y-27000000D01*
X30960000Y-27000000D02*
X31730000Y-27000000D01*
X38270000Y-25630000D02*
X31730000Y-25630000D01*
X38270000Y-28370000D02*
X38270000Y-25630000D01*
X31730000Y-28370000D02*
X38270000Y-28370000D01*
%TO.C,R2*%
X56460000Y-37000000D02*
X55690000Y-37000000D01*
X48380000Y-37000000D02*
X49150000Y-37000000D01*
X49150000Y-35630000D02*
X49150000Y-38370000D01*
X55690000Y-35630000D02*
X49150000Y-35630000D01*
X55690000Y-38370000D02*
X55690000Y-35630000D01*
X49150000Y-38370000D02*
X55690000Y-38370000D01*
%TO.C,D2*%
X21455000Y-23565000D02*
X24545000Y-23565000D01*
X24544830Y-23565000D02*
G75*
G03*
X22999538Y-18015000I-1544830J2560000D01*
G01*
X23000462Y-18015000D02*
G75*
G03*
X21455170Y-23565000I-462J-2990000D01*
G01*
X25500000Y-21005000D02*
G75*
G03*
X25500000Y-21005000I-2500000J0D01*
G01*
%TO.C,SW3*%
X16050000Y-53810000D02*
X16050000Y-56530000D01*
X16050000Y-58390000D02*
X16050000Y-61530000D01*
X16050000Y-63390000D02*
X16050000Y-66110000D01*
X3750000Y-66110000D02*
X3750000Y-63390000D01*
X3750000Y-53810000D02*
X16050000Y-53810000D01*
X3750000Y-61530000D02*
X3750000Y-58390000D01*
X3750000Y-56530000D02*
X3750000Y-53810000D01*
X16050000Y-66110000D02*
X3750000Y-66110000D01*
X14579050Y-60000000D02*
G75*
G03*
X14579050Y-60000000I-4579050J0D01*
G01*
%TO.C,R3*%
X14310000Y-31630000D02*
X14310000Y-34370000D01*
X13540000Y-33000000D02*
X14310000Y-33000000D01*
X21620000Y-33000000D02*
X20850000Y-33000000D01*
X14310000Y-34370000D02*
X20850000Y-34370000D01*
X20850000Y-34370000D02*
X20850000Y-31630000D01*
X20850000Y-31630000D02*
X14310000Y-31630000D01*
%TO.C,D1*%
X45455000Y-52565000D02*
X48545000Y-52565000D01*
X47000462Y-47015000D02*
G75*
G03*
X45455170Y-52565000I-462J-2990000D01*
G01*
X48544830Y-52565000D02*
G75*
G03*
X46999538Y-47015000I-1544830J2560000D01*
G01*
X49500000Y-50005000D02*
G75*
G03*
X49500000Y-50005000I-2500000J0D01*
G01*
%TO.C,SW4*%
X66050000Y-13390000D02*
X66050000Y-16110000D01*
X53750000Y-16110000D02*
X53750000Y-13390000D01*
X53750000Y-3810000D02*
X66050000Y-3810000D01*
X66050000Y-16110000D02*
X53750000Y-16110000D01*
X66050000Y-8390000D02*
X66050000Y-11530000D01*
X66050000Y-3810000D02*
X66050000Y-6530000D01*
X53750000Y-6530000D02*
X53750000Y-3810000D01*
X53750000Y-11530000D02*
X53750000Y-8390000D01*
X64579050Y-10000000D02*
G75*
G03*
X64579050Y-10000000I-4579050J0D01*
G01*
%TO.C,R5*%
X55690000Y-34370000D02*
X55690000Y-31630000D01*
X49150000Y-31630000D02*
X49150000Y-34370000D01*
X56460000Y-33000000D02*
X55690000Y-33000000D01*
X55690000Y-31630000D02*
X49150000Y-31630000D01*
X48380000Y-33000000D02*
X49150000Y-33000000D01*
X49150000Y-34370000D02*
X55690000Y-34370000D01*
%TO.C,SW2*%
X16050000Y-3810000D02*
X16050000Y-6530000D01*
X3750000Y-6530000D02*
X3750000Y-3810000D01*
X3750000Y-3810000D02*
X16050000Y-3810000D01*
X3750000Y-11530000D02*
X3750000Y-8390000D01*
X16050000Y-13390000D02*
X16050000Y-16110000D01*
X16050000Y-16110000D02*
X3750000Y-16110000D01*
X16050000Y-8390000D02*
X16050000Y-11530000D01*
X3750000Y-16110000D02*
X3750000Y-13390000D01*
X14579050Y-10000000D02*
G75*
G03*
X14579050Y-10000000I-4579050J0D01*
G01*
%TO.C,R4*%
X13540000Y-37000000D02*
X14310000Y-37000000D01*
X20850000Y-38370000D02*
X20850000Y-35630000D01*
X21620000Y-37000000D02*
X20850000Y-37000000D01*
X14310000Y-38370000D02*
X20850000Y-38370000D01*
X14310000Y-35630000D02*
X14310000Y-38370000D01*
X20850000Y-35630000D02*
X14310000Y-35630000D01*
%TO.C,D3*%
X21455000Y-52565000D02*
X24545000Y-52565000D01*
X23000462Y-47015000D02*
G75*
G03*
X21455170Y-52565000I-462J-2990000D01*
G01*
X24544830Y-52565000D02*
G75*
G03*
X22999538Y-47015000I-1544830J2560000D01*
G01*
X25500000Y-50005000D02*
G75*
G03*
X25500000Y-50005000I-2500000J0D01*
G01*
%TO.C,BZ1*%
X33500000Y-18900000D02*
G75*
G03*
X36499999Y-18900000I1500000J6400000D01*
G01*
X41230000Y-12500000D02*
G75*
G03*
X41230000Y-12500000I-6230000J0D01*
G01*
%TO.C,J1*%
X40135000Y-64239000D02*
X40135000Y-74160000D01*
X29855000Y-72100000D02*
X40135000Y-72100000D01*
X29615000Y-73660000D02*
X29615000Y-74400000D01*
X29855000Y-74160000D02*
X40135000Y-74160000D01*
X38605000Y-68225000D02*
X38570000Y-68261000D01*
X36501000Y-70739000D02*
X36466000Y-70774000D01*
X36308000Y-70523000D02*
X36261000Y-70569000D01*
X29855000Y-64239000D02*
X40135000Y-64239000D01*
X29615000Y-74400000D02*
X30115000Y-74400000D01*
X38810000Y-68431000D02*
X38763000Y-68477000D01*
X29855000Y-64239000D02*
X29855000Y-74160000D01*
X29855000Y-73600000D02*
X40135000Y-73600000D01*
X29855000Y-67199000D02*
X40135000Y-67199000D01*
X30920000Y-68816000D02*
G75*
G03*
X30919573Y-70183042I1534993J-684001D01*
G01*
X33139000Y-67965000D02*
G75*
G03*
X31771958Y-67964573I-684001J-1534993D01*
G01*
X33990000Y-70184000D02*
G75*
G03*
X33990427Y-68816958I-1534993J684001D01*
G01*
X32455000Y-71180000D02*
G75*
G03*
X33138318Y-71034756I1J1679992D01*
G01*
X31771000Y-71035000D02*
G75*
G03*
X32483805Y-71180253I683999J1535001D01*
G01*
X39215000Y-69500000D02*
G75*
G03*
X39215000Y-69500000I-1680000J0D01*
G01*
%TO.C,C1*%
X25980000Y-41630000D02*
X25980000Y-44370000D01*
X25980000Y-41630000D02*
X31220000Y-41630000D01*
X31220000Y-41630000D02*
X31220000Y-44370000D01*
X25980000Y-44370000D02*
X31220000Y-44370000D01*
%TO.C,U1*%
X26050000Y-37250000D02*
X43950000Y-37250000D01*
X44010000Y-29750000D02*
X25990000Y-29750000D01*
X26050000Y-32750000D02*
X26050000Y-34000000D01*
X25990000Y-29750000D02*
X25990000Y-40250000D01*
X26050000Y-36000000D02*
X26050000Y-37250000D01*
X25990000Y-40250000D02*
X44010000Y-40250000D01*
X44010000Y-40250000D02*
X44010000Y-29750000D01*
X43950000Y-32750000D02*
X26050000Y-32750000D01*
X43950000Y-37250000D02*
X43950000Y-32750000D01*
X26050000Y-36000000D02*
G75*
G03*
X26050000Y-34000000I0J1000000D01*
G01*
%TO.C,D4*%
X45455000Y-23565000D02*
X48545000Y-23565000D01*
X48544830Y-23565000D02*
G75*
G03*
X46999538Y-18015000I-1544830J2560000D01*
G01*
X47000462Y-18015000D02*
G75*
G03*
X45455170Y-23565000I-462J-2990000D01*
G01*
X49500000Y-21005000D02*
G75*
G03*
X49500000Y-21005000I-2500000J0D01*
G01*
%TO.C,SW1*%
X53750000Y-53810000D02*
X66050000Y-53810000D01*
X66050000Y-63390000D02*
X66050000Y-66110000D01*
X53750000Y-56530000D02*
X53750000Y-53810000D01*
X53750000Y-66110000D02*
X53750000Y-63390000D01*
X66050000Y-66110000D02*
X53750000Y-66110000D01*
X66050000Y-58390000D02*
X66050000Y-61530000D01*
X66050000Y-53810000D02*
X66050000Y-56530000D01*
X53750000Y-61530000D02*
X53750000Y-58390000D01*
X64579050Y-60000000D02*
G75*
G03*
X64579050Y-60000000I-4579050J0D01*
G01*
%TD*%
M02*
