%TF.GenerationSoftware,KiCad,Pcbnew,(6.0.6-0)*%
%TF.CreationDate,2022-07-10T12:34:55+02:00*%
%TF.ProjectId,UULM_Simon_Says,55554c4d-5f53-4696-9d6f-6e5f53617973,rev?*%
%TF.SameCoordinates,Original*%
%TF.FileFunction,Soldermask,Bot*%
%TF.FilePolarity,Negative*%
%FSLAX46Y46*%
G04 Gerber Fmt 4.6, Leading zero omitted, Abs format (unit mm)*
G04 Created by KiCad (PCBNEW (6.0.6-0)) date 2022-07-10 12:34:55*
%MOMM*%
%LPD*%
G01*
G04 APERTURE LIST*
%ADD10C,1.600000*%
%ADD11O,1.600000X1.600000*%
%ADD12R,1.800000X1.800000*%
%ADD13C,1.800000*%
%ADD14C,5.600000*%
%ADD15O,3.048000X1.850000*%
%ADD16R,2.000000X2.000000*%
%ADD17C,2.000000*%
%ADD18R,2.600000X2.600000*%
%ADD19C,2.600000*%
%ADD20R,1.600000X2.400000*%
%ADD21O,1.600000X2.400000*%
G04 APERTURE END LIST*
D10*
%TO.C,R1*%
X40080000Y-27000000D03*
D11*
X29920000Y-27000000D03*
%TD*%
D10*
%TO.C,R2*%
X57500000Y-37000000D03*
D11*
X47340000Y-37000000D03*
%TD*%
D12*
%TO.C,D2*%
X23000000Y-22275000D03*
D13*
X23000000Y-19735000D03*
%TD*%
D14*
%TO.C,H4*%
X71500000Y1500000D03*
%TD*%
D15*
%TO.C,SW3*%
X16150000Y-57460000D03*
X3650000Y-57460000D03*
X16150000Y-62460000D03*
X3650000Y-62460000D03*
%TD*%
D10*
%TO.C,R3*%
X12500000Y-33000000D03*
D11*
X22660000Y-33000000D03*
%TD*%
D12*
%TO.C,D1*%
X47000000Y-51275000D03*
D13*
X47000000Y-48735000D03*
%TD*%
D14*
%TO.C,H3*%
X71500000Y-71500000D03*
%TD*%
D15*
%TO.C,SW4*%
X53650000Y-7460000D03*
X66150000Y-7460000D03*
X53650000Y-12460000D03*
X66150000Y-12460000D03*
%TD*%
D10*
%TO.C,R5*%
X57500000Y-33000000D03*
D11*
X47340000Y-33000000D03*
%TD*%
D14*
%TO.C,H1*%
X-1500000Y-71500000D03*
%TD*%
D15*
%TO.C,SW2*%
X16150000Y-7460000D03*
X3650000Y-7460000D03*
X16150000Y-12460000D03*
X3650000Y-12460000D03*
%TD*%
D10*
%TO.C,R4*%
X12500000Y-37000000D03*
D11*
X22660000Y-37000000D03*
%TD*%
D12*
%TO.C,D3*%
X23000000Y-51275000D03*
D13*
X23000000Y-48735000D03*
%TD*%
D16*
%TO.C,BZ1*%
X35000000Y-15000000D03*
D17*
X35000000Y-10000000D03*
%TD*%
D18*
%TO.C,J1*%
X32455000Y-69500000D03*
D19*
X37535000Y-69500000D03*
%TD*%
D10*
%TO.C,C1*%
X27350000Y-43000000D03*
X29850000Y-43000000D03*
%TD*%
D20*
%TO.C,U1*%
X27380000Y-38810000D03*
D21*
X29920000Y-38810000D03*
X32460000Y-38810000D03*
X35000000Y-38810000D03*
X37540000Y-38810000D03*
X40080000Y-38810000D03*
X42620000Y-38810000D03*
X42620000Y-31190000D03*
X40080000Y-31190000D03*
X37540000Y-31190000D03*
X35000000Y-31190000D03*
X32460000Y-31190000D03*
X29920000Y-31190000D03*
X27380000Y-31190000D03*
%TD*%
D14*
%TO.C,H2*%
X-1500000Y1500000D03*
%TD*%
D12*
%TO.C,D4*%
X47000000Y-22275000D03*
D13*
X47000000Y-19735000D03*
%TD*%
D15*
%TO.C,SW1*%
X66150000Y-57460000D03*
X53650000Y-57460000D03*
X66150000Y-62460000D03*
X53650000Y-62460000D03*
%TD*%
M02*
