(export (version "E")
  (design
    (source "/Users/falko/Nextcloud/UULM_Schülerprojekte/uulm-simon-says/pcb-design/UULM_Simon_Says.kicad_sch")
    (date "2022 February 23, Wednesday 19:47:00")
    (tool "Eeschema (6.0.2-0)")
    (sheet (number "1") (name "/") (tstamps "/")
      (title_block
        (title "Simon Says")
        (company "Falko Schmidt, University of Ulm")
        (rev "v1.0")
        (date "2022-02-23")
        (source "UULM_Simon_Says.kicad_sch")
        (comment (number "1") (value ""))
        (comment (number "2") (value ""))
        (comment (number "3") (value ""))
        (comment (number "4") (value ""))
        (comment (number "5") (value ""))
        (comment (number "6") (value ""))
        (comment (number "7") (value ""))
        (comment (number "8") (value ""))
        (comment (number "9") (value "")))))
  (components
    (comp (ref "BZ1")
      (value "Buzzer")
      (footprint "Buzzer_Beeper:Buzzer_TDK_PS1240P02BT_D12.2mm_H6.5mm")
      (libsource (lib "Device") (part "Buzzer") (description "Buzzer, polarized"))
      (property (name "Sheetname") (value ""))
      (property (name "Sheetfile") (value "UULM_Simon_Says.kicad_sch"))
      (sheetpath (names "/") (tstamps "/"))
      (tstamps "268ec1ac-cd5d-4c10-b7aa-2bcfae2182d9"))
    (comp (ref "C1")
      (value "100n")
      (footprint "footprints:C_Disc_D5.0mm_W2.5mm_P2.50mm")
      (datasheet "https://www.vishay.com/docs/45171/kseries.pdf")
      (libsource (lib "KiCAD_Library_FalkoSchmidt_UULM") (part "C_Vishay_K-Series") (description "Unpolarized capacitor, small symbol, K-Series, Size code 15"))
      (property (name "Sheetname") (value ""))
      (property (name "Sheetfile") (value "UULM_Simon_Says.kicad_sch"))
      (sheetpath (names "/") (tstamps "/"))
      (tstamps "c9b8d8a5-fbd3-4165-8636-0a3efa7d4824"))
    (comp (ref "D1")
      (value "yellow")
      (footprint "footprints:LED_D5mm_THT")
      (libsource (lib "KiCAD_Library_FalkoSchmidt_UULM") (part "LED_T1-3{slash}4_D5mm_THT") (description "A standard LED in form factor 0603 (SMD)."))
      (property (name "Sheetname") (value ""))
      (property (name "Sheetfile") (value "UULM_Simon_Says.kicad_sch"))
      (sheetpath (names "/") (tstamps "/"))
      (tstamps "2cef93d8-7257-4ab2-90bb-462d0f4f6829"))
    (comp (ref "D2")
      (value "red")
      (footprint "footprints:LED_D5mm_THT")
      (libsource (lib "KiCAD_Library_FalkoSchmidt_UULM") (part "LED_T1-3{slash}4_D5mm_THT") (description "A standard LED in form factor 0603 (SMD)."))
      (property (name "Sheetname") (value ""))
      (property (name "Sheetfile") (value "UULM_Simon_Says.kicad_sch"))
      (sheetpath (names "/") (tstamps "/"))
      (tstamps "9db24195-50ba-4227-b0b6-d5e4285a59f1"))
    (comp (ref "D3")
      (value "green")
      (footprint "footprints:LED_D5mm_THT")
      (libsource (lib "KiCAD_Library_FalkoSchmidt_UULM") (part "LED_T1-3{slash}4_D5mm_THT") (description "A standard LED in form factor 0603 (SMD)."))
      (property (name "Sheetname") (value ""))
      (property (name "Sheetfile") (value "UULM_Simon_Says.kicad_sch"))
      (sheetpath (names "/") (tstamps "/"))
      (tstamps "d1aeb97b-51dc-496a-bea0-f20566213e09"))
    (comp (ref "D4")
      (value "blue")
      (footprint "footprints:LED_D5mm_THT")
      (libsource (lib "KiCAD_Library_FalkoSchmidt_UULM") (part "LED_T1-3{slash}4_D5mm_THT") (description "A standard LED in form factor 0603 (SMD)."))
      (property (name "Sheetname") (value ""))
      (property (name "Sheetfile") (value "UULM_Simon_Says.kicad_sch"))
      (sheetpath (names "/") (tstamps "/"))
      (tstamps "e7aca1d5-ed76-4a5d-b514-3796f6ce9acd"))
    (comp (ref "H1")
      (value "M3")
      (footprint "footprints:MountingHole_M3_DIN965_Pad")
      (libsource (lib "KiCAD_Library_FalkoSchmidt_UULM") (part "MountingHole_M3_DIN965_Pad") (description "A simple mounting hole for M3 screws with pads on both sides."))
      (property (name "Sheetname") (value ""))
      (property (name "Sheetfile") (value "UULM_Simon_Says.kicad_sch"))
      (sheetpath (names "/") (tstamps "/"))
      (tstamps "29bcc5c2-3001-4bb0-a117-2b8f3970fc0a"))
    (comp (ref "H2")
      (value "M3")
      (footprint "footprints:MountingHole_M3_DIN965_Pad")
      (libsource (lib "KiCAD_Library_FalkoSchmidt_UULM") (part "MountingHole_M3_DIN965_Pad") (description "A simple mounting hole for M3 screws with pads on both sides."))
      (property (name "Sheetname") (value ""))
      (property (name "Sheetfile") (value "UULM_Simon_Says.kicad_sch"))
      (sheetpath (names "/") (tstamps "/"))
      (tstamps "7205e256-3aad-4638-9cd0-89af6dfdee46"))
    (comp (ref "H3")
      (value "M3")
      (footprint "footprints:MountingHole_M3_DIN965_Pad")
      (libsource (lib "KiCAD_Library_FalkoSchmidt_UULM") (part "MountingHole_M3_DIN965_Pad") (description "A simple mounting hole for M3 screws with pads on both sides."))
      (property (name "Sheetname") (value ""))
      (property (name "Sheetfile") (value "UULM_Simon_Says.kicad_sch"))
      (sheetpath (names "/") (tstamps "/"))
      (tstamps "6e07fe61-b0d8-4265-bca5-f32c645ece33"))
    (comp (ref "H4")
      (value "M3")
      (footprint "footprints:MountingHole_M3_DIN965_Pad")
      (libsource (lib "KiCAD_Library_FalkoSchmidt_UULM") (part "MountingHole_M3_DIN965_Pad") (description "A simple mounting hole for M3 screws with pads on both sides."))
      (property (name "Sheetname") (value ""))
      (property (name "Sheetfile") (value "UULM_Simon_Says.kicad_sch"))
      (sheetpath (names "/") (tstamps "/"))
      (tstamps "a2e048fc-a69c-403a-b3bd-f1aca239922a"))
    (comp (ref "J1")
      (value "MKDS_1.5/_2-5.08")
      (footprint "footprints:MKDS_1.5-2-5.08 BK")
      (datasheet "https://www.mouser.de/datasheet/2/324/1/718760-1436873.pdf")
      (libsource (lib "KiCAD_Library_FalkoSchmidt_UULM") (part "MKDS_1.5{slash}_2-5.08") (description "Screw Terminal from Phoenix Contact with 5.08mm pitch."))
      (property (name "Sheetname") (value ""))
      (property (name "Sheetfile") (value "UULM_Simon_Says.kicad_sch"))
      (sheetpath (names "/") (tstamps "/"))
      (tstamps "c1612199-fc3b-4597-9885-ca62f40915fd"))
    (comp (ref "R1")
      (value "TBD")
      (footprint "footprints:R_Axial_DIN0207_L6.3mm_D2.5mm_P10.16mm_Horizontal")
      (libsource (lib "KiCAD_Library_FalkoSchmidt_UULM") (part "R_Axial_10.16mm_Pitch_Horizontal") (description "A generic resistor in form factor 0402 (SMD)."))
      (property (name "Sheetname") (value ""))
      (property (name "Sheetfile") (value "UULM_Simon_Says.kicad_sch"))
      (sheetpath (names "/") (tstamps "/"))
      (tstamps "072123e9-9301-4a6b-8505-9490b1a0b626"))
    (comp (ref "R2")
      (value "300")
      (footprint "footprints:R_Axial_DIN0207_L6.3mm_D2.5mm_P10.16mm_Horizontal")
      (libsource (lib "KiCAD_Library_FalkoSchmidt_UULM") (part "R_Axial_10.16mm_Pitch_Horizontal") (description "A generic resistor in form factor 0402 (SMD)."))
      (property (name "Sheetname") (value ""))
      (property (name "Sheetfile") (value "UULM_Simon_Says.kicad_sch"))
      (sheetpath (names "/") (tstamps "/"))
      (tstamps "7075d203-abef-487d-98d5-0c310316cd45"))
    (comp (ref "R3")
      (value "300")
      (footprint "footprints:R_Axial_DIN0207_L6.3mm_D2.5mm_P10.16mm_Horizontal")
      (libsource (lib "KiCAD_Library_FalkoSchmidt_UULM") (part "R_Axial_10.16mm_Pitch_Horizontal") (description "A generic resistor in form factor 0402 (SMD)."))
      (property (name "Sheetname") (value ""))
      (property (name "Sheetfile") (value "UULM_Simon_Says.kicad_sch"))
      (sheetpath (names "/") (tstamps "/"))
      (tstamps "8b7eea9f-bf36-44d9-91ce-3baaaa46aa69"))
    (comp (ref "R4")
      (value "300")
      (footprint "footprints:R_Axial_DIN0207_L6.3mm_D2.5mm_P10.16mm_Horizontal")
      (libsource (lib "KiCAD_Library_FalkoSchmidt_UULM") (part "R_Axial_10.16mm_Pitch_Horizontal") (description "A generic resistor in form factor 0402 (SMD)."))
      (property (name "Sheetname") (value ""))
      (property (name "Sheetfile") (value "UULM_Simon_Says.kicad_sch"))
      (sheetpath (names "/") (tstamps "/"))
      (tstamps "783ce0e2-495b-453a-8255-56ae7f3d5478"))
    (comp (ref "R5")
      (value "300")
      (footprint "footprints:R_Axial_DIN0207_L6.3mm_D2.5mm_P10.16mm_Horizontal")
      (libsource (lib "KiCAD_Library_FalkoSchmidt_UULM") (part "R_Axial_10.16mm_Pitch_Horizontal") (description "A generic resistor in form factor 0402 (SMD)."))
      (property (name "Sheetname") (value ""))
      (property (name "Sheetfile") (value "UULM_Simon_Says.kicad_sch"))
      (sheetpath (names "/") (tstamps "/"))
      (tstamps "81487231-f63d-43da-b74b-ac87d589e66f"))
    (comp (ref "SW1")
      (value "YELLOW")
      (footprint "footprints:SW_PUSH-12mm")
      (libsource (lib "KiCAD_Library_FalkoSchmidt_UULM") (part "SW_Push_12mm_THT") (description "Push button switch, generic, two pins, 12mm"))
      (property (name "Sheetname") (value ""))
      (property (name "Sheetfile") (value "UULM_Simon_Says.kicad_sch"))
      (sheetpath (names "/") (tstamps "/"))
      (tstamps "af506f41-3ab6-4dff-89a5-16e42c749f78"))
    (comp (ref "SW2")
      (value "RED")
      (footprint "footprints:SW_PUSH-12mm")
      (libsource (lib "KiCAD_Library_FalkoSchmidt_UULM") (part "SW_Push_12mm_THT") (description "Push button switch, generic, two pins, 12mm"))
      (property (name "Sheetname") (value ""))
      (property (name "Sheetfile") (value "UULM_Simon_Says.kicad_sch"))
      (sheetpath (names "/") (tstamps "/"))
      (tstamps "41acf526-77b4-4138-a97b-6506a8fb5e7e"))
    (comp (ref "SW3")
      (value "GREEN")
      (footprint "footprints:SW_PUSH-12mm")
      (libsource (lib "KiCAD_Library_FalkoSchmidt_UULM") (part "SW_Push_12mm_THT") (description "Push button switch, generic, two pins, 12mm"))
      (property (name "Sheetname") (value ""))
      (property (name "Sheetfile") (value "UULM_Simon_Says.kicad_sch"))
      (sheetpath (names "/") (tstamps "/"))
      (tstamps "9bb4ee23-ff73-4dcc-a513-1e5c07762bc3"))
    (comp (ref "SW4")
      (value "BLUE")
      (footprint "footprints:SW_PUSH-12mm")
      (libsource (lib "KiCAD_Library_FalkoSchmidt_UULM") (part "SW_Push_12mm_THT") (description "Push button switch, generic, two pins, 12mm"))
      (property (name "Sheetname") (value ""))
      (property (name "Sheetfile") (value "UULM_Simon_Says.kicad_sch"))
      (sheetpath (names "/") (tstamps "/"))
      (tstamps "5a63aa46-8c18-43d5-8def-1c886562be17"))
    (comp (ref "U1")
      (value "ATtiny24_44_84")
      (footprint "footprints:DIP-14_W7.62mm_Socket")
      (datasheet "http://ww1.microchip.com/downloads/en/DeviceDoc/doc8006.pdf")
      (libsource (lib "KiCAD_Library_FalkoSchmidt_UULM") (part "ATtiny24_44_84") (description "10MHz, 2kB Flash, 128B SRAM, 128B EEPROM, debugWIRE, DIP-14"))
      (property (name "Sheetname") (value ""))
      (property (name "Sheetfile") (value "UULM_Simon_Says.kicad_sch"))
      (sheetpath (names "/") (tstamps "/"))
      (tstamps "14350d41-3553-4bf7-ae6a-b9c9ed56013a")))
  (libparts
    (libpart (lib "Device") (part "Buzzer")
      (description "Buzzer, polarized")
      (docs "~")
      (footprints
        (fp "*Buzzer*"))
      (fields
        (field (name "Reference") "BZ")
        (field (name "Value") "Buzzer")
        (field (name "Datasheet") "~"))
      (pins
        (pin (num "1") (name "-") (type "passive"))
        (pin (num "2") (name "+") (type "passive"))))
    (libpart (lib "KiCAD_Library_FalkoSchmidt_UULM") (part "ATtiny24_44_84")
      (description "10MHz, 2kB Flash, 128B SRAM, 128B EEPROM, debugWIRE, DIP-14")
      (docs "http://ww1.microchip.com/downloads/en/DeviceDoc/doc8006.pdf")
      (footprints
        (fp "DIP*W7.62mm*"))
      (fields
        (field (name "Reference") "U")
        (field (name "Value") "ATtiny24_44_84")
        (field (name "Footprint") "footprints:DIP-14_W7.62mm_Socket")
        (field (name "Datasheet") "http://ww1.microchip.com/downloads/en/DeviceDoc/doc8006.pdf"))
      (pins
        (pin (num "1") (name "VCC") (type "power_in"))
        (pin (num "2") (name "XTAL1/PB0") (type "bidirectional"))
        (pin (num "3") (name "XTAL2/PB1") (type "bidirectional"))
        (pin (num "4") (name "~{RESET}/PB3") (type "bidirectional"))
        (pin (num "5") (name "PB2") (type "bidirectional"))
        (pin (num "6") (name "PA7") (type "bidirectional"))
        (pin (num "7") (name "PA6") (type "bidirectional"))
        (pin (num "8") (name "PA5") (type "bidirectional"))
        (pin (num "9") (name "PA4") (type "bidirectional"))
        (pin (num "10") (name "PA3") (type "bidirectional"))
        (pin (num "11") (name "PA2") (type "bidirectional"))
        (pin (num "12") (name "PA1") (type "bidirectional"))
        (pin (num "13") (name "AREF/PA0") (type "bidirectional"))
        (pin (num "14") (name "GND") (type "power_in"))))
    (libpart (lib "KiCAD_Library_FalkoSchmidt_UULM") (part "C_Vishay_K-Series")
      (description "Unpolarized capacitor, small symbol, K-Series, Size code 15")
      (docs "https://www.vishay.com/docs/45171/kseries.pdf")
      (footprints
        (fp "C_*"))
      (fields
        (field (name "Reference") "C")
        (field (name "Value") "C_Vishay_K-Series")
        (field (name "Footprint") "footprints:C_Disc_D5.0mm_W2.5mm_P2.50mm")
        (field (name "Datasheet") "https://www.vishay.com/docs/45171/kseries.pdf"))
      (pins
        (pin (num "1") (name "") (type "passive"))
        (pin (num "2") (name "") (type "passive"))))
    (libpart (lib "KiCAD_Library_FalkoSchmidt_UULM") (part "LED_T1-3{slash}4_D5mm_THT")
      (description "A standard LED in form factor 0603 (SMD).")
      (fields
        (field (name "Reference") "D")
        (field (name "Value") "LED_T1-3{slash}4_D5mm_THT")
        (field (name "Footprint") "footprints:LED_D5mm_THT"))
      (pins
        (pin (num "1") (name "K") (type "passive"))
        (pin (num "2") (name "A") (type "passive"))))
    (libpart (lib "KiCAD_Library_FalkoSchmidt_UULM") (part "MKDS_1.5{slash}_2-5.08")
      (description "Screw Terminal from Phoenix Contact with 5.08mm pitch.")
      (docs "https://www.mouser.de/datasheet/2/324/1/718760-1436873.pdf")
      (fields
        (field (name "Reference") "J")
        (field (name "Value") "MKDS_1.5{slash}_2-5.08")
        (field (name "Footprint") "footprints:MKDS_1.5-2-5.08 BK")
        (field (name "Datasheet") "https://www.mouser.de/datasheet/2/324/1/718760-1436873.pdf"))
      (pins
        (pin (num "1") (name "Pin_1") (type "passive"))
        (pin (num "2") (name "Pin_2") (type "passive"))))
    (libpart (lib "KiCAD_Library_FalkoSchmidt_UULM") (part "MountingHole_M3_DIN965_Pad")
      (description "A simple mounting hole for M3 screws with pads on both sides.")
      (fields
        (field (name "Reference") "H")
        (field (name "Value") "MountingHole_M3_DIN965_Pad")
        (field (name "Footprint") "footprints:MountingHole_M3_DIN965_Pad"))
      (pins
        (pin (num "1") (name "1") (type "input"))))
    (libpart (lib "KiCAD_Library_FalkoSchmidt_UULM") (part "R_Axial_10.16mm_Pitch_Horizontal")
      (description "A generic resistor in form factor 0402 (SMD).")
      (fields
        (field (name "Reference") "R")
        (field (name "Value") "R_Axial_10.16mm_Pitch_Horizontal")
        (field (name "Footprint") "footprints:R_Axial_DIN0207_L6.3mm_D2.5mm_P10.16mm_Horizontal"))
      (pins
        (pin (num "1") (name "") (type "passive"))
        (pin (num "2") (name "") (type "passive"))))
    (libpart (lib "KiCAD_Library_FalkoSchmidt_UULM") (part "SW_Push_12mm_THT")
      (description "Push button switch, generic, two pins, 12mm")
      (docs "~")
      (fields
        (field (name "Reference") "SW")
        (field (name "Value") "SW_Push_12mm_THT")
        (field (name "Footprint") "footprints:SW_PUSH-12mm")
        (field (name "Datasheet") "~"))
      (pins
        (pin (num "1") (name "1") (type "passive"))
        (pin (num "2") (name "2") (type "passive")))))
  (libraries
    (library (logical "Device")
      (uri "/Applications/KiCad/KiCad.app/Contents/SharedSupport/symbols//Device.kicad_sym"))
    (library (logical "KiCAD_Library_FalkoSchmidt_UULM")
      (uri "/Users/falko/Documents/KiCad/kicad-components-falkoschmidt-uulm/KiCAD_Library_FalkoSchmidt_UULM.kicad_sym")))
  (nets
    (net (code "1") (name "BUZZER")
      (node (ref "R1") (pin "1") (pintype "passive"))
      (node (ref "U1") (pin "10") (pinfunction "PA3") (pintype "bidirectional")))
    (net (code "2") (name "GND")
      (node (ref "BZ1") (pin "2") (pinfunction "+") (pintype "passive"))
      (node (ref "C1") (pin "2") (pintype "passive"))
      (node (ref "D1") (pin "1") (pinfunction "K") (pintype "passive"))
      (node (ref "D2") (pin "1") (pinfunction "K") (pintype "passive"))
      (node (ref "D3") (pin "1") (pinfunction "K") (pintype "passive"))
      (node (ref "D4") (pin "1") (pinfunction "K") (pintype "passive"))
      (node (ref "H1") (pin "1") (pinfunction "1") (pintype "input"))
      (node (ref "H2") (pin "1") (pinfunction "1") (pintype "input"))
      (node (ref "H3") (pin "1") (pinfunction "1") (pintype "input"))
      (node (ref "H4") (pin "1") (pinfunction "1") (pintype "input"))
      (node (ref "J1") (pin "1") (pinfunction "Pin_1") (pintype "passive"))
      (node (ref "SW1") (pin "2") (pinfunction "2") (pintype "passive"))
      (node (ref "SW2") (pin "2") (pinfunction "2") (pintype "passive"))
      (node (ref "SW3") (pin "2") (pinfunction "2") (pintype "passive"))
      (node (ref "SW4") (pin "2") (pinfunction "2") (pintype "passive"))
      (node (ref "U1") (pin "14") (pinfunction "GND") (pintype "power_in")))
    (net (code "3") (name "LED_BLUE")
      (node (ref "R5") (pin "2") (pintype "passive"))
      (node (ref "U1") (pin "8") (pinfunction "PA5") (pintype "bidirectional")))
    (net (code "4") (name "LED_GREEN")
      (node (ref "R4") (pin "2") (pintype "passive"))
      (node (ref "U1") (pin "2") (pinfunction "XTAL1/PB0") (pintype "bidirectional")))
    (net (code "5") (name "LED_RED")
      (node (ref "R3") (pin "2") (pintype "passive"))
      (node (ref "U1") (pin "12") (pinfunction "PA1") (pintype "bidirectional")))
    (net (code "6") (name "LED_YELLOW")
      (node (ref "R2") (pin "2") (pintype "passive"))
      (node (ref "U1") (pin "7") (pinfunction "PA6") (pintype "bidirectional")))
    (net (code "7") (name "Net-(BZ1-Pad1)")
      (node (ref "BZ1") (pin "1") (pinfunction "-") (pintype "passive"))
      (node (ref "R1") (pin "2") (pintype "passive")))
    (net (code "8") (name "Net-(D1-Pad2)")
      (node (ref "D1") (pin "2") (pinfunction "A") (pintype "passive"))
      (node (ref "R2") (pin "1") (pintype "passive")))
    (net (code "9") (name "Net-(D2-Pad2)")
      (node (ref "D2") (pin "2") (pinfunction "A") (pintype "passive"))
      (node (ref "R3") (pin "1") (pintype "passive")))
    (net (code "10") (name "Net-(D3-Pad2)")
      (node (ref "D3") (pin "2") (pinfunction "A") (pintype "passive"))
      (node (ref "R4") (pin "1") (pintype "passive")))
    (net (code "11") (name "Net-(D4-Pad2)")
      (node (ref "D4") (pin "2") (pinfunction "A") (pintype "passive"))
      (node (ref "R5") (pin "1") (pintype "passive")))
    (net (code "12") (name "SW_BLUE")
      (node (ref "SW4") (pin "1") (pinfunction "1") (pintype "passive"))
      (node (ref "U1") (pin "9") (pinfunction "PA4") (pintype "bidirectional")))
    (net (code "13") (name "SW_GREEN")
      (node (ref "SW3") (pin "1") (pinfunction "1") (pintype "passive"))
      (node (ref "U1") (pin "3") (pinfunction "XTAL2/PB1") (pintype "bidirectional")))
    (net (code "14") (name "SW_RED")
      (node (ref "SW2") (pin "1") (pinfunction "1") (pintype "passive"))
      (node (ref "U1") (pin "11") (pinfunction "PA2") (pintype "bidirectional")))
    (net (code "15") (name "SW_YELLOW")
      (node (ref "SW1") (pin "1") (pinfunction "1") (pintype "passive"))
      (node (ref "U1") (pin "6") (pinfunction "PA7") (pintype "bidirectional")))
    (net (code "16") (name "VCC")
      (node (ref "C1") (pin "1") (pintype "passive"))
      (node (ref "J1") (pin "2") (pinfunction "Pin_2") (pintype "passive"))
      (node (ref "U1") (pin "1") (pinfunction "VCC") (pintype "power_in")))
    (net (code "17") (name "unconnected-(U1-Pad4)")
      (node (ref "U1") (pin "4") (pinfunction "~{RESET}/PB3") (pintype "bidirectional+no_connect")))
    (net (code "18") (name "unconnected-(U1-Pad5)")
      (node (ref "U1") (pin "5") (pinfunction "PB2") (pintype "bidirectional+no_connect")))
    (net (code "19") (name "unconnected-(U1-Pad13)")
      (node (ref "U1") (pin "13") (pinfunction "AREF/PA0") (pintype "bidirectional+no_connect")))))