(module LOGO (layer F.Cu)
  (at 0 0)
(attr board_only exclude_from_pos_files exclude_from_bom)
 (fp_text reference "G***" (at 0 0) (layer F.SilkS)
  (effects (font (thickness 0.3)))
  )
  (fp_text value "LOGO" (at 0.75 0) (layer F.SilkS) hide
  (effects (font (thickness 0.3)))
  )
  (fp_poly (pts (xy -1.427650 13.690045) (xy -1.335843 13.755335) (xy -1.231512 13.893769) (xy -1.097586 14.129579) (xy -0.916998 14.486999) (xy -0.839627 14.645274) (xy -0.366921 15.616882) (xy -0.310461 15.204957)
     (xy -0.279162 14.884678) (xy -0.258659 14.498571) (xy -0.254000 14.248627) (xy -0.250062 13.955384) (xy -0.229337 13.795145) (xy -0.178463 13.731621) (xy -0.084074 13.728516) (xy -0.063500 13.731278)
     (xy 0.033187 13.755892) (xy 0.088056 13.820176) (xy 0.110496 13.961226) (xy 0.109896 14.216139) (xy 0.104055 14.393333) (xy 0.084510 14.814825) (xy 0.056849 15.269880) (xy 0.031962 15.599833)
     (xy 0.002368 15.902282) (xy -0.033263 16.073282) (xy -0.093408 16.150260) (xy -0.196544 16.170642) (xy -0.250182 16.171333) (xy -0.353366 16.159375) (xy -0.444349 16.106857) (xy -0.541187 15.988819)
     (xy -0.661931 15.780296) (xy -0.824637 15.456327) (xy -0.939058 15.218833) (xy -1.394939 14.266333) (xy -1.472302 15.180707) (xy -1.508624 15.583226) (xy -1.541283 15.845243) (xy -1.578226 15.995189)
     (xy -1.627399 16.061499) (xy -1.696751 16.072604) (xy -1.720775 16.069707) (xy -1.810117 16.040935) (xy -1.858804 15.962708) (xy -1.875916 15.797028) (xy -1.870531 15.505894) (xy -1.868448 15.451667)
     (xy -1.846552 15.028452) (xy -1.814751 14.560722) (xy -1.790340 14.266333) (xy -1.757789 13.956567) (xy -1.720773 13.779084) (xy -1.662832 13.697261) (xy -1.567507 13.674474) (xy -1.524000 13.673667)
     )(layer F.SilkS) (width  0.000000)
  )
  (fp_poly (pts (xy 2.182364 13.584142) (xy 2.203510 13.675559) (xy 2.236194 13.896947) (xy 2.276313 14.211040) (xy 2.319764 14.580575) (xy 2.362444 14.968287) (xy 2.400250 15.336911) (xy 2.429081 15.649182)
     (xy 2.444832 15.867836) (xy 2.443450 15.955565) (xy 2.350741 15.979321) (xy 2.134008 16.015721) (xy 1.837381 16.057467) (xy 1.791025 16.063446) (xy 1.453401 16.099527) (xy 1.250101 16.100915)
     (xy 1.149423 16.066207) (xy 1.127356 16.034097) (xy 1.127453 15.866077) (xy 1.275408 15.768691) (xy 1.465497 15.746844) (xy 1.789200 15.730846) (xy 1.973615 15.672856) (xy 2.047373 15.552708)
     (xy 2.039106 15.350238) (xy 2.038039 15.343598) (xy 1.988060 15.036122) (xy 1.544363 15.059671) (xy 1.274039 15.062959) (xy 1.137300 15.030794) (xy 1.100667 14.959002) (xy 1.178311 14.819522)
     (xy 1.405748 14.744522) (xy 1.610594 14.732000) (xy 1.824029 14.698984) (xy 1.922414 14.580557) (xy 1.923637 14.347655) (xy 1.907448 14.249608) (xy 1.850779 13.947536) (xy 1.386242 13.995481)
     (xy 1.101690 14.013906) (xy 0.943999 13.990812) (xy 0.874505 13.920385) (xy 0.873726 13.918394) (xy 0.852334 13.786633) (xy 0.865058 13.754053) (xy 0.961409 13.725363) (xy 1.172536 13.687729)
     (xy 1.447656 13.647701) (xy 1.735982 13.611829) (xy 1.986730 13.586664) (xy 2.149113 13.578756) )(layer F.SilkS) (width  0.000000)
  )
  (fp_poly (pts (xy -3.470636 13.309029) (xy -3.190870 13.350579) (xy -2.905333 13.406010) (xy -2.672398 13.464019) (xy -2.551410 13.512470) (xy -2.559307 13.599214) (xy -2.602233 13.819856) (xy -2.673713 14.144125)
     (xy -2.767273 14.541750) (xy -2.802236 14.685312) (xy -2.917367 15.153466) (xy -3.007793 15.478922) (xy -3.093578 15.682288) (xy -3.194781 15.784176) (xy -3.331464 15.805194) (xy -3.523689 15.765955)
     (xy -3.780483 15.690316) (xy -4.201337 15.503220) (xy -4.497126 15.272230) (xy -4.669150 15.070693) (xy -4.752116 14.880618) (xy -4.776657 14.621922) (xy -4.777256 14.539917) (xy -4.775879 14.530082)
     (xy -4.402350 14.530082) (xy -4.331401 14.824624) (xy -4.150171 15.106879) (xy -3.907085 15.305512) (xy -3.861806 15.326354) (xy -3.629038 15.399047) (xy -3.474324 15.373203) (xy -3.363773 15.226080)
     (xy -3.263495 14.934940) (xy -3.259937 14.922500) (xy -3.165172 14.591131) (xy -3.073075 14.270916) (xy -3.028697 14.117621) (xy -2.980219 13.904344) (xy -2.974549 13.769073) (xy -2.981611 13.754167)
     (xy -3.116892 13.697842) (xy -3.350543 13.658749) (xy -3.611900 13.644092) (xy -3.830298 13.661075) (xy -3.850364 13.665607) (xy -4.068784 13.796272) (xy -4.256612 14.038878) (xy -4.377270 14.336140)
     (xy -4.402350 14.530082) (xy -4.775879 14.530082) (xy -4.711565 14.070821) (xy -4.525722 13.696659) (xy -4.235321 13.435257) (xy -3.855953 13.304441) (xy -3.686262 13.292667) )(layer F.SilkS) (width  0.000000)
  )
  (fp_poly (pts (xy 4.043344 13.265367) (xy 4.405441 13.444515) (xy 4.687435 13.739783) (xy 4.863382 14.133436) (xy 4.910350 14.507270) (xy 4.848268 14.955065) (xy 4.655845 15.299297) (xy 4.324982 15.553582)
     (xy 4.271951 15.580465) (xy 3.960062 15.698572) (xy 3.680414 15.746764) (xy 3.482048 15.718468) (xy 3.443111 15.691555) (xy 3.375573 15.553809) (xy 3.457477 15.452524) (xy 3.669557 15.409591)
     (xy 3.691467 15.409333) (xy 3.996743 15.335593) (xy 4.275859 15.143990) (xy 4.482762 14.878948) (xy 4.571396 14.584892) (xy 4.572000 14.559960) (xy 4.499674 14.214104) (xy 4.309712 13.894468)
     (xy 4.042634 13.663469) (xy 3.965367 13.625548) (xy 3.769670 13.565155) (xy 3.580471 13.572711) (xy 3.319404 13.651643) (xy 3.312581 13.654093) (xy 3.053109 13.732082) (xy 2.909761 13.731879)
     (xy 2.865718 13.695048) (xy 2.838135 13.565302) (xy 2.943071 13.447089) (xy 3.182616 13.326361) (xy 3.627087 13.220072) )(layer F.SilkS) (width  0.000000)
  )
  (fp_poly (pts (xy -6.099459 12.300790) (xy -5.715159 12.425885) (xy -5.394071 12.656863) (xy -5.209384 12.918602) (xy -5.111601 13.309277) (xy -5.152041 13.726426) (xy -5.315146 14.125637) (xy -5.585355 14.462502)
     (xy -5.807152 14.624774) (xy -6.105159 14.766666) (xy -6.359833 14.801604) (xy -6.642655 14.731898) (xy -6.819215 14.657501) (xy -7.189681 14.405563) (xy -7.427272 14.049044) (xy -7.510226 13.753248)
     (xy -7.505265 13.666342) (xy -7.112000 13.666342) (xy -7.039465 13.988448) (xy -6.848293 14.230185) (xy -6.578133 14.371342) (xy -6.268637 14.391709) (xy -5.959454 14.271073) (xy -5.945022 14.261194)
     (xy -5.697434 13.994159) (xy -5.541812 13.631982) (xy -5.503333 13.335162) (xy -5.577506 13.023031) (xy -5.772634 12.783860) (xy -6.047637 12.641436) (xy -6.361433 12.619552) (xy -6.601999 12.698929)
     (xy -6.807150 12.883683) (xy -6.982481 13.170030) (xy -7.092336 13.490330) (xy -7.112000 13.666342) (xy -7.505265 13.666342) (xy -7.492963 13.450832) (xy -7.377599 13.099710) (xy -7.194060 12.761999)
     (xy -6.972276 12.499818) (xy -6.869907 12.424168) (xy -6.500023 12.295558) )(layer F.SilkS) (width  0.000000)
  )
  (fp_poly (pts (xy 6.645537 12.292392) (xy 6.836769 12.361026) (xy 7.031229 12.516498) (xy 7.113824 12.597236) (xy 7.422647 13.000274) (xy 7.566880 13.423497) (xy 7.544528 13.859429) (xy 7.493956 14.021612)
     (xy 7.272881 14.378926) (xy 6.942398 14.635264) (xy 6.542582 14.769207) (xy 6.113638 14.759364) (xy 5.829546 14.622978) (xy 5.565512 14.359744) (xy 5.348895 14.011989) (xy 5.207049 13.622038)
     (xy 5.165860 13.293963) (xy 5.553694 13.293963) (xy 5.558374 13.473747) (xy 5.639405 13.713983) (xy 5.639955 13.715358) (xy 5.843544 14.062543) (xy 6.112043 14.292878) (xy 6.414637 14.395621)
     (xy 6.720507 14.360029) (xy 6.988848 14.185515) (xy 7.140431 13.924266) (xy 7.178964 13.596803) (xy 7.114603 13.253081) (xy 6.957501 12.943053) (xy 6.717814 12.716674) (xy 6.686665 12.698929)
     (xy 6.353656 12.605848) (xy 6.032196 12.664147) (xy 5.764148 12.858610) (xy 5.622960 13.085588) (xy 5.553694 13.293963) (xy 5.165860 13.293963) (xy 5.165697 13.292667) (xy 5.244632 12.956270)
     (xy 5.458384 12.659404) (xy 5.772793 12.430605) (xy 6.153700 12.298415) (xy 6.381127 12.277224) )(layer F.SilkS) (width  0.000000)
  )
  (fp_poly (pts (xy 9.249839 11.193520) (xy 9.585397 11.651049) (xy 9.828605 11.994291) (xy 9.990538 12.243038) (xy 10.082275 12.417078) (xy 10.114893 12.536202) (xy 10.099468 12.620199) (xy 10.071775 12.661954)
     (xy 9.880705 12.826158) (xy 9.596230 13.001240) (xy 9.287241 13.149755) (xy 9.022625 13.234260) (xy 9.017000 13.235259) (xy 8.741913 13.241462) (xy 8.509000 13.200234) (xy 8.211745 13.073377)
     (xy 7.986209 12.878439) (xy 7.800367 12.613836) (xy 7.638962 12.213220) (xy 7.644347 11.938914) (xy 7.975785 11.938914) (xy 7.988331 12.022823) (xy 8.135347 12.411536) (xy 8.387317 12.710108)
     (xy 8.589637 12.834283) (xy 8.830969 12.903084) (xy 9.068139 12.876549) (xy 9.356164 12.745197) (xy 9.460140 12.684281) (xy 9.733947 12.518537) (xy 9.390065 12.030913) (xy 9.182939 11.741898)
     (xy 8.984009 11.472043) (xy 8.850528 11.297914) (xy 8.654873 11.052539) (xy 8.296290 11.411121) (xy 8.092653 11.629604) (xy 7.994118 11.789047) (xy 7.975785 11.938914) (xy 7.644347 11.938914)
     (xy 7.646708 11.818639) (xy 7.823524 11.430334) (xy 8.169327 11.048546) (xy 8.397137 10.866335) (xy 8.793275 10.576041) )(layer F.SilkS) (width  0.000000)
  )
  (fp_poly (pts (xy 0.711124 -12.817505) (xy 1.202841 -12.808610) (xy 1.594366 -12.790726) (xy 1.920247 -12.761300) (xy 2.215032 -12.717775) (xy 2.513270 -12.657599) (xy 2.624667 -12.632177) (xy 4.102630 -12.215260)
     (xy 5.466073 -11.678037) (xy 6.725523 -11.014385) (xy 7.891505 -10.218177) (xy 8.974546 -9.283290) (xy 9.728780 -8.498600) (xy 10.613082 -7.381799) (xy 11.361118 -6.175045) (xy 11.969069 -4.893889)
     (xy 12.433119 -3.553882) (xy 12.749452 -2.170572) (xy 12.914250 -0.759510) (xy 12.923696 0.663753) (xy 12.773975 2.083669) (xy 12.570045 3.076872) (xy 12.135802 4.486123) (xy 11.557293 5.816996)
     (xy 10.843559 7.060824) (xy 10.003639 8.208944) (xy 9.046576 9.252689) (xy 7.981409 10.183396) (xy 6.817181 10.992398) (xy 5.562930 11.671031) (xy 4.227699 12.210631) (xy 2.820528 12.602532)
     (xy 2.578361 12.653135) (xy 2.209477 12.716929) (xy 1.756642 12.780922) (xy 1.265741 12.840182) (xy 0.782661 12.889777) (xy 0.353289 12.924776) (xy 0.023510 12.940247) (xy -0.084667 12.939343)
     (xy -0.264310 12.927894) (xy -0.558967 12.905170) (xy -0.915028 12.875378) (xy -1.044094 12.864072) (xy -2.499115 12.652310) (xy -3.903536 12.283835) (xy -5.246450 11.765968) (xy -6.516948 11.106032)
     (xy -7.704123 10.311346) (xy -8.797066 9.389234) (xy -9.784868 8.347017) (xy -10.656622 7.192016) (xy -11.401419 5.931554) (xy -11.416681 5.901942) (xy -11.673806 5.352374) (xy -10.544047 5.352374)
     (xy -10.394362 5.854317) (xy -10.098039 6.277559) (xy -9.658542 6.618427) (xy -9.079336 6.873245) (xy -8.417878 7.029856) (xy -7.776623 7.080337) (xy -7.010609 7.047923) (xy -6.141250 6.935195)
     (xy -5.189964 6.744734) (xy -4.420123 6.548123) (xy -4.079549 6.458085) (xy -3.804794 6.394325) (xy -3.633118 6.365012) (xy -3.595161 6.367284) (xy -3.559257 6.460849) (xy -3.494174 6.680780)
     (xy -3.410861 6.988932) (xy -3.360601 7.184705) (xy -3.269897 7.565252) (xy -3.225771 7.815053) (xy -3.225094 7.965235) (xy -3.264734 8.046924) (xy -3.273156 8.054528) (xy -3.385617 8.237043)
     (xy -3.440477 8.503211) (xy -3.427365 8.774075) (xy -3.384508 8.902251) (xy -3.209891 9.143282) (xy -2.987234 9.323564) (xy -2.774632 9.396107) (xy -2.773898 9.396117) (xy -2.645653 9.477794)
     (xy -2.477347 9.715215) (xy -2.337015 9.973427) (xy -1.935746 10.667688) (xy -1.504147 11.207847) (xy -1.027967 11.608370) (xy -0.492954 11.883722) (xy -0.433300 11.905778) (xy -0.185025 11.984565)
     (xy 0.017569 12.010647) (xy 0.240704 11.982917) (xy 0.550598 11.900267) (xy 0.589819 11.888669) (xy 1.044151 11.671169) (xy 1.492236 11.297661) (xy 1.926062 10.781459) (xy 2.337614 10.135878)
     (xy 2.718879 9.374234) (xy 3.061845 8.509842) (xy 3.358499 7.556016) (xy 3.477215 7.090833) (xy 3.581144 6.698110) (xy 3.676465 6.420195) (xy 3.755196 6.278802) (xy 3.780551 6.265333)
     (xy 3.904226 6.287467) (xy 4.148832 6.346916) (xy 4.472836 6.433256) (xy 4.674053 6.489629) (xy 5.062816 6.607491) (xy 5.330669 6.711820) (xy 5.522068 6.825508) (xy 5.681473 6.971449)
     (xy 5.742764 7.039963) (xy 5.942783 7.244400) (xy 6.120317 7.341080) (xy 6.342395 7.365985) (xy 6.350101 7.366000) (xy 6.701307 7.296915) (xy 6.936087 7.146877) (xy 7.148884 7.000901)
     (xy 7.353988 6.962425) (xy 7.514083 6.979769) (xy 7.853211 6.997368) (xy 8.289079 6.967858) (xy 8.758693 6.900329) (xy 9.199057 6.803871) (xy 9.547174 6.687573) (xy 9.551081 6.685852)
     (xy 9.984676 6.447827) (xy 10.292268 6.159225) (xy 10.507976 5.799667) (xy 10.654494 5.282240) (xy 10.649771 4.700883) (xy 10.496722 4.061729) (xy 10.198265 3.370912) (xy 9.757316 2.634565)
     (xy 9.176792 1.858821) (xy 8.459610 1.049815) (xy 8.052897 0.636930) (xy 7.365887 -0.038473) (xy 8.020124 -0.696570) (xy 8.317181 -0.989854) (xy 8.530618 -1.180843) (xy 8.692398 -1.290998)
     (xy 8.834482 -1.341774) (xy 8.988833 -1.354632) (xy 9.000360 -1.354667) (xy 9.273557 -1.394026) (xy 9.504136 -1.537231) (xy 9.585080 -1.613388) (xy 9.740508 -1.787137) (xy 9.807125 -1.943431)
     (xy 9.808400 -2.157810) (xy 9.794583 -2.287685) (xy 9.777673 -2.533651) (xy 9.807692 -2.733659) (xy 9.902436 -2.953261) (xy 10.040423 -3.193131) (xy 10.394366 -3.885464) (xy 10.597723 -4.529943)
     (xy 10.652402 -5.118846) (xy 10.560308 -5.644452) (xy 10.323349 -6.099041) (xy 9.943431 -6.474892) (xy 9.422461 -6.764284) (xy 9.133155 -6.867104) (xy 8.864316 -6.942585) (xy 8.620868 -6.991371)
     (xy 8.358923 -7.016841) (xy 8.034593 -7.022378) (xy 7.603990 -7.011362) (xy 7.376582 -7.002435) (xy 7.037831 -6.987400) (xy 6.749329 -6.969926) (xy 6.484793 -6.945115) (xy 6.217937 -6.908066)
     (xy 5.922475 -6.853882) (xy 5.572121 -6.777665) (xy 5.140592 -6.674515) (xy 4.601600 -6.539534) (xy 3.928861 -6.367822) (xy 3.815550 -6.338790) (xy 3.742794 -6.373632) (xy 3.659584 -6.525725)
     (xy 3.558262 -6.812535) (xy 3.458008 -7.154333) (xy 3.221916 -8.001000) (xy 3.388958 -8.308861) (xy 3.497592 -8.561037) (xy 3.553839 -8.793106) (xy 3.556000 -8.831532) (xy 3.482241 -9.093544)
     (xy 3.292897 -9.347659) (xy 3.035862 -9.541851) (xy 2.834116 -9.615669) (xy 2.610030 -9.698684) (xy 2.497529 -9.821768) (xy 2.398766 -10.032698) (xy 2.221715 -10.325928) (xy 1.998263 -10.655173)
     (xy 1.760299 -10.974144) (xy 1.539710 -11.236555) (xy 1.479440 -11.299583) (xy 1.021545 -11.654356) (xy 0.513111 -11.868849) (xy -0.016264 -11.936593) (xy -0.536977 -11.851119) (xy -0.719667 -11.780208)
     (xy -1.029658 -11.582317) (xy -1.378060 -11.267652) (xy -1.731754 -10.872925) (xy -2.057622 -10.434846) (xy -2.306225 -10.021567) (xy -2.632823 -9.325284) (xy -2.947541 -8.514214) (xy -3.231357 -7.642752)
     (xy -3.465252 -6.765292) (xy -3.503670 -6.597014) (xy -3.552108 -6.378361) (xy -4.337221 -6.584120) (xy -4.708538 -6.685918) (xy -4.950959 -6.769039) (xy -5.100744 -6.852191) (xy -5.194150 -6.954081)
     (xy -5.249333 -7.054703) (xy -5.413760 -7.281883) (xy -5.638232 -7.469747) (xy -5.650157 -7.476772) (xy -5.870204 -7.577192) (xy -6.066585 -7.579018) (xy -6.221395 -7.535863) (xy -6.450391 -7.429425)
     (xy -6.614363 -7.299945) (xy -6.625231 -7.285769) (xy -6.693720 -7.220497) (xy -6.812013 -7.173935) (xy -7.009447 -7.141397) (xy -7.315358 -7.118194) (xy -7.759084 -7.099640) (xy -7.798413 -7.098316)
     (xy -8.253139 -7.080451) (xy -8.582916 -7.056587) (xy -8.832109 -7.018187) (xy -9.045082 -6.956712) (xy -9.266201 -6.863625) (xy -9.431346 -6.784076) (xy -9.865907 -6.535908) (xy -10.163236 -6.269382)
     (xy -10.345725 -5.947299) (xy -10.435764 -5.532462) (xy -10.456333 -5.081280) (xy -10.450004 -4.704144) (xy -10.420027 -4.425655) (xy -10.349924 -4.175277) (xy -10.223213 -3.882478) (xy -10.132877 -3.696909)
     (xy -9.664397 -2.890534) (xy -9.036830 -2.043088) (xy -8.254020 -1.159615) (xy -8.000037 -0.898920) (xy -7.704811 -0.597044) (xy -7.458521 -0.336200) (xy -7.283214 -0.140426) (xy -7.200940 -0.033760)
     (xy -7.197488 -0.023989) (xy -7.256834 0.057802) (xy -7.415688 0.223459) (xy -7.646412 0.445016) (xy -7.803368 0.589104) (xy -8.104414 0.852499) (xy -8.324117 1.017388) (xy -8.499862 1.106005)
     (xy -8.669034 1.140581) (xy -8.736627 1.144108) (xy -9.056912 1.209549) (xy -9.293737 1.381252) (xy -9.429796 1.544312) (xy -9.499291 1.724333) (xy -9.523330 1.986706) (xy -9.524864 2.097246)
     (xy -9.551071 2.457327) (xy -9.637201 2.721315) (xy -9.714785 2.847936) (xy -9.933959 3.202299) (xy -10.150824 3.631804) (xy -10.341379 4.080634) (xy -10.481620 4.492970) (xy -10.543631 4.775402)
     (xy -10.544047 5.352374) (xy -11.673806 5.352374) (xy -11.862042 4.950048) (xy -12.214276 3.994824) (xy -12.497325 2.967941) (xy -12.589726 2.554192) (xy -12.679458 2.104809) (xy -12.742442 1.713946)
     (xy -12.783201 1.331741) (xy -12.806259 0.908335) (xy -12.816139 0.393868) (xy -12.817607 0.042333) (xy -12.773236 -1.205250) (xy -12.631006 -2.353370) (xy -12.380888 -3.447339) (xy -12.012853 -4.532468)
     (xy -11.590673 -5.500958) (xy -10.887636 -6.786422) (xy -10.053105 -7.975218) (xy -9.098031 -9.057623) (xy -8.033366 -10.023914) (xy -6.870062 -10.864366) (xy -5.619071 -11.569256) (xy -4.291345 -12.128860)
     (xy -4.021667 -12.221137) (xy -3.368104 -12.425148) (xy -2.782474 -12.578853) (xy -2.220824 -12.688661) (xy -1.639201 -12.760981) (xy -0.993650 -12.802224) (xy -0.240220 -12.818800) (xy 0.084667 -12.819964)
     )(layer F.SilkS) (width  0.000000)
  )
  (fp_poly (pts (xy -7.990683 12.241136) (xy -7.958667 12.309941) (xy -8.019968 12.430760) (xy -8.147736 12.494573) (xy -8.246723 12.468388) (xy -8.299759 12.328170) (xy -8.222496 12.215349) (xy -8.128000 12.192000)
     )(layer F.SilkS) (width  0.000000)
  )
  (fp_poly (pts (xy -9.382516 9.943524) (xy -9.275503 10.023825) (xy -8.946795 10.365284) (xy -8.759150 10.759165) (xy -8.711538 11.174055) (xy -8.802932 11.578539) (xy -9.032300 11.941204) (xy -9.346796 12.200405)
     (xy -9.649568 12.316039) (xy -10.004706 12.354996) (xy -10.332612 12.312803) (xy -10.456333 12.262760) (xy -10.668064 12.118219) (xy -10.874632 11.934453) (xy -11.030795 11.756484) (xy -11.091333 11.630823)
     (xy -11.043609 11.494540) (xy -10.913953 11.491315) (xy -10.722637 11.619197) (xy -10.667338 11.671636) (xy -10.339460 11.911384) (xy -10.003342 11.991399) (xy -9.679147 11.909705) (xy -9.345018 11.679156)
     (xy -9.159086 11.396582) (xy -9.101667 11.033166) (xy -9.124152 10.762264) (xy -9.216257 10.571536) (xy -9.366369 10.417599) (xy -9.560603 10.257993) (xy -9.717941 10.152128) (xy -9.747369 10.138362)
     (xy -9.812797 10.082558) (xy -9.751198 9.978582) (xy -9.720092 9.944933) (xy -9.622105 9.859078) (xy -9.527687 9.855395) )(layer F.SilkS) (width  0.000000)
  )
  (fp_poly (pts (xy -10.886313 8.372035) (xy -10.603440 8.597722) (xy -10.500837 8.736738) (xy -10.360373 9.036454) (xy -10.334081 9.312885) (xy -10.431096 9.589045) (xy -10.660550 9.887950) (xy -11.031577 10.232613)
     (xy -11.125407 10.310563) (xy -11.454053 10.578503) (xy -11.677445 10.752669) (xy -11.821322 10.846594) (xy -11.911425 10.873808) (xy -11.973493 10.847843) (xy -12.030037 10.786119) (xy -12.076082 10.695400)
     (xy -12.037387 10.595951) (xy -11.892807 10.452713) (xy -11.764464 10.345790) (xy -11.392765 10.029324) (xy -11.076263 9.732387) (xy -10.836771 9.477599) (xy -10.696107 9.287581) (xy -10.668000 9.208892)
     (xy -10.717466 9.058037) (xy -10.837136 8.867230) (xy -10.843479 8.859085) (xy -11.010239 8.697953) (xy -11.195225 8.638726) (xy -11.421525 8.687048) (xy -11.712226 8.848566) (xy -12.090418 9.128925)
     (xy -12.153427 9.179404) (xy -12.467414 9.426631) (xy -12.680468 9.575778) (xy -12.818459 9.640985) (xy -12.907263 9.636392) (xy -12.942852 9.610862) (xy -13.016735 9.480996) (xy -13.008253 9.417287)
     (xy -12.891841 9.290214) (xy -12.674968 9.100137) (xy -12.398081 8.877956) (xy -12.101628 8.654575) (xy -11.826056 8.460895) (xy -11.611812 8.327819) (xy -11.535070 8.291759) (xy -11.213618 8.262836)
     )(layer F.SilkS) (width  0.000000)
  )
  (fp_poly (pts (xy 10.314582 10.651106) (xy 10.329333 10.710333) (xy 10.261560 10.822582) (xy 10.202333 10.837333) (xy 10.090085 10.769560) (xy 10.075333 10.710333) (xy 10.143106 10.598085) (xy 10.202333 10.583333)
     )(layer F.SilkS) (width  0.000000)
  )
  (fp_poly (pts (xy 12.241459 8.127368) (xy 12.597044 8.390946) (xy 12.862368 8.728854) (xy 13.015061 9.119091) (xy 13.000794 9.506003) (xy 12.821813 9.879774) (xy 12.527211 10.192248) (xy 12.180533 10.380198)
     (xy 11.785421 10.422388) (xy 11.378633 10.319404) (xy 11.118353 10.169839) (xy 10.767615 9.832683) (xy 10.570592 9.452273) (xy 10.544349 9.184680) (xy 10.916431 9.184680) (xy 11.040309 9.498317)
     (xy 11.291807 9.785642) (xy 11.421354 9.883145) (xy 11.704548 10.035158) (xy 11.956450 10.065351) (xy 12.229274 9.992590) (xy 12.413077 9.860913) (xy 12.569940 9.650649) (xy 12.581381 9.627847)
     (xy 12.662756 9.422819) (xy 12.663696 9.255828) (xy 12.586024 9.035111) (xy 12.385698 8.721660) (xy 12.112083 8.510220) (xy 11.800773 8.404113) (xy 11.487360 8.406665) (xy 11.207439 8.521199)
     (xy 10.996602 8.751039) (xy 10.937762 8.881177) (xy 10.916431 9.184680) (xy 10.544349 9.184680) (xy 10.531008 9.048653) (xy 10.652584 8.641866) (xy 10.793179 8.419195) (xy 11.101915 8.135753)
     (xy 11.465282 7.995489) (xy 11.854668 7.994122) )(layer F.SilkS) (width  0.000000)
  )
  (fp_poly (pts (xy -12.337810 5.931677) (xy -12.308255 5.969377) (xy -12.236259 6.125323) (xy -12.296969 6.275240) (xy -12.298052 6.276773) (xy -12.410268 6.434737) (xy -12.570815 6.660347) (xy -12.644030 6.763140)
     (xy -12.806648 7.045287) (xy -12.834818 7.252712) (xy -12.828825 7.275584) (xy -12.759442 7.403393) (xy -12.641553 7.438306) (xy -12.445305 7.378178) (xy -12.151638 7.226902) (xy -11.909725 7.102158)
     (xy -11.768878 7.063603) (xy -11.689932 7.102510) (xy -11.676683 7.121069) (xy -11.622666 7.263705) (xy -11.624492 7.310348) (xy -11.700218 7.368633) (xy -11.891780 7.488280) (xy -12.165856 7.650488)
     (xy -12.489127 7.836458) (xy -12.828272 8.027387) (xy -13.149969 8.204475) (xy -13.420899 8.348922) (xy -13.607739 8.441927) (xy -13.673854 8.466667) (xy -13.732777 8.400331) (xy -13.844755 8.230870)
     (xy -13.923143 8.101024) (xy -14.124864 7.700461) (xy -14.151209 7.593018) (xy -13.781174 7.593018) (xy -13.718338 7.784966) (xy -13.640662 7.912350) (xy -13.557997 7.946385) (xy -13.413260 7.892984)
     (xy -13.288462 7.829492) (xy -13.093744 7.691013) (xy -13.056565 7.541907) (xy -13.175333 7.356571) (xy -13.254139 7.277758) (xy -13.426406 7.146604) (xy -13.558403 7.137876) (xy -13.613972 7.165813)
     (xy -13.755955 7.344715) (xy -13.781174 7.593018) (xy -14.151209 7.593018) (xy -14.201788 7.386737) (xy -14.156575 7.135209) (xy -14.044816 6.973306) (xy -13.878752 6.831391) (xy -13.697653 6.787293)
     (xy -13.504333 6.802000) (xy -13.327847 6.818872) (xy -13.200355 6.795144) (xy -13.081944 6.704198) (xy -12.932702 6.519415) (xy -12.794869 6.328856) (xy -12.604232 6.068907) (xy -12.482285 5.929192)
     (xy -12.402366 5.890015) )(layer F.SilkS) (width  0.000000)
  )
  (fp_poly (pts (xy 12.753118 5.539975) (xy 12.963546 5.637713) (xy 13.250920 5.778263) (xy 13.578926 5.943341) (xy 13.911249 6.114663) (xy 14.211575 6.273946) (xy 14.443589 6.402907) (xy 14.449613 6.406406)
     (xy 14.802226 6.611627) (xy 14.531495 7.093151) (xy 14.215071 7.538748) (xy 13.859496 7.826256) (xy 13.472056 7.952720) (xy 13.060038 7.915186) (xy 12.783346 7.801897) (xy 12.475431 7.570238)
     (xy 12.241195 7.264242) (xy 12.117651 6.937437) (xy 12.107400 6.824312) (xy 12.118556 6.761113) (xy 12.468793 6.761113) (xy 12.525223 7.056987) (xy 12.541143 7.089872) (xy 12.720883 7.290665)
     (xy 12.994785 7.459422) (xy 13.294515 7.563430) (xy 13.546667 7.571199) (xy 13.779426 7.474919) (xy 13.915168 7.380770) (xy 14.072869 7.197130) (xy 14.190359 7.010524) (xy 14.245982 6.888824)
     (xy 14.242993 6.799159) (xy 14.156584 6.709943) (xy 13.961948 6.589589) (xy 13.779524 6.487415) (xy 13.378767 6.267276) (xy 13.097971 6.123546) (xy 12.910481 6.047918) (xy 12.789639 6.032084)
     (xy 12.708791 6.067736) (xy 12.649469 6.135226) (xy 12.513206 6.427437) (xy 12.468793 6.761113) (xy 12.118556 6.761113) (xy 12.137791 6.652144) (xy 12.216400 6.401086) (xy 12.324472 6.116302)
     (xy 12.443251 5.842958) (xy 12.553982 5.626220) (xy 12.637910 5.511252) (xy 12.655951 5.503333) )(layer F.SilkS) (width  0.000000)
  )
  (fp_poly (pts (xy -13.299633 3.364717) (xy -13.257958 3.439661) (xy -13.280287 3.616874) (xy -13.450989 3.845406) (xy -13.699592 4.106333) (xy -13.517296 4.614333) (xy -13.412150 4.891070) (xy -13.324140 5.045949)
     (xy -13.216965 5.117796) (xy -13.054326 5.145435) (xy -13.017752 5.148596) (xy -12.736554 5.220900) (xy -12.612606 5.339096) (xy -12.578481 5.423064) (xy -12.608250 5.472142) (xy -12.732320 5.495646)
     (xy -12.981096 5.502893) (xy -13.148577 5.503333) (xy -13.455411 5.498815) (xy -13.688972 5.486891) (xy -13.804252 5.470005) (xy -13.808278 5.467500) (xy -13.904068 5.447524) (xy -14.125191 5.427112)
     (xy -14.427701 5.410112) (xy -14.494202 5.407455) (xy -14.829215 5.389908) (xy -15.034994 5.360203) (xy -15.151637 5.306607) (xy -15.219242 5.217384) (xy -15.231585 5.191658) (xy -15.255824 5.108349)
     (xy -15.241585 5.037667) (xy -14.852768 5.037667) (xy -14.390217 5.080297) (xy -14.055807 5.110469) (xy -13.855607 5.123983) (xy -13.755190 5.119526) (xy -13.720129 5.095781) (xy -13.716000 5.054545)
     (xy -13.740019 4.905600) (xy -13.798278 4.696905) (xy -13.870080 4.490320) (xy -13.934730 4.347708) (xy -13.962235 4.318546) (xy -14.047480 4.369788) (xy -14.221352 4.503203) (xy -14.432551 4.678380)
     (xy -14.852768 5.037667) (xy -15.241585 5.037667) (xy -15.237780 5.018778) (xy -15.160319 4.902285) (xy -15.006304 4.738212) (xy -14.758602 4.505900) (xy -14.400077 4.184692) (xy -14.386006 4.172202)
     (xy -14.052199 3.878375) (xy -13.761475 3.626997) (xy -13.538018 3.438634) (xy -13.406012 3.333849) (xy -13.383331 3.319588) )(layer F.SilkS) (width  0.000000)
  )
  (fp_poly (pts (xy 13.877953 3.065697) (xy 14.250953 3.161817) (xy 14.646961 3.275485) (xy 15.123450 3.420557) (xy 15.453061 3.537735) (xy 15.653323 3.639691) (xy 15.741760 3.739097) (xy 15.735898 3.848623)
     (xy 15.653265 3.980942) (xy 15.642167 3.995021) (xy 15.489680 4.100051) (xy 15.261061 4.177000) (xy 15.240000 4.181070) (xy 14.797246 4.266571) (xy 14.393016 4.355262) (xy 14.058018 4.439331)
     (xy 13.822960 4.510967) (xy 13.718550 4.562359) (xy 13.716000 4.568718) (xy 13.792214 4.616740) (xy 13.997110 4.693268) (xy 14.295065 4.785841) (xy 14.499167 4.842695) (xy 14.873805 4.948842)
     (xy 15.110452 5.033643) (xy 15.236899 5.110242) (xy 15.280938 5.191787) (xy 15.282333 5.213149) (xy 15.266098 5.310365) (xy 15.202478 5.364273) (xy 15.069106 5.372839) (xy 14.843612 5.334025)
     (xy 14.503626 5.245794) (xy 14.026781 5.106110) (xy 13.992091 5.095675) (xy 13.561420 4.963057) (xy 13.268338 4.862883) (xy 13.087141 4.782772) (xy 12.992123 4.710346) (xy 12.957582 4.633225)
     (xy 12.954924 4.596145) (xy 12.969015 4.486252) (xy 13.028946 4.398515) (xy 13.159365 4.322066) (xy 13.384921 4.246035) (xy 13.730260 4.159554) (xy 14.160500 4.064524) (xy 14.526825 3.980583)
     (xy 14.822681 3.902880) (xy 15.014497 3.840889) (xy 15.070667 3.807700) (xy 14.997354 3.751154) (xy 14.819115 3.696318) (xy 14.801653 3.692697) (xy 14.405452 3.600935) (xy 14.030719 3.492157)
     (xy 13.711925 3.378857) (xy 13.483542 3.273531) (xy 13.380041 3.188675) (xy 13.377333 3.176411) (xy 13.397654 3.077877) (xy 13.473240 3.025439) (xy 13.626027 3.020808) )(layer F.SilkS) (width  0.000000)
  )
  (fp_poly (pts (xy -13.694833 0.904687) (xy -13.645190 1.008287) (xy -13.631333 1.139483) (xy -13.646631 1.219449) (xy -13.703127 1.312963) (xy -13.816730 1.433683) (xy -14.003347 1.595263) (xy -14.278887 1.811361)
     (xy -14.659257 2.095633) (xy -15.160364 2.461735) (xy -15.232945 2.514410) (xy -15.224830 2.583313) (xy -15.222544 2.585678) (xy -15.113590 2.596773) (xy -14.850679 2.574954) (xy -14.445673 2.521629)
     (xy -13.910435 2.438205) (xy -13.737167 2.409362) (xy -13.548944 2.391680) (xy -13.474090 2.445886) (xy -13.462000 2.565639) (xy -13.469841 2.650742) (xy -13.511624 2.713200) (xy -13.614741 2.761960)
     (xy -13.806583 2.805967) (xy -14.114543 2.854167) (xy -14.510758 2.908142) (xy -15.002350 2.973321) (xy -15.351517 3.015491) (xy -15.583796 3.033169) (xy -15.724722 3.024868) (xy -15.799831 2.989106)
     (xy -15.834660 2.924396) (xy -15.854598 2.830009) (xy -15.858742 2.725589) (xy -15.814166 2.620469) (xy -15.699464 2.491490) (xy -15.493235 2.315487) (xy -15.174075 2.069300) (xy -15.100302 2.013731)
     (xy -14.793240 1.777915) (xy -14.547493 1.579552) (xy -14.388223 1.439646) (xy -14.340401 1.379377) (xy -14.435381 1.373138) (xy -14.654490 1.389137) (xy -14.954481 1.423951) (xy -15.026027 1.433655)
     (xy -15.466638 1.491352) (xy -15.766544 1.518577) (xy -15.951957 1.513376) (xy -16.049088 1.473799) (xy -16.084147 1.397893) (xy -16.086667 1.354667) (xy -16.059913 1.215485) (xy -16.023167 1.182265)
     (xy -15.919867 1.169864) (xy -15.682324 1.138117) (xy -15.343930 1.091573) (xy -14.938080 1.034784) (xy -14.859000 1.023622) (xy -14.444634 0.968350) (xy -14.091510 0.927458) (xy -13.832966 0.904351)
     (xy -13.702336 0.902436) )(layer F.SilkS) (width  0.000000)
  )
  (fp_poly (pts (xy 14.272150 0.941028) (xy 14.652011 0.974276) (xy 15.175740 1.029599) (xy 15.176500 1.029681) (xy 16.086667 1.128274) (xy 16.086667 1.398986) (xy 16.074652 1.656617) (xy 16.044661 1.969532)
     (xy 16.032825 2.062516) (xy 15.984901 2.309523) (xy 15.915144 2.427118) (xy 15.810222 2.455333) (xy 15.718356 2.441525) (xy 15.675321 2.374171) (xy 15.672598 2.214382) (xy 15.698935 1.947333)
     (xy 15.756408 1.439333) (xy 15.086556 1.439333) (xy 15.028333 1.862667) (xy 14.978500 2.124748) (xy 14.910537 2.253732) (xy 14.814839 2.286000) (xy 14.726617 2.266481) (xy 14.688777 2.181136)
     (xy 14.691689 1.989781) (xy 14.706309 1.833119) (xy 14.753051 1.380239) (xy 14.432967 1.328296) (xy 14.210912 1.303769) (xy 14.066175 1.308752) (xy 14.051337 1.314391) (xy 14.007913 1.412871)
     (xy 13.960539 1.626937) (xy 13.930855 1.824131) (xy 13.886468 2.098493) (xy 13.831792 2.236273) (xy 13.752037 2.270163) (xy 13.730460 2.267089) (xy 13.638007 2.164447) (xy 13.607077 1.906061)
     (xy 13.637631 1.491118) (xy 13.678893 1.206500) (xy 13.704546 1.086264) (xy 13.752355 1.002472) (xy 13.846664 0.952252) (xy 14.011815 0.932729) )(layer F.SilkS) (width  0.000000)
  )
  (fp_poly (pts (xy -14.405495 -1.970411) (xy -14.047342 -1.785798) (xy -13.800720 -1.475509) (xy -13.663593 -1.037213) (xy -13.631333 -0.605753) (xy -13.655402 -0.249920) (xy -13.733336 -0.041077) (xy -13.873726 0.036956)
     (xy -13.970000 0.031980) (xy -14.101416 0.018599) (xy -14.363079 -0.000918) (xy -14.716135 -0.023871) (xy -15.091833 -0.045904) (xy -16.086667 -0.101371) (xy -16.086195 -0.495186) (xy -16.068881 -0.685578)
     (xy -15.748000 -0.685578) (xy -15.747499 -0.587963) (xy -15.730144 -0.516871) (xy -15.672161 -0.466761) (xy -15.549773 -0.432090) (xy -15.339204 -0.407316) (xy -15.016679 -0.386896) (xy -14.558421 -0.365287)
     (xy -14.329833 -0.354980) (xy -13.970000 -0.338667) (xy -13.970000 -0.681538) (xy -14.012139 -1.017337) (xy -14.123143 -1.311727) (xy -14.279895 -1.512165) (xy -14.354793 -1.556073) (xy -14.586161 -1.600163)
     (xy -14.885753 -1.604467) (xy -15.169764 -1.571960) (xy -15.329357 -1.521490) (xy -15.522028 -1.340146) (xy -15.672317 -1.058739) (xy -15.745622 -0.746361) (xy -15.748000 -0.685578) (xy -16.068881 -0.685578)
     (xy -16.038082 -1.024249) (xy -15.888730 -1.437098) (xy -15.628476 -1.759951) (xy -15.615998 -1.771035) (xy -15.398479 -1.935041) (xy -15.185104 -2.012041) (xy -14.891868 -2.031673) (xy -14.877221 -2.031684)
     )(layer F.SilkS) (width  0.000000)
  )
  (fp_poly (pts (xy 15.762153 -0.421138) (xy 15.991778 -0.410802) (xy 16.113785 -0.383905) (xy 16.159031 -0.332764) (xy 16.158372 -0.249693) (xy 16.156055 -0.232833) (xy 16.139067 -0.157952) (xy 16.095293 -0.105146)
     (xy 15.998261 -0.069823) (xy 15.821497 -0.047391) (xy 15.538529 -0.033257) (xy 15.122884 -0.022830) (xy 14.922500 -0.018842) (xy 14.448262 -0.010936) (xy 14.117576 -0.010751) (xy 13.904731 -0.021193)
     (xy 13.784015 -0.045169) (xy 13.729715 -0.085585) (xy 13.716119 -0.145347) (xy 13.716000 -0.155216) (xy 13.769390 -0.253714) (xy 13.938039 -0.327633) (xy 14.234668 -0.378998) (xy 14.671996 -0.409837)
     (xy 15.262742 -0.422177) (xy 15.394055 -0.422598) )(layer F.SilkS) (width  0.000000)
  )
  (fp_poly (pts (xy 15.093742 -2.970003) (xy 15.482261 -2.842404) (xy 15.741311 -2.625215) (xy 15.946139 -2.297041) (xy 16.066893 -1.914465) (xy 16.086667 -1.696706) (xy 16.074658 -1.476397) (xy 16.020674 -1.377983)
     (xy 15.897779 -1.354698) (xy 15.889663 -1.354667) (xy 15.754361 -1.377779) (xy 15.717311 -1.480965) (xy 15.730113 -1.609847) (xy 15.706292 -1.973611) (xy 15.544431 -2.286714) (xy 15.275103 -2.514074)
     (xy 14.928885 -2.620610) (xy 14.845936 -2.624350) (xy 14.494800 -2.549546) (xy 14.204809 -2.350982) (xy 14.003521 -2.065965) (xy 13.918491 -1.731801) (xy 13.961585 -1.427079) (xy 14.015640 -1.175819)
     (xy 13.956925 -1.043395) (xy 13.841983 -1.016000) (xy 13.746184 -1.089614) (xy 13.654923 -1.272509) (xy 13.635785 -1.333500) (xy 13.562803 -1.671891) (xy 13.570191 -1.944229) (xy 13.664087 -2.236656)
     (xy 13.707119 -2.334756) (xy 13.935624 -2.647066) (xy 14.270522 -2.864944) (xy 14.670374 -2.976540) )(layer F.SilkS) (width  0.000000)
  )
  (fp_poly (pts (xy -14.337219 -4.879573) (xy -13.850404 -4.748517) (xy -13.478820 -4.516100) (xy -13.234213 -4.201191) (xy -13.128327 -3.822658) (xy -13.172909 -3.399372) (xy -13.264724 -3.156633) (xy -13.506066 -2.827742)
     (xy -13.843983 -2.622252) (xy -14.251998 -2.547239) (xy -14.703631 -2.609778) (xy -14.958233 -2.704098) (xy -15.330782 -2.952283) (xy -15.561540 -3.282144) (xy -15.643059 -3.672280) (xy -15.626346 -3.767667)
     (xy -15.324667 -3.767667) (xy -15.254226 -3.530165) (xy -15.074227 -3.281129) (xy -14.831660 -3.073579) (xy -14.619147 -2.971571) (xy -14.399911 -2.910358) (xy -14.264108 -2.893348) (xy -14.131675 -2.920661)
     (xy -13.980062 -2.972513) (xy -13.721272 -3.142617) (xy -13.533468 -3.414676) (xy -13.462000 -3.719793) (xy -13.516209 -3.889207) (xy -13.651315 -4.100013) (xy -13.701777 -4.160353) (xy -13.879498 -4.327430)
     (xy -14.074684 -4.418008) (xy -14.358425 -4.463058) (xy -14.406162 -4.467239) (xy -14.680935 -4.482237) (xy -14.851608 -4.455234) (xy -14.982155 -4.364843) (xy -15.097718 -4.236054) (xy -15.243265 -4.016546)
     (xy -15.320766 -3.808970) (xy -15.324667 -3.767667) (xy -15.626346 -3.767667) (xy -15.567891 -4.101287) (xy -15.500451 -4.262342) (xy -15.248853 -4.620445) (xy -14.913807 -4.831396) (xy -14.498942 -4.893266)
     )(layer F.SilkS) (width  0.000000)
  )
  (fp_poly (pts (xy 15.109810 -5.096302) (xy 15.329171 -4.905686) (xy 15.491645 -4.597010) (xy 15.555105 -4.321226) (xy 15.574685 -4.102853) (xy 15.542539 -4.004333) (xy 15.440506 -3.979546) (xy 15.420481 -3.979333)
     (xy 15.281756 -4.022514) (xy 15.240161 -4.179604) (xy 15.240000 -4.196566) (xy 15.192389 -4.480816) (xy 15.066159 -4.675595) (xy 14.901333 -4.741333) (xy 14.741980 -4.684325) (xy 14.624019 -4.500079)
     (xy 14.535293 -4.168763) (xy 14.528774 -4.133542) (xy 14.400203 -3.761117) (xy 14.170072 -3.522217) (xy 13.870387 -3.416357) (xy 13.628007 -3.404648) (xy 13.449167 -3.486320) (xy 13.348186 -3.577451)
     (xy 13.183917 -3.804017) (xy 13.059270 -4.087016) (xy 12.997212 -4.360673) (xy 13.012067 -4.540139) (xy 13.106501 -4.647010) (xy 13.225449 -4.618838) (xy 13.331852 -4.478324) (xy 13.380911 -4.314213)
     (xy 13.447439 -4.024519) (xy 13.545037 -3.869058) (xy 13.700408 -3.812784) (xy 13.765145 -3.810000) (xy 13.888639 -3.827312) (xy 13.984100 -3.899435) (xy 14.070438 -4.056655) (xy 14.166559 -4.329253)
     (xy 14.239367 -4.569507) (xy 14.398340 -4.905462) (xy 14.615601 -5.101623) (xy 14.862355 -5.163425) )(layer F.SilkS) (width  0.000000)
  )
  (fp_poly (pts (xy -13.470125 -5.889355) (xy -13.380407 -5.761884) (xy -13.392416 -5.610287) (xy -13.491921 -5.511344) (xy -13.541670 -5.503333) (xy -13.706444 -5.546162) (xy -13.763355 -5.596125) (xy -13.758984 -5.720145)
     (xy -13.659717 -5.843329) (xy -13.528274 -5.902954) )(layer F.SilkS) (width  0.000000)
  )
  (fp_poly (pts (xy 13.720461 -5.875461) (xy 13.773203 -5.751449) (xy 13.701223 -5.621604) (xy 13.579067 -5.547795) (xy 13.479538 -5.604329) (xy 13.384037 -5.765095) (xy 13.419248 -5.887816) (xy 13.541670 -5.926667)
     )(layer F.SilkS) (width  0.000000)
  )
  (fp_poly (pts (xy 12.956915 -9.668808) (xy 13.068548 -9.505461) (xy 13.069387 -9.503833) (xy 13.116088 -9.398385) (xy 13.125094 -9.299161) (xy 13.082534 -9.176427) (xy 12.974538 -9.000452) (xy 12.787235 -8.741503)
     (xy 12.594253 -8.485364) (xy 12.363871 -8.175173) (xy 12.180847 -7.917331) (xy 12.064159 -7.739390) (xy 12.032191 -7.669292) (xy 12.122998 -7.673828) (xy 12.344545 -7.709243) (xy 12.662316 -7.769475)
     (xy 12.996333 -7.838662) (xy 13.372327 -7.918717) (xy 13.684071 -7.983944) (xy 13.896367 -8.027053) (xy 13.972912 -8.040901) (xy 14.041880 -7.977551) (xy 14.150105 -7.819645) (xy 14.163301 -7.797624)
     (xy 14.308445 -7.551915) (xy 13.370255 -6.945627) (xy 12.944689 -6.671713) (xy 12.639228 -6.480375) (xy 12.432131 -6.361708) (xy 12.301656 -6.305803) (xy 12.226062 -6.302754) (xy 12.183607 -6.342652)
     (xy 12.160592 -6.394392) (xy 12.114819 -6.527041) (xy 12.107333 -6.560439) (xy 12.173932 -6.614366) (xy 12.353213 -6.737495) (xy 12.614404 -6.909059) (xy 12.805833 -7.031822) (xy 13.107164 -7.224115)
     (xy 13.350914 -7.380976) (xy 13.504345 -7.481267) (xy 13.539611 -7.505641) (xy 13.560652 -7.553186) (xy 13.458088 -7.561983) (xy 13.220485 -7.530835) (xy 12.836407 -7.458544) (xy 12.577938 -7.404918)
     (xy 12.172310 -7.321104) (xy 11.900074 -7.273091) (xy 11.729497 -7.259158) (xy 11.628845 -7.277584) (xy 11.566386 -7.326649) (xy 11.548853 -7.349126) (xy 11.508417 -7.414506) (xy 11.498386 -7.485493)
     (xy 11.531528 -7.585167) (xy 11.620612 -7.736605) (xy 11.778407 -7.962886) (xy 12.017680 -8.287089) (xy 12.209733 -8.543638) (xy 12.394932 -8.799579) (xy 12.527054 -8.999563) (xy 12.583970 -9.109479)
     (xy 12.583332 -9.119557) (xy 12.503418 -9.090167) (xy 12.313632 -8.984597) (xy 12.044871 -8.820781) (xy 11.812938 -8.672363) (xy 11.478475 -8.458087) (xy 11.253979 -8.327890) (xy 11.109897 -8.269888)
     (xy 11.016677 -8.272201) (xy 10.944768 -8.322947) (xy 10.944508 -8.323206) (xy 10.904018 -8.383584) (xy 10.917908 -8.453045) (xy 11.004728 -8.548572) (xy 11.183026 -8.687149) (xy 11.471350 -8.885759)
     (xy 11.788085 -9.095595) (xy 12.149967 -9.329314) (xy 12.465096 -9.524892) (xy 12.704885 -9.665171) (xy 12.840747 -9.732996) (xy 12.856315 -9.736667) )(layer F.SilkS) (width  0.000000)
  )
  (fp_poly (pts (xy -13.205907 -8.993103) (xy -13.011140 -8.902944) (xy -12.709692 -8.730920) (xy -12.612576 -8.672743) (xy -12.136152 -8.365918) (xy -11.804881 -8.098165) (xy -11.605725 -7.848143) (xy -11.525647 -7.594510)
     (xy -11.551609 -7.315928) (xy -11.634997 -7.072571) (xy -11.833041 -6.794242) (xy -12.130106 -6.595623) (xy -12.461351 -6.519988) (xy -12.462962 -6.519992) (xy -12.615938 -6.560286) (xy -12.874251 -6.668506)
     (xy -13.197394 -6.826535) (xy -13.440833 -6.957291) (xy -13.848858 -7.199106) (xy -14.105038 -7.386991) (xy -14.215664 -7.527567) (xy -14.187031 -7.627454) (xy -14.115437 -7.666974) (xy -14.000586 -7.645048)
     (xy -13.775314 -7.553110) (xy -13.475201 -7.406927) (xy -13.222788 -7.271389) (xy -12.863763 -7.075596) (xy -12.616548 -6.955715) (xy -12.447889 -6.900302) (xy -12.324537 -6.897912) (xy -12.229437 -6.929492)
     (xy -11.998509 -7.111110) (xy -11.884500 -7.363578) (xy -11.910157 -7.633515) (xy -11.919779 -7.656154) (xy -12.033103 -7.791105) (xy -12.259484 -7.979675) (xy -12.563607 -8.193880) (xy -12.737703 -8.304247)
     (xy -13.042194 -8.495093) (xy -13.283311 -8.655313) (xy -13.430260 -8.763908) (xy -13.460704 -8.797260) (xy -13.419683 -8.904446) (xy -13.382580 -8.969076) (xy -13.320788 -9.011710) )(layer F.SilkS) (width  0.000000)
  )
  (fp_poly (pts (xy -11.282524 -11.323465) (xy -11.155506 -11.252219) (xy -10.963286 -11.102972) (xy -10.683603 -10.861295) (xy -10.456333 -10.658548) (xy -10.142903 -10.374252) (xy -9.878484 -10.128605) (xy -9.687112 -9.944372)
     (xy -9.592824 -9.844322) (xy -9.587359 -9.835504) (xy -9.614034 -9.724958) (xy -9.679304 -9.615903) (xy -9.735642 -9.551072) (xy -9.809589 -9.516326) (xy -9.932328 -9.513618) (xy -10.135041 -9.544901)
     (xy -10.448912 -9.612127) (xy -10.759945 -9.683584) (xy -11.147275 -9.771483) (xy -11.475912 -9.842598) (xy -11.709784 -9.889353) (xy -11.811000 -9.904321) (xy -11.787874 -9.850359) (xy -11.660228 -9.706555)
     (xy -11.449796 -9.495906) (xy -11.224909 -9.284087) (xy -10.886124 -8.954309) (xy -10.685321 -8.713488) (xy -10.619707 -8.556473) (xy -10.686491 -8.478113) (xy -10.781825 -8.466667) (xy -10.880986 -8.520262)
     (xy -11.077980 -8.666787) (xy -11.345726 -8.884851) (xy -11.657138 -9.153065) (xy -11.708162 -9.198274) (xy -12.016068 -9.479605) (xy -12.271496 -9.727183) (xy -12.450472 -9.916711) (xy -12.529020 -10.023893)
     (xy -12.530667 -10.031818) (xy -12.472456 -10.163626) (xy -12.382500 -10.263435) (xy -12.303206 -10.316306) (xy -12.197930 -10.337640) (xy -12.034045 -10.324165) (xy -11.778922 -10.272608) (xy -11.399932 -10.179700)
     (xy -11.304285 -10.155327) (xy -10.931256 -10.064128) (xy -10.622168 -9.996435) (xy -10.411382 -9.959249) (xy -10.334136 -9.957642) (xy -10.375284 -10.027671) (xy -10.518155 -10.184835) (xy -10.738255 -10.403384)
     (xy -10.925517 -10.579429) (xy -11.210328 -10.846565) (xy -11.384811 -11.027331) (xy -11.466488 -11.146392) (xy -11.472877 -11.228414) (xy -11.430000 -11.289678) (xy -11.366602 -11.331142) )(layer F.SilkS) (width  0.000000)
  )
  (fp_poly (pts (xy 11.508710 -11.298783) (xy 11.508735 -11.298758) (xy 11.555187 -11.231638) (xy 11.550382 -11.152383) (xy 11.477822 -11.038203) (xy 11.321009 -10.866310) (xy 11.063445 -10.613915) (xy 10.900833 -10.459043)
     (xy 10.614456 -10.183362) (xy 10.379555 -9.949502) (xy 10.220090 -9.781869) (xy 10.160023 -9.704870) (xy 10.160000 -9.704437) (xy 10.212208 -9.617599) (xy 10.346286 -9.450337) (xy 10.463302 -9.316769)
     (xy 10.642557 -9.081017) (xy 10.707998 -8.906552) (xy 10.654139 -8.814421) (xy 10.596611 -8.805333) (xy 10.512374 -8.861799) (xy 10.344362 -9.011451) (xy 10.125391 -9.224673) (xy 10.072441 -9.278396)
     (xy 9.609667 -9.751458) (xy 10.492735 -10.593637) (xy 10.840490 -10.922535) (xy 11.088693 -11.147326) (xy 11.258481 -11.282677) (xy 11.370988 -11.343258) (xy 11.447353 -11.343737) )(layer F.SilkS) (width  0.000000)
  )
  (fp_poly (pts (xy -10.113341 -12.385077) (xy -9.975655 -12.239802) (xy -9.964004 -12.225988) (xy -9.529350 -11.707675) (xy -9.195240 -11.303321) (xy -8.952231 -10.998132) (xy -8.790880 -10.777317) (xy -8.701746 -10.626083)
     (xy -8.675384 -10.529637) (xy -8.702353 -10.473188) (xy -8.773209 -10.441942) (xy -8.818687 -10.431815) (xy -8.921118 -10.485513) (xy -9.107784 -10.655258) (xy -9.360174 -10.922494) (xy -9.659778 -11.268669)
     (xy -9.691060 -11.306236) (xy -9.987975 -11.667435) (xy -10.188057 -11.923179) (xy -10.304909 -12.096377) (xy -10.352131 -12.209939) (xy -10.343326 -12.286776) (xy -10.303877 -12.338409) (xy -10.205528 -12.412249)
     )(layer F.SilkS) (width  0.000000)
  )
  (fp_poly (pts (xy 9.193501 -13.286718) (xy 9.295419 -13.174999) (xy 9.313333 -13.130221) (xy 9.264907 -13.042920) (xy 9.134475 -12.853728) (xy 8.944309 -12.594171) (xy 8.801144 -12.405170) (xy 8.515751 -12.003342)
     (xy 8.353226 -11.691230) (xy 8.309458 -11.446523) (xy 8.380337 -11.246909) (xy 8.555969 -11.074349) (xy 8.744413 -10.977751) (xy 8.934662 -10.984308) (xy 9.147037 -11.105379) (xy 9.401860 -11.352323)
     (xy 9.703172 -11.715653) (xy 9.929577 -11.991669) (xy 10.127171 -12.208427) (xy 10.267660 -12.336045) (xy 10.310824 -12.357436) (xy 10.442541 -12.311073) (xy 10.444418 -12.159526) (xy 10.317271 -11.905326)
     (xy 10.061916 -11.551007) (xy 10.043770 -11.528166) (xy 9.682364 -11.098437) (xy 9.383110 -10.804804) (xy 9.123520 -10.636698) (xy 8.881106 -10.583552) (xy 8.633380 -10.634799) (xy 8.398072 -10.754837)
     (xy 8.121450 -11.005422) (xy 7.960033 -11.325844) (xy 7.935532 -11.667187) (xy 7.954526 -11.754229) (xy 8.037328 -11.932425) (xy 8.199131 -12.199493) (xy 8.412772 -12.512385) (xy 8.551318 -12.699981)
     (xy 8.797418 -13.014627) (xy 8.968366 -13.207866) (xy 9.084410 -13.298195) (xy 9.165793 -13.304112) )(layer F.SilkS) (width  0.000000)
  )
  (fp_poly (pts (xy -7.625254 -14.126001) (xy -7.620000 -14.110379) (xy -7.603387 -14.021773) (xy -7.557679 -13.797502) (xy -7.489078 -13.467514) (xy -7.403782 -13.061759) (xy -7.363746 -12.872528) (xy -7.265023 -12.400896)
     (xy -7.200461 -12.067223) (xy -7.167865 -11.844086) (xy -7.165042 -11.704060) (xy -7.189797 -11.619721) (xy -7.239937 -11.563643) (xy -7.257912 -11.549509) (xy -7.413743 -11.459067) (xy -7.493000 -11.439037)
     (xy -7.587381 -11.488990) (xy -7.789784 -11.623916) (xy -8.074039 -11.825508) (xy -8.413979 -12.075463) (xy -8.565005 -12.188906) (xy -8.974056 -12.504796) (xy -9.253541 -12.737642) (xy -9.414882 -12.898188)
     (xy -9.469500 -12.997179) (xy -9.458239 -13.029228) (xy -9.364315 -13.096392) (xy -9.251581 -13.104699) (xy -9.095387 -13.042576) (xy -8.871084 -12.898450) (xy -8.554022 -12.660750) (xy -8.375322 -12.520809)
     (xy -8.070503 -12.287062) (xy -7.815161 -12.103852) (xy -7.637200 -11.990358) (xy -7.565495 -11.964283) (xy -7.565747 -12.059816) (xy -7.600360 -12.286072) (xy -7.663338 -12.609321) (xy -7.748683 -12.995831)
     (xy -7.749607 -12.999806) (xy -7.846375 -13.430814) (xy -7.902271 -13.725714) (xy -7.920233 -13.911965) (xy -7.903198 -14.017029) (xy -7.863358 -14.063036) (xy -7.714493 -14.130507) )(layer F.SilkS) (width  0.000000)
  )
  (fp_poly (pts (xy -5.502307 -15.003817) (xy -5.471980 -14.941749) (xy -5.491368 -14.842189) (xy -5.638026 -14.729540) (xy -5.883846 -14.608807) (xy -6.138611 -14.491803) (xy -6.267692 -14.405829) (xy -6.300538 -14.314037)
     (xy -6.266597 -14.179577) (xy -6.254588 -14.144902) (xy -6.160940 -13.929198) (xy -6.049230 -13.843932) (xy -5.874846 -13.875697) (xy -5.672667 -13.970000) (xy -5.449543 -14.065261) (xy -5.285030 -14.102278)
     (xy -5.246430 -14.095206) (xy -5.163920 -13.979068) (xy -5.238151 -13.842517) (xy -5.460044 -13.699440) (xy -5.524500 -13.669888) (xy -5.745498 -13.571821) (xy -5.891547 -13.503364) (xy -5.918748 -13.488559)
     (xy -5.908445 -13.404251) (xy -5.842051 -13.221130) (xy -5.802470 -13.129549) (xy -5.651777 -12.795372) (xy -5.235754 -12.959353) (xy -4.938198 -13.070383) (xy -4.763571 -13.112752) (xy -4.680395 -13.087319)
     (xy -4.657195 -12.994944) (xy -4.656942 -12.975167) (xy -4.723000 -12.860618) (xy -4.929763 -12.728034) (xy -5.228442 -12.593519) (xy -5.512454 -12.479814) (xy -5.730589 -12.396931) (xy -5.840053 -12.361065)
     (xy -5.843714 -12.360686) (xy -5.891354 -12.434239) (xy -5.990938 -12.635254) (xy -6.128953 -12.935022) (xy -6.291887 -13.304836) (xy -6.332201 -13.398500) (xy -6.496794 -13.789498) (xy -6.633570 -14.127560)
     (xy -6.730034 -14.380812) (xy -6.773694 -14.517382) (xy -6.774988 -14.528124) (xy -6.702889 -14.591436) (xy -6.518987 -14.693523) (xy -6.269891 -14.813331) (xy -6.002210 -14.929809) (xy -5.762553 -15.021905)
     (xy -5.597531 -15.068567) (xy -5.573795 -15.070667) )(layer F.SilkS) (width  0.000000)
  )
  (fp_poly (pts (xy 6.021881 -14.923964) (xy 6.235039 -14.848302) (xy 6.517831 -14.729196) (xy 6.831444 -14.585030) (xy 7.137064 -14.434185) (xy 7.395879 -14.295045) (xy 7.569075 -14.185993) (xy 7.620000 -14.131290)
     (xy 7.553767 -14.024887) (xy 7.382531 -14.006693) (xy 7.147489 -14.079477) (xy 7.111773 -14.097117) (xy 6.928677 -14.181887) (xy 6.824067 -14.211560) (xy 6.817849 -14.209077) (xy 6.774426 -14.126191)
     (xy 6.674327 -13.920898) (xy 6.532508 -13.624227) (xy 6.365941 -13.271500) (xy 6.194143 -12.917535) (xy 6.043088 -12.628066) (xy 5.929181 -12.433099) (xy 5.869057 -12.362630) (xy 5.741276 -12.404610)
     (xy 5.692245 -12.432108) (xy 5.662432 -12.502785) (xy 5.691863 -12.655775) (xy 5.787180 -12.911474) (xy 5.955028 -13.290275) (xy 6.010967 -13.410586) (xy 6.173717 -13.770699) (xy 6.300496 -14.075424)
     (xy 6.378542 -14.292294) (xy 6.395372 -14.388417) (xy 6.294436 -14.465080) (xy 6.107489 -14.557873) (xy 6.097816 -14.561914) (xy 5.906409 -14.684223) (xy 5.840744 -14.821517) (xy 5.917171 -14.937798)
     )(layer F.SilkS) (width  0.000000)
  )
  (fp_poly (pts (xy 4.529925 -15.452578) (xy 4.637013 -15.314589) (xy 4.720401 -15.059452) (xy 4.788123 -14.666585) (xy 4.820640 -14.393333) (xy 4.866163 -13.978499) (xy 4.911033 -13.586028) (xy 4.948749 -13.272065)
     (xy 4.965271 -13.144500) (xy 4.983294 -12.901309) (xy 4.937692 -12.801961) (xy 4.811057 -12.827394) (xy 4.720167 -12.876115) (xy 4.601703 -13.038364) (xy 4.572000 -13.245139) (xy 4.564211 -13.396054)
     (xy 4.516777 -13.493444) (xy 4.393602 -13.565229) (xy 4.158586 -13.639333) (xy 4.009720 -13.680065) (xy 3.447439 -13.832267) (xy 3.251781 -13.604800) (xy 3.052290 -13.430892) (xy 2.874603 -13.378366)
     (xy 2.760305 -13.448023) (xy 2.796621 -13.531928) (xy 2.920586 -13.716659) (xy 3.109907 -13.974251) (xy 3.253519 -14.161183) (xy 3.725333 -14.161183) (xy 3.798780 -14.097361) (xy 3.982569 -14.017035)
     (xy 4.221869 -13.941020) (xy 4.423833 -13.896033) (xy 4.459641 -13.965301) (xy 4.479698 -14.153606) (xy 4.481382 -14.287500) (xy 4.465101 -14.563344) (xy 4.431041 -14.787427) (xy 4.413819 -14.846259)
     (xy 4.365902 -14.917720) (xy 4.291505 -14.897220) (xy 4.162662 -14.767913) (xy 4.038770 -14.620343) (xy 3.869521 -14.401580) (xy 3.755714 -14.231084) (xy 3.725333 -14.161183) (xy 3.253519 -14.161183)
     (xy 3.342296 -14.276740) (xy 3.595460 -14.596160) (xy 3.847111 -14.904546) (xy 4.074958 -15.173933) (xy 4.256709 -15.376354) (xy 4.370075 -15.483846) (xy 4.391106 -15.494000) )(layer F.SilkS) (width  0.000000)
  )
  (fp_poly (pts (xy -3.184738 -15.597555) (xy -3.048000 -15.494000) (xy -2.924974 -15.282949) (xy -2.880881 -15.019852) (xy -2.919313 -14.775907) (xy -3.005316 -14.647625) (xy -3.055287 -14.577773) (xy -3.036249 -14.479779)
     (xy -2.932860 -14.323392) (xy -2.729779 -14.078360) (xy -2.697943 -14.041519) (xy -2.498180 -13.803180) (xy -2.355848 -13.618322) (xy -2.295509 -13.519329) (xy -2.296128 -13.511779) (xy -2.394058 -13.466418)
     (xy -2.497667 -13.431247) (xy -2.614836 -13.432496) (xy -2.750464 -13.523426) (xy -2.933764 -13.726845) (xy -3.026390 -13.844063) (xy -3.250204 -14.115275) (xy -3.416178 -14.260164) (xy -3.555681 -14.296335)
     (xy -3.700082 -14.241394) (xy -3.716388 -14.231321) (xy -3.783008 -14.153294) (xy -3.787969 -14.011058) (xy -3.737554 -13.771792) (xy -3.664251 -13.443581) (xy -3.649592 -13.245813) (xy -3.696807 -13.148920)
     (xy -3.808387 -13.123333) (xy -3.960736 -13.195402) (xy -4.029247 -13.356167) (xy -4.072338 -13.538277) (xy -4.144253 -13.835409) (xy -4.233016 -14.198240) (xy -4.284860 -14.408677) (xy -4.371164 -14.769416)
     (xy -4.439150 -15.075193) (xy -4.455152 -15.157482) (xy -4.051294 -15.157482) (xy -4.044666 -15.005098) (xy -4.011083 -14.827250) (xy -3.940279 -14.633167) (xy -3.811375 -14.570762) (xy -3.591408 -14.628674)
     (xy -3.522308 -14.658802) (xy -3.309852 -14.812888) (xy -3.239221 -14.988503) (xy -3.292423 -15.151213) (xy -3.451464 -15.266586) (xy -3.698351 -15.300189) (xy -3.845133 -15.276575) (xy -3.991103 -15.230864)
     (xy -4.051294 -15.157482) (xy -4.455152 -15.157482) (xy -4.479805 -15.284256) (xy -4.487333 -15.346635) (xy -4.407559 -15.439855) (xy -4.187041 -15.530129) (xy -4.057541 -15.564125) (xy -3.661069 -15.640878)
     (xy -3.383144 -15.652925) )(layer F.SilkS) (width  0.000000)
  )
  (fp_poly (pts (xy -0.907646 -16.043819) (xy -0.785950 -15.925717) (xy -0.777683 -15.896167) (xy -0.790556 -15.798251) (xy -0.904646 -15.755390) (xy -1.077525 -15.748000) (xy -1.392839 -15.702049) (xy -1.567930 -15.563150)
     (xy -1.608667 -15.391333) (xy -1.532775 -15.256568) (xy -1.300068 -15.106026) (xy -1.150169 -15.035096) (xy -0.806657 -14.850276) (xy -0.604694 -14.648027) (xy -0.517242 -14.395054) (xy -0.508000 -14.244325)
     (xy -0.585605 -13.958103) (xy -0.805053 -13.737664) (xy -1.146295 -13.599146) (xy -1.350480 -13.566202) (xy -1.616461 -13.552217) (xy -1.761087 -13.582094) (xy -1.828778 -13.665155) (xy -1.829369 -13.666683)
     (xy -1.846988 -13.820951) (xy -1.737452 -13.894643) (xy -1.485147 -13.898189) (xy -1.483098 -13.898013) (xy -1.194397 -13.931663) (xy -1.020032 -14.050635) (xy -0.905049 -14.238950) (xy -0.950104 -14.419611)
     (xy -1.158461 -14.597931) (xy -1.444946 -14.742487) (xy -1.794532 -14.948338) (xy -1.996030 -15.192487) (xy -2.043226 -15.458883) (xy -1.929906 -15.731471) (xy -1.860324 -15.815677) (xy -1.647471 -15.970718)
     (xy -1.386007 -16.062781) (xy -1.123532 -16.088328) )(layer F.SilkS) (width  0.000000)
  )
  (fp_poly (pts (xy 1.580625 -16.014325) (xy 1.885812 -15.980767) (xy 2.224474 -15.937429) (xy 2.552074 -15.890200) (xy 2.824073 -15.844967) (xy 2.995933 -15.807618) (xy 3.031296 -15.792926) (xy 3.039053 -15.692609)
     (xy 3.021594 -15.631975) (xy 2.934402 -15.552810) (xy 2.737566 -15.542658) (xy 2.639047 -15.553609) (xy 2.498895 -15.572455) (xy 2.397799 -15.569333) (xy 2.325428 -15.520392) (xy 2.271448 -15.401781)
     (xy 2.225526 -15.189652) (xy 2.177330 -14.860152) (xy 2.116526 -14.389432) (xy 2.108859 -14.329833) (xy 2.059013 -13.963433) (xy 2.016001 -13.733598) (xy 1.967510 -13.608647) (xy 1.901226 -13.556897)
     (xy 1.804835 -13.546667) (xy 1.804473 -13.546667) (xy 1.668482 -13.565628) (xy 1.628341 -13.656098) (xy 1.647236 -13.821833) (xy 1.737677 -14.383540) (xy 1.806014 -14.857215) (xy 1.848635 -15.215991)
     (xy 1.862027 -15.419679) (xy 1.840161 -15.567151) (xy 1.742278 -15.646602) (xy 1.524000 -15.695846) (xy 1.300214 -15.766208) (xy 1.181910 -15.871858) (xy 1.193390 -15.983412) (xy 1.248833 -16.028555)
     (xy 1.353453 -16.032217) )(layer F.SilkS) (width  0.000000)
  )
  (fp_poly (pts (xy 0.450778 -16.069653) (xy 0.519139 -16.050533) (xy 0.565514 -15.999010) (xy 0.593397 -15.887928) (xy 0.606280 -15.690128) (xy 0.607656 -15.378453) (xy 0.601016 -14.925744) (xy 0.600633 -14.904329)
     (xy 0.590206 -14.479875) (xy 0.575979 -14.116874) (xy 0.559651 -13.848662) (xy 0.542922 -13.708575) (xy 0.539103 -13.697829) (xy 0.420548 -13.635687) (xy 0.271411 -13.658093) (xy 0.219795 -13.702848)
     (xy 0.207298 -13.809474) (xy 0.203780 -14.052070) (xy 0.209018 -14.397524) (xy 0.222791 -14.812722) (xy 0.228043 -14.934668) (xy 0.250332 -15.397500) (xy 0.271450 -15.716745) (xy 0.296427 -15.918035)
     (xy 0.330293 -16.027004) (xy 0.378079 -16.069285) (xy 0.444814 -16.070510) )(layer F.SilkS) (width  0.000000)
  )
  (fp_poly (pts (xy 5.027855 -15.780706) (xy 5.037667 -15.711563) (xy 4.982250 -15.553048) (xy 4.829049 -15.528671) (xy 4.771488 -15.547449) (xy 4.711534 -15.648945) (xy 4.718935 -15.756160) (xy 4.810229 -15.881227)
     (xy 4.937298 -15.886037) )(layer F.SilkS) (width  0.000000)
  )
  (fp_poly (pts (xy 4.462383 -16.019287) (xy 4.534335 -15.875561) (xy 4.523476 -15.804731) (xy 4.412987 -15.682635) (xy 4.271177 -15.683429) (xy 4.180840 -15.786279) (xy 4.173050 -15.947214) (xy 4.245234 -16.066972)
     (xy 4.301830 -16.085370) )(layer F.SilkS) (width  0.000000)
  )
  (fp_poly (pts (xy 0.685040 5.014288) (xy 1.061602 5.182046) (xy 1.492112 5.366692) (xy 1.820333 5.502527) (xy 2.180380 5.649600) (xy 2.541563 5.799752) (xy 2.809880 5.913700) (xy 3.206761 6.085450)
     (xy 2.959520 7.027819) (xy 2.685530 7.952778) (xy 2.370373 8.808008) (xy 2.024066 9.573500) (xy 1.656621 10.229241) (xy 1.278053 10.755219) (xy 0.910999 11.121463) (xy 0.514003 11.336623)
     (xy 0.064756 11.416376) (xy -0.383873 11.355915) (xy -0.613211 11.260064) (xy -0.908801 11.039186) (xy -1.230077 10.698204) (xy -1.545007 10.276207) (xy -1.821560 9.812284) (xy -1.857970 9.741062)
     (xy -1.984290 9.480538) (xy -2.040330 9.317057) (xy -2.031920 9.196398) (xy -1.964891 9.064340) (xy -1.935835 9.017000) (xy -1.827651 8.795068) (xy -1.778974 8.602662) (xy -1.778762 8.593667)
     (xy -1.850968 8.311358) (xy -2.034713 8.042262) (xy -2.280072 7.850621) (xy -2.388609 7.808907) (xy -2.529111 7.762582) (xy -2.626928 7.686212) (xy -2.704948 7.542929) (xy -2.786058 7.295868)
     (xy -2.850554 7.064817) (xy -2.937099 6.735556) (xy -3.003587 6.459596) (xy -3.038532 6.285330) (xy -3.041054 6.262278) (xy -2.969943 6.165127) (xy -2.744959 6.032949) (xy -2.361524 5.863201)
     (xy -2.222500 5.807552) (xy -1.758428 5.618776) (xy -1.242361 5.399147) (xy -0.764370 5.187249) (xy -0.627294 5.124177) (xy 0.142413 4.765472) )(layer F.SilkS) (width  0.000000)
  )
  (fp_poly (pts (xy -6.651438 0.388781) (xy -6.466495 0.523747) (xy -6.212758 0.720502) (xy -6.028749 0.868006) (xy -5.658206 1.161212) (xy -5.249416 1.473124) (xy -4.875661 1.748096) (xy -4.783667 1.813420)
     (xy -4.511573 2.004711) (xy -4.297174 2.155948) (xy -4.174531 2.243086) (xy -4.159118 2.254351) (xy -4.132258 2.345983) (xy -4.102502 2.546876) (xy -4.092284 2.642437) (xy -4.005632 3.492352)
     (xy -3.920680 4.226996) (xy -3.839938 4.825528) (xy -3.795696 5.104029) (xy -3.747404 5.474299) (xy -3.753104 5.700969) (xy -3.779966 5.761166) (xy -3.918514 5.834399) (xy -4.198962 5.930858)
     (xy -4.596562 6.043728) (xy -5.086567 6.166196) (xy -5.644230 6.291447) (xy -5.897633 6.344254) (xy -6.352554 6.418316) (xy -6.868998 6.472595) (xy -7.404744 6.505699) (xy -7.917569 6.516235)
     (xy -8.365252 6.502811) (xy -8.705572 6.464034) (xy -8.805333 6.440159) (xy -9.205695 6.279213) (xy -9.553106 6.068244) (xy -9.797551 5.839402) (xy -9.842500 5.773494) (xy -9.974300 5.386223)
     (xy -9.979691 4.910193) (xy -9.862399 4.364987) (xy -9.626148 3.770192) (xy -9.372331 3.302000) (xy -9.206915 3.043958) (xy -9.072301 2.897170) (xy -8.920098 2.823216) (xy -8.723057 2.786494)
     (xy -8.396685 2.693900) (xy -8.134383 2.489255) (xy -8.104530 2.456669) (xy -7.945618 2.251988) (xy -7.887847 2.068884) (xy -7.903251 1.820001) (xy -7.921088 1.650066) (xy -7.905688 1.517048)
     (xy -7.836116 1.384716) (xy -7.691438 1.216841) (xy -7.450720 0.977194) (xy -7.372226 0.900993) (xy -7.116800 0.658608) (xy -6.906257 0.468679) (xy -6.769949 0.357176) (xy -6.736739 0.338667)
     )(layer F.SilkS) (width  0.000000)
  )
  (fp_poly (pts (xy 7.233522 0.540415) (xy 7.622953 0.881583) (xy 8.058702 1.336514) (xy 8.510952 1.867716) (xy 8.949890 2.437700) (xy 9.345701 3.008972) (xy 9.668570 3.544043) (xy 9.758929 3.716037)
     (xy 9.936443 4.087728) (xy 10.044122 4.370898) (xy 10.098410 4.622727) (xy 10.115753 4.900398) (xy 10.116223 4.958372) (xy 10.080139 5.389990) (xy 9.951697 5.712587) (xy 9.704688 5.967990)
     (xy 9.351266 6.179030) (xy 9.111504 6.283721) (xy 8.860888 6.352196) (xy 8.548291 6.394140) (xy 8.122584 6.419239) (xy 8.073151 6.421146) (xy 7.683597 6.433506) (xy 7.430521 6.432152)
     (xy 7.281282 6.411936) (xy 7.203243 6.367710) (xy 7.163765 6.294328) (xy 7.157980 6.276824) (xy 6.992647 6.004943) (xy 6.728792 5.833799) (xy 6.411086 5.773739) (xy 6.084196 5.835109)
     (xy 5.851297 5.974169) (xy 5.593602 6.191005) (xy 4.766130 5.970764) (xy 4.411719 5.872230) (xy 4.120148 5.783293) (xy 3.929505 5.716016) (xy 3.877496 5.689363) (xy 3.862398 5.583293)
     (xy 3.874840 5.353043) (xy 3.911869 5.040999) (xy 3.931804 4.909601) (xy 3.996865 4.460397) (xy 4.057881 3.964324) (xy 4.101978 3.526332) (xy 4.103030 3.513667) (xy 4.142013 3.064847)
     (xy 4.183723 2.747297) (xy 4.245433 2.523579) (xy 4.344413 2.356256) (xy 4.497937 2.207891) (xy 4.723276 2.041044) (xy 4.810875 1.979391) (xy 5.119765 1.754921) (xy 5.502888 1.465835)
     (xy 5.903761 1.155164) (xy 6.160675 0.951118) (xy 6.945017 0.320361) )(layer F.SilkS) (width  0.000000)
  )
  (fp_poly (pts (xy -3.447980 2.766966) (xy -3.253294 2.870046) (xy -2.972583 3.030870) (xy -2.634625 3.233431) (xy -2.615943 3.244856) (xy -2.196770 3.496178) (xy -1.755955 3.751773) (xy -1.353678 3.977158)
     (xy -1.116017 4.104307) (xy -0.840986 4.258148) (xy -0.646387 4.389600) (xy -0.562904 4.476977) (xy -0.565683 4.493201) (xy -0.693244 4.575293) (xy -0.934746 4.694973) (xy -1.258358 4.839645)
     (xy -1.632245 4.996715) (xy -2.024573 5.153588) (xy -2.403510 5.297670) (xy -2.737221 5.416366) (xy -2.993873 5.497082) (xy -3.141633 5.527222) (xy -3.163964 5.521191) (xy -3.203601 5.393841)
     (xy -3.254248 5.140528) (xy -3.311360 4.796034) (xy -3.370389 4.395140) (xy -3.426786 3.972629) (xy -3.476007 3.563283) (xy -3.513503 3.201885) (xy -3.534727 2.923216) (xy -3.535132 2.762059)
     (xy -3.527860 2.737638) )(layer F.SilkS) (width  0.000000)
  )
  (fp_poly (pts (xy 3.625192 2.923578) (xy 3.608340 3.145532) (xy 3.577051 3.462719) (xy 3.535583 3.838870) (xy 3.488195 4.237717) (xy 3.439146 4.622990) (xy 3.392695 4.958421) (xy 3.353100 5.207741)
     (xy 3.332796 5.307492) (xy 3.275340 5.457187) (xy 3.229321 5.501005) (xy 3.135979 5.469266) (xy 2.915291 5.383434) (xy 2.596030 5.255006) (xy 2.206966 5.095477) (xy 2.010931 5.014171)
     (xy 1.603758 4.841287) (xy 1.258706 4.688274) (xy 1.003045 4.567741) (xy 0.864043 4.492296) (xy 0.846764 4.475884) (xy 0.916437 4.417088) (xy 1.107435 4.293549) (xy 1.392611 4.121949)
     (xy 1.744821 3.918973) (xy 1.841500 3.864533) (xy 2.250235 3.632274) (xy 2.641728 3.404186) (xy 2.973296 3.205489) (xy 3.202258 3.061402) (xy 3.213620 3.053824) (xy 3.428365 2.918905)
     (xy 3.579475 2.841094) (xy 3.623347 2.833125) )(layer F.SilkS) (width  0.000000)
  )
  (fp_poly (pts (xy 0.897464 -3.857209) (xy 1.324019 -3.622834) (xy 1.780624 -3.363496) (xy 2.239744 -3.095760) (xy 2.673847 -2.836192) (xy 3.055398 -2.601358) (xy 3.356865 -2.407824) (xy 3.550713 -2.272155)
     (xy 3.596712 -2.233193) (xy 3.637491 -2.169259) (xy 3.668907 -2.055980) (xy 3.692095 -1.873616) (xy 3.708194 -1.602428) (xy 3.718340 -1.222676) (xy 3.723672 -0.714621) (xy 3.725326 -0.058523)
     (xy 3.725333 -0.000774) (xy 3.725333 2.103023) (xy 2.857500 2.647539) (xy 2.481488 2.877552) (xy 2.060953 3.125111) (xy 1.622997 3.375368) (xy 1.194723 3.613475) (xy 0.803230 3.824584)
     (xy 0.475623 3.993845) (xy 0.239001 4.106410) (xy 0.120468 4.147432) (xy 0.119851 4.147429) (xy 0.023135 4.107621) (xy -0.194382 3.998376) (xy -0.506125 3.833650) (xy -0.885520 3.627396)
     (xy -1.159372 3.475689) (xy -1.627484 3.210387) (xy -2.099721 2.935586) (xy -2.531081 2.677941) (xy -2.876567 2.464108) (xy -2.979705 2.397427) (xy -3.598333 1.989667) (xy -3.621087 0.010587)
     (xy -3.626275 -0.684348) (xy -3.623625 -1.223874) (xy -3.613658 -1.584199) (xy -2.017274 -1.584199) (xy -1.904749 -1.273089) (xy -1.660915 -0.994114) (xy -1.303787 -0.776285) (xy -1.276417 -0.764658)
     (xy -1.099572 -0.676652) (xy -1.016835 -0.606416) (xy -1.016000 -0.601649) (xy -1.083195 -0.530305) (xy -1.250212 -0.421430) (xy -1.306762 -0.389921) (xy -1.615067 -0.151044) (xy -1.770808 0.132778)
     (xy -1.774406 0.433895) (xy -1.626278 0.724657) (xy -1.326846 0.977414) (xy -1.285650 1.001177) (xy -1.053080 1.151532) (xy -0.939324 1.271125) (xy -0.956958 1.342394) (xy -1.032534 1.354667)
     (xy -1.154797 1.409064) (xy -1.329574 1.543690) (xy -1.371201 1.582174) (xy -1.566308 1.862704) (xy -1.595947 2.165263) (xy -1.521169 2.375956) (xy -1.359034 2.546356) (xy -1.081964 2.714179)
     (xy -0.742626 2.852678) (xy -0.431103 2.929578) (xy -0.205586 2.981681) (xy -0.105024 3.062434) (xy -0.084667 3.178896) (xy -0.043375 3.470089) (xy 0.077556 3.620633) (xy 0.169333 3.640667)
     (xy 0.324536 3.574958) (xy 0.371941 3.506742) (xy 0.414182 3.312858) (xy 0.423333 3.178896) (xy 0.451990 3.048078) (xy 0.567526 2.973313) (xy 0.769769 2.929578) (xy 1.252850 2.806163)
     (xy 1.613855 2.619254) (xy 1.843788 2.384267) (xy 1.933647 2.116618) (xy 1.874436 1.831724) (xy 1.657154 1.545002) (xy 1.605199 1.498341) (xy 1.263066 1.205487) (xy 1.638687 0.985358)
     (xy 1.955819 0.740570) (xy 2.126302 0.472891) (xy 2.142663 0.200262) (xy 2.048350 0.002051) (xy 1.863440 -0.194884) (xy 1.633912 -0.375904) (xy 1.626019 -0.381000) (xy 1.452909 -0.501471)
     (xy 1.361833 -0.583876) (xy 1.357928 -0.592812) (xy 1.424121 -0.652788) (xy 1.597426 -0.760763) (xy 1.745011 -0.842368) (xy 2.076386 -1.081805) (xy 2.286731 -1.370458) (xy 2.356884 -1.677362)
     (xy 2.340040 -1.803833) (xy 2.242856 -1.973676) (xy 2.045705 -2.193221) (xy 1.789688 -2.427921) (xy 1.515904 -2.643230) (xy 1.265453 -2.804601) (xy 1.079435 -2.877489) (xy 1.061296 -2.878667)
     (xy 0.838485 -2.828602) (xy 0.735984 -2.702684) (xy 0.747337 -2.537329) (xy 0.866087 -2.368950) (xy 1.085779 -2.233964) (xy 1.181189 -2.202450) (xy 1.481620 -2.066301) (xy 1.681390 -1.864356)
     (xy 1.752770 -1.630482) (xy 1.735948 -1.524887) (xy 1.608823 -1.340223) (xy 1.370613 -1.148642) (xy 1.074448 -0.984545) (xy 0.773458 -0.882335) (xy 0.731535 -0.874525) (xy 0.423333 -0.824511)
     (xy 0.423333 -2.089407) (xy 0.418775 -2.630221) (xy 0.403885 -3.023978) (xy 0.376840 -3.292736) (xy 0.335818 -3.458558) (xy 0.305495 -3.515455) (xy 0.196742 -3.623385) (xy 0.088155 -3.592310)
     (xy 0.051495 -3.563604) (xy -0.001784 -3.494983) (xy -0.039479 -3.374607) (xy -0.064083 -3.176588) (xy -0.078086 -2.875036) (xy -0.083979 -2.444064) (xy -0.084667 -2.148633) (xy -0.088170 -1.623206)
     (xy -0.099669 -1.248700) (xy -0.120653 -1.006828) (xy -0.152607 -0.879302) (xy -0.190500 -0.847139) (xy -0.496253 -0.895022) (xy -0.816131 -1.018582) (xy -1.107604 -1.191490) (xy -1.328144 -1.387420)
     (xy -1.435224 -1.580044) (xy -1.439333 -1.620236) (xy -1.366706 -1.816415) (xy -1.182556 -2.015695) (xy -0.937476 -2.172274) (xy -0.765401 -2.230287) (xy -0.535153 -2.330259) (xy -0.408348 -2.488628)
     (xy -0.387870 -2.661676) (xy -0.476603 -2.805684) (xy -0.677431 -2.876935) (xy -0.722630 -2.878667) (xy -0.876123 -2.824553) (xy -1.107751 -2.684114) (xy -1.375356 -2.490203) (xy -1.636782 -2.275674)
     (xy -1.849870 -2.073379) (xy -1.972463 -1.916172) (xy -1.980472 -1.898431) (xy -2.017274 -1.584199) (xy -3.613658 -1.584199) (xy -3.612619 -1.621755) (xy -3.592741 -1.891759) (xy -3.563475 -2.047651)
     (xy -3.542230 -2.090925) (xy -3.432006 -2.178782) (xy -3.199705 -2.334126) (xy -2.870920 -2.541575) (xy -2.471244 -2.785745) (xy -2.026270 -3.051255) (xy -1.561590 -3.322721) (xy -1.102799 -3.584761)
     (xy -0.675488 -3.821992) (xy -0.541870 -3.894293) (xy 0.143928 -4.262434) )(layer F.SilkS) (width  0.000000)
  )
  (fp_poly (pts (xy 4.391278 -1.729108) (xy 4.581346 -1.597303) (xy 4.844811 -1.404890) (xy 5.152030 -1.174173) (xy 5.473365 -0.927458) (xy 5.779174 -0.687050) (xy 6.039818 -0.475254) (xy 6.078892 -0.442529)
     (xy 6.311952 -0.241977) (xy 6.433186 -0.114708) (xy 6.461333 -0.026173) (xy 6.415131 0.058172) (xy 6.375226 0.103801) (xy 6.264511 0.204824) (xy 6.056982 0.376456) (xy 5.781416 0.596534)
     (xy 5.466587 0.842895) (xy 5.141270 1.093376) (xy 4.834240 1.325815) (xy 4.574273 1.518048) (xy 4.390144 1.647912) (xy 4.311454 1.693333) (xy 4.299589 1.612839) (xy 4.288731 1.388048)
     (xy 4.279507 1.043994) (xy 4.272543 0.605713) (xy 4.268469 0.098240) (xy 4.267959 -0.042333) (xy 4.268441 -0.563724) (xy 4.272502 -1.022451) (xy 4.279621 -1.393482) (xy 4.289274 -1.651782)
     (xy 4.300937 -1.772316) (xy 4.304244 -1.778000) )(layer F.SilkS) (width  0.000000)
  )
  (fp_poly (pts (xy -4.182946 -0.033862) (xy -4.184185 0.472612) (xy -4.186199 0.915720) (xy -4.188793 1.269729) (xy -4.191774 1.508901) (xy -4.194948 1.607502) (xy -4.195325 1.608667) (xy -4.262746 1.561394)
     (xy -4.437792 1.433300) (xy -4.692477 1.244974) (xy -4.944627 1.057425) (xy -5.412917 0.706369) (xy -5.760110 0.440808) (xy -6.002449 0.247187) (xy -6.156182 0.111955) (xy -6.237553 0.021556)
     (xy -6.262809 -0.037560) (xy -6.262872 -0.042333) (xy -6.197753 -0.128430) (xy -6.023244 -0.291343) (xy -5.767115 -0.508589) (xy -5.457136 -0.757684) (xy -5.121079 -1.016146) (xy -4.786713 -1.261489)
     (xy -4.573982 -1.409695) (xy -4.180506 -1.676391) )(layer F.SilkS) (width  0.000000)
  )
  (fp_poly (pts (xy -7.163036 -6.589691) (xy -6.937552 -6.540990) (xy -6.789681 -6.449473) (xy -6.694895 -6.319304) (xy -6.480437 -6.081705) (xy -6.180891 -5.953260) (xy -5.847727 -5.942993) (xy -5.532411 -6.059926)
     (xy -5.469455 -6.104476) (xy -5.243408 -6.282285) (xy -4.547871 -6.095645) (xy -4.219009 -6.001991) (xy -3.950571 -5.915560) (xy -3.787018 -5.851019) (xy -3.763476 -5.836891) (xy -3.729960 -5.727225)
     (xy -3.738961 -5.479609) (xy -3.791147 -5.083298) (xy -3.822143 -4.893222) (xy -3.895510 -4.412461) (xy -3.963622 -3.883882) (xy -4.015192 -3.397827) (xy -4.027818 -3.246891) (xy -4.058888 -2.897306)
     (xy -4.093271 -2.611601) (xy -4.125450 -2.432177) (xy -4.138484 -2.396269) (xy -4.225246 -2.318602) (xy -4.419793 -2.166676) (xy -4.691547 -1.963849) (xy -4.950958 -1.775637) (xy -5.327125 -1.500453)
     (xy -5.712729 -1.209190) (xy -6.049859 -0.945966) (xy -6.196083 -0.827093) (xy -6.440592 -0.631731) (xy -6.638629 -0.488361) (xy -6.751987 -0.424393) (xy -6.758891 -0.423333) (xy -6.842277 -0.481286)
     (xy -7.019026 -0.640647) (xy -7.266285 -0.879669) (xy -7.561200 -1.176604) (xy -7.688860 -1.308248) (xy -8.396249 -2.089218) (xy -8.977960 -2.830407) (xy -9.430526 -3.524669) (xy -9.750479 -4.164861)
     (xy -9.934352 -4.743836) (xy -9.978679 -5.254450) (xy -9.879991 -5.689559) (xy -9.847797 -5.757333) (xy -9.595066 -6.067179) (xy -9.200228 -6.312284) (xy -8.680578 -6.485052) (xy -8.053411 -6.577885)
     (xy -7.966836 -6.583575) (xy -7.496131 -6.601808) )(layer F.SilkS) (width  0.000000)
  )
  (fp_poly (pts (xy 8.225939 -6.492426) (xy 8.838352 -6.400575) (xy 9.343046 -6.235591) (xy 9.722897 -6.001278) (xy 9.945641 -5.730995) (xy 10.069075 -5.333824) (xy 10.070098 -4.850030) (xy 9.952085 -4.306353)
     (xy 9.718412 -3.729533) (xy 9.684561 -3.662831) (xy 9.517262 -3.346705) (xy 9.394493 -3.149787) (xy 9.284315 -3.040199) (xy 9.154792 -2.986065) (xy 8.976205 -2.955807) (xy 8.599724 -2.839344)
     (xy 8.349603 -2.615694) (xy 8.234938 -2.295904) (xy 8.235624 -2.056271) (xy 8.249711 -1.888585) (xy 8.234410 -1.755429) (xy 8.169714 -1.623165) (xy 8.035616 -1.458153) (xy 7.812109 -1.226752)
     (xy 7.640566 -1.055764) (xy 7.374812 -0.796851) (xy 7.153138 -0.590465) (xy 7.002579 -0.461193) (xy 6.952177 -0.429667) (xy 6.869799 -0.482054) (xy 6.683031 -0.620274) (xy 6.419123 -0.823650)
     (xy 6.105326 -1.071506) (xy 6.087390 -1.085834) (xy 5.703362 -1.388524) (xy 5.300681 -1.698822) (xy 4.933635 -1.975234) (xy 4.711557 -2.137372) (xy 4.434395 -2.338877) (xy 4.267450 -2.482462)
     (xy 4.182749 -2.608067) (xy 4.152318 -2.755633) (xy 4.148208 -2.941705) (xy 4.135573 -3.176344) (xy 4.101328 -3.533138) (xy 4.050416 -3.967001) (xy 3.987784 -4.432852) (xy 3.974932 -4.521491)
     (xy 3.917199 -4.950109) (xy 3.877399 -5.318300) (xy 3.858250 -5.594048) (xy 3.862471 -5.745336) (xy 3.869558 -5.762590) (xy 3.988885 -5.816835) (xy 4.241264 -5.895228) (xy 4.593463 -5.989925)
     (xy 5.012250 -6.093084) (xy 5.464394 -6.196863) (xy 5.916662 -6.293418) (xy 6.335822 -6.374909) (xy 6.688642 -6.433491) (xy 6.746450 -6.441520) (xy 7.522930 -6.507342) )(layer F.SilkS) (width  0.000000)
  )
  (fp_poly (pts (xy -3.079841 -5.592975) (xy -2.867662 -5.531643) (xy -2.563689 -5.426698) (xy -2.199380 -5.290748) (xy -1.806197 -5.136401) (xy -1.415599 -4.976263) (xy -1.059046 -4.822943) (xy -0.767998 -4.689048)
     (xy -0.573915 -4.587185) (xy -0.508000 -4.531799) (xy -0.577827 -4.476177) (xy -0.762564 -4.367542) (xy -1.025098 -4.227461) (xy -1.079500 -4.199686) (xy -1.386213 -4.036702) (xy -1.782671 -3.815427)
     (xy -2.214585 -3.566606) (xy -2.576435 -3.351955) (xy -2.926470 -3.142141) (xy -3.220275 -2.968353) (xy -3.429663 -2.847093) (xy -3.526451 -2.794864) (xy -3.529420 -2.794000) (xy -3.536791 -2.869916)
     (xy -3.526283 -3.065028) (xy -3.510244 -3.238500) (xy -3.469676 -3.593605) (xy -3.418056 -4.001093) (xy -3.360500 -4.425619) (xy -3.302122 -4.831838) (xy -3.248038 -5.184405) (xy -3.203364 -5.447973)
     (xy -3.173213 -5.587198) (xy -3.168766 -5.598088) )(layer F.SilkS) (width  0.000000)
  )
  (fp_poly (pts (xy 3.274120 -5.431590) (xy 3.331817 -5.311392) (xy 3.363252 -5.144971) (xy 3.404966 -4.868025) (xy 3.452529 -4.517360) (xy 3.501516 -4.129778) (xy 3.547496 -3.742085) (xy 3.586043 -3.391082)
     (xy 3.612729 -3.113575) (xy 3.623126 -2.946367) (xy 3.620175 -2.914620) (xy 3.540557 -2.942300) (xy 3.357357 -3.041552) (xy 3.108865 -3.191504) (xy 3.087193 -3.205141) (xy 2.798009 -3.382074)
     (xy 2.416882 -3.607542) (xy 2.000232 -3.848453) (xy 1.712977 -4.011180) (xy 1.377914 -4.206448) (xy 1.110284 -4.376686) (xy 0.937443 -4.503459) (xy 0.886532 -4.568007) (xy 0.978989 -4.626516)
     (xy 1.194414 -4.730311) (xy 1.497379 -4.864815) (xy 1.852454 -5.015447) (xy 2.224210 -5.167630) (xy 2.577218 -5.306784) (xy 2.876050 -5.418330) (xy 3.085275 -5.487690) (xy 3.159528 -5.503333)
     )(layer F.SilkS) (width  0.000000)
  )
  (fp_poly (pts (xy 0.573619 -11.310572) (xy 0.987191 -11.022921) (xy 1.405880 -10.569367) (xy 1.832643 -9.948411) (xy 1.851578 -9.917343) (xy 1.999980 -9.664857) (xy 2.070166 -9.498393) (xy 2.072684 -9.359767)
     (xy 2.018081 -9.190798) (xy 1.994202 -9.130646) (xy 1.920198 -8.865043) (xy 1.906543 -8.629687) (xy 1.913514 -8.589887) (xy 2.013528 -8.398994) (xy 2.193100 -8.196310) (xy 2.398041 -8.032727)
     (xy 2.574166 -7.959142) (xy 2.585566 -7.958667) (xy 2.680188 -7.884929) (xy 2.769325 -7.701763) (xy 2.787681 -7.641167) (xy 2.937103 -7.071497) (xy 3.040461 -6.651365) (xy 3.100577 -6.368184)
     (xy 3.120273 -6.209369) (xy 3.116456 -6.174370) (xy 3.031499 -6.113033) (xy 2.819168 -6.005100) (xy 2.510046 -5.864998) (xy 2.134715 -5.707151) (xy 2.073456 -5.682377) (xy 1.640338 -5.504421)
     (xy 1.219236 -5.324895) (xy 0.859333 -5.165148) (xy 0.616648 -5.050010) (xy 0.376507 -4.931541) (xy 0.206507 -4.853937) (xy 0.150981 -4.835099) (xy 0.069288 -4.871988) (xy -0.134792 -4.965439)
     (xy -0.429896 -5.101062) (xy -0.762000 -5.254018) (xy -1.198901 -5.449459) (xy -1.658566 -5.645290) (xy -2.074459 -5.813589) (xy -2.286000 -5.893619) (xy -2.593171 -6.008824) (xy -2.837980 -6.108157)
     (xy -2.976822 -6.173721) (xy -2.989380 -6.182312) (xy -3.007512 -6.297429) (xy -2.972604 -6.542110) (xy -2.893317 -6.888228) (xy -2.778312 -7.307654) (xy -2.636250 -7.772262) (xy -2.475791 -8.253924)
     (xy -2.305597 -8.724512) (xy -2.134329 -9.155898) (xy -1.970646 -9.519954) (xy -1.947021 -9.567538) (xy -1.651694 -10.081230) (xy -1.311886 -10.555170) (xy -0.960769 -10.947265) (xy -0.665952 -11.193079)
     (xy -0.249997 -11.394153) (xy 0.162208 -11.433817) )(layer F.SilkS) (width  0.000000)
  )
  (fp_poly (pts (xy -0.084667 2.036404) (xy -0.092015 2.349287) (xy -0.111534 2.583827) (xy -0.139438 2.700093) (xy -0.148167 2.706019) (xy -0.261097 2.672836) (xy -0.459011 2.595127) (xy -0.505481 2.575266)
     (xy -0.852956 2.384049) (xy -1.053897 2.179618) (xy -1.100667 2.024643) (xy -1.024967 1.861480) (xy -0.823041 1.685041) (xy -0.532645 1.524273) (xy -0.359833 1.456687) (xy -0.084667 1.363475)
     )(layer F.SilkS) (width  0.000000)
  )
  (fp_poly (pts (xy 0.684459 1.470392) (xy 0.958969 1.564616) (xy 1.208157 1.715251) (xy 1.383821 1.886907) (xy 1.439333 2.024643) (xy 1.356605 2.233098) (xy 1.115945 2.425890) (xy 0.778963 2.576348)
     (xy 0.423333 2.701822) (xy 0.423333 1.418167) )(layer F.SilkS) (width  0.000000)
  )
  (fp_poly (pts (xy -0.084667 0.287155) (xy -0.089006 0.666830) (xy -0.118192 0.896064) (xy -0.196480 0.993747) (xy -0.348122 0.978770) (xy -0.597373 0.870025) (xy -0.741454 0.798714) (xy -0.989419 0.653053)
     (xy -1.169267 0.506477) (xy -1.227769 0.423010) (xy -1.218941 0.193521) (xy -1.060361 -0.026537) (xy -0.771436 -0.219966) (xy -0.371569 -0.369571) (xy -0.317500 -0.383650) (xy -0.084667 -0.441691)
     )(layer F.SilkS) (width  0.000000)
  )
  (fp_poly (pts (xy 0.631266 -0.389503) (xy 1.003776 -0.270813) (xy 1.271694 -0.116060) (xy 1.432637 0.033044) (xy 1.564132 0.196911) (xy 1.584542 0.324428) (xy 1.527134 0.459811) (xy 1.393437 0.598811)
     (xy 1.159714 0.756750) (xy 0.886959 0.900159) (xy 0.636168 0.995572) (xy 0.513471 1.016000) (xy 0.466155 0.934368) (xy 0.435470 0.700346) (xy 0.423434 0.330248) (xy 0.423333 0.287155)
     (xy 0.423333 -0.441691) )(layer F.SilkS) (width  0.000000)
  )
)
