(kicad_sch (version 20211123) (generator eeschema)

  (uuid e6c30646-85b4-4bdb-8b5d-016932033ee6)

  (paper "A5")

  (title_block
    (title "Random Dice with an AtTiny 25/45/85")
    (date "2022-01-18")
    (rev "v1.0")
    (company "Falko Schmidt, University of Ulm")
  )

  (lib_symbols
    (symbol "KiCAD_Library_FalkoSchmidt_UULM:ATtiny25_45_85_with_Socket" (in_bom yes) (on_board yes)
      (property "Reference" "U" (id 0) (at -12.7 13.97 0)
        (effects (font (size 1.27 1.27)) (justify left bottom))
      )
      (property "Value" "ATtiny25_45_85_with_Socket" (id 1) (at 2.54 -13.97 0)
        (effects (font (size 1.27 1.27)) (justify left top))
      )
      (property "Footprint" "footprints:DIP-8_W7.62mm_Socket" (id 2) (at 0 -30.48 0)
        (effects (font (size 1.27 1.27) italic) hide)
      )
      (property "Datasheet" "http://ww1.microchip.com/downloads/en/DeviceDoc/atmel-2586-avr-8-bit-microcontroller-attiny25-attiny45-attiny85_datasheet.pdf" (id 3) (at 0 -27.94 0)
        (effects (font (size 1.27 1.27)) hide)
      )
      (property "ki_keywords" "AVR 8bit Microcontroller tinyAVR" (id 4) (at 0 0 0)
        (effects (font (size 1.27 1.27)) hide)
      )
      (property "ki_description" "10MHz, 2kB Flash, 128B SRAM, 128B EEPROM, debugWIRE, DIP-8" (id 5) (at 0 0 0)
        (effects (font (size 1.27 1.27)) hide)
      )
      (property "ki_fp_filters" "DIP*W7.62mm*" (id 6) (at 0 0 0)
        (effects (font (size 1.27 1.27)) hide)
      )
      (symbol "ATtiny25_45_85_with_Socket_0_1"
        (rectangle (start -12.7 -12.7) (end 12.7 12.7)
          (stroke (width 0.254) (type default) (color 0 0 0 0))
          (fill (type background))
        )
      )
      (symbol "ATtiny25_45_85_with_Socket_1_1"
        (pin bidirectional line (at 15.24 -5.08 180) (length 2.54)
          (name "~{RESET}/PB5" (effects (font (size 1.27 1.27))))
          (number "1" (effects (font (size 1.27 1.27))))
        )
        (pin bidirectional line (at 15.24 0 180) (length 2.54)
          (name "XTAL1/PB3" (effects (font (size 1.27 1.27))))
          (number "2" (effects (font (size 1.27 1.27))))
        )
        (pin bidirectional line (at 15.24 -2.54 180) (length 2.54)
          (name "XTAL2/PB4" (effects (font (size 1.27 1.27))))
          (number "3" (effects (font (size 1.27 1.27))))
        )
        (pin power_in line (at 0 -15.24 90) (length 2.54)
          (name "GND" (effects (font (size 1.27 1.27))))
          (number "4" (effects (font (size 1.27 1.27))))
        )
        (pin bidirectional line (at 15.24 7.62 180) (length 2.54)
          (name "AREF/PB0" (effects (font (size 1.27 1.27))))
          (number "5" (effects (font (size 1.27 1.27))))
        )
        (pin bidirectional line (at 15.24 5.08 180) (length 2.54)
          (name "PB1" (effects (font (size 1.27 1.27))))
          (number "6" (effects (font (size 1.27 1.27))))
        )
        (pin bidirectional line (at 15.24 2.54 180) (length 2.54)
          (name "PB2" (effects (font (size 1.27 1.27))))
          (number "7" (effects (font (size 1.27 1.27))))
        )
        (pin power_in line (at 0 15.24 270) (length 2.54)
          (name "VCC" (effects (font (size 1.27 1.27))))
          (number "8" (effects (font (size 1.27 1.27))))
        )
      )
    )
    (symbol "KiCAD_Library_FalkoSchmidt_UULM:C_Vishay_K-Series" (pin_numbers hide) (pin_names (offset 0.254) hide) (in_bom yes) (on_board yes)
      (property "Reference" "C" (id 0) (at 0.254 1.778 0)
        (effects (font (size 1.27 1.27)) (justify left))
      )
      (property "Value" "C_Vishay_K-Series" (id 1) (at 0.254 -2.032 0)
        (effects (font (size 1.27 1.27)) (justify left))
      )
      (property "Footprint" "footprints:C_Disc_D5.0mm_W2.5mm_P2.50mm" (id 2) (at 0 -9.525 0)
        (effects (font (size 1.27 1.27)) hide)
      )
      (property "Datasheet" "https://www.vishay.com/docs/45171/kseries.pdf" (id 3) (at 0 -11.43 0)
        (effects (font (size 1.27 1.27)) hide)
      )
      (property "ki_keywords" "capacitor cap" (id 4) (at 0 0 0)
        (effects (font (size 1.27 1.27)) hide)
      )
      (property "ki_description" "Unpolarized capacitor, small symbol, K-Series, Size code 15" (id 5) (at 0 0 0)
        (effects (font (size 1.27 1.27)) hide)
      )
      (property "ki_fp_filters" "C_*" (id 6) (at 0 0 0)
        (effects (font (size 1.27 1.27)) hide)
      )
      (symbol "C_Vishay_K-Series_0_1"
        (polyline
          (pts
            (xy -1.524 -0.508)
            (xy 1.524 -0.508)
          )
          (stroke (width 0.3302) (type default) (color 0 0 0 0))
          (fill (type none))
        )
        (polyline
          (pts
            (xy -1.524 0.508)
            (xy 1.524 0.508)
          )
          (stroke (width 0.3048) (type default) (color 0 0 0 0))
          (fill (type none))
        )
      )
      (symbol "C_Vishay_K-Series_1_1"
        (pin passive line (at 0 2.54 270) (length 2.032)
          (name "~" (effects (font (size 1.27 1.27))))
          (number "1" (effects (font (size 1.27 1.27))))
        )
        (pin passive line (at 0 -2.54 90) (length 2.032)
          (name "~" (effects (font (size 1.27 1.27))))
          (number "2" (effects (font (size 1.27 1.27))))
        )
      )
    )
    (symbol "KiCAD_Library_FalkoSchmidt_UULM:LED_T1-3{slash}4_D5mm_THT" (pin_numbers hide) (pin_names hide) (in_bom yes) (on_board yes)
      (property "Reference" "D" (id 0) (at 0 3.175 0)
        (effects (font (size 1.27 1.27)))
      )
      (property "Value" "LED_T1-3{slash}4_D5mm_THT" (id 1) (at 0 -2.54 0)
        (effects (font (size 1.27 1.27)))
      )
      (property "Footprint" "footprints:LED_D5mm_THT" (id 2) (at 0 -5.08 0)
        (effects (font (size 1.27 1.27)) hide)
      )
      (property "Datasheet" "" (id 3) (at 0 6.35 0)
        (effects (font (size 1.27 1.27)) hide)
      )
      (property "ki_keywords" "LED, SMD, 0603" (id 4) (at 0 0 0)
        (effects (font (size 1.27 1.27)) hide)
      )
      (property "ki_description" "A standard LED in form factor 0603 (SMD)." (id 5) (at 0 0 0)
        (effects (font (size 1.27 1.27)) hide)
      )
      (symbol "LED_T1-3{slash}4_D5mm_THT_0_1"
        (polyline
          (pts
            (xy -0.762 -1.016)
            (xy -0.762 1.016)
          )
          (stroke (width 0.254) (type default) (color 0 0 0 0))
          (fill (type none))
        )
        (polyline
          (pts
            (xy 1.016 0)
            (xy -0.762 0)
          )
          (stroke (width 0) (type default) (color 0 0 0 0))
          (fill (type none))
        )
        (polyline
          (pts
            (xy 0.762 -1.016)
            (xy -0.762 0)
            (xy 0.762 1.016)
            (xy 0.762 -1.016)
          )
          (stroke (width 0.254) (type default) (color 0 0 0 0))
          (fill (type none))
        )
        (polyline
          (pts
            (xy 0 0.762)
            (xy -0.508 1.27)
            (xy -0.254 1.27)
            (xy -0.508 1.27)
            (xy -0.508 1.016)
          )
          (stroke (width 0) (type default) (color 0 0 0 0))
          (fill (type none))
        )
        (polyline
          (pts
            (xy 0.508 1.27)
            (xy 0 1.778)
            (xy 0.254 1.778)
            (xy 0 1.778)
            (xy 0 1.524)
          )
          (stroke (width 0) (type default) (color 0 0 0 0))
          (fill (type none))
        )
      )
      (symbol "LED_T1-3{slash}4_D5mm_THT_1_1"
        (pin passive line (at -2.54 0 0) (length 1.778)
          (name "K" (effects (font (size 1.27 1.27))))
          (number "1" (effects (font (size 1.27 1.27))))
        )
        (pin passive line (at 2.54 0 180) (length 1.778)
          (name "A" (effects (font (size 1.27 1.27))))
          (number "2" (effects (font (size 1.27 1.27))))
        )
      )
    )
    (symbol "KiCAD_Library_FalkoSchmidt_UULM:MKDS_1.5{slash}_2-5.08" (pin_names hide) (in_bom yes) (on_board yes)
      (property "Reference" "J" (id 0) (at 0 6.35 0)
        (effects (font (size 1.27 1.27)))
      )
      (property "Value" "MKDS_1.5{slash}_2-5.08" (id 1) (at 0 3.81 0)
        (effects (font (size 1.27 1.27)))
      )
      (property "Footprint" "footprints:MKDS_1.5-2-5.08 BK" (id 2) (at 0 -3.81 0)
        (effects (font (size 1.27 1.27)) hide)
      )
      (property "Datasheet" "https://www.mouser.de/datasheet/2/324/1/718760-1436873.pdf" (id 3) (at 0 -6.35 0)
        (effects (font (size 1.27 1.27)) hide)
      )
      (property "ki_keywords" "Screw Terminal, Phoenix, 5.08mm" (id 4) (at 0 0 0)
        (effects (font (size 1.27 1.27)) hide)
      )
      (property "ki_description" "Screw Terminal from Phoenix Contact with 5.08mm pitch." (id 5) (at 0 0 0)
        (effects (font (size 1.27 1.27)) hide)
      )
      (symbol "MKDS_1.5{slash}_2-5.08_1_1"
        (circle (center -1.27 -1.27) (radius 0.635)
          (stroke (width 0.1524) (type default) (color 0 0 0 0))
          (fill (type none))
        )
        (circle (center -1.27 1.27) (radius 0.635)
          (stroke (width 0.1524) (type default) (color 0 0 0 0))
          (fill (type none))
        )
        (rectangle (start 0 -2.54) (end -2.54 2.54)
          (stroke (width 0.254) (type default) (color 0 0 0 0))
          (fill (type background))
        )
        (polyline
          (pts
            (xy -0.9144 -1.778)
            (xy -1.778 -0.9398)
          )
          (stroke (width 0.1524) (type default) (color 0 0 0 0))
          (fill (type none))
        )
        (polyline
          (pts
            (xy -0.9144 0.762)
            (xy -1.778 1.6002)
          )
          (stroke (width 0.1524) (type default) (color 0 0 0 0))
          (fill (type none))
        )
        (polyline
          (pts
            (xy -0.7366 -1.6002)
            (xy -1.6002 -0.762)
          )
          (stroke (width 0.1524) (type default) (color 0 0 0 0))
          (fill (type none))
        )
        (polyline
          (pts
            (xy -0.7366 0.9398)
            (xy -1.6002 1.778)
          )
          (stroke (width 0.1524) (type default) (color 0 0 0 0))
          (fill (type none))
        )
        (pin passive line (at 3.81 -1.27 180) (length 3.81)
          (name "Pin_1" (effects (font (size 1.27 1.27))))
          (number "1" (effects (font (size 1.27 1.27))))
        )
        (pin passive line (at 3.81 1.27 180) (length 3.81)
          (name "Pin_2" (effects (font (size 1.27 1.27))))
          (number "2" (effects (font (size 1.27 1.27))))
        )
      )
    )
    (symbol "KiCAD_Library_FalkoSchmidt_UULM:MountingHole_M3_DIN965_Pad" (pin_numbers hide) (pin_names hide) (in_bom yes) (on_board yes)
      (property "Reference" "H" (id 0) (at 0 5.08 0)
        (effects (font (size 1.27 1.27)))
      )
      (property "Value" "MountingHole_M3_DIN965_Pad" (id 1) (at 0 3.175 0)
        (effects (font (size 1.27 1.27)))
      )
      (property "Footprint" "footprints:MountingHole_M3_DIN965_Pad" (id 2) (at 0 -10.16 0)
        (effects (font (size 1.27 1.27)) hide)
      )
      (property "Datasheet" "" (id 3) (at 0 5.08 0)
        (effects (font (size 1.27 1.27)) hide)
      )
      (property "ki_keywords" "Mounting Hole, Mount, M3, Screw" (id 4) (at 0 0 0)
        (effects (font (size 1.27 1.27)) hide)
      )
      (property "ki_description" "A simple mounting hole for M3 screws with pads on both sides." (id 5) (at 0 0 0)
        (effects (font (size 1.27 1.27)) hide)
      )
      (symbol "MountingHole_M3_DIN965_Pad_0_1"
        (circle (center 0 0) (radius 1.27)
          (stroke (width 1.27) (type default) (color 0 0 0 0))
          (fill (type none))
        )
      )
      (symbol "MountingHole_M3_DIN965_Pad_1_1"
        (pin input line (at 0 -3.81 90) (length 2.54)
          (name "1" (effects (font (size 1.27 1.27))))
          (number "1" (effects (font (size 1.27 1.27))))
        )
      )
    )
    (symbol "KiCAD_Library_FalkoSchmidt_UULM:Programming_Point_PogoPin" (pin_numbers hide) (pin_names (offset 0.762) hide) (in_bom yes) (on_board yes)
      (property "Reference" "TP" (id 0) (at 0 6.858 0)
        (effects (font (size 1.27 1.27)))
      )
      (property "Value" "Programming_Point_PogoPin" (id 1) (at 0 5.08 0)
        (effects (font (size 1.27 1.27)))
      )
      (property "Footprint" "footprints:PogoPin_Pad_D2.0mm" (id 2) (at 0 -7.62 0)
        (effects (font (size 1.27 1.27)) hide)
      )
      (property "Datasheet" "~" (id 3) (at 5.08 0 0)
        (effects (font (size 1.27 1.27)) hide)
      )
      (property "ki_keywords" "test point tp" (id 4) (at 0 0 0)
        (effects (font (size 1.27 1.27)) hide)
      )
      (property "ki_description" "test point" (id 5) (at 0 0 0)
        (effects (font (size 1.27 1.27)) hide)
      )
      (property "ki_fp_filters" "Pin* Test*" (id 6) (at 0 0 0)
        (effects (font (size 1.27 1.27)) hide)
      )
      (symbol "Programming_Point_PogoPin_0_1"
        (circle (center 0 3.302) (radius 0.762)
          (stroke (width 0) (type default) (color 0 0 0 0))
          (fill (type none))
        )
      )
      (symbol "Programming_Point_PogoPin_1_1"
        (pin passive line (at 0 0 90) (length 2.54)
          (name "1" (effects (font (size 1.27 1.27))))
          (number "1" (effects (font (size 1.27 1.27))))
        )
      )
    )
    (symbol "KiCAD_Library_FalkoSchmidt_UULM:R_Axial_2.54mm_Pitch" (pin_numbers hide) (pin_names hide) (in_bom yes) (on_board yes)
      (property "Reference" "R" (id 0) (at 0 3.429 0)
        (effects (font (size 1.27 1.27)))
      )
      (property "Value" "R_Axial_2.54mm_Pitch" (id 1) (at 0 1.651 0)
        (effects (font (size 1.27 1.27)))
      )
      (property "Footprint" "footprints:R_Axial_DIN0207_L6.3mm_D2.5mm_P2.54mm_Vertical" (id 2) (at 0 -1.651 0)
        (effects (font (size 1.27 1.27)) hide)
      )
      (property "Datasheet" "" (id 3) (at 0 -17.78 0)
        (effects (font (size 1.27 1.27)) hide)
      )
      (property "ki_keywords" "Resistor, SMD, 0402" (id 4) (at 0 0 0)
        (effects (font (size 1.27 1.27)) hide)
      )
      (property "ki_description" "A generic resistor in form factor 0402 (SMD)." (id 5) (at 0 0 0)
        (effects (font (size 1.27 1.27)) hide)
      )
      (symbol "R_Axial_2.54mm_Pitch_0_1"
        (rectangle (start -1.778 0.635) (end 1.778 -0.635)
          (stroke (width 0) (type default) (color 0 0 0 0))
          (fill (type none))
        )
      )
      (symbol "R_Axial_2.54mm_Pitch_1_1"
        (pin passive line (at -2.54 0 0) (length 0.762)
          (name "~" (effects (font (size 1.27 1.27))))
          (number "1" (effects (font (size 1.27 1.27))))
        )
        (pin passive line (at 2.54 0 180) (length 0.762)
          (name "~" (effects (font (size 1.27 1.27))))
          (number "2" (effects (font (size 1.27 1.27))))
        )
      )
    )
    (symbol "KiCAD_Library_FalkoSchmidt_UULM:SW_Push_6mm_THT" (pin_numbers hide) (pin_names (offset 1.016) hide) (in_bom yes) (on_board yes)
      (property "Reference" "SW" (id 0) (at 1.27 2.54 0)
        (effects (font (size 1.27 1.27)) (justify left))
      )
      (property "Value" "SW_Push_6mm_THT" (id 1) (at 0 -1.524 0)
        (effects (font (size 1.27 1.27)))
      )
      (property "Footprint" "footprints:SW_PUSH_6mm" (id 2) (at 0 -3.81 0)
        (effects (font (size 1.27 1.27)) hide)
      )
      (property "Datasheet" "~" (id 3) (at 0 5.08 0)
        (effects (font (size 1.27 1.27)) hide)
      )
      (property "ki_keywords" "switch normally-open pushbutton push-button" (id 4) (at 0 0 0)
        (effects (font (size 1.27 1.27)) hide)
      )
      (property "ki_description" "Push button switch, generic, two pins" (id 5) (at 0 0 0)
        (effects (font (size 1.27 1.27)) hide)
      )
      (symbol "SW_Push_6mm_THT_0_1"
        (circle (center -2.032 0) (radius 0.508)
          (stroke (width 0) (type default) (color 0 0 0 0))
          (fill (type none))
        )
        (polyline
          (pts
            (xy 0 1.27)
            (xy 0 3.048)
          )
          (stroke (width 0) (type default) (color 0 0 0 0))
          (fill (type none))
        )
        (polyline
          (pts
            (xy 2.54 1.27)
            (xy -2.54 1.27)
          )
          (stroke (width 0) (type default) (color 0 0 0 0))
          (fill (type none))
        )
        (circle (center 2.032 0) (radius 0.508)
          (stroke (width 0) (type default) (color 0 0 0 0))
          (fill (type none))
        )
        (pin passive line (at -5.08 0 0) (length 2.54)
          (name "1" (effects (font (size 1.27 1.27))))
          (number "1" (effects (font (size 1.27 1.27))))
        )
        (pin passive line (at 5.08 0 180) (length 2.54)
          (name "2" (effects (font (size 1.27 1.27))))
          (number "2" (effects (font (size 1.27 1.27))))
        )
      )
    )
    (symbol "power:GND" (power) (pin_names (offset 0)) (in_bom yes) (on_board yes)
      (property "Reference" "#PWR" (id 0) (at 0 -6.35 0)
        (effects (font (size 1.27 1.27)) hide)
      )
      (property "Value" "GND" (id 1) (at 0 -3.81 0)
        (effects (font (size 1.27 1.27)))
      )
      (property "Footprint" "" (id 2) (at 0 0 0)
        (effects (font (size 1.27 1.27)) hide)
      )
      (property "Datasheet" "" (id 3) (at 0 0 0)
        (effects (font (size 1.27 1.27)) hide)
      )
      (property "ki_keywords" "power-flag" (id 4) (at 0 0 0)
        (effects (font (size 1.27 1.27)) hide)
      )
      (property "ki_description" "Power symbol creates a global label with name \"GND\" , ground" (id 5) (at 0 0 0)
        (effects (font (size 1.27 1.27)) hide)
      )
      (symbol "GND_0_1"
        (polyline
          (pts
            (xy 0 0)
            (xy 0 -1.27)
            (xy 1.27 -1.27)
            (xy 0 -2.54)
            (xy -1.27 -1.27)
            (xy 0 -1.27)
          )
          (stroke (width 0) (type default) (color 0 0 0 0))
          (fill (type none))
        )
      )
      (symbol "GND_1_1"
        (pin power_in line (at 0 0 270) (length 0) hide
          (name "GND" (effects (font (size 1.27 1.27))))
          (number "1" (effects (font (size 1.27 1.27))))
        )
      )
    )
    (symbol "power:VCC" (power) (pin_names (offset 0)) (in_bom yes) (on_board yes)
      (property "Reference" "#PWR" (id 0) (at 0 -3.81 0)
        (effects (font (size 1.27 1.27)) hide)
      )
      (property "Value" "VCC" (id 1) (at 0 3.81 0)
        (effects (font (size 1.27 1.27)))
      )
      (property "Footprint" "" (id 2) (at 0 0 0)
        (effects (font (size 1.27 1.27)) hide)
      )
      (property "Datasheet" "" (id 3) (at 0 0 0)
        (effects (font (size 1.27 1.27)) hide)
      )
      (property "ki_keywords" "power-flag" (id 4) (at 0 0 0)
        (effects (font (size 1.27 1.27)) hide)
      )
      (property "ki_description" "Power symbol creates a global label with name \"VCC\"" (id 5) (at 0 0 0)
        (effects (font (size 1.27 1.27)) hide)
      )
      (symbol "VCC_0_1"
        (polyline
          (pts
            (xy -0.762 1.27)
            (xy 0 2.54)
          )
          (stroke (width 0) (type default) (color 0 0 0 0))
          (fill (type none))
        )
        (polyline
          (pts
            (xy 0 0)
            (xy 0 2.54)
          )
          (stroke (width 0) (type default) (color 0 0 0 0))
          (fill (type none))
        )
        (polyline
          (pts
            (xy 0 2.54)
            (xy 0.762 1.27)
          )
          (stroke (width 0) (type default) (color 0 0 0 0))
          (fill (type none))
        )
      )
      (symbol "VCC_1_1"
        (pin power_in line (at 0 0 90) (length 0) hide
          (name "VCC" (effects (font (size 1.27 1.27))))
          (number "1" (effects (font (size 1.27 1.27))))
        )
      )
    )
  )

  (junction (at 144.78 53.34) (diameter 0) (color 0 0 0 0)
    (uuid 02634723-fcb8-4ef5-a630-77dcde9a109f)
  )
  (junction (at 57.15 58.42) (diameter 0) (color 0 0 0 0)
    (uuid 02da0d3a-8f5e-4e15-9556-11cbabdbb49f)
  )
  (junction (at 59.69 60.96) (diameter 0) (color 0 0 0 0)
    (uuid 28ed485e-db39-4b20-82a2-fc763edd48f3)
  )
  (junction (at 66.04 29.21) (diameter 0) (color 0 0 0 0)
    (uuid 6a5d8ec0-7bde-40eb-aa66-2414d18754c7)
  )
  (junction (at 135.89 30.48) (diameter 0) (color 0 0 0 0)
    (uuid 7b7f9b7d-b8eb-4a76-9309-8e1c2703515a)
  )
  (junction (at 173.99 30.48) (diameter 0) (color 0 0 0 0)
    (uuid a1d219a5-4ea0-4813-9f46-447d56c7ac57)
  )
  (junction (at 62.23 63.5) (diameter 0) (color 0 0 0 0)
    (uuid d8e36f8a-0add-4826-a8b4-04bd9157f7af)
  )
  (junction (at 66.04 24.13) (diameter 0) (color 0 0 0 0)
    (uuid e98e2296-5230-4f5e-9ad7-46ea693447f6)
  )

  (wire (pts (xy 173.99 36.83) (xy 173.99 39.37))
    (stroke (width 0) (type default) (color 0 0 0 0))
    (uuid 08ff99f2-0aaa-4469-9ef3-e68510f7377c)
  )
  (wire (pts (xy 144.78 77.47) (xy 144.78 73.66))
    (stroke (width 0) (type default) (color 0 0 0 0))
    (uuid 22b17699-cdfc-4cbe-aab2-628db06e5a99)
  )
  (wire (pts (xy 135.89 30.48) (xy 135.89 76.2))
    (stroke (width 0) (type default) (color 0 0 0 0))
    (uuid 23c2616f-e865-45c5-9ac5-b5ae0ff4f516)
  )
  (wire (pts (xy 57.15 58.42) (xy 57.15 53.34))
    (stroke (width 0) (type default) (color 0 0 0 0))
    (uuid 288e6f68-369f-40f4-a521-f07d01a3ac38)
  )
  (wire (pts (xy 62.23 27.94) (xy 62.23 29.21))
    (stroke (width 0) (type default) (color 0 0 0 0))
    (uuid 29c0677c-5c04-4b31-9915-181840337e29)
  )
  (wire (pts (xy 81.28 66.04) (xy 83.82 66.04))
    (stroke (width 0) (type default) (color 0 0 0 0))
    (uuid 2e4c2d57-8d82-46dc-a18a-d07a5b5f91e8)
  )
  (wire (pts (xy 144.78 36.83) (xy 144.78 39.37))
    (stroke (width 0) (type default) (color 0 0 0 0))
    (uuid 32ba6ca6-9fb5-43f8-a5a5-15e35c344a9a)
  )
  (wire (pts (xy 54.61 25.4) (xy 62.23 25.4))
    (stroke (width 0) (type default) (color 0 0 0 0))
    (uuid 35301efc-270c-44e1-838e-9087ffc6b09f)
  )
  (wire (pts (xy 144.78 73.66) (xy 182.88 73.66))
    (stroke (width 0) (type default) (color 0 0 0 0))
    (uuid 3b5a43f8-1d37-4b3d-a99b-0faec1112536)
  )
  (wire (pts (xy 54.61 27.94) (xy 62.23 27.94))
    (stroke (width 0) (type default) (color 0 0 0 0))
    (uuid 3b70a57c-8e35-4bcb-bd65-e56191567ecb)
  )
  (wire (pts (xy 135.89 30.48) (xy 144.78 30.48))
    (stroke (width 0) (type default) (color 0 0 0 0))
    (uuid 40bf2f24-2130-4433-af74-d3be27a6c880)
  )
  (wire (pts (xy 182.88 30.48) (xy 173.99 30.48))
    (stroke (width 0) (type default) (color 0 0 0 0))
    (uuid 43304d3e-e501-4b5d-a47c-43b79856a027)
  )
  (wire (pts (xy 173.99 76.2) (xy 173.99 77.47))
    (stroke (width 0) (type default) (color 0 0 0 0))
    (uuid 49532d31-123f-440a-b9c5-fddddd7e8a98)
  )
  (wire (pts (xy 173.99 30.48) (xy 173.99 31.75))
    (stroke (width 0) (type default) (color 0 0 0 0))
    (uuid 5b012f4a-4d99-4cf5-b280-c9b39378bf5d)
  )
  (wire (pts (xy 62.23 25.4) (xy 62.23 24.13))
    (stroke (width 0) (type default) (color 0 0 0 0))
    (uuid 5cf7ce0a-b080-4dd5-91dd-d27eb789d6e0)
  )
  (wire (pts (xy 144.78 59.69) (xy 144.78 62.23))
    (stroke (width 0) (type default) (color 0 0 0 0))
    (uuid 5d7d4ee0-f34d-4437-82d7-3594f57d3732)
  )
  (wire (pts (xy 62.23 53.34) (xy 62.23 63.5))
    (stroke (width 0) (type default) (color 0 0 0 0))
    (uuid 607e4baa-f162-447d-a745-0a9f7facc372)
  )
  (wire (pts (xy 130.81 30.48) (xy 135.89 30.48))
    (stroke (width 0) (type default) (color 0 0 0 0))
    (uuid 62faf875-faf1-4a3e-94e5-b4956bd9415e)
  )
  (wire (pts (xy 57.15 58.42) (xy 64.77 58.42))
    (stroke (width 0) (type default) (color 0 0 0 0))
    (uuid 64e9c143-ab0f-413b-bcc4-94310a9731e9)
  )
  (wire (pts (xy 130.81 50.8) (xy 160.02 50.8))
    (stroke (width 0) (type default) (color 0 0 0 0))
    (uuid 6f9bdc70-5011-4b17-a916-98378789700e)
  )
  (wire (pts (xy 144.78 82.55) (xy 144.78 85.09))
    (stroke (width 0) (type default) (color 0 0 0 0))
    (uuid 70d74001-6b8f-466b-bccd-7699277ceca5)
  )
  (wire (pts (xy 62.23 24.13) (xy 66.04 24.13))
    (stroke (width 0) (type default) (color 0 0 0 0))
    (uuid 75d26b44-6fd3-4e24-b3ac-0380812ce66c)
  )
  (wire (pts (xy 55.88 66.04) (xy 71.12 66.04))
    (stroke (width 0) (type default) (color 0 0 0 0))
    (uuid 76969cbf-2eab-4a8f-b8dd-d477db5473ad)
  )
  (wire (pts (xy 160.02 59.69) (xy 160.02 62.23))
    (stroke (width 0) (type default) (color 0 0 0 0))
    (uuid 8bf374da-9b9d-4a7e-9215-1cc74ba86af8)
  )
  (wire (pts (xy 173.99 54.61) (xy 173.99 53.34))
    (stroke (width 0) (type default) (color 0 0 0 0))
    (uuid 97db43b8-3831-4537-a850-80fed08ea43e)
  )
  (wire (pts (xy 55.88 58.42) (xy 57.15 58.42))
    (stroke (width 0) (type default) (color 0 0 0 0))
    (uuid 97e05427-5c63-4b64-b669-e5203bc4563a)
  )
  (wire (pts (xy 62.23 63.5) (xy 55.88 63.5))
    (stroke (width 0) (type default) (color 0 0 0 0))
    (uuid 9eb10884-377f-4472-a187-4aedf8ac36f7)
  )
  (wire (pts (xy 144.78 53.34) (xy 173.99 53.34))
    (stroke (width 0) (type default) (color 0 0 0 0))
    (uuid 9ff6b837-eb37-42ed-9791-6821cc6bfc7d)
  )
  (wire (pts (xy 66.04 22.86) (xy 66.04 24.13))
    (stroke (width 0) (type default) (color 0 0 0 0))
    (uuid a19111de-1809-43ba-9c8a-9ad6ac552048)
  )
  (wire (pts (xy 59.69 60.96) (xy 64.77 60.96))
    (stroke (width 0) (type default) (color 0 0 0 0))
    (uuid b357a225-1a2f-413e-8039-0c6fef01671a)
  )
  (wire (pts (xy 62.23 29.21) (xy 66.04 29.21))
    (stroke (width 0) (type default) (color 0 0 0 0))
    (uuid b78c1b8d-b1a3-4d2d-8b56-a26c26d26ad4)
  )
  (wire (pts (xy 173.99 59.69) (xy 173.99 62.23))
    (stroke (width 0) (type default) (color 0 0 0 0))
    (uuid ba1f18a6-6784-4b75-b514-73663f7154c0)
  )
  (wire (pts (xy 160.02 50.8) (xy 160.02 54.61))
    (stroke (width 0) (type default) (color 0 0 0 0))
    (uuid bbf09cbe-6ec3-4e62-9a45-601a18971fb4)
  )
  (wire (pts (xy 59.69 60.96) (xy 59.69 53.34))
    (stroke (width 0) (type default) (color 0 0 0 0))
    (uuid c31df591-5f23-4f07-a340-d3b3bcb768aa)
  )
  (wire (pts (xy 130.81 53.34) (xy 144.78 53.34))
    (stroke (width 0) (type default) (color 0 0 0 0))
    (uuid c56ee626-b923-4d3e-a7a5-d23663d1bfb4)
  )
  (wire (pts (xy 144.78 53.34) (xy 144.78 54.61))
    (stroke (width 0) (type default) (color 0 0 0 0))
    (uuid ca941ed5-683e-4774-840e-f34e34dc7a11)
  )
  (wire (pts (xy 173.99 82.55) (xy 173.99 85.09))
    (stroke (width 0) (type default) (color 0 0 0 0))
    (uuid d1c6d2b2-5946-4bc1-89f5-9c31cef02992)
  )
  (wire (pts (xy 66.04 29.21) (xy 66.04 30.48))
    (stroke (width 0) (type default) (color 0 0 0 0))
    (uuid d204ca2e-f2c6-4cd2-8458-a272a2af7f19)
  )
  (wire (pts (xy 144.78 31.75) (xy 144.78 30.48))
    (stroke (width 0) (type default) (color 0 0 0 0))
    (uuid e9fd6748-d3bf-400e-a3cc-b68c00334628)
  )
  (wire (pts (xy 182.88 73.66) (xy 182.88 30.48))
    (stroke (width 0) (type default) (color 0 0 0 0))
    (uuid ef829393-767d-4ef6-bf7f-0ef731a96b9c)
  )
  (wire (pts (xy 62.23 63.5) (xy 64.77 63.5))
    (stroke (width 0) (type default) (color 0 0 0 0))
    (uuid f0094d88-01e9-43da-a8d8-763136c7d6ed)
  )
  (wire (pts (xy 55.88 60.96) (xy 59.69 60.96))
    (stroke (width 0) (type default) (color 0 0 0 0))
    (uuid feb5a6ab-de02-4b05-a8a8-8cf1356814e5)
  )
  (wire (pts (xy 171.45 30.48) (xy 173.99 30.48))
    (stroke (width 0) (type default) (color 0 0 0 0))
    (uuid fef81c9c-4eb4-4abe-8c9e-b64b1a722569)
  )
  (wire (pts (xy 135.89 76.2) (xy 173.99 76.2))
    (stroke (width 0) (type default) (color 0 0 0 0))
    (uuid ff531f9c-7d2d-4109-9d06-e421c804ac15)
  )

  (global_label "PIN_LED_TR_BL" (shape input) (at 62.23 53.34 90) (fields_autoplaced)
    (effects (font (size 1.27 1.27)) (justify left))
    (uuid 0b0ea5de-24aa-4a73-889e-7a9d12642773)
    (property "Intersheet References" "${INTERSHEET_REFS}" (id 0) (at 62.1506 36.8359 90)
      (effects (font (size 1.27 1.27)) (justify left) hide)
    )
  )
  (global_label "PIN_LED_MID_ROW" (shape input) (at 130.81 53.34 180) (fields_autoplaced)
    (effects (font (size 1.27 1.27)) (justify right))
    (uuid 1fd1e1d8-f590-4399-bd36-76bf8b4a8b2b)
    (property "Intersheet References" "${INTERSHEET_REFS}" (id 0) (at 111.4636 53.2606 0)
      (effects (font (size 1.27 1.27)) (justify right) hide)
    )
  )
  (global_label "PIN_LED_TR_BL" (shape input) (at 171.45 30.48 180) (fields_autoplaced)
    (effects (font (size 1.27 1.27)) (justify right))
    (uuid 49defe14-d70b-4cb6-a032-c956b3f52d94)
    (property "Intersheet References" "${INTERSHEET_REFS}" (id 0) (at 154.9459 30.5594 0)
      (effects (font (size 1.27 1.27)) (justify right) hide)
    )
  )
  (global_label "PIN_LED_TL_BR" (shape input) (at 130.81 30.48 180) (fields_autoplaced)
    (effects (font (size 1.27 1.27)) (justify right))
    (uuid 5c75c9f9-08c5-4d23-8752-8e7ca9ca9272)
    (property "Intersheet References" "${INTERSHEET_REFS}" (id 0) (at 114.3059 30.4006 0)
      (effects (font (size 1.27 1.27)) (justify right) hide)
    )
  )
  (global_label "PIN_LED_MID_ROW" (shape input) (at 57.15 53.34 90) (fields_autoplaced)
    (effects (font (size 1.27 1.27)) (justify left))
    (uuid aa76cc2f-2309-4b5b-8aaf-0cdef4380010)
    (property "Intersheet References" "${INTERSHEET_REFS}" (id 0) (at 57.2294 33.9936 90)
      (effects (font (size 1.27 1.27)) (justify left) hide)
    )
  )
  (global_label "PIN_LED_MID_POINT" (shape input) (at 55.88 68.58 0) (fields_autoplaced)
    (effects (font (size 1.27 1.27)) (justify left))
    (uuid b481dc72-16bc-4399-bfaa-a7ccddce4ac2)
    (property "Intersheet References" "${INTERSHEET_REFS}" (id 0) (at 76.6779 68.6594 0)
      (effects (font (size 1.27 1.27)) (justify left) hide)
    )
  )
  (global_label "PIN_LED_TL_BR" (shape input) (at 59.69 53.34 90) (fields_autoplaced)
    (effects (font (size 1.27 1.27)) (justify left))
    (uuid b7f8cd17-5e01-419a-87b3-5e3e2171ead6)
    (property "Intersheet References" "${INTERSHEET_REFS}" (id 0) (at 59.7694 36.8359 90)
      (effects (font (size 1.27 1.27)) (justify left) hide)
    )
  )
  (global_label "PIN_LED_MID_POINT" (shape input) (at 130.81 50.8 180) (fields_autoplaced)
    (effects (font (size 1.27 1.27)) (justify right))
    (uuid bd614b7a-429f-444e-98d9-dd86adfabdb5)
    (property "Intersheet References" "${INTERSHEET_REFS}" (id 0) (at 110.0121 50.7206 0)
      (effects (font (size 1.27 1.27)) (justify right) hide)
    )
  )

  (symbol (lib_id "power:GND") (at 50.8 106.68 0) (unit 1)
    (in_bom yes) (on_board yes) (fields_autoplaced)
    (uuid 0a10fb0b-e215-4e1b-ba5a-58b8e00006ba)
    (property "Reference" "#PWR04" (id 0) (at 50.8 113.03 0)
      (effects (font (size 1.27 1.27)) hide)
    )
    (property "Value" "GND" (id 1) (at 50.8 111.76 0))
    (property "Footprint" "" (id 2) (at 50.8 106.68 0)
      (effects (font (size 1.27 1.27)) hide)
    )
    (property "Datasheet" "" (id 3) (at 50.8 106.68 0)
      (effects (font (size 1.27 1.27)) hide)
    )
    (pin "1" (uuid 1c0cd0ff-6fdd-48f0-8438-10febb3f105c))
  )

  (symbol (lib_id "KiCAD_Library_FalkoSchmidt_UULM:LED_T1-3{slash}4_D5mm_THT") (at 173.99 64.77 90) (unit 1)
    (in_bom yes) (on_board yes) (fields_autoplaced)
    (uuid 11703db9-7d65-4271-81db-da9b2945be83)
    (property "Reference" "D6" (id 0) (at 176.53 63.4364 90)
      (effects (font (size 1.27 1.27)) (justify right))
    )
    (property "Value" "red" (id 1) (at 176.53 65.9764 90)
      (effects (font (size 1.27 1.27)) (justify right))
    )
    (property "Footprint" "footprints:LED_D5mm_THT" (id 2) (at 179.07 64.77 0)
      (effects (font (size 1.27 1.27)) hide)
    )
    (property "Datasheet" "" (id 3) (at 167.64 64.77 0)
      (effects (font (size 1.27 1.27)) hide)
    )
    (pin "1" (uuid 6671165a-900e-4a1c-a3a8-fcb9b6bd0c93))
    (pin "2" (uuid 153e0089-2e0b-4ade-b69f-02adb2fbb1ad))
  )

  (symbol (lib_id "KiCAD_Library_FalkoSchmidt_UULM:Programming_Point_PogoPin") (at 64.77 63.5 270) (unit 1)
    (in_bom yes) (on_board yes)
    (uuid 2635ca23-9f44-40a9-be35-cd7f7ec92640)
    (property "Reference" "TP5" (id 0) (at 63.5 62.23 90)
      (effects (font (size 1.27 1.27)) (justify left))
    )
    (property "Value" "SCK" (id 1) (at 68.58 62.23 90)
      (effects (font (size 1.27 1.27)) (justify left))
    )
    (property "Footprint" "footprints:PogoPin_Pad_D2.0mm" (id 2) (at 57.15 63.5 0)
      (effects (font (size 1.27 1.27)) hide)
    )
    (property "Datasheet" "~" (id 3) (at 64.77 68.58 0)
      (effects (font (size 1.27 1.27)) hide)
    )
    (pin "1" (uuid 2cda2a6e-6a25-4bec-b93d-dc55a2296298))
  )

  (symbol (lib_id "KiCAD_Library_FalkoSchmidt_UULM:R_Axial_2.54mm_Pitch") (at 160.02 57.15 270) (unit 1)
    (in_bom yes) (on_board yes) (fields_autoplaced)
    (uuid 297ead72-a4fa-4041-9e6d-cf591851a2e1)
    (property "Reference" "R4" (id 0) (at 161.29 55.8799 90)
      (effects (font (size 1.27 1.27)) (justify left))
    )
    (property "Value" "300" (id 1) (at 161.29 58.4199 90)
      (effects (font (size 1.27 1.27)) (justify left))
    )
    (property "Footprint" "footprints:R_Axial_DIN0207_L6.3mm_D2.5mm_P2.54mm_Vertical" (id 2) (at 158.369 57.15 0)
      (effects (font (size 1.27 1.27)) hide)
    )
    (property "Datasheet" "" (id 3) (at 142.24 57.15 0)
      (effects (font (size 1.27 1.27)) hide)
    )
    (pin "1" (uuid 58b6943d-6b07-4df8-b6f5-c2a8cc918aa1))
    (pin "2" (uuid 561aafe4-832a-48b3-aa5d-68a1842b48f7))
  )

  (symbol (lib_id "power:GND") (at 64.77 87.63 0) (unit 1)
    (in_bom yes) (on_board yes)
    (uuid 29845be8-4103-462a-944b-96a73cf7432d)
    (property "Reference" "#PWR0101" (id 0) (at 64.77 93.98 0)
      (effects (font (size 1.27 1.27)) hide)
    )
    (property "Value" "GND" (id 1) (at 64.77 91.44 0))
    (property "Footprint" "" (id 2) (at 64.77 87.63 0)
      (effects (font (size 1.27 1.27)) hide)
    )
    (property "Datasheet" "" (id 3) (at 64.77 87.63 0)
      (effects (font (size 1.27 1.27)) hide)
    )
    (pin "1" (uuid a088711e-9e19-4a1c-b975-21348f643516))
  )

  (symbol (lib_id "power:GND") (at 144.78 44.45 0) (unit 1)
    (in_bom yes) (on_board yes)
    (uuid 33f3f9a7-669f-4f79-98c5-7027a7f2b1cb)
    (property "Reference" "#PWR010" (id 0) (at 144.78 50.8 0)
      (effects (font (size 1.27 1.27)) hide)
    )
    (property "Value" "GND" (id 1) (at 144.78 48.26 0))
    (property "Footprint" "" (id 2) (at 144.78 44.45 0)
      (effects (font (size 1.27 1.27)) hide)
    )
    (property "Datasheet" "" (id 3) (at 144.78 44.45 0)
      (effects (font (size 1.27 1.27)) hide)
    )
    (pin "1" (uuid 8bfd5b68-8ade-4684-8545-f1fa12d2947c))
  )

  (symbol (lib_id "KiCAD_Library_FalkoSchmidt_UULM:LED_T1-3{slash}4_D5mm_THT") (at 173.99 87.63 90) (unit 1)
    (in_bom yes) (on_board yes) (fields_autoplaced)
    (uuid 37abc46a-59e2-41ef-bdf4-98a9e194cd2b)
    (property "Reference" "D7" (id 0) (at 176.53 86.2964 90)
      (effects (font (size 1.27 1.27)) (justify right))
    )
    (property "Value" "red" (id 1) (at 176.53 88.8364 90)
      (effects (font (size 1.27 1.27)) (justify right))
    )
    (property "Footprint" "footprints:LED_D5mm_THT" (id 2) (at 179.07 87.63 0)
      (effects (font (size 1.27 1.27)) hide)
    )
    (property "Datasheet" "" (id 3) (at 167.64 87.63 0)
      (effects (font (size 1.27 1.27)) hide)
    )
    (pin "1" (uuid e4d16586-ef63-45b6-a3cb-f66534ae331a))
    (pin "2" (uuid 3d39437d-9838-4062-8e78-dbf816482d68))
  )

  (symbol (lib_id "KiCAD_Library_FalkoSchmidt_UULM:Programming_Point_PogoPin") (at 64.77 58.42 270) (unit 1)
    (in_bom yes) (on_board yes)
    (uuid 443172f2-b5ef-4e44-ba21-8d16ea20dddc)
    (property "Reference" "TP3" (id 0) (at 63.5 57.15 90)
      (effects (font (size 1.27 1.27)) (justify left))
    )
    (property "Value" "MOSI" (id 1) (at 68.58 57.15 90)
      (effects (font (size 1.27 1.27)) (justify left))
    )
    (property "Footprint" "footprints:PogoPin_Pad_D2.0mm" (id 2) (at 57.15 58.42 0)
      (effects (font (size 1.27 1.27)) hide)
    )
    (property "Datasheet" "~" (id 3) (at 64.77 63.5 0)
      (effects (font (size 1.27 1.27)) hide)
    )
    (pin "1" (uuid 58a2d041-8377-4cc3-ade5-64328986dc16))
  )

  (symbol (lib_id "KiCAD_Library_FalkoSchmidt_UULM:LED_T1-3{slash}4_D5mm_THT") (at 160.02 64.77 90) (unit 1)
    (in_bom yes) (on_board yes) (fields_autoplaced)
    (uuid 454428cc-450b-46fe-b7be-7b08ebeaff3b)
    (property "Reference" "D4" (id 0) (at 162.56 63.4364 90)
      (effects (font (size 1.27 1.27)) (justify right))
    )
    (property "Value" "red" (id 1) (at 162.56 65.9764 90)
      (effects (font (size 1.27 1.27)) (justify right))
    )
    (property "Footprint" "footprints:LED_D5mm_THT" (id 2) (at 165.1 64.77 0)
      (effects (font (size 1.27 1.27)) hide)
    )
    (property "Datasheet" "" (id 3) (at 153.67 64.77 0)
      (effects (font (size 1.27 1.27)) hide)
    )
    (pin "1" (uuid e3486fd5-8240-4da5-8a6a-30eff8c5bb5d))
    (pin "2" (uuid 97c962c9-95c0-4fdf-b24e-dde348caaac9))
  )

  (symbol (lib_id "KiCAD_Library_FalkoSchmidt_UULM:MKDS_1.5{slash}_2-5.08") (at 50.8 26.67 0) (unit 1)
    (in_bom yes) (on_board yes) (fields_autoplaced)
    (uuid 51f4ff5e-faeb-449c-8367-a7b15b1d00de)
    (property "Reference" "J1" (id 0) (at 49.53 19.05 0))
    (property "Value" "V_IN" (id 1) (at 49.53 21.59 0))
    (property "Footprint" "footprints:MKDS_1.5-2-5.08 BK" (id 2) (at 50.8 30.48 0)
      (effects (font (size 1.27 1.27)) hide)
    )
    (property "Datasheet" "https://www.mouser.de/datasheet/2/324/1/718760-1436873.pdf" (id 3) (at 50.8 33.02 0)
      (effects (font (size 1.27 1.27)) hide)
    )
    (pin "1" (uuid e91579ae-3941-4b07-a120-c60fe7714400))
    (pin "2" (uuid 6e4cd956-90ab-47a0-8bd9-2d2ee230df81))
  )

  (symbol (lib_id "power:GND") (at 66.04 30.48 0) (unit 1)
    (in_bom yes) (on_board yes) (fields_autoplaced)
    (uuid 5399ac16-e286-4aa1-83d7-e47452055b59)
    (property "Reference" "#PWR07" (id 0) (at 66.04 36.83 0)
      (effects (font (size 1.27 1.27)) hide)
    )
    (property "Value" "GND" (id 1) (at 66.04 35.56 0))
    (property "Footprint" "" (id 2) (at 66.04 30.48 0)
      (effects (font (size 1.27 1.27)) hide)
    )
    (property "Datasheet" "" (id 3) (at 66.04 30.48 0)
      (effects (font (size 1.27 1.27)) hide)
    )
    (pin "1" (uuid c5071858-00ee-4845-8583-aebfdc3bf6e4))
  )

  (symbol (lib_id "power:GND") (at 144.78 67.31 0) (unit 1)
    (in_bom yes) (on_board yes)
    (uuid 569e3fc6-fd7b-40ab-b2d0-acb9a25bfdaa)
    (property "Reference" "#PWR011" (id 0) (at 144.78 73.66 0)
      (effects (font (size 1.27 1.27)) hide)
    )
    (property "Value" "GND" (id 1) (at 144.78 71.12 0))
    (property "Footprint" "" (id 2) (at 144.78 67.31 0)
      (effects (font (size 1.27 1.27)) hide)
    )
    (property "Datasheet" "" (id 3) (at 144.78 67.31 0)
      (effects (font (size 1.27 1.27)) hide)
    )
    (pin "1" (uuid b49ab338-8ee6-49ac-9721-1df10a2989a8))
  )

  (symbol (lib_id "power:GND") (at 160.02 67.31 0) (unit 1)
    (in_bom yes) (on_board yes)
    (uuid 588b9b18-4e95-4ed3-929c-e77503a6426d)
    (property "Reference" "#PWR013" (id 0) (at 160.02 73.66 0)
      (effects (font (size 1.27 1.27)) hide)
    )
    (property "Value" "GND" (id 1) (at 160.02 71.12 0))
    (property "Footprint" "" (id 2) (at 160.02 67.31 0)
      (effects (font (size 1.27 1.27)) hide)
    )
    (property "Datasheet" "" (id 3) (at 160.02 67.31 0)
      (effects (font (size 1.27 1.27)) hide)
    )
    (pin "1" (uuid b6a4c101-236c-4db7-a29c-af66741d8aa1))
  )

  (symbol (lib_id "power:GND") (at 40.64 81.28 0) (unit 1)
    (in_bom yes) (on_board yes) (fields_autoplaced)
    (uuid 5ecb37ef-4ffb-42a1-806d-f481420f34d8)
    (property "Reference" "#PWR02" (id 0) (at 40.64 87.63 0)
      (effects (font (size 1.27 1.27)) hide)
    )
    (property "Value" "GND" (id 1) (at 40.64 86.36 0))
    (property "Footprint" "" (id 2) (at 40.64 81.28 0)
      (effects (font (size 1.27 1.27)) hide)
    )
    (property "Datasheet" "" (id 3) (at 40.64 81.28 0)
      (effects (font (size 1.27 1.27)) hide)
    )
    (pin "1" (uuid 041f30b5-b04f-4f61-9c42-0134b81b2239))
  )

  (symbol (lib_id "power:GND") (at 173.99 90.17 0) (unit 1)
    (in_bom yes) (on_board yes)
    (uuid 5f150a69-9460-4a1a-a659-a479cf6aacc2)
    (property "Reference" "#PWR016" (id 0) (at 173.99 96.52 0)
      (effects (font (size 1.27 1.27)) hide)
    )
    (property "Value" "GND" (id 1) (at 173.99 93.98 0))
    (property "Footprint" "" (id 2) (at 173.99 90.17 0)
      (effects (font (size 1.27 1.27)) hide)
    )
    (property "Datasheet" "" (id 3) (at 173.99 90.17 0)
      (effects (font (size 1.27 1.27)) hide)
    )
    (pin "1" (uuid 282f4a95-fecb-45d7-9ebe-7b9844c05eec))
  )

  (symbol (lib_id "KiCAD_Library_FalkoSchmidt_UULM:LED_T1-3{slash}4_D5mm_THT") (at 144.78 64.77 90) (unit 1)
    (in_bom yes) (on_board yes) (fields_autoplaced)
    (uuid 6012ff17-741e-4f9c-9769-58902ed31cdf)
    (property "Reference" "D2" (id 0) (at 147.32 63.4364 90)
      (effects (font (size 1.27 1.27)) (justify right))
    )
    (property "Value" "red" (id 1) (at 147.32 65.9764 90)
      (effects (font (size 1.27 1.27)) (justify right))
    )
    (property "Footprint" "footprints:LED_D5mm_THT" (id 2) (at 149.86 64.77 0)
      (effects (font (size 1.27 1.27)) hide)
    )
    (property "Datasheet" "" (id 3) (at 138.43 64.77 0)
      (effects (font (size 1.27 1.27)) hide)
    )
    (pin "1" (uuid 12a87116-22a3-417f-836f-450831ee1337))
    (pin "2" (uuid a2ba2798-86fb-4d8a-9714-67fc14aa1dd6))
  )

  (symbol (lib_id "KiCAD_Library_FalkoSchmidt_UULM:LED_T1-3{slash}4_D5mm_THT") (at 173.99 41.91 90) (unit 1)
    (in_bom yes) (on_board yes) (fields_autoplaced)
    (uuid 676f3efc-099d-49d2-b0f6-7ae274ac0636)
    (property "Reference" "D5" (id 0) (at 176.53 40.5764 90)
      (effects (font (size 1.27 1.27)) (justify right))
    )
    (property "Value" "red" (id 1) (at 176.53 43.1164 90)
      (effects (font (size 1.27 1.27)) (justify right))
    )
    (property "Footprint" "footprints:LED_D5mm_THT" (id 2) (at 179.07 41.91 0)
      (effects (font (size 1.27 1.27)) hide)
    )
    (property "Datasheet" "" (id 3) (at 167.64 41.91 0)
      (effects (font (size 1.27 1.27)) hide)
    )
    (pin "1" (uuid 24202930-f91c-4dd4-8cfe-32666036a4b7))
    (pin "2" (uuid 0f95e800-866a-4e71-88b3-859b41218fa8))
  )

  (symbol (lib_id "KiCAD_Library_FalkoSchmidt_UULM:Programming_Point_PogoPin") (at 64.77 60.96 270) (unit 1)
    (in_bom yes) (on_board yes)
    (uuid 72488e8e-bac6-4b78-9d92-5adbde0ca354)
    (property "Reference" "TP4" (id 0) (at 63.5 59.69 90)
      (effects (font (size 1.27 1.27)) (justify left))
    )
    (property "Value" "MISO" (id 1) (at 68.58 59.69 90)
      (effects (font (size 1.27 1.27)) (justify left))
    )
    (property "Footprint" "footprints:PogoPin_Pad_D2.0mm" (id 2) (at 57.15 60.96 0)
      (effects (font (size 1.27 1.27)) hide)
    )
    (property "Datasheet" "~" (id 3) (at 64.77 66.04 0)
      (effects (font (size 1.27 1.27)) hide)
    )
    (pin "1" (uuid 2d00caab-822e-407b-bcba-ddcded8c50c4))
  )

  (symbol (lib_id "KiCAD_Library_FalkoSchmidt_UULM:LED_T1-3{slash}4_D5mm_THT") (at 144.78 87.63 90) (unit 1)
    (in_bom yes) (on_board yes) (fields_autoplaced)
    (uuid 75899843-9704-4a28-997e-2cac4eac81dd)
    (property "Reference" "D3" (id 0) (at 147.32 86.2964 90)
      (effects (font (size 1.27 1.27)) (justify right))
    )
    (property "Value" "red" (id 1) (at 147.32 88.8364 90)
      (effects (font (size 1.27 1.27)) (justify right))
    )
    (property "Footprint" "footprints:LED_D5mm_THT" (id 2) (at 149.86 87.63 0)
      (effects (font (size 1.27 1.27)) hide)
    )
    (property "Datasheet" "" (id 3) (at 138.43 87.63 0)
      (effects (font (size 1.27 1.27)) hide)
    )
    (pin "1" (uuid 0370edea-a95c-4326-a769-48a6f4cbc2f1))
    (pin "2" (uuid ea7f6921-beda-422f-b711-d5a873bc6789))
  )

  (symbol (lib_id "KiCAD_Library_FalkoSchmidt_UULM:Programming_Point_PogoPin") (at 55.88 87.63 0) (unit 1)
    (in_bom yes) (on_board yes) (fields_autoplaced)
    (uuid 7d589f76-745a-497a-8ff6-4dce803bfdf7)
    (property "Reference" "TP2" (id 0) (at 58.42 83.0579 0)
      (effects (font (size 1.27 1.27)) (justify left))
    )
    (property "Value" "VCC" (id 1) (at 58.42 85.5979 0)
      (effects (font (size 1.27 1.27)) (justify left))
    )
    (property "Footprint" "footprints:PogoPin_Pad_D2.0mm" (id 2) (at 55.88 95.25 0)
      (effects (font (size 1.27 1.27)) hide)
    )
    (property "Datasheet" "~" (id 3) (at 60.96 87.63 0)
      (effects (font (size 1.27 1.27)) hide)
    )
    (pin "1" (uuid ce134085-1b95-4ae0-88ef-d1714ed04bec))
  )

  (symbol (lib_id "KiCAD_Library_FalkoSchmidt_UULM:MountingHole_M3_DIN965_Pad") (at 41.91 102.87 0) (unit 1)
    (in_bom yes) (on_board yes) (fields_autoplaced)
    (uuid 888882fa-346f-4b74-bf3d-39e6e3b585c1)
    (property "Reference" "H1" (id 0) (at 44.45 101.5999 0)
      (effects (font (size 1.27 1.27)) (justify left))
    )
    (property "Value" "M3" (id 1) (at 44.45 104.1399 0)
      (effects (font (size 1.27 1.27)) (justify left))
    )
    (property "Footprint" "footprints:MountingHole_M3_DIN965_Pad" (id 2) (at 41.91 113.03 0)
      (effects (font (size 1.27 1.27)) hide)
    )
    (property "Datasheet" "" (id 3) (at 41.91 97.79 0)
      (effects (font (size 1.27 1.27)) hide)
    )
    (pin "1" (uuid fe452ff9-d81f-43db-9d90-6cc13e5c2f67))
  )

  (symbol (lib_id "KiCAD_Library_FalkoSchmidt_UULM:R_Axial_2.54mm_Pitch") (at 144.78 80.01 270) (unit 1)
    (in_bom yes) (on_board yes) (fields_autoplaced)
    (uuid 9053c64d-3efd-4f9f-a574-3de850edf0fd)
    (property "Reference" "R3" (id 0) (at 146.05 78.7399 90)
      (effects (font (size 1.27 1.27)) (justify left))
    )
    (property "Value" "300" (id 1) (at 146.05 81.2799 90)
      (effects (font (size 1.27 1.27)) (justify left))
    )
    (property "Footprint" "footprints:R_Axial_DIN0207_L6.3mm_D2.5mm_P2.54mm_Vertical" (id 2) (at 143.129 80.01 0)
      (effects (font (size 1.27 1.27)) hide)
    )
    (property "Datasheet" "" (id 3) (at 127 80.01 0)
      (effects (font (size 1.27 1.27)) hide)
    )
    (pin "1" (uuid 841cb386-e751-4032-a8fe-4c6769c37a89))
    (pin "2" (uuid dd2bba49-2484-4d3b-b195-b0f5abffefe0))
  )

  (symbol (lib_id "KiCAD_Library_FalkoSchmidt_UULM:ATtiny25_45_85_with_Socket") (at 40.64 66.04 0) (unit 1)
    (in_bom yes) (on_board yes) (fields_autoplaced)
    (uuid 95d756cb-dc9f-4e88-9a27-1e6aa8c9caee)
    (property "Reference" "U1" (id 0) (at 26.67 64.7699 0)
      (effects (font (size 1.27 1.27)) (justify right))
    )
    (property "Value" "ATtiny25" (id 1) (at 26.67 67.3099 0)
      (effects (font (size 1.27 1.27)) (justify right))
    )
    (property "Footprint" "footprints:DIP-8_W7.62mm_Socket" (id 2) (at 40.64 96.52 0)
      (effects (font (size 1.27 1.27) italic) hide)
    )
    (property "Datasheet" "http://ww1.microchip.com/downloads/en/DeviceDoc/atmel-2586-avr-8-bit-microcontroller-attiny25-attiny45-attiny85_datasheet.pdf" (id 3) (at 40.64 93.98 0)
      (effects (font (size 1.27 1.27)) hide)
    )
    (pin "1" (uuid b38d57ce-2965-4386-9fea-9ff28e412180))
    (pin "2" (uuid 31a8b8ac-de8e-4315-b002-bbd9635b6bdc))
    (pin "3" (uuid 231e65ec-bd01-4f39-aefb-30a04dc9753e))
    (pin "4" (uuid 7188461d-6f06-4e65-b708-a8a18803eb65))
    (pin "5" (uuid 036bd3ef-b0de-4806-bfec-15ee919641b0))
    (pin "6" (uuid a72f4be1-8aa7-450f-9e4f-d3659224476b))
    (pin "7" (uuid 2e4d314e-19b1-4d11-9316-a8ee2f018fa8))
    (pin "8" (uuid 2405253f-03e1-42bc-af57-7a2034041743))
  )

  (symbol (lib_id "KiCAD_Library_FalkoSchmidt_UULM:R_Axial_2.54mm_Pitch") (at 173.99 57.15 270) (unit 1)
    (in_bom yes) (on_board yes) (fields_autoplaced)
    (uuid a320834a-e7df-407c-aaf0-72990645f4ab)
    (property "Reference" "R6" (id 0) (at 175.26 55.8799 90)
      (effects (font (size 1.27 1.27)) (justify left))
    )
    (property "Value" "300" (id 1) (at 175.26 58.4199 90)
      (effects (font (size 1.27 1.27)) (justify left))
    )
    (property "Footprint" "footprints:R_Axial_DIN0207_L6.3mm_D2.5mm_P2.54mm_Vertical" (id 2) (at 172.339 57.15 0)
      (effects (font (size 1.27 1.27)) hide)
    )
    (property "Datasheet" "" (id 3) (at 156.21 57.15 0)
      (effects (font (size 1.27 1.27)) hide)
    )
    (pin "1" (uuid ea0a7e75-dbdf-4777-bbad-4b733ac68c8a))
    (pin "2" (uuid 601f12ea-18e4-414f-bf16-83b9a993249c))
  )

  (symbol (lib_id "power:GND") (at 144.78 90.17 0) (unit 1)
    (in_bom yes) (on_board yes)
    (uuid a494460e-49ed-441b-933e-1501266ad163)
    (property "Reference" "#PWR012" (id 0) (at 144.78 96.52 0)
      (effects (font (size 1.27 1.27)) hide)
    )
    (property "Value" "GND" (id 1) (at 144.78 93.98 0))
    (property "Footprint" "" (id 2) (at 144.78 90.17 0)
      (effects (font (size 1.27 1.27)) hide)
    )
    (property "Datasheet" "" (id 3) (at 144.78 90.17 0)
      (effects (font (size 1.27 1.27)) hide)
    )
    (pin "1" (uuid 05c67d04-2abc-41f0-8a2f-ff4d20a8221b))
  )

  (symbol (lib_id "power:VCC") (at 55.88 87.63 180) (unit 1)
    (in_bom yes) (on_board yes)
    (uuid a52f25f4-d906-4e7a-984f-aff0550fa9fc)
    (property "Reference" "#PWR0102" (id 0) (at 55.88 83.82 0)
      (effects (font (size 1.27 1.27)) hide)
    )
    (property "Value" "VCC" (id 1) (at 55.88 91.44 0))
    (property "Footprint" "" (id 2) (at 55.88 87.63 0)
      (effects (font (size 1.27 1.27)) hide)
    )
    (property "Datasheet" "" (id 3) (at 55.88 87.63 0)
      (effects (font (size 1.27 1.27)) hide)
    )
    (pin "1" (uuid 9c0cf69b-207e-42eb-b17f-3c52d1c98b4b))
  )

  (symbol (lib_id "power:GND") (at 83.82 66.04 90) (unit 1)
    (in_bom yes) (on_board yes) (fields_autoplaced)
    (uuid ad871bf6-22b6-46f9-86ca-3d00e6111365)
    (property "Reference" "#PWR09" (id 0) (at 90.17 66.04 0)
      (effects (font (size 1.27 1.27)) hide)
    )
    (property "Value" "GND" (id 1) (at 87.63 66.0399 90)
      (effects (font (size 1.27 1.27)) (justify right))
    )
    (property "Footprint" "" (id 2) (at 83.82 66.04 0)
      (effects (font (size 1.27 1.27)) hide)
    )
    (property "Datasheet" "" (id 3) (at 83.82 66.04 0)
      (effects (font (size 1.27 1.27)) hide)
    )
    (pin "1" (uuid cbe9b101-b2b5-4575-a524-4887dd6cf6c5))
  )

  (symbol (lib_id "KiCAD_Library_FalkoSchmidt_UULM:C_Vishay_K-Series") (at 66.04 26.67 0) (unit 1)
    (in_bom yes) (on_board yes) (fields_autoplaced)
    (uuid af2ed8fa-4dd4-4b99-b079-def3c48c5c55)
    (property "Reference" "C1" (id 0) (at 68.58 25.4062 0)
      (effects (font (size 1.27 1.27)) (justify left))
    )
    (property "Value" "100n" (id 1) (at 68.58 27.9462 0)
      (effects (font (size 1.27 1.27)) (justify left))
    )
    (property "Footprint" "footprints:C_Disc_D5.0mm_W2.5mm_P2.50mm" (id 2) (at 66.04 36.195 0)
      (effects (font (size 1.27 1.27)) hide)
    )
    (property "Datasheet" "https://www.vishay.com/docs/45171/kseries.pdf" (id 3) (at 66.04 38.1 0)
      (effects (font (size 1.27 1.27)) hide)
    )
    (pin "1" (uuid af0cbeda-d05a-494c-b1c6-32bd72e5961a))
    (pin "2" (uuid c507ab94-a9fa-457d-b63e-2d02e2e9a521))
  )

  (symbol (lib_id "power:VCC") (at 66.04 22.86 0) (unit 1)
    (in_bom yes) (on_board yes) (fields_autoplaced)
    (uuid bde995c9-75ea-4097-a4b8-7a4a30015eef)
    (property "Reference" "#PWR06" (id 0) (at 66.04 26.67 0)
      (effects (font (size 1.27 1.27)) hide)
    )
    (property "Value" "VCC" (id 1) (at 66.04 17.78 0))
    (property "Footprint" "" (id 2) (at 66.04 22.86 0)
      (effects (font (size 1.27 1.27)) hide)
    )
    (property "Datasheet" "" (id 3) (at 66.04 22.86 0)
      (effects (font (size 1.27 1.27)) hide)
    )
    (pin "1" (uuid 0fafc7f0-43f7-4279-8108-b28e911f9053))
  )

  (symbol (lib_id "KiCAD_Library_FalkoSchmidt_UULM:Programming_Point_PogoPin") (at 64.77 87.63 0) (unit 1)
    (in_bom yes) (on_board yes) (fields_autoplaced)
    (uuid c16082ed-80b0-402a-b279-ac54444e5501)
    (property "Reference" "TP6" (id 0) (at 67.31 83.0579 0)
      (effects (font (size 1.27 1.27)) (justify left))
    )
    (property "Value" "GND" (id 1) (at 67.31 85.5979 0)
      (effects (font (size 1.27 1.27)) (justify left))
    )
    (property "Footprint" "footprints:PogoPin_Pad_D2.0mm" (id 2) (at 64.77 95.25 0)
      (effects (font (size 1.27 1.27)) hide)
    )
    (property "Datasheet" "~" (id 3) (at 69.85 87.63 0)
      (effects (font (size 1.27 1.27)) hide)
    )
    (pin "1" (uuid 25cbd76e-65f1-4587-875a-d7ddf92ce142))
  )

  (symbol (lib_id "power:GND") (at 173.99 44.45 0) (unit 1)
    (in_bom yes) (on_board yes)
    (uuid c1b3948f-d371-4eaa-986c-3e16565973ae)
    (property "Reference" "#PWR014" (id 0) (at 173.99 50.8 0)
      (effects (font (size 1.27 1.27)) hide)
    )
    (property "Value" "GND" (id 1) (at 173.99 48.26 0))
    (property "Footprint" "" (id 2) (at 173.99 44.45 0)
      (effects (font (size 1.27 1.27)) hide)
    )
    (property "Datasheet" "" (id 3) (at 173.99 44.45 0)
      (effects (font (size 1.27 1.27)) hide)
    )
    (pin "1" (uuid 5150f2f9-af1e-45bd-a71a-603e49012075))
  )

  (symbol (lib_id "KiCAD_Library_FalkoSchmidt_UULM:Programming_Point_PogoPin") (at 55.88 71.12 270) (unit 1)
    (in_bom yes) (on_board yes)
    (uuid c5376a3f-6fd2-4f4d-9e29-cd600427db3a)
    (property "Reference" "TP1" (id 0) (at 60.96 71.12 90)
      (effects (font (size 1.27 1.27)) (justify left))
    )
    (property "Value" "RESET" (id 1) (at 60.96 73.66 90)
      (effects (font (size 1.27 1.27)) (justify left))
    )
    (property "Footprint" "footprints:PogoPin_Pad_D2.0mm" (id 2) (at 48.26 71.12 0)
      (effects (font (size 1.27 1.27)) hide)
    )
    (property "Datasheet" "~" (id 3) (at 55.88 76.2 0)
      (effects (font (size 1.27 1.27)) hide)
    )
    (pin "1" (uuid 27337bbb-7b22-4dcf-9032-a730fe760b3c))
  )

  (symbol (lib_id "KiCAD_Library_FalkoSchmidt_UULM:LED_T1-3{slash}4_D5mm_THT") (at 144.78 41.91 90) (unit 1)
    (in_bom yes) (on_board yes) (fields_autoplaced)
    (uuid c7edecd7-99dc-4745-8b82-2d181c9845d8)
    (property "Reference" "D1" (id 0) (at 147.32 40.5764 90)
      (effects (font (size 1.27 1.27)) (justify right))
    )
    (property "Value" "red" (id 1) (at 147.32 43.1164 90)
      (effects (font (size 1.27 1.27)) (justify right))
    )
    (property "Footprint" "footprints:LED_D5mm_THT" (id 2) (at 149.86 41.91 0)
      (effects (font (size 1.27 1.27)) hide)
    )
    (property "Datasheet" "" (id 3) (at 138.43 41.91 0)
      (effects (font (size 1.27 1.27)) hide)
    )
    (pin "1" (uuid 7015adac-9ec1-479c-a451-d5dcc569bebb))
    (pin "2" (uuid a4be9e9f-ccf4-4d76-b767-dc9be64ed2dd))
  )

  (symbol (lib_id "KiCAD_Library_FalkoSchmidt_UULM:R_Axial_2.54mm_Pitch") (at 173.99 34.29 270) (unit 1)
    (in_bom yes) (on_board yes) (fields_autoplaced)
    (uuid d95ffe46-65bd-44b9-9fba-1b5824b72db4)
    (property "Reference" "R5" (id 0) (at 175.26 33.0199 90)
      (effects (font (size 1.27 1.27)) (justify left))
    )
    (property "Value" "300" (id 1) (at 175.26 35.5599 90)
      (effects (font (size 1.27 1.27)) (justify left))
    )
    (property "Footprint" "footprints:R_Axial_DIN0207_L6.3mm_D2.5mm_P2.54mm_Vertical" (id 2) (at 172.339 34.29 0)
      (effects (font (size 1.27 1.27)) hide)
    )
    (property "Datasheet" "" (id 3) (at 156.21 34.29 0)
      (effects (font (size 1.27 1.27)) hide)
    )
    (pin "1" (uuid 7d74379a-fe81-4ba7-95e9-862b19d10a6c))
    (pin "2" (uuid 0f2e8aa5-befa-457b-a13f-f0271788daab))
  )

  (symbol (lib_id "power:GND") (at 58.42 106.68 0) (unit 1)
    (in_bom yes) (on_board yes) (fields_autoplaced)
    (uuid da302a7d-1863-4733-9cc7-14ce8d67886a)
    (property "Reference" "#PWR05" (id 0) (at 58.42 113.03 0)
      (effects (font (size 1.27 1.27)) hide)
    )
    (property "Value" "GND" (id 1) (at 58.42 111.76 0))
    (property "Footprint" "" (id 2) (at 58.42 106.68 0)
      (effects (font (size 1.27 1.27)) hide)
    )
    (property "Datasheet" "" (id 3) (at 58.42 106.68 0)
      (effects (font (size 1.27 1.27)) hide)
    )
    (pin "1" (uuid a29c9a23-3a6d-4f7b-b6aa-827be80cf780))
  )

  (symbol (lib_id "KiCAD_Library_FalkoSchmidt_UULM:R_Axial_2.54mm_Pitch") (at 144.78 34.29 270) (unit 1)
    (in_bom yes) (on_board yes) (fields_autoplaced)
    (uuid dacf1b70-b9e3-44d2-877a-f50995c2232f)
    (property "Reference" "R1" (id 0) (at 146.05 33.0199 90)
      (effects (font (size 1.27 1.27)) (justify left))
    )
    (property "Value" "300" (id 1) (at 146.05 35.5599 90)
      (effects (font (size 1.27 1.27)) (justify left))
    )
    (property "Footprint" "footprints:R_Axial_DIN0207_L6.3mm_D2.5mm_P2.54mm_Vertical" (id 2) (at 143.129 34.29 0)
      (effects (font (size 1.27 1.27)) hide)
    )
    (property "Datasheet" "" (id 3) (at 127 34.29 0)
      (effects (font (size 1.27 1.27)) hide)
    )
    (pin "1" (uuid b04e4a62-3e0f-408f-ba94-40145351cb40))
    (pin "2" (uuid 860a49e1-c723-4146-86cd-ef9503192b2f))
  )

  (symbol (lib_id "power:GND") (at 173.99 67.31 0) (unit 1)
    (in_bom yes) (on_board yes)
    (uuid dce07291-8023-4948-b7b6-f786488402fa)
    (property "Reference" "#PWR015" (id 0) (at 173.99 73.66 0)
      (effects (font (size 1.27 1.27)) hide)
    )
    (property "Value" "GND" (id 1) (at 173.99 71.12 0))
    (property "Footprint" "" (id 2) (at 173.99 67.31 0)
      (effects (font (size 1.27 1.27)) hide)
    )
    (property "Datasheet" "" (id 3) (at 173.99 67.31 0)
      (effects (font (size 1.27 1.27)) hide)
    )
    (pin "1" (uuid 7da05e46-b28b-4fa1-a067-227e683a3944))
  )

  (symbol (lib_id "power:VCC") (at 40.64 50.8 0) (unit 1)
    (in_bom yes) (on_board yes) (fields_autoplaced)
    (uuid dfbc70bd-4ec8-4950-ae23-b88a201d7a59)
    (property "Reference" "#PWR01" (id 0) (at 40.64 54.61 0)
      (effects (font (size 1.27 1.27)) hide)
    )
    (property "Value" "VCC" (id 1) (at 40.64 45.72 0))
    (property "Footprint" "" (id 2) (at 40.64 50.8 0)
      (effects (font (size 1.27 1.27)) hide)
    )
    (property "Datasheet" "" (id 3) (at 40.64 50.8 0)
      (effects (font (size 1.27 1.27)) hide)
    )
    (pin "1" (uuid 3d94e1b1-e0c1-416f-9917-48b93228c577))
  )

  (symbol (lib_id "KiCAD_Library_FalkoSchmidt_UULM:R_Axial_2.54mm_Pitch") (at 173.99 80.01 270) (unit 1)
    (in_bom yes) (on_board yes) (fields_autoplaced)
    (uuid e44f99d9-9525-473c-99d9-99620cb08921)
    (property "Reference" "R7" (id 0) (at 175.26 78.7399 90)
      (effects (font (size 1.27 1.27)) (justify left))
    )
    (property "Value" "300" (id 1) (at 175.26 81.2799 90)
      (effects (font (size 1.27 1.27)) (justify left))
    )
    (property "Footprint" "footprints:R_Axial_DIN0207_L6.3mm_D2.5mm_P2.54mm_Vertical" (id 2) (at 172.339 80.01 0)
      (effects (font (size 1.27 1.27)) hide)
    )
    (property "Datasheet" "" (id 3) (at 156.21 80.01 0)
      (effects (font (size 1.27 1.27)) hide)
    )
    (pin "1" (uuid 920c7580-1f72-4a2a-b3ba-14f0f362a2f6))
    (pin "2" (uuid e9194043-28ec-4243-b8ba-6217d10e256e))
  )

  (symbol (lib_id "power:GND") (at 41.91 106.68 0) (unit 1)
    (in_bom yes) (on_board yes) (fields_autoplaced)
    (uuid e5dc5d8c-6b08-4b6b-9078-8ddb1f77f2cf)
    (property "Reference" "#PWR03" (id 0) (at 41.91 113.03 0)
      (effects (font (size 1.27 1.27)) hide)
    )
    (property "Value" "GND" (id 1) (at 41.91 111.76 0))
    (property "Footprint" "" (id 2) (at 41.91 106.68 0)
      (effects (font (size 1.27 1.27)) hide)
    )
    (property "Datasheet" "" (id 3) (at 41.91 106.68 0)
      (effects (font (size 1.27 1.27)) hide)
    )
    (pin "1" (uuid 95827a3c-46f8-4153-8914-da306c00fa78))
  )

  (symbol (lib_id "KiCAD_Library_FalkoSchmidt_UULM:MountingHole_M3_DIN965_Pad") (at 67.31 102.87 0) (unit 1)
    (in_bom yes) (on_board yes) (fields_autoplaced)
    (uuid e6054072-9ae5-4989-9aac-0032626552b6)
    (property "Reference" "H4" (id 0) (at 69.85 101.5999 0)
      (effects (font (size 1.27 1.27)) (justify left))
    )
    (property "Value" "M3" (id 1) (at 69.85 104.1399 0)
      (effects (font (size 1.27 1.27)) (justify left))
    )
    (property "Footprint" "footprints:MountingHole_M3_DIN965_Pad" (id 2) (at 67.31 113.03 0)
      (effects (font (size 1.27 1.27)) hide)
    )
    (property "Datasheet" "" (id 3) (at 67.31 97.79 0)
      (effects (font (size 1.27 1.27)) hide)
    )
    (pin "1" (uuid 1896d944-a76f-438a-8609-3137fee96fc0))
  )

  (symbol (lib_id "KiCAD_Library_FalkoSchmidt_UULM:MountingHole_M3_DIN965_Pad") (at 50.8 102.87 0) (unit 1)
    (in_bom yes) (on_board yes) (fields_autoplaced)
    (uuid ea3fc334-d0a7-46f5-abe7-a4388a7cac05)
    (property "Reference" "H2" (id 0) (at 53.34 101.5999 0)
      (effects (font (size 1.27 1.27)) (justify left))
    )
    (property "Value" "M3" (id 1) (at 53.34 104.1399 0)
      (effects (font (size 1.27 1.27)) (justify left))
    )
    (property "Footprint" "footprints:MountingHole_M3_DIN965_Pad" (id 2) (at 50.8 113.03 0)
      (effects (font (size 1.27 1.27)) hide)
    )
    (property "Datasheet" "" (id 3) (at 50.8 97.79 0)
      (effects (font (size 1.27 1.27)) hide)
    )
    (pin "1" (uuid 3f7a1d93-c5f6-415f-b926-ac5baa88a257))
  )

  (symbol (lib_id "KiCAD_Library_FalkoSchmidt_UULM:R_Axial_2.54mm_Pitch") (at 144.78 57.15 270) (unit 1)
    (in_bom yes) (on_board yes) (fields_autoplaced)
    (uuid f0868cb4-d093-4829-91bc-11538857270a)
    (property "Reference" "R2" (id 0) (at 146.05 55.8799 90)
      (effects (font (size 1.27 1.27)) (justify left))
    )
    (property "Value" "300" (id 1) (at 146.05 58.4199 90)
      (effects (font (size 1.27 1.27)) (justify left))
    )
    (property "Footprint" "footprints:R_Axial_DIN0207_L6.3mm_D2.5mm_P2.54mm_Vertical" (id 2) (at 143.129 57.15 0)
      (effects (font (size 1.27 1.27)) hide)
    )
    (property "Datasheet" "" (id 3) (at 127 57.15 0)
      (effects (font (size 1.27 1.27)) hide)
    )
    (pin "1" (uuid 296cf64b-5652-462e-b802-1eaf62546adb))
    (pin "2" (uuid fad5fb82-9afe-4853-9e85-53f7393aac93))
  )

  (symbol (lib_id "KiCAD_Library_FalkoSchmidt_UULM:MountingHole_M3_DIN965_Pad") (at 58.42 102.87 0) (unit 1)
    (in_bom yes) (on_board yes) (fields_autoplaced)
    (uuid f26fb58d-efec-4ae0-b598-b5c79bd5c3b3)
    (property "Reference" "H3" (id 0) (at 60.96 101.5999 0)
      (effects (font (size 1.27 1.27)) (justify left))
    )
    (property "Value" "M3" (id 1) (at 60.96 104.1399 0)
      (effects (font (size 1.27 1.27)) (justify left))
    )
    (property "Footprint" "footprints:MountingHole_M3_DIN965_Pad" (id 2) (at 58.42 113.03 0)
      (effects (font (size 1.27 1.27)) hide)
    )
    (property "Datasheet" "" (id 3) (at 58.42 97.79 0)
      (effects (font (size 1.27 1.27)) hide)
    )
    (pin "1" (uuid 47c57e07-2152-4595-a070-c9bc877bce31))
  )

  (symbol (lib_id "KiCAD_Library_FalkoSchmidt_UULM:SW_Push_6mm_THT") (at 76.2 66.04 0) (unit 1)
    (in_bom yes) (on_board yes)
    (uuid f5aeae0b-8464-4650-b2b8-f465323d1501)
    (property "Reference" "SW1" (id 0) (at 78.74 62.23 0))
    (property "Value" "Roll" (id 1) (at 81.28 64.77 0))
    (property "Footprint" "footprints:SW_PUSH_6mm" (id 2) (at 76.2 69.85 0)
      (effects (font (size 1.27 1.27)) hide)
    )
    (property "Datasheet" "~" (id 3) (at 76.2 60.96 0)
      (effects (font (size 1.27 1.27)) hide)
    )
    (pin "1" (uuid 52027249-de2c-4488-a224-7bccdc5ecd38))
    (pin "2" (uuid 89cdd532-88e2-46d2-8d4e-4cd75f90c61a))
  )

  (symbol (lib_id "power:GND") (at 67.31 106.68 0) (unit 1)
    (in_bom yes) (on_board yes) (fields_autoplaced)
    (uuid f647376f-5658-47f1-8af7-63ff13c84263)
    (property "Reference" "#PWR08" (id 0) (at 67.31 113.03 0)
      (effects (font (size 1.27 1.27)) hide)
    )
    (property "Value" "GND" (id 1) (at 67.31 111.76 0))
    (property "Footprint" "" (id 2) (at 67.31 106.68 0)
      (effects (font (size 1.27 1.27)) hide)
    )
    (property "Datasheet" "" (id 3) (at 67.31 106.68 0)
      (effects (font (size 1.27 1.27)) hide)
    )
    (pin "1" (uuid fe8d1793-95f6-42b4-83fd-2787c5f42f2d))
  )

  (sheet_instances
    (path "/" (page "1"))
  )

  (symbol_instances
    (path "/dfbc70bd-4ec8-4950-ae23-b88a201d7a59"
      (reference "#PWR01") (unit 1) (value "VCC") (footprint "")
    )
    (path "/5ecb37ef-4ffb-42a1-806d-f481420f34d8"
      (reference "#PWR02") (unit 1) (value "GND") (footprint "")
    )
    (path "/e5dc5d8c-6b08-4b6b-9078-8ddb1f77f2cf"
      (reference "#PWR03") (unit 1) (value "GND") (footprint "")
    )
    (path "/0a10fb0b-e215-4e1b-ba5a-58b8e00006ba"
      (reference "#PWR04") (unit 1) (value "GND") (footprint "")
    )
    (path "/da302a7d-1863-4733-9cc7-14ce8d67886a"
      (reference "#PWR05") (unit 1) (value "GND") (footprint "")
    )
    (path "/bde995c9-75ea-4097-a4b8-7a4a30015eef"
      (reference "#PWR06") (unit 1) (value "VCC") (footprint "")
    )
    (path "/5399ac16-e286-4aa1-83d7-e47452055b59"
      (reference "#PWR07") (unit 1) (value "GND") (footprint "")
    )
    (path "/f647376f-5658-47f1-8af7-63ff13c84263"
      (reference "#PWR08") (unit 1) (value "GND") (footprint "")
    )
    (path "/ad871bf6-22b6-46f9-86ca-3d00e6111365"
      (reference "#PWR09") (unit 1) (value "GND") (footprint "")
    )
    (path "/33f3f9a7-669f-4f79-98c5-7027a7f2b1cb"
      (reference "#PWR010") (unit 1) (value "GND") (footprint "")
    )
    (path "/569e3fc6-fd7b-40ab-b2d0-acb9a25bfdaa"
      (reference "#PWR011") (unit 1) (value "GND") (footprint "")
    )
    (path "/a494460e-49ed-441b-933e-1501266ad163"
      (reference "#PWR012") (unit 1) (value "GND") (footprint "")
    )
    (path "/588b9b18-4e95-4ed3-929c-e77503a6426d"
      (reference "#PWR013") (unit 1) (value "GND") (footprint "")
    )
    (path "/c1b3948f-d371-4eaa-986c-3e16565973ae"
      (reference "#PWR014") (unit 1) (value "GND") (footprint "")
    )
    (path "/dce07291-8023-4948-b7b6-f786488402fa"
      (reference "#PWR015") (unit 1) (value "GND") (footprint "")
    )
    (path "/5f150a69-9460-4a1a-a659-a479cf6aacc2"
      (reference "#PWR016") (unit 1) (value "GND") (footprint "")
    )
    (path "/29845be8-4103-462a-944b-96a73cf7432d"
      (reference "#PWR0101") (unit 1) (value "GND") (footprint "")
    )
    (path "/a52f25f4-d906-4e7a-984f-aff0550fa9fc"
      (reference "#PWR0102") (unit 1) (value "VCC") (footprint "")
    )
    (path "/af2ed8fa-4dd4-4b99-b079-def3c48c5c55"
      (reference "C1") (unit 1) (value "100n") (footprint "footprints:C_Disc_D5.0mm_W2.5mm_P2.50mm")
    )
    (path "/c7edecd7-99dc-4745-8b82-2d181c9845d8"
      (reference "D1") (unit 1) (value "red") (footprint "footprints:LED_D5mm_THT")
    )
    (path "/6012ff17-741e-4f9c-9769-58902ed31cdf"
      (reference "D2") (unit 1) (value "red") (footprint "footprints:LED_D5mm_THT")
    )
    (path "/75899843-9704-4a28-997e-2cac4eac81dd"
      (reference "D3") (unit 1) (value "red") (footprint "footprints:LED_D5mm_THT")
    )
    (path "/454428cc-450b-46fe-b7be-7b08ebeaff3b"
      (reference "D4") (unit 1) (value "red") (footprint "footprints:LED_D5mm_THT")
    )
    (path "/676f3efc-099d-49d2-b0f6-7ae274ac0636"
      (reference "D5") (unit 1) (value "red") (footprint "footprints:LED_D5mm_THT")
    )
    (path "/11703db9-7d65-4271-81db-da9b2945be83"
      (reference "D6") (unit 1) (value "red") (footprint "footprints:LED_D5mm_THT")
    )
    (path "/37abc46a-59e2-41ef-bdf4-98a9e194cd2b"
      (reference "D7") (unit 1) (value "red") (footprint "footprints:LED_D5mm_THT")
    )
    (path "/888882fa-346f-4b74-bf3d-39e6e3b585c1"
      (reference "H1") (unit 1) (value "M3") (footprint "footprints:MountingHole_M3_DIN965_Pad")
    )
    (path "/ea3fc334-d0a7-46f5-abe7-a4388a7cac05"
      (reference "H2") (unit 1) (value "M3") (footprint "footprints:MountingHole_M3_DIN965_Pad")
    )
    (path "/f26fb58d-efec-4ae0-b598-b5c79bd5c3b3"
      (reference "H3") (unit 1) (value "M3") (footprint "footprints:MountingHole_M3_DIN965_Pad")
    )
    (path "/e6054072-9ae5-4989-9aac-0032626552b6"
      (reference "H4") (unit 1) (value "M3") (footprint "footprints:MountingHole_M3_DIN965_Pad")
    )
    (path "/51f4ff5e-faeb-449c-8367-a7b15b1d00de"
      (reference "J1") (unit 1) (value "V_IN") (footprint "footprints:MKDS_1.5-2-5.08 BK")
    )
    (path "/dacf1b70-b9e3-44d2-877a-f50995c2232f"
      (reference "R1") (unit 1) (value "300") (footprint "footprints:R_Axial_DIN0207_L6.3mm_D2.5mm_P2.54mm_Vertical")
    )
    (path "/f0868cb4-d093-4829-91bc-11538857270a"
      (reference "R2") (unit 1) (value "300") (footprint "footprints:R_Axial_DIN0207_L6.3mm_D2.5mm_P2.54mm_Vertical")
    )
    (path "/9053c64d-3efd-4f9f-a574-3de850edf0fd"
      (reference "R3") (unit 1) (value "300") (footprint "footprints:R_Axial_DIN0207_L6.3mm_D2.5mm_P2.54mm_Vertical")
    )
    (path "/297ead72-a4fa-4041-9e6d-cf591851a2e1"
      (reference "R4") (unit 1) (value "300") (footprint "footprints:R_Axial_DIN0207_L6.3mm_D2.5mm_P2.54mm_Vertical")
    )
    (path "/d95ffe46-65bd-44b9-9fba-1b5824b72db4"
      (reference "R5") (unit 1) (value "300") (footprint "footprints:R_Axial_DIN0207_L6.3mm_D2.5mm_P2.54mm_Vertical")
    )
    (path "/a320834a-e7df-407c-aaf0-72990645f4ab"
      (reference "R6") (unit 1) (value "300") (footprint "footprints:R_Axial_DIN0207_L6.3mm_D2.5mm_P2.54mm_Vertical")
    )
    (path "/e44f99d9-9525-473c-99d9-99620cb08921"
      (reference "R7") (unit 1) (value "300") (footprint "footprints:R_Axial_DIN0207_L6.3mm_D2.5mm_P2.54mm_Vertical")
    )
    (path "/f5aeae0b-8464-4650-b2b8-f465323d1501"
      (reference "SW1") (unit 1) (value "Roll") (footprint "footprints:SW_PUSH_6mm")
    )
    (path "/c5376a3f-6fd2-4f4d-9e29-cd600427db3a"
      (reference "TP1") (unit 1) (value "RESET") (footprint "footprints:PogoPin_Pad_D2.0mm")
    )
    (path "/7d589f76-745a-497a-8ff6-4dce803bfdf7"
      (reference "TP2") (unit 1) (value "VCC") (footprint "footprints:PogoPin_Pad_D2.0mm")
    )
    (path "/443172f2-b5ef-4e44-ba21-8d16ea20dddc"
      (reference "TP3") (unit 1) (value "MOSI") (footprint "footprints:PogoPin_Pad_D2.0mm")
    )
    (path "/72488e8e-bac6-4b78-9d92-5adbde0ca354"
      (reference "TP4") (unit 1) (value "MISO") (footprint "footprints:PogoPin_Pad_D2.0mm")
    )
    (path "/2635ca23-9f44-40a9-be35-cd7f7ec92640"
      (reference "TP5") (unit 1) (value "SCK") (footprint "footprints:PogoPin_Pad_D2.0mm")
    )
    (path "/c16082ed-80b0-402a-b279-ac54444e5501"
      (reference "TP6") (unit 1) (value "GND") (footprint "footprints:PogoPin_Pad_D2.0mm")
    )
    (path "/95d756cb-dc9f-4e88-9a27-1e6aa8c9caee"
      (reference "U1") (unit 1) (value "ATtiny25") (footprint "footprints:DIP-8_W7.62mm_Socket")
    )
  )
)
