M48
; DRILL file {KiCad (6.0.4-0)} date 2022 May 07, Saturday 10:59:28
; FORMAT={-:-/ absolute / metric / decimal}
; #@! TF.CreationDate,2022-05-07T10:59:28+02:00
; #@! TF.GenerationSoftware,Kicad,Pcbnew,(6.0.4-0)
; #@! TF.FileFunction,NonPlated,1,2,NPTH
FMAT,2
METRIC
%
G90
G05
T0
M30
