%TF.GenerationSoftware,KiCad,Pcbnew,(6.0.4-0)*%
%TF.CreationDate,2022-04-10T13:32:53+02:00*%
%TF.ProjectId,Stratberry_Module,53747261-7462-4657-9272-795f4d6f6475,rev?*%
%TF.SameCoordinates,Original*%
%TF.FileFunction,Legend,Top*%
%TF.FilePolarity,Positive*%
%FSLAX46Y46*%
G04 Gerber Fmt 4.6, Leading zero omitted, Abs format (unit mm)*
G04 Created by KiCad (PCBNEW (6.0.4-0)) date 2022-04-10 13:32:53*
%MOMM*%
%LPD*%
G01*
G04 APERTURE LIST*
%ADD10C,0.150000*%
%ADD11C,0.120000*%
%ADD12C,0.127000*%
%ADD13C,0.200000*%
G04 APERTURE END LIST*
D10*
X16000000Y-33500000D02*
X34000000Y-33500000D01*
X34000000Y-33500000D02*
X34000000Y-21500000D01*
X34000000Y-21500000D02*
X16000000Y-21500000D01*
X16000000Y-21500000D02*
X16000000Y-33500000D01*
X40580000Y-13000000D02*
X29920000Y-13000000D01*
X29920000Y-13000000D02*
X29920000Y-20250000D01*
X29920000Y-20250000D02*
X40580000Y-20250000D01*
X40580000Y-20250000D02*
X40580000Y-13000000D01*
X14500000Y-1000000D02*
X13000000Y-1000000D01*
X13000000Y-8500000D02*
X13000000Y-54000000D01*
X29420000Y-42000000D02*
X40080000Y-42000000D01*
X40080000Y-42000000D02*
X40080000Y-34750000D01*
X40080000Y-34750000D02*
X29420000Y-34750000D01*
X29420000Y-34750000D02*
X29420000Y-42000000D01*
X14420000Y-42000000D02*
X25080000Y-42000000D01*
X25080000Y-42000000D02*
X25080000Y-34750000D01*
X25080000Y-34750000D02*
X14420000Y-34750000D01*
X14420000Y-34750000D02*
X14420000Y-42000000D01*
X29500000Y-1000000D02*
X26000000Y-1000000D01*
X25580000Y-13000000D02*
X14920000Y-13000000D01*
X14920000Y-13000000D02*
X14920000Y-20250000D01*
X14920000Y-20250000D02*
X25580000Y-20250000D01*
X25580000Y-20250000D02*
X25580000Y-13000000D01*
X41000000Y-1000000D02*
X42000000Y-1000000D01*
X40500000Y-54000000D02*
X42000000Y-54000000D01*
X14000000Y-54000000D02*
X13000000Y-54000000D01*
X38000000Y-21500000D02*
X34000000Y-21500000D01*
X34000000Y-21500000D02*
X34000000Y-33500000D01*
X34000000Y-33500000D02*
X38000000Y-33500000D01*
X38000000Y-33500000D02*
X38000000Y-21500000D01*
X25500000Y-54000000D02*
X29000000Y-54000000D01*
X13000000Y-1000000D02*
X13000000Y-8500000D01*
X42000000Y-1000000D02*
X42000000Y-54000000D01*
X36352619Y-24261904D02*
X37352619Y-24261904D01*
X36638333Y-24595238D01*
X37352619Y-24928571D01*
X36352619Y-24928571D01*
X36447857Y-25976190D02*
X36400238Y-25928571D01*
X36352619Y-25785714D01*
X36352619Y-25690476D01*
X36400238Y-25547619D01*
X36495476Y-25452380D01*
X36590714Y-25404761D01*
X36781190Y-25357142D01*
X36924047Y-25357142D01*
X37114523Y-25404761D01*
X37209761Y-25452380D01*
X37305000Y-25547619D01*
X37352619Y-25690476D01*
X37352619Y-25785714D01*
X37305000Y-25928571D01*
X37257380Y-25976190D01*
X36352619Y-26404761D02*
X37352619Y-26404761D01*
X37352619Y-26785714D01*
X37305000Y-26880952D01*
X37257380Y-26928571D01*
X37162142Y-26976190D01*
X37019285Y-26976190D01*
X36924047Y-26928571D01*
X36876428Y-26880952D01*
X36828809Y-26785714D01*
X36828809Y-26404761D01*
X37352619Y-27309523D02*
X37352619Y-27928571D01*
X36971666Y-27595238D01*
X36971666Y-27738095D01*
X36924047Y-27833333D01*
X36876428Y-27880952D01*
X36781190Y-27928571D01*
X36543095Y-27928571D01*
X36447857Y-27880952D01*
X36400238Y-27833333D01*
X36352619Y-27738095D01*
X36352619Y-27452380D01*
X36400238Y-27357142D01*
X36447857Y-27309523D01*
X37257380Y-28309523D02*
X37305000Y-28357142D01*
X37352619Y-28452380D01*
X37352619Y-28690476D01*
X37305000Y-28785714D01*
X37257380Y-28833333D01*
X37162142Y-28880952D01*
X37066904Y-28880952D01*
X36924047Y-28833333D01*
X36352619Y-28261904D01*
X36352619Y-28880952D01*
X37352619Y-29500000D02*
X37352619Y-29595238D01*
X37305000Y-29690476D01*
X37257380Y-29738095D01*
X37162142Y-29785714D01*
X36971666Y-29833333D01*
X36733571Y-29833333D01*
X36543095Y-29785714D01*
X36447857Y-29738095D01*
X36400238Y-29690476D01*
X36352619Y-29595238D01*
X36352619Y-29500000D01*
X36400238Y-29404761D01*
X36447857Y-29357142D01*
X36543095Y-29309523D01*
X36733571Y-29261904D01*
X36971666Y-29261904D01*
X37162142Y-29309523D01*
X37257380Y-29357142D01*
X37305000Y-29404761D01*
X37352619Y-29500000D01*
X37019285Y-30690476D02*
X36352619Y-30690476D01*
X37400238Y-30452380D02*
X36685952Y-30214285D01*
X36685952Y-30833333D01*
X34742619Y-24142857D02*
X34742619Y-23571428D01*
X34742619Y-23857142D02*
X35742619Y-23857142D01*
X35599761Y-23761904D01*
X35504523Y-23666666D01*
X35456904Y-23571428D01*
X35647380Y-24523809D02*
X35695000Y-24571428D01*
X35742619Y-24666666D01*
X35742619Y-24904761D01*
X35695000Y-25000000D01*
X35647380Y-25047619D01*
X35552142Y-25095238D01*
X35456904Y-25095238D01*
X35314047Y-25047619D01*
X34742619Y-24476190D01*
X34742619Y-25095238D01*
X34742619Y-26285714D02*
X35742619Y-26285714D01*
X35361666Y-26285714D02*
X35409285Y-26380952D01*
X35409285Y-26571428D01*
X35361666Y-26666666D01*
X35314047Y-26714285D01*
X35218809Y-26761904D01*
X34933095Y-26761904D01*
X34837857Y-26714285D01*
X34790238Y-26666666D01*
X34742619Y-26571428D01*
X34742619Y-26380952D01*
X34790238Y-26285714D01*
X34742619Y-27190476D02*
X35409285Y-27190476D01*
X35742619Y-27190476D02*
X35695000Y-27142857D01*
X35647380Y-27190476D01*
X35695000Y-27238095D01*
X35742619Y-27190476D01*
X35647380Y-27190476D01*
X35409285Y-27523809D02*
X35409285Y-27904761D01*
X35742619Y-27666666D02*
X34885476Y-27666666D01*
X34790238Y-27714285D01*
X34742619Y-27809523D01*
X34742619Y-27904761D01*
X35028333Y-28952380D02*
X35028333Y-29428571D01*
X34742619Y-28857142D02*
X35742619Y-29190476D01*
X34742619Y-29523809D01*
X34742619Y-29857142D02*
X35742619Y-29857142D01*
X35742619Y-30095238D01*
X35695000Y-30238095D01*
X35599761Y-30333333D01*
X35504523Y-30380952D01*
X35314047Y-30428571D01*
X35171190Y-30428571D01*
X34980714Y-30380952D01*
X34885476Y-30333333D01*
X34790238Y-30238095D01*
X34742619Y-30095238D01*
X34742619Y-29857142D01*
X34837857Y-31428571D02*
X34790238Y-31380952D01*
X34742619Y-31238095D01*
X34742619Y-31142857D01*
X34790238Y-31000000D01*
X34885476Y-30904761D01*
X34980714Y-30857142D01*
X35171190Y-30809523D01*
X35314047Y-30809523D01*
X35504523Y-30857142D01*
X35599761Y-30904761D01*
X35695000Y-31000000D01*
X35742619Y-31142857D01*
X35742619Y-31238095D01*
X35695000Y-31380952D01*
X35647380Y-31428571D01*
X16773809Y-17147380D02*
X17345238Y-17147380D01*
X17059523Y-18147380D02*
X17059523Y-17147380D01*
X17678571Y-18147380D02*
X17678571Y-17147380D01*
X18107142Y-18147380D02*
X18107142Y-17623571D01*
X18059523Y-17528333D01*
X17964285Y-17480714D01*
X17821428Y-17480714D01*
X17726190Y-17528333D01*
X17678571Y-17575952D01*
X18964285Y-18099761D02*
X18869047Y-18147380D01*
X18678571Y-18147380D01*
X18583333Y-18099761D01*
X18535714Y-18004523D01*
X18535714Y-17623571D01*
X18583333Y-17528333D01*
X18678571Y-17480714D01*
X18869047Y-17480714D01*
X18964285Y-17528333D01*
X19011904Y-17623571D01*
X19011904Y-17718809D01*
X18535714Y-17814047D01*
X19440476Y-18147380D02*
X19440476Y-17480714D01*
X19440476Y-17671190D02*
X19488095Y-17575952D01*
X19535714Y-17528333D01*
X19630952Y-17480714D01*
X19726190Y-17480714D01*
X20059523Y-18147380D02*
X20059523Y-17480714D01*
X20059523Y-17575952D02*
X20107142Y-17528333D01*
X20202380Y-17480714D01*
X20345238Y-17480714D01*
X20440476Y-17528333D01*
X20488095Y-17623571D01*
X20488095Y-18147380D01*
X20488095Y-17623571D02*
X20535714Y-17528333D01*
X20630952Y-17480714D01*
X20773809Y-17480714D01*
X20869047Y-17528333D01*
X20916666Y-17623571D01*
X20916666Y-18147380D01*
X21154761Y-18242619D02*
X21916666Y-18242619D01*
X22345238Y-17147380D02*
X22440476Y-17147380D01*
X22535714Y-17195000D01*
X22583333Y-17242619D01*
X22630952Y-17337857D01*
X22678571Y-17528333D01*
X22678571Y-17766428D01*
X22630952Y-17956904D01*
X22583333Y-18052142D01*
X22535714Y-18099761D01*
X22440476Y-18147380D01*
X22345238Y-18147380D01*
X22250000Y-18099761D01*
X22202380Y-18052142D01*
X22154761Y-17956904D01*
X22107142Y-17766428D01*
X22107142Y-17528333D01*
X22154761Y-17337857D01*
X22202380Y-17242619D01*
X22250000Y-17195000D01*
X22345238Y-17147380D01*
X23059523Y-17242619D02*
X23107142Y-17195000D01*
X23202380Y-17147380D01*
X23440476Y-17147380D01*
X23535714Y-17195000D01*
X23583333Y-17242619D01*
X23630952Y-17337857D01*
X23630952Y-17433095D01*
X23583333Y-17575952D01*
X23011904Y-18147380D01*
X23630952Y-18147380D01*
X19559523Y-19662142D02*
X19511904Y-19709761D01*
X19369047Y-19757380D01*
X19273809Y-19757380D01*
X19130952Y-19709761D01*
X19035714Y-19614523D01*
X18988095Y-19519285D01*
X18940476Y-19328809D01*
X18940476Y-19185952D01*
X18988095Y-18995476D01*
X19035714Y-18900238D01*
X19130952Y-18805000D01*
X19273809Y-18757380D01*
X19369047Y-18757380D01*
X19511904Y-18805000D01*
X19559523Y-18852619D01*
X19988095Y-19757380D02*
X19988095Y-18757380D01*
X19988095Y-19233571D02*
X20559523Y-19233571D01*
X20559523Y-19757380D02*
X20559523Y-18757380D01*
X20988095Y-18852619D02*
X21035714Y-18805000D01*
X21130952Y-18757380D01*
X21369047Y-18757380D01*
X21464285Y-18805000D01*
X21511904Y-18852619D01*
X21559523Y-18947857D01*
X21559523Y-19043095D01*
X21511904Y-19185952D01*
X20940476Y-19757380D01*
X21559523Y-19757380D01*
X31773809Y-17147380D02*
X32345238Y-17147380D01*
X32059523Y-18147380D02*
X32059523Y-17147380D01*
X32678571Y-18147380D02*
X32678571Y-17147380D01*
X33107142Y-18147380D02*
X33107142Y-17623571D01*
X33059523Y-17528333D01*
X32964285Y-17480714D01*
X32821428Y-17480714D01*
X32726190Y-17528333D01*
X32678571Y-17575952D01*
X33964285Y-18099761D02*
X33869047Y-18147380D01*
X33678571Y-18147380D01*
X33583333Y-18099761D01*
X33535714Y-18004523D01*
X33535714Y-17623571D01*
X33583333Y-17528333D01*
X33678571Y-17480714D01*
X33869047Y-17480714D01*
X33964285Y-17528333D01*
X34011904Y-17623571D01*
X34011904Y-17718809D01*
X33535714Y-17814047D01*
X34440476Y-18147380D02*
X34440476Y-17480714D01*
X34440476Y-17671190D02*
X34488095Y-17575952D01*
X34535714Y-17528333D01*
X34630952Y-17480714D01*
X34726190Y-17480714D01*
X35059523Y-18147380D02*
X35059523Y-17480714D01*
X35059523Y-17575952D02*
X35107142Y-17528333D01*
X35202380Y-17480714D01*
X35345238Y-17480714D01*
X35440476Y-17528333D01*
X35488095Y-17623571D01*
X35488095Y-18147380D01*
X35488095Y-17623571D02*
X35535714Y-17528333D01*
X35630952Y-17480714D01*
X35773809Y-17480714D01*
X35869047Y-17528333D01*
X35916666Y-17623571D01*
X35916666Y-18147380D01*
X36154761Y-18242619D02*
X36916666Y-18242619D01*
X37345238Y-17147380D02*
X37440476Y-17147380D01*
X37535714Y-17195000D01*
X37583333Y-17242619D01*
X37630952Y-17337857D01*
X37678571Y-17528333D01*
X37678571Y-17766428D01*
X37630952Y-17956904D01*
X37583333Y-18052142D01*
X37535714Y-18099761D01*
X37440476Y-18147380D01*
X37345238Y-18147380D01*
X37250000Y-18099761D01*
X37202380Y-18052142D01*
X37154761Y-17956904D01*
X37107142Y-17766428D01*
X37107142Y-17528333D01*
X37154761Y-17337857D01*
X37202380Y-17242619D01*
X37250000Y-17195000D01*
X37345238Y-17147380D01*
X38011904Y-17147380D02*
X38630952Y-17147380D01*
X38297619Y-17528333D01*
X38440476Y-17528333D01*
X38535714Y-17575952D01*
X38583333Y-17623571D01*
X38630952Y-17718809D01*
X38630952Y-17956904D01*
X38583333Y-18052142D01*
X38535714Y-18099761D01*
X38440476Y-18147380D01*
X38154761Y-18147380D01*
X38059523Y-18099761D01*
X38011904Y-18052142D01*
X34559523Y-19662142D02*
X34511904Y-19709761D01*
X34369047Y-19757380D01*
X34273809Y-19757380D01*
X34130952Y-19709761D01*
X34035714Y-19614523D01*
X33988095Y-19519285D01*
X33940476Y-19328809D01*
X33940476Y-19185952D01*
X33988095Y-18995476D01*
X34035714Y-18900238D01*
X34130952Y-18805000D01*
X34273809Y-18757380D01*
X34369047Y-18757380D01*
X34511904Y-18805000D01*
X34559523Y-18852619D01*
X34988095Y-19757380D02*
X34988095Y-18757380D01*
X34988095Y-19233571D02*
X35559523Y-19233571D01*
X35559523Y-19757380D02*
X35559523Y-18757380D01*
X35940476Y-18757380D02*
X36559523Y-18757380D01*
X36226190Y-19138333D01*
X36369047Y-19138333D01*
X36464285Y-19185952D01*
X36511904Y-19233571D01*
X36559523Y-19328809D01*
X36559523Y-19566904D01*
X36511904Y-19662142D01*
X36464285Y-19709761D01*
X36369047Y-19757380D01*
X36083333Y-19757380D01*
X35988095Y-19709761D01*
X35940476Y-19662142D01*
X16273809Y-35147380D02*
X16845238Y-35147380D01*
X16559523Y-36147380D02*
X16559523Y-35147380D01*
X17178571Y-36147380D02*
X17178571Y-35147380D01*
X17607142Y-36147380D02*
X17607142Y-35623571D01*
X17559523Y-35528333D01*
X17464285Y-35480714D01*
X17321428Y-35480714D01*
X17226190Y-35528333D01*
X17178571Y-35575952D01*
X18464285Y-36099761D02*
X18369047Y-36147380D01*
X18178571Y-36147380D01*
X18083333Y-36099761D01*
X18035714Y-36004523D01*
X18035714Y-35623571D01*
X18083333Y-35528333D01*
X18178571Y-35480714D01*
X18369047Y-35480714D01*
X18464285Y-35528333D01*
X18511904Y-35623571D01*
X18511904Y-35718809D01*
X18035714Y-35814047D01*
X18940476Y-36147380D02*
X18940476Y-35480714D01*
X18940476Y-35671190D02*
X18988095Y-35575952D01*
X19035714Y-35528333D01*
X19130952Y-35480714D01*
X19226190Y-35480714D01*
X19559523Y-36147380D02*
X19559523Y-35480714D01*
X19559523Y-35575952D02*
X19607142Y-35528333D01*
X19702380Y-35480714D01*
X19845238Y-35480714D01*
X19940476Y-35528333D01*
X19988095Y-35623571D01*
X19988095Y-36147380D01*
X19988095Y-35623571D02*
X20035714Y-35528333D01*
X20130952Y-35480714D01*
X20273809Y-35480714D01*
X20369047Y-35528333D01*
X20416666Y-35623571D01*
X20416666Y-36147380D01*
X20654761Y-36242619D02*
X21416666Y-36242619D01*
X21845238Y-35147380D02*
X21940476Y-35147380D01*
X22035714Y-35195000D01*
X22083333Y-35242619D01*
X22130952Y-35337857D01*
X22178571Y-35528333D01*
X22178571Y-35766428D01*
X22130952Y-35956904D01*
X22083333Y-36052142D01*
X22035714Y-36099761D01*
X21940476Y-36147380D01*
X21845238Y-36147380D01*
X21750000Y-36099761D01*
X21702380Y-36052142D01*
X21654761Y-35956904D01*
X21607142Y-35766428D01*
X21607142Y-35528333D01*
X21654761Y-35337857D01*
X21702380Y-35242619D01*
X21750000Y-35195000D01*
X21845238Y-35147380D01*
X23130952Y-36147380D02*
X22559523Y-36147380D01*
X22845238Y-36147380D02*
X22845238Y-35147380D01*
X22750000Y-35290238D01*
X22654761Y-35385476D01*
X22559523Y-35433095D01*
X19059523Y-37662142D02*
X19011904Y-37709761D01*
X18869047Y-37757380D01*
X18773809Y-37757380D01*
X18630952Y-37709761D01*
X18535714Y-37614523D01*
X18488095Y-37519285D01*
X18440476Y-37328809D01*
X18440476Y-37185952D01*
X18488095Y-36995476D01*
X18535714Y-36900238D01*
X18630952Y-36805000D01*
X18773809Y-36757380D01*
X18869047Y-36757380D01*
X19011904Y-36805000D01*
X19059523Y-36852619D01*
X19488095Y-37757380D02*
X19488095Y-36757380D01*
X19488095Y-37233571D02*
X20059523Y-37233571D01*
X20059523Y-37757380D02*
X20059523Y-36757380D01*
X21059523Y-37757380D02*
X20488095Y-37757380D01*
X20773809Y-37757380D02*
X20773809Y-36757380D01*
X20678571Y-36900238D01*
X20583333Y-36995476D01*
X20488095Y-37043095D01*
X31273809Y-35147380D02*
X31845238Y-35147380D01*
X31559523Y-36147380D02*
X31559523Y-35147380D01*
X32178571Y-36147380D02*
X32178571Y-35147380D01*
X32607142Y-36147380D02*
X32607142Y-35623571D01*
X32559523Y-35528333D01*
X32464285Y-35480714D01*
X32321428Y-35480714D01*
X32226190Y-35528333D01*
X32178571Y-35575952D01*
X33464285Y-36099761D02*
X33369047Y-36147380D01*
X33178571Y-36147380D01*
X33083333Y-36099761D01*
X33035714Y-36004523D01*
X33035714Y-35623571D01*
X33083333Y-35528333D01*
X33178571Y-35480714D01*
X33369047Y-35480714D01*
X33464285Y-35528333D01*
X33511904Y-35623571D01*
X33511904Y-35718809D01*
X33035714Y-35814047D01*
X33940476Y-36147380D02*
X33940476Y-35480714D01*
X33940476Y-35671190D02*
X33988095Y-35575952D01*
X34035714Y-35528333D01*
X34130952Y-35480714D01*
X34226190Y-35480714D01*
X34559523Y-36147380D02*
X34559523Y-35480714D01*
X34559523Y-35575952D02*
X34607142Y-35528333D01*
X34702380Y-35480714D01*
X34845238Y-35480714D01*
X34940476Y-35528333D01*
X34988095Y-35623571D01*
X34988095Y-36147380D01*
X34988095Y-35623571D02*
X35035714Y-35528333D01*
X35130952Y-35480714D01*
X35273809Y-35480714D01*
X35369047Y-35528333D01*
X35416666Y-35623571D01*
X35416666Y-36147380D01*
X35654761Y-36242619D02*
X36416666Y-36242619D01*
X36845238Y-35147380D02*
X36940476Y-35147380D01*
X37035714Y-35195000D01*
X37083333Y-35242619D01*
X37130952Y-35337857D01*
X37178571Y-35528333D01*
X37178571Y-35766428D01*
X37130952Y-35956904D01*
X37083333Y-36052142D01*
X37035714Y-36099761D01*
X36940476Y-36147380D01*
X36845238Y-36147380D01*
X36750000Y-36099761D01*
X36702380Y-36052142D01*
X36654761Y-35956904D01*
X36607142Y-35766428D01*
X36607142Y-35528333D01*
X36654761Y-35337857D01*
X36702380Y-35242619D01*
X36750000Y-35195000D01*
X36845238Y-35147380D01*
X37797619Y-35147380D02*
X37892857Y-35147380D01*
X37988095Y-35195000D01*
X38035714Y-35242619D01*
X38083333Y-35337857D01*
X38130952Y-35528333D01*
X38130952Y-35766428D01*
X38083333Y-35956904D01*
X38035714Y-36052142D01*
X37988095Y-36099761D01*
X37892857Y-36147380D01*
X37797619Y-36147380D01*
X37702380Y-36099761D01*
X37654761Y-36052142D01*
X37607142Y-35956904D01*
X37559523Y-35766428D01*
X37559523Y-35528333D01*
X37607142Y-35337857D01*
X37654761Y-35242619D01*
X37702380Y-35195000D01*
X37797619Y-35147380D01*
X34059523Y-37662142D02*
X34011904Y-37709761D01*
X33869047Y-37757380D01*
X33773809Y-37757380D01*
X33630952Y-37709761D01*
X33535714Y-37614523D01*
X33488095Y-37519285D01*
X33440476Y-37328809D01*
X33440476Y-37185952D01*
X33488095Y-36995476D01*
X33535714Y-36900238D01*
X33630952Y-36805000D01*
X33773809Y-36757380D01*
X33869047Y-36757380D01*
X34011904Y-36805000D01*
X34059523Y-36852619D01*
X34488095Y-37757380D02*
X34488095Y-36757380D01*
X34488095Y-37233571D02*
X35059523Y-37233571D01*
X35059523Y-37757380D02*
X35059523Y-36757380D01*
X35726190Y-36757380D02*
X35821428Y-36757380D01*
X35916666Y-36805000D01*
X35964285Y-36852619D01*
X36011904Y-36947857D01*
X36059523Y-37138333D01*
X36059523Y-37376428D01*
X36011904Y-37566904D01*
X35964285Y-37662142D01*
X35916666Y-37709761D01*
X35821428Y-37757380D01*
X35726190Y-37757380D01*
X35630952Y-37709761D01*
X35583333Y-37662142D01*
X35535714Y-37566904D01*
X35488095Y-37376428D01*
X35488095Y-37138333D01*
X35535714Y-36947857D01*
X35583333Y-36852619D01*
X35630952Y-36805000D01*
X35726190Y-36757380D01*
%TO.C,C2*%
X18083333Y-32357142D02*
X18035714Y-32404761D01*
X17892857Y-32452380D01*
X17797619Y-32452380D01*
X17654761Y-32404761D01*
X17559523Y-32309523D01*
X17511904Y-32214285D01*
X17464285Y-32023809D01*
X17464285Y-31880952D01*
X17511904Y-31690476D01*
X17559523Y-31595238D01*
X17654761Y-31500000D01*
X17797619Y-31452380D01*
X17892857Y-31452380D01*
X18035714Y-31500000D01*
X18083333Y-31547619D01*
X18464285Y-31547619D02*
X18511904Y-31500000D01*
X18607142Y-31452380D01*
X18845238Y-31452380D01*
X18940476Y-31500000D01*
X18988095Y-31547619D01*
X19035714Y-31642857D01*
X19035714Y-31738095D01*
X18988095Y-31880952D01*
X18416666Y-32452380D01*
X19035714Y-32452380D01*
%TO.C,R3*%
X24702380Y-40141666D02*
X24226190Y-40475000D01*
X24702380Y-40713095D02*
X23702380Y-40713095D01*
X23702380Y-40332142D01*
X23750000Y-40236904D01*
X23797619Y-40189285D01*
X23892857Y-40141666D01*
X24035714Y-40141666D01*
X24130952Y-40189285D01*
X24178571Y-40236904D01*
X24226190Y-40332142D01*
X24226190Y-40713095D01*
X23702380Y-39808333D02*
X23702380Y-39189285D01*
X24083333Y-39522619D01*
X24083333Y-39379761D01*
X24130952Y-39284523D01*
X24178571Y-39236904D01*
X24273809Y-39189285D01*
X24511904Y-39189285D01*
X24607142Y-39236904D01*
X24654761Y-39284523D01*
X24702380Y-39379761D01*
X24702380Y-39665476D01*
X24654761Y-39760714D01*
X24607142Y-39808333D01*
%TO.C,C1*%
X18083333Y-30357142D02*
X18035714Y-30404761D01*
X17892857Y-30452380D01*
X17797619Y-30452380D01*
X17654761Y-30404761D01*
X17559523Y-30309523D01*
X17511904Y-30214285D01*
X17464285Y-30023809D01*
X17464285Y-29880952D01*
X17511904Y-29690476D01*
X17559523Y-29595238D01*
X17654761Y-29500000D01*
X17797619Y-29452380D01*
X17892857Y-29452380D01*
X18035714Y-29500000D01*
X18083333Y-29547619D01*
X19035714Y-30452380D02*
X18464285Y-30452380D01*
X18750000Y-30452380D02*
X18750000Y-29452380D01*
X18654761Y-29595238D01*
X18559523Y-29690476D01*
X18464285Y-29738095D01*
%TO.C,J8*%
X30166666Y-40702380D02*
X30166666Y-41416666D01*
X30119047Y-41559523D01*
X30023809Y-41654761D01*
X29880952Y-41702380D01*
X29785714Y-41702380D01*
X30785714Y-41130952D02*
X30690476Y-41083333D01*
X30642857Y-41035714D01*
X30595238Y-40940476D01*
X30595238Y-40892857D01*
X30642857Y-40797619D01*
X30690476Y-40750000D01*
X30785714Y-40702380D01*
X30976190Y-40702380D01*
X31071428Y-40750000D01*
X31119047Y-40797619D01*
X31166666Y-40892857D01*
X31166666Y-40940476D01*
X31119047Y-41035714D01*
X31071428Y-41083333D01*
X30976190Y-41130952D01*
X30785714Y-41130952D01*
X30690476Y-41178571D01*
X30642857Y-41226190D01*
X30595238Y-41321428D01*
X30595238Y-41511904D01*
X30642857Y-41607142D01*
X30690476Y-41654761D01*
X30785714Y-41702380D01*
X30976190Y-41702380D01*
X31071428Y-41654761D01*
X31119047Y-41607142D01*
X31166666Y-41511904D01*
X31166666Y-41321428D01*
X31119047Y-41226190D01*
X31071428Y-41178571D01*
X30976190Y-41130952D01*
%TO.C,R2*%
X16312380Y-15191666D02*
X15836190Y-15525000D01*
X16312380Y-15763095D02*
X15312380Y-15763095D01*
X15312380Y-15382142D01*
X15360000Y-15286904D01*
X15407619Y-15239285D01*
X15502857Y-15191666D01*
X15645714Y-15191666D01*
X15740952Y-15239285D01*
X15788571Y-15286904D01*
X15836190Y-15382142D01*
X15836190Y-15763095D01*
X15407619Y-14810714D02*
X15360000Y-14763095D01*
X15312380Y-14667857D01*
X15312380Y-14429761D01*
X15360000Y-14334523D01*
X15407619Y-14286904D01*
X15502857Y-14239285D01*
X15598095Y-14239285D01*
X15740952Y-14286904D01*
X16312380Y-14858333D01*
X16312380Y-14239285D01*
%TO.C,J3*%
X15166666Y-40702380D02*
X15166666Y-41416666D01*
X15119047Y-41559523D01*
X15023809Y-41654761D01*
X14880952Y-41702380D01*
X14785714Y-41702380D01*
X15547619Y-40702380D02*
X16166666Y-40702380D01*
X15833333Y-41083333D01*
X15976190Y-41083333D01*
X16071428Y-41130952D01*
X16119047Y-41178571D01*
X16166666Y-41273809D01*
X16166666Y-41511904D01*
X16119047Y-41607142D01*
X16071428Y-41654761D01*
X15976190Y-41702380D01*
X15690476Y-41702380D01*
X15595238Y-41654761D01*
X15547619Y-41607142D01*
%TO.C,R1*%
X31312380Y-15191666D02*
X30836190Y-15525000D01*
X31312380Y-15763095D02*
X30312380Y-15763095D01*
X30312380Y-15382142D01*
X30360000Y-15286904D01*
X30407619Y-15239285D01*
X30502857Y-15191666D01*
X30645714Y-15191666D01*
X30740952Y-15239285D01*
X30788571Y-15286904D01*
X30836190Y-15382142D01*
X30836190Y-15763095D01*
X31312380Y-14239285D02*
X31312380Y-14810714D01*
X31312380Y-14525000D02*
X30312380Y-14525000D01*
X30455238Y-14620238D01*
X30550476Y-14715476D01*
X30598095Y-14810714D01*
%TO.C,J1*%
X39166666Y-13452380D02*
X39166666Y-14166666D01*
X39119047Y-14309523D01*
X39023809Y-14404761D01*
X38880952Y-14452380D01*
X38785714Y-14452380D01*
X40166666Y-14452380D02*
X39595238Y-14452380D01*
X39880952Y-14452380D02*
X39880952Y-13452380D01*
X39785714Y-13595238D01*
X39690476Y-13690476D01*
X39595238Y-13738095D01*
%TO.C,U1*%
X26738095Y-32232380D02*
X26738095Y-33041904D01*
X26785714Y-33137142D01*
X26833333Y-33184761D01*
X26928571Y-33232380D01*
X27119047Y-33232380D01*
X27214285Y-33184761D01*
X27261904Y-33137142D01*
X27309523Y-33041904D01*
X27309523Y-32232380D01*
X28309523Y-33232380D02*
X27738095Y-33232380D01*
X28023809Y-33232380D02*
X28023809Y-32232380D01*
X27928571Y-32375238D01*
X27833333Y-32470476D01*
X27738095Y-32518095D01*
%TO.C,J2*%
X24166666Y-13452380D02*
X24166666Y-14166666D01*
X24119047Y-14309523D01*
X24023809Y-14404761D01*
X23880952Y-14452380D01*
X23785714Y-14452380D01*
X24595238Y-13547619D02*
X24642857Y-13500000D01*
X24738095Y-13452380D01*
X24976190Y-13452380D01*
X25071428Y-13500000D01*
X25119047Y-13547619D01*
X25166666Y-13642857D01*
X25166666Y-13738095D01*
X25119047Y-13880952D01*
X24547619Y-14452380D01*
X25166666Y-14452380D01*
%TO.C,R4*%
X39702380Y-40141666D02*
X39226190Y-40475000D01*
X39702380Y-40713095D02*
X38702380Y-40713095D01*
X38702380Y-40332142D01*
X38750000Y-40236904D01*
X38797619Y-40189285D01*
X38892857Y-40141666D01*
X39035714Y-40141666D01*
X39130952Y-40189285D01*
X39178571Y-40236904D01*
X39226190Y-40332142D01*
X39226190Y-40713095D01*
X39035714Y-39284523D02*
X39702380Y-39284523D01*
X38654761Y-39522619D02*
X39369047Y-39760714D01*
X39369047Y-39141666D01*
D11*
%TO.C,J5*%
X50600000Y-8960000D02*
X51960000Y-8960000D01*
X50600000Y-15560000D02*
X50600000Y-16580000D01*
X50600000Y-20640000D02*
X50600000Y-21660000D01*
X45400000Y-10480000D02*
X45400000Y-11500000D01*
X50600000Y-46040000D02*
X50600000Y-46610000D01*
X45400000Y-40960000D02*
X45400000Y-41980000D01*
X50600000Y-13020000D02*
X50600000Y-14040000D01*
X50600000Y-38420000D02*
X50600000Y-39440000D01*
X45400000Y-18100000D02*
X45400000Y-19120000D01*
X45400000Y-35880000D02*
X45400000Y-36900000D01*
X50600000Y-35880000D02*
X50600000Y-36900000D01*
X45400000Y-43500000D02*
X45400000Y-44520000D01*
X45400000Y-38420000D02*
X45400000Y-39440000D01*
X50600000Y-33340000D02*
X50600000Y-34360000D01*
X45400000Y-15560000D02*
X45400000Y-16580000D01*
X50600000Y-23180000D02*
X50600000Y-24200000D01*
X45400000Y-20640000D02*
X45400000Y-21660000D01*
X50600000Y-30800000D02*
X50600000Y-31820000D01*
X45400000Y-23180000D02*
X45400000Y-24200000D01*
X45400000Y-30800000D02*
X45400000Y-31820000D01*
X50600000Y-28260000D02*
X50600000Y-29280000D01*
X50600000Y-25720000D02*
X50600000Y-26740000D01*
X45400000Y-46610000D02*
X50600000Y-46610000D01*
X50600000Y-43500000D02*
X50600000Y-44520000D01*
X45400000Y-8390000D02*
X50600000Y-8390000D01*
X45400000Y-8390000D02*
X45400000Y-8960000D01*
X50600000Y-10480000D02*
X50600000Y-11500000D01*
X45400000Y-13020000D02*
X45400000Y-14040000D01*
X45400000Y-25720000D02*
X45400000Y-26740000D01*
X50600000Y-8390000D02*
X50600000Y-8960000D01*
X45400000Y-33340000D02*
X45400000Y-34360000D01*
X50600000Y-40960000D02*
X50600000Y-41980000D01*
X45400000Y-28260000D02*
X45400000Y-29280000D01*
X50600000Y-18100000D02*
X50600000Y-19120000D01*
X45400000Y-46040000D02*
X45400000Y-46610000D01*
%TO.C,C2*%
X21227064Y-31265000D02*
X20772936Y-31265000D01*
X21227064Y-32735000D02*
X20772936Y-32735000D01*
%TO.C,R3*%
X21805000Y-39772936D02*
X21805000Y-40227064D01*
X23275000Y-39772936D02*
X23275000Y-40227064D01*
%TO.C,C1*%
X21227064Y-30735000D02*
X20772936Y-30735000D01*
X21227064Y-29265000D02*
X20772936Y-29265000D01*
D12*
%TO.C,J8*%
X40080000Y-54500000D02*
X29420000Y-54500000D01*
X40080000Y-42500000D02*
X40080000Y-54500000D01*
X29420000Y-54500000D02*
X29420000Y-42500000D01*
X29420000Y-42500000D02*
X40080000Y-42500000D01*
D13*
X28838000Y-44594000D02*
G75*
G03*
X28838000Y-44594000I-100000J0D01*
G01*
D11*
%TO.C,R2*%
X16725000Y-15227064D02*
X16725000Y-14772936D01*
X18195000Y-15227064D02*
X18195000Y-14772936D01*
%TO.C,J4*%
X4400000Y-10480000D02*
X4400000Y-11500000D01*
X4400000Y-38420000D02*
X4400000Y-39440000D01*
X9600000Y-46040000D02*
X9600000Y-46610000D01*
X4400000Y-30800000D02*
X4400000Y-31820000D01*
X4400000Y-8390000D02*
X9600000Y-8390000D01*
X9600000Y-10480000D02*
X9600000Y-11500000D01*
X9600000Y-15560000D02*
X9600000Y-16580000D01*
X4400000Y-46040000D02*
X4400000Y-46610000D01*
X4400000Y-8390000D02*
X4400000Y-8960000D01*
X4400000Y-20640000D02*
X4400000Y-21660000D01*
X9600000Y-30800000D02*
X9600000Y-31820000D01*
X9600000Y-40960000D02*
X9600000Y-41980000D01*
X4400000Y-13020000D02*
X4400000Y-14040000D01*
X9600000Y-8390000D02*
X9600000Y-8960000D01*
X9600000Y-25720000D02*
X9600000Y-26740000D01*
X9600000Y-43500000D02*
X9600000Y-44520000D01*
X4400000Y-15560000D02*
X4400000Y-16580000D01*
X9600000Y-20640000D02*
X9600000Y-21660000D01*
X4400000Y-43500000D02*
X4400000Y-44520000D01*
X9600000Y-33340000D02*
X9600000Y-34360000D01*
X4400000Y-33340000D02*
X4400000Y-34360000D01*
X4400000Y-28260000D02*
X4400000Y-29280000D01*
X9600000Y-23180000D02*
X9600000Y-24200000D01*
X9600000Y-35880000D02*
X9600000Y-36900000D01*
X9600000Y-38420000D02*
X9600000Y-39440000D01*
X9600000Y-28260000D02*
X9600000Y-29280000D01*
X4400000Y-25720000D02*
X4400000Y-26740000D01*
X9600000Y-18100000D02*
X9600000Y-19120000D01*
X4400000Y-35880000D02*
X4400000Y-36900000D01*
X4400000Y-18100000D02*
X4400000Y-19120000D01*
X4400000Y-40960000D02*
X4400000Y-41980000D01*
X9600000Y-8960000D02*
X10960000Y-8960000D01*
X4400000Y-46610000D02*
X9600000Y-46610000D01*
X4400000Y-23180000D02*
X4400000Y-24200000D01*
X9600000Y-13020000D02*
X9600000Y-14040000D01*
D12*
%TO.C,J3*%
X25080000Y-42500000D02*
X25080000Y-54500000D01*
X25080000Y-54500000D02*
X14420000Y-54500000D01*
X14420000Y-42500000D02*
X25080000Y-42500000D01*
X14420000Y-54500000D02*
X14420000Y-42500000D01*
D13*
X13838000Y-44594000D02*
G75*
G03*
X13838000Y-44594000I-100000J0D01*
G01*
D11*
%TO.C,R1*%
X31725000Y-15227064D02*
X31725000Y-14772936D01*
X33195000Y-15227064D02*
X33195000Y-14772936D01*
D12*
%TO.C,J1*%
X40580000Y-12500000D02*
X29920000Y-12500000D01*
X29920000Y-500000D02*
X40580000Y-500000D01*
X40580000Y-500000D02*
X40580000Y-12500000D01*
X29920000Y-12500000D02*
X29920000Y-500000D01*
D13*
X41362000Y-10406000D02*
G75*
G03*
X41362000Y-10406000I-100000J0D01*
G01*
D11*
%TO.C,U1*%
X27500000Y-31935000D02*
X30950000Y-31935000D01*
X27500000Y-31935000D02*
X25550000Y-31935000D01*
X27500000Y-23065000D02*
X25550000Y-23065000D01*
X27500000Y-23065000D02*
X29450000Y-23065000D01*
D12*
%TO.C,J2*%
X14920000Y-12500000D02*
X14920000Y-500000D01*
X14920000Y-500000D02*
X25580000Y-500000D01*
X25580000Y-12500000D02*
X14920000Y-12500000D01*
X25580000Y-500000D02*
X25580000Y-12500000D01*
D13*
X26362000Y-10406000D02*
G75*
G03*
X26362000Y-10406000I-100000J0D01*
G01*
D11*
%TO.C,R4*%
X36805000Y-39772936D02*
X36805000Y-40227064D01*
X38275000Y-39772936D02*
X38275000Y-40227064D01*
%TD*%
M02*
