%TF.GenerationSoftware,KiCad,Pcbnew,(6.0.4-0)*%
%TF.CreationDate,2022-04-10T13:32:53+02:00*%
%TF.ProjectId,Stratberry_Module,53747261-7462-4657-9272-795f4d6f6475,rev?*%
%TF.SameCoordinates,Original*%
%TF.FileFunction,Soldermask,Top*%
%TF.FilePolarity,Negative*%
%FSLAX46Y46*%
G04 Gerber Fmt 4.6, Leading zero omitted, Abs format (unit mm)*
G04 Created by KiCad (PCBNEW (6.0.4-0)) date 2022-04-10 13:32:53*
%MOMM*%
%LPD*%
G01*
G04 APERTURE LIST*
G04 Aperture macros list*
%AMRoundRect*
0 Rectangle with rounded corners*
0 $1 Rounding radius*
0 $2 $3 $4 $5 $6 $7 $8 $9 X,Y pos of 4 corners*
0 Add a 4 corners polygon primitive as box body*
4,1,4,$2,$3,$4,$5,$6,$7,$8,$9,$2,$3,0*
0 Add four circle primitives for the rounded corners*
1,1,$1+$1,$2,$3*
1,1,$1+$1,$4,$5*
1,1,$1+$1,$6,$7*
1,1,$1+$1,$8,$9*
0 Add four rect primitives between the rounded corners*
20,1,$1+$1,$2,$3,$4,$5,0*
20,1,$1+$1,$4,$5,$6,$7,0*
20,1,$1+$1,$6,$7,$8,$9,0*
20,1,$1+$1,$8,$9,$2,$3,0*%
G04 Aperture macros list end*
%ADD10R,3.000000X1.000000*%
%ADD11C,0.800000*%
%ADD12RoundRect,0.243902X0.256098X0.456098X-0.256098X0.456098X-0.256098X-0.456098X0.256098X-0.456098X0*%
%ADD13RoundRect,0.243902X-0.456098X0.256098X-0.456098X-0.256098X0.456098X-0.256098X0.456098X0.256098X0*%
%ADD14C,5.600000*%
%ADD15R,2.100000X2.100000*%
%ADD16C,2.100000*%
%ADD17RoundRect,0.243902X0.456098X-0.256098X0.456098X0.256098X-0.456098X0.256098X-0.456098X-0.256098X0*%
%ADD18RoundRect,0.150000X0.825000X0.150000X-0.825000X0.150000X-0.825000X-0.150000X0.825000X-0.150000X0*%
G04 APERTURE END LIST*
D10*
%TO.C,J5*%
X50520000Y-9720000D03*
D11*
X52826000Y-9720000D03*
X43174000Y-9720000D03*
D10*
X45480000Y-9720000D03*
X50520000Y-12260000D03*
D11*
X52826000Y-12260000D03*
D10*
X45480000Y-12260000D03*
D11*
X43174000Y-12260000D03*
D10*
X50520000Y-14800000D03*
D11*
X52826000Y-14800000D03*
X43174000Y-14800000D03*
D10*
X45480000Y-14800000D03*
D11*
X52826000Y-17340000D03*
D10*
X50520000Y-17340000D03*
D11*
X43174000Y-17340000D03*
D10*
X45480000Y-17340000D03*
X50520000Y-19880000D03*
D11*
X52826000Y-19880000D03*
D10*
X45480000Y-19880000D03*
D11*
X43174000Y-19880000D03*
D10*
X50520000Y-22420000D03*
D11*
X52826000Y-22420000D03*
D10*
X45480000Y-22420000D03*
D11*
X43174000Y-22420000D03*
X52826000Y-24960000D03*
D10*
X50520000Y-24960000D03*
D11*
X43174000Y-24960000D03*
D10*
X45480000Y-24960000D03*
D11*
X52826000Y-27500000D03*
D10*
X50520000Y-27500000D03*
X45480000Y-27500000D03*
D11*
X43174000Y-27500000D03*
D10*
X50520000Y-30040000D03*
D11*
X52826000Y-30040000D03*
D10*
X45480000Y-30040000D03*
D11*
X43174000Y-30040000D03*
X52826000Y-32580000D03*
D10*
X50520000Y-32580000D03*
D11*
X43174000Y-32580000D03*
D10*
X45480000Y-32580000D03*
D11*
X52826000Y-35120000D03*
D10*
X50520000Y-35120000D03*
D11*
X43174000Y-35120000D03*
D10*
X45480000Y-35120000D03*
D11*
X52826000Y-37660000D03*
D10*
X50520000Y-37660000D03*
D11*
X43174000Y-37660000D03*
D10*
X45480000Y-37660000D03*
D11*
X52826000Y-40200000D03*
D10*
X50520000Y-40200000D03*
D11*
X43174000Y-40200000D03*
D10*
X45480000Y-40200000D03*
X50520000Y-42740000D03*
D11*
X52826000Y-42740000D03*
X43174000Y-42740000D03*
D10*
X45480000Y-42740000D03*
X50520000Y-45280000D03*
D11*
X52826000Y-45280000D03*
D10*
X45480000Y-45280000D03*
D11*
X43174000Y-45280000D03*
%TD*%
D12*
%TO.C,C2*%
X21912500Y-32000000D03*
X20087500Y-32000000D03*
%TD*%
D13*
%TO.C,R3*%
X22540000Y-39087500D03*
X22540000Y-40912500D03*
%TD*%
D12*
%TO.C,C1*%
X21912500Y-30000000D03*
X20087500Y-30000000D03*
%TD*%
D14*
%TO.C,H1*%
X48000000Y-4000000D03*
%TD*%
%TO.C,H4*%
X48000000Y-51000000D03*
%TD*%
D15*
%TO.C,J8*%
X32460000Y-44500000D03*
D16*
X37540000Y-44500000D03*
%TD*%
D17*
%TO.C,R2*%
X17460000Y-15912500D03*
X17460000Y-14087500D03*
%TD*%
D10*
%TO.C,J4*%
X9520000Y-9720000D03*
D11*
X11826000Y-9720000D03*
X2174000Y-9720000D03*
D10*
X4480000Y-9720000D03*
D11*
X11826000Y-12260000D03*
D10*
X9520000Y-12260000D03*
X4480000Y-12260000D03*
D11*
X2174000Y-12260000D03*
X11826000Y-14800000D03*
D10*
X9520000Y-14800000D03*
X4480000Y-14800000D03*
D11*
X2174000Y-14800000D03*
D10*
X9520000Y-17340000D03*
D11*
X11826000Y-17340000D03*
D10*
X4480000Y-17340000D03*
D11*
X2174000Y-17340000D03*
D10*
X9520000Y-19880000D03*
D11*
X11826000Y-19880000D03*
D10*
X4480000Y-19880000D03*
D11*
X2174000Y-19880000D03*
X11826000Y-22420000D03*
D10*
X9520000Y-22420000D03*
X4480000Y-22420000D03*
D11*
X2174000Y-22420000D03*
X11826000Y-24960000D03*
D10*
X9520000Y-24960000D03*
D11*
X2174000Y-24960000D03*
D10*
X4480000Y-24960000D03*
D11*
X11826000Y-27500000D03*
D10*
X9520000Y-27500000D03*
X4480000Y-27500000D03*
D11*
X2174000Y-27500000D03*
X11826000Y-30040000D03*
D10*
X9520000Y-30040000D03*
D11*
X2174000Y-30040000D03*
D10*
X4480000Y-30040000D03*
X9520000Y-32580000D03*
D11*
X11826000Y-32580000D03*
D10*
X4480000Y-32580000D03*
D11*
X2174000Y-32580000D03*
X11826000Y-35120000D03*
D10*
X9520000Y-35120000D03*
X4480000Y-35120000D03*
D11*
X2174000Y-35120000D03*
X11826000Y-37660000D03*
D10*
X9520000Y-37660000D03*
D11*
X2174000Y-37660000D03*
D10*
X4480000Y-37660000D03*
X9520000Y-40200000D03*
D11*
X11826000Y-40200000D03*
D10*
X4480000Y-40200000D03*
D11*
X2174000Y-40200000D03*
X11826000Y-42740000D03*
D10*
X9520000Y-42740000D03*
D11*
X2174000Y-42740000D03*
D10*
X4480000Y-42740000D03*
X9520000Y-45280000D03*
D11*
X11826000Y-45280000D03*
X2174000Y-45280000D03*
D10*
X4480000Y-45280000D03*
%TD*%
D15*
%TO.C,J3*%
X17460000Y-44500000D03*
D16*
X22540000Y-44500000D03*
%TD*%
D17*
%TO.C,R1*%
X32460000Y-15912500D03*
X32460000Y-14087500D03*
%TD*%
D15*
%TO.C,J1*%
X37540000Y-10500000D03*
D16*
X32460000Y-10500000D03*
%TD*%
D14*
%TO.C,H3*%
X7000000Y-51000000D03*
%TD*%
D18*
%TO.C,U1*%
X29975000Y-31310000D03*
X29975000Y-30040000D03*
X29975000Y-28770000D03*
X29975000Y-27500000D03*
X29975000Y-26230000D03*
X29975000Y-24960000D03*
X29975000Y-23690000D03*
X25025000Y-23690000D03*
X25025000Y-24960000D03*
X25025000Y-26230000D03*
X25025000Y-27500000D03*
X25025000Y-28770000D03*
X25025000Y-30040000D03*
X25025000Y-31310000D03*
%TD*%
D15*
%TO.C,J2*%
X22540000Y-10500000D03*
D16*
X17460000Y-10500000D03*
%TD*%
D13*
%TO.C,R4*%
X37540000Y-39087500D03*
X37540000Y-40912500D03*
%TD*%
D14*
%TO.C,H2*%
X7000000Y-4000000D03*
%TD*%
M02*
