Designator,Mid X,Mid Y,Layer,Rotation
D1,32.500000mm,-17.500000mm,Top,0
D2,32.500000mm,-22.500000mm,Top,0
D3,32.500000mm,-27.500000mm,Top,0
D4,32.500000mm,-34.500000mm,Top,0
D5,32.500000mm,-39.500000mm,Top,0
D6,32.500000mm,-46.500000mm,Top,0
D7,32.500000mm,-51.500000mm,Top,0
H1,48.000000mm,-4.000000mm,Top,0
H2,7.000000mm,-4.000000mm,Top,0
H3,7.000000mm,-51.000000mm,Top,0
H4,48.000000mm,-51.000000mm,Top,0
J1,27.500000mm,-5.250000mm,Top,180
J4,7.000000mm,-27.500000mm,Top,0
J5,48.000000mm,-27.500000mm,Top,0
R1,37.500000mm,-17.500000mm,Top,0
R2,37.500000mm,-22.500000mm,Top,0
R3,37.500000mm,-27.500000mm,Top,0
R4,37.500000mm,-34.500000mm,Top,0
R5,37.500000mm,-39.500000mm,Top,0
R6,37.500000mm,-46.500000mm,Top,0
R7,37.500000mm,-51.500000mm,Top,0
