M48
; DRILL file {KiCad (6.0.6-0)} date Dienstag, 12. Juli 2022 um 10:27:14
; FORMAT={-:-/ absolute / metric / decimal}
; #@! TF.CreationDate,2022-07-12T10:27:14+02:00
; #@! TF.GenerationSoftware,Kicad,Pcbnew,(6.0.6-0)
; #@! TF.FileFunction,Plated,1,2,PTH
FMAT,2
METRIC
; #@! TA.AperFunction,Plated,PTH,ComponentDrill
T1C0.400
; #@! TA.AperFunction,Plated,PTH,ComponentDrill
T2C3.200
%
G90
G05
T1
X2.174Y-9.72
X2.174Y-12.26
X2.174Y-14.8
X2.174Y-17.34
X2.174Y-19.88
X2.174Y-22.42
X2.174Y-24.96
X2.174Y-27.5
X2.174Y-30.04
X2.174Y-32.58
X2.174Y-35.12
X2.174Y-37.66
X2.174Y-40.2
X2.174Y-42.74
X2.174Y-45.28
X11.826Y-9.72
X11.826Y-12.26
X11.826Y-14.8
X11.826Y-17.34
X11.826Y-19.88
X11.826Y-22.42
X11.826Y-24.96
X11.826Y-27.5
X11.826Y-30.04
X11.826Y-32.58
X11.826Y-35.12
X11.826Y-37.66
X11.826Y-40.2
X11.826Y-42.74
X11.826Y-45.28
X43.174Y-9.72
X43.174Y-12.26
X43.174Y-14.8
X43.174Y-17.34
X43.174Y-19.88
X43.174Y-22.42
X43.174Y-24.96
X43.174Y-27.5
X43.174Y-30.04
X43.174Y-32.58
X43.174Y-35.12
X43.174Y-37.66
X43.174Y-40.2
X43.174Y-42.74
X43.174Y-45.28
X52.826Y-9.72
X52.826Y-12.26
X52.826Y-14.8
X52.826Y-17.34
X52.826Y-19.88
X52.826Y-22.42
X52.826Y-24.96
X52.826Y-27.5
X52.826Y-30.04
X52.826Y-32.58
X52.826Y-35.12
X52.826Y-37.66
X52.826Y-40.2
X52.826Y-42.74
X52.826Y-45.28
T2
X7.0Y-4.0
X7.0Y-51.0
X48.0Y-4.0
X48.0Y-51.0
T0
M30
