(export (version "E")
  (design
    (source "/Users/falkoschmidt/Documents/05_Eletronik-Projekte/minialu-uulm/pcb-design/MiniALU_UULM.kicad_sch")
    (date "2021 December 19, Sunday 16:18:58")
    (tool "Eeschema (6.0.0-rc2-10-g700a334955)")
    (sheet (number "1") (name "/") (tstamps "/")
      (title_block
        (title "MiniALU - UULM")
        (company "Falko Schmidt for the University of Ulm")
        (rev "v1.0")
        (date "2021-11-30")
        (source "MiniALU_UULM.kicad_sch")
        (comment (number "1") (value ""))
        (comment (number "2") (value ""))
        (comment (number "3") (value ""))
        (comment (number "4") (value ""))
        (comment (number "5") (value ""))
        (comment (number "6") (value ""))
        (comment (number "7") (value ""))
        (comment (number "8") (value ""))
        (comment (number "9") (value "")))))
  (components
    (comp (ref "C1")
      (value "100n")
      (footprint "footprints:C_Disc_D5.0mm_W2.5mm_P2.50mm")
      (datasheet "https://www.vishay.com/docs/45171/kseries.pdf")
      (libsource (lib "KiCAD_Library_FalkoSchmidt_UULM") (part "C_Vishay_K-Series") (description "Unpolarized capacitor, small symbol, K-Series, Size code 15"))
      (property (name "Sheetname") (value ""))
      (property (name "Sheetfile") (value "MiniALU_UULM.kicad_sch"))
      (sheetpath (names "/") (tstamps "/"))
      (tstamps "6178f510-4299-4af5-9cf4-5da2f76b462b"))
    (comp (ref "D1")
      (value "A[0]")
      (footprint "footprints:LED_D5mm_THT")
      (libsource (lib "KiCAD_Library_FalkoSchmidt_UULM") (part "LED_T1-3{slash}4_D5mm_THT") (description "A standard LED in form factor 0603 (SMD)."))
      (property (name "Sheetname") (value ""))
      (property (name "Sheetfile") (value "MiniALU_UULM.kicad_sch"))
      (sheetpath (names "/") (tstamps "/"))
      (tstamps "bb9f866f-c412-44a7-b55d-30321c4c9472"))
    (comp (ref "D2")
      (value "A[1]")
      (footprint "footprints:LED_D5mm_THT")
      (libsource (lib "KiCAD_Library_FalkoSchmidt_UULM") (part "LED_T1-3{slash}4_D5mm_THT") (description "A standard LED in form factor 0603 (SMD)."))
      (property (name "Sheetname") (value ""))
      (property (name "Sheetfile") (value "MiniALU_UULM.kicad_sch"))
      (sheetpath (names "/") (tstamps "/"))
      (tstamps "9e48ad58-1878-43fa-a25a-807bd5eca976"))
    (comp (ref "D3")
      (value "A[2]")
      (footprint "footprints:LED_D5mm_THT")
      (libsource (lib "KiCAD_Library_FalkoSchmidt_UULM") (part "LED_T1-3{slash}4_D5mm_THT") (description "A standard LED in form factor 0603 (SMD)."))
      (property (name "Sheetname") (value ""))
      (property (name "Sheetfile") (value "MiniALU_UULM.kicad_sch"))
      (sheetpath (names "/") (tstamps "/"))
      (tstamps "d7b3e282-08fa-4ddc-940b-3ab6d8f445d3"))
    (comp (ref "D4")
      (value "A[3]")
      (footprint "footprints:LED_D5mm_THT")
      (libsource (lib "KiCAD_Library_FalkoSchmidt_UULM") (part "LED_T1-3{slash}4_D5mm_THT") (description "A standard LED in form factor 0603 (SMD)."))
      (property (name "Sheetname") (value ""))
      (property (name "Sheetfile") (value "MiniALU_UULM.kicad_sch"))
      (sheetpath (names "/") (tstamps "/"))
      (tstamps "870879e8-ae24-4302-80cb-723eb03abae0"))
    (comp (ref "D5")
      (value "B[0]")
      (footprint "footprints:LED_D5mm_THT")
      (libsource (lib "KiCAD_Library_FalkoSchmidt_UULM") (part "LED_T1-3{slash}4_D5mm_THT") (description "A standard LED in form factor 0603 (SMD)."))
      (property (name "Sheetname") (value ""))
      (property (name "Sheetfile") (value "MiniALU_UULM.kicad_sch"))
      (sheetpath (names "/") (tstamps "/"))
      (tstamps "0dd6dbf9-1521-4702-bc1f-9b40c9c97111"))
    (comp (ref "D6")
      (value "B[1]")
      (footprint "footprints:LED_D5mm_THT")
      (libsource (lib "KiCAD_Library_FalkoSchmidt_UULM") (part "LED_T1-3{slash}4_D5mm_THT") (description "A standard LED in form factor 0603 (SMD)."))
      (property (name "Sheetname") (value ""))
      (property (name "Sheetfile") (value "MiniALU_UULM.kicad_sch"))
      (sheetpath (names "/") (tstamps "/"))
      (tstamps "01e5e8e3-bebf-427f-beeb-dd594d25bb37"))
    (comp (ref "D7")
      (value "B[2]")
      (footprint "footprints:LED_D5mm_THT")
      (libsource (lib "KiCAD_Library_FalkoSchmidt_UULM") (part "LED_T1-3{slash}4_D5mm_THT") (description "A standard LED in form factor 0603 (SMD)."))
      (property (name "Sheetname") (value ""))
      (property (name "Sheetfile") (value "MiniALU_UULM.kicad_sch"))
      (sheetpath (names "/") (tstamps "/"))
      (tstamps "edb65617-195c-4e2b-b422-3eb27f02376a"))
    (comp (ref "D8")
      (value "B[3]")
      (footprint "footprints:LED_D5mm_THT")
      (libsource (lib "KiCAD_Library_FalkoSchmidt_UULM") (part "LED_T1-3{slash}4_D5mm_THT") (description "A standard LED in form factor 0603 (SMD)."))
      (property (name "Sheetname") (value ""))
      (property (name "Sheetfile") (value "MiniALU_UULM.kicad_sch"))
      (sheetpath (names "/") (tstamps "/"))
      (tstamps "0440cc1f-b4e3-4b1f-8782-00266ba8283e"))
    (comp (ref "D9")
      (value "Carry")
      (footprint "footprints:LED_D5mm_THT")
      (libsource (lib "KiCAD_Library_FalkoSchmidt_UULM") (part "LED_T1-3{slash}4_D5mm_THT") (description "A standard LED in form factor 0603 (SMD)."))
      (property (name "Sheetname") (value ""))
      (property (name "Sheetfile") (value "MiniALU_UULM.kicad_sch"))
      (sheetpath (names "/") (tstamps "/"))
      (tstamps "26839628-d12b-43be-b6d4-3193eb3b2a63"))
    (comp (ref "D10")
      (value "S[0]")
      (footprint "footprints:LED_D5mm_THT")
      (libsource (lib "KiCAD_Library_FalkoSchmidt_UULM") (part "LED_T1-3{slash}4_D5mm_THT") (description "A standard LED in form factor 0603 (SMD)."))
      (property (name "Sheetname") (value ""))
      (property (name "Sheetfile") (value "MiniALU_UULM.kicad_sch"))
      (sheetpath (names "/") (tstamps "/"))
      (tstamps "c11ba3b8-c31f-4729-bd58-9dac69305d37"))
    (comp (ref "D11")
      (value "S[0]")
      (footprint "footprints:LED_D5mm_THT")
      (libsource (lib "KiCAD_Library_FalkoSchmidt_UULM") (part "LED_T1-3{slash}4_D5mm_THT") (description "A standard LED in form factor 0603 (SMD)."))
      (property (name "Sheetname") (value ""))
      (property (name "Sheetfile") (value "MiniALU_UULM.kicad_sch"))
      (sheetpath (names "/") (tstamps "/"))
      (tstamps "5943b1db-e147-4d77-9208-e438ef32be7d"))
    (comp (ref "D12")
      (value "S[0]")
      (footprint "footprints:LED_D5mm_THT")
      (libsource (lib "KiCAD_Library_FalkoSchmidt_UULM") (part "LED_T1-3{slash}4_D5mm_THT") (description "A standard LED in form factor 0603 (SMD)."))
      (property (name "Sheetname") (value ""))
      (property (name "Sheetfile") (value "MiniALU_UULM.kicad_sch"))
      (sheetpath (names "/") (tstamps "/"))
      (tstamps "240cdf9a-2e44-4698-a510-edc2da32f6d0"))
    (comp (ref "D13")
      (value "S[0]")
      (footprint "footprints:LED_D5mm_THT")
      (libsource (lib "KiCAD_Library_FalkoSchmidt_UULM") (part "LED_T1-3{slash}4_D5mm_THT") (description "A standard LED in form factor 0603 (SMD)."))
      (property (name "Sheetname") (value ""))
      (property (name "Sheetfile") (value "MiniALU_UULM.kicad_sch"))
      (sheetpath (names "/") (tstamps "/"))
      (tstamps "f77fe704-3e74-4464-8e49-c914639780f7"))
    (comp (ref "D14")
      (value "MODE")
      (footprint "footprints:LED_D5mm_THT")
      (libsource (lib "KiCAD_Library_FalkoSchmidt_UULM") (part "LED_T1-3{slash}4_D5mm_THT") (description "A standard LED in form factor 0603 (SMD)."))
      (property (name "Sheetname") (value ""))
      (property (name "Sheetfile") (value "MiniALU_UULM.kicad_sch"))
      (sheetpath (names "/") (tstamps "/"))
      (tstamps "7048b6de-9faa-47a1-99c5-b74e17a09a6e"))
    (comp (ref "H1")
      (value "MountingHole_M3_DIN965_Pad")
      (footprint "footprints:MountingHole_M3_DIN965_Pad")
      (libsource (lib "KiCAD_Library_FalkoSchmidt_UULM") (part "MountingHole_M3_DIN965_Pad") (description "A simple mounting hole for M3 screws with pads on both sides."))
      (property (name "Sheetname") (value ""))
      (property (name "Sheetfile") (value "MiniALU_UULM.kicad_sch"))
      (sheetpath (names "/") (tstamps "/"))
      (tstamps "ad0aa4aa-1adc-4afd-937f-4e952d7b0848"))
    (comp (ref "H2")
      (value "MountingHole_M3_DIN965_Pad")
      (footprint "footprints:MountingHole_M3_DIN965_Pad")
      (libsource (lib "KiCAD_Library_FalkoSchmidt_UULM") (part "MountingHole_M3_DIN965_Pad") (description "A simple mounting hole for M3 screws with pads on both sides."))
      (property (name "Sheetname") (value ""))
      (property (name "Sheetfile") (value "MiniALU_UULM.kicad_sch"))
      (sheetpath (names "/") (tstamps "/"))
      (tstamps "3ce06739-c74c-40bf-b331-9c3ae9144e19"))
    (comp (ref "H3")
      (value "MountingHole_M3_DIN965_Pad")
      (footprint "footprints:MountingHole_M3_DIN965_Pad")
      (libsource (lib "KiCAD_Library_FalkoSchmidt_UULM") (part "MountingHole_M3_DIN965_Pad") (description "A simple mounting hole for M3 screws with pads on both sides."))
      (property (name "Sheetname") (value ""))
      (property (name "Sheetfile") (value "MiniALU_UULM.kicad_sch"))
      (sheetpath (names "/") (tstamps "/"))
      (tstamps "03ab2b8b-a925-4781-9cb2-f82157c5e198"))
    (comp (ref "H4")
      (value "MountingHole_M3_DIN965_Pad")
      (footprint "footprints:MountingHole_M3_DIN965_Pad")
      (libsource (lib "KiCAD_Library_FalkoSchmidt_UULM") (part "MountingHole_M3_DIN965_Pad") (description "A simple mounting hole for M3 screws with pads on both sides."))
      (property (name "Sheetname") (value ""))
      (property (name "Sheetfile") (value "MiniALU_UULM.kicad_sch"))
      (sheetpath (names "/") (tstamps "/"))
      (tstamps "c4c53757-6e7c-467d-b193-b8e0955076f9"))
    (comp (ref "J1")
      (value "VCC")
      (footprint "footprints:MKDS_1.5-2-5.08 BK")
      (datasheet "https://www.mouser.de/datasheet/2/324/1/718760-1436873.pdf")
      (libsource (lib "KiCAD_Library_FalkoSchmidt_UULM") (part "MKDS_1.5{slash}_2-5.08") (description "Screw Terminal from Phoenix Contact with 5.08mm pitch."))
      (property (name "Sheetname") (value ""))
      (property (name "Sheetfile") (value "MiniALU_UULM.kicad_sch"))
      (sheetpath (names "/") (tstamps "/"))
      (tstamps "d86e3282-77dd-4d1e-88dd-4cb10dbefa34"))
    (comp (ref "R1")
      (value "300")
      (footprint "footprints:R_Axial_DIN0207_L6.3mm_D2.5mm_P2.54mm_Vertical")
      (datasheet "~")
      (libsource (lib "Device") (part "R_Small") (description "Resistor, small symbol"))
      (property (name "Sheetname") (value ""))
      (property (name "Sheetfile") (value "MiniALU_UULM.kicad_sch"))
      (sheetpath (names "/") (tstamps "/"))
      (tstamps "f74821cd-eba2-43bc-9246-76e95b9aedcb"))
    (comp (ref "R2")
      (value "300")
      (footprint "footprints:R_Axial_DIN0207_L6.3mm_D2.5mm_P2.54mm_Vertical")
      (datasheet "~")
      (libsource (lib "Device") (part "R_Small") (description "Resistor, small symbol"))
      (property (name "Sheetname") (value ""))
      (property (name "Sheetfile") (value "MiniALU_UULM.kicad_sch"))
      (sheetpath (names "/") (tstamps "/"))
      (tstamps "3b96970f-1c07-4bdf-a0d7-55c3946bbfb7"))
    (comp (ref "R3")
      (value "300")
      (footprint "footprints:R_Axial_DIN0207_L6.3mm_D2.5mm_P2.54mm_Vertical")
      (datasheet "~")
      (libsource (lib "Device") (part "R_Small") (description "Resistor, small symbol"))
      (property (name "Sheetname") (value ""))
      (property (name "Sheetfile") (value "MiniALU_UULM.kicad_sch"))
      (sheetpath (names "/") (tstamps "/"))
      (tstamps "167c4b48-3f69-4abf-9a58-acf912244446"))
    (comp (ref "R4")
      (value "300")
      (footprint "footprints:R_Axial_DIN0207_L6.3mm_D2.5mm_P2.54mm_Vertical")
      (datasheet "~")
      (libsource (lib "Device") (part "R_Small") (description "Resistor, small symbol"))
      (property (name "Sheetname") (value ""))
      (property (name "Sheetfile") (value "MiniALU_UULM.kicad_sch"))
      (sheetpath (names "/") (tstamps "/"))
      (tstamps "2440f130-3458-445e-87af-854f433aae3d"))
    (comp (ref "R5")
      (value "300")
      (footprint "footprints:R_Axial_DIN0207_L6.3mm_D2.5mm_P2.54mm_Vertical")
      (datasheet "~")
      (libsource (lib "Device") (part "R_Small") (description "Resistor, small symbol"))
      (property (name "Sheetname") (value ""))
      (property (name "Sheetfile") (value "MiniALU_UULM.kicad_sch"))
      (sheetpath (names "/") (tstamps "/"))
      (tstamps "747a78fa-584e-44f0-bbc5-5cc5ebcb97a9"))
    (comp (ref "R6")
      (value "300")
      (footprint "footprints:R_Axial_DIN0207_L6.3mm_D2.5mm_P2.54mm_Vertical")
      (datasheet "~")
      (libsource (lib "Device") (part "R_Small") (description "Resistor, small symbol"))
      (property (name "Sheetname") (value ""))
      (property (name "Sheetfile") (value "MiniALU_UULM.kicad_sch"))
      (sheetpath (names "/") (tstamps "/"))
      (tstamps "cf55f30e-7067-4954-a9d6-4267ca5e5676"))
    (comp (ref "R7")
      (value "300")
      (footprint "footprints:R_Axial_DIN0207_L6.3mm_D2.5mm_P2.54mm_Vertical")
      (datasheet "~")
      (libsource (lib "Device") (part "R_Small") (description "Resistor, small symbol"))
      (property (name "Sheetname") (value ""))
      (property (name "Sheetfile") (value "MiniALU_UULM.kicad_sch"))
      (sheetpath (names "/") (tstamps "/"))
      (tstamps "f15c2399-aa93-4af6-8039-ab320850e172"))
    (comp (ref "R8")
      (value "300")
      (footprint "footprints:R_Axial_DIN0207_L6.3mm_D2.5mm_P2.54mm_Vertical")
      (datasheet "~")
      (libsource (lib "Device") (part "R_Small") (description "Resistor, small symbol"))
      (property (name "Sheetname") (value ""))
      (property (name "Sheetfile") (value "MiniALU_UULM.kicad_sch"))
      (sheetpath (names "/") (tstamps "/"))
      (tstamps "739c7d95-4bb7-4cde-8e07-7f56a3662a9b"))
    (comp (ref "R9")
      (value "300")
      (footprint "footprints:R_Axial_DIN0207_L6.3mm_D2.5mm_P2.54mm_Vertical")
      (datasheet "~")
      (fields
        (field (name "Mouser-Nr") " 603-CFR-25JT-52-300R"))
      (libsource (lib "Device") (part "R_Small") (description "Resistor, small symbol"))
      (property (name "Mouser-Nr") (value " 603-CFR-25JT-52-300R"))
      (property (name "Sheetname") (value ""))
      (property (name "Sheetfile") (value "MiniALU_UULM.kicad_sch"))
      (sheetpath (names "/") (tstamps "/"))
      (tstamps "12e22e21-1a90-45c6-8367-2d9d4793a1a6"))
    (comp (ref "R10")
      (value "300")
      (footprint "footprints:R_Axial_DIN0207_L6.3mm_D2.5mm_P2.54mm_Vertical")
      (datasheet "~")
      (libsource (lib "Device") (part "R_Small") (description "Resistor, small symbol"))
      (property (name "Sheetname") (value ""))
      (property (name "Sheetfile") (value "MiniALU_UULM.kicad_sch"))
      (sheetpath (names "/") (tstamps "/"))
      (tstamps "8d991eef-83cd-45f5-be0f-b0dca673a7f8"))
    (comp (ref "R11")
      (value "300")
      (footprint "footprints:R_Axial_DIN0207_L6.3mm_D2.5mm_P2.54mm_Vertical")
      (datasheet "~")
      (libsource (lib "Device") (part "R_Small") (description "Resistor, small symbol"))
      (property (name "Sheetname") (value ""))
      (property (name "Sheetfile") (value "MiniALU_UULM.kicad_sch"))
      (sheetpath (names "/") (tstamps "/"))
      (tstamps "8fe9d492-42f5-421c-ad8c-8bef59ab92b8"))
    (comp (ref "R12")
      (value "300")
      (footprint "footprints:R_Axial_DIN0207_L6.3mm_D2.5mm_P2.54mm_Vertical")
      (datasheet "~")
      (libsource (lib "Device") (part "R_Small") (description "Resistor, small symbol"))
      (property (name "Sheetname") (value ""))
      (property (name "Sheetfile") (value "MiniALU_UULM.kicad_sch"))
      (sheetpath (names "/") (tstamps "/"))
      (tstamps "7e1fa27b-9577-4555-a00b-5c34ab59d6e4"))
    (comp (ref "R13")
      (value "300")
      (footprint "footprints:R_Axial_DIN0207_L6.3mm_D2.5mm_P2.54mm_Vertical")
      (datasheet "~")
      (libsource (lib "Device") (part "R_Small") (description "Resistor, small symbol"))
      (property (name "Sheetname") (value ""))
      (property (name "Sheetfile") (value "MiniALU_UULM.kicad_sch"))
      (sheetpath (names "/") (tstamps "/"))
      (tstamps "faef8ca6-696e-43bc-943a-d65338af9242"))
    (comp (ref "R14")
      (value "300")
      (footprint "footprints:R_Axial_DIN0207_L6.3mm_D2.5mm_P2.54mm_Vertical")
      (datasheet "~")
      (libsource (lib "Device") (part "R_Small") (description "Resistor, small symbol"))
      (property (name "Sheetname") (value ""))
      (property (name "Sheetfile") (value "MiniALU_UULM.kicad_sch"))
      (sheetpath (names "/") (tstamps "/"))
      (tstamps "2a19573b-8b1b-4707-82a0-301e4c8a9d51"))
    (comp (ref "SW1")
      (value "A[0]")
      (footprint "footprints:OS102011MS2QN1C")
      (datasheet "https://www.ckswitches.com/media/1428/os.pdf")
      (fields
        (field (name "Digikey-Nr") "CKN12284-ND")
        (field (name "Mouser-Nr") " 611-OS102011MS2QN1C"))
      (libsource (lib "KiCAD_Library_FalkoSchmidt_UULM") (part "OS102011MS2Q") (description "Miniature slide switch (SPDT) created by C&K."))
      (property (name "Mouser-Nr") (value " 611-OS102011MS2QN1C"))
      (property (name "Digikey-Nr") (value "CKN12284-ND"))
      (property (name "Sheetname") (value ""))
      (property (name "Sheetfile") (value "MiniALU_UULM.kicad_sch"))
      (sheetpath (names "/") (tstamps "/"))
      (tstamps "f08bd3d5-c6c0-47ca-8cb7-1d8f12f23bc5"))
    (comp (ref "SW2")
      (value "A[1]")
      (footprint "footprints:OS102011MS2QN1C")
      (datasheet "https://www.ckswitches.com/media/1428/os.pdf")
      (fields
        (field (name "Digikey-Nr") "CKN12284-ND")
        (field (name "Mouser-Nr") " 611-OS102011MS2QN1C"))
      (libsource (lib "KiCAD_Library_FalkoSchmidt_UULM") (part "OS102011MS2Q") (description "Miniature slide switch (SPDT) created by C&K."))
      (property (name "Mouser-Nr") (value " 611-OS102011MS2QN1C"))
      (property (name "Digikey-Nr") (value "CKN12284-ND"))
      (property (name "Sheetname") (value ""))
      (property (name "Sheetfile") (value "MiniALU_UULM.kicad_sch"))
      (sheetpath (names "/") (tstamps "/"))
      (tstamps "a25162ae-e0dc-4b04-99fe-c1f6bd10bfb0"))
    (comp (ref "SW3")
      (value "A[2]")
      (footprint "footprints:OS102011MS2QN1C")
      (datasheet "https://www.ckswitches.com/media/1428/os.pdf")
      (fields
        (field (name "Digikey-Nr") "CKN12284-ND")
        (field (name "Mouser-Nr") " 611-OS102011MS2QN1C"))
      (libsource (lib "KiCAD_Library_FalkoSchmidt_UULM") (part "OS102011MS2Q") (description "Miniature slide switch (SPDT) created by C&K."))
      (property (name "Mouser-Nr") (value " 611-OS102011MS2QN1C"))
      (property (name "Digikey-Nr") (value "CKN12284-ND"))
      (property (name "Sheetname") (value ""))
      (property (name "Sheetfile") (value "MiniALU_UULM.kicad_sch"))
      (sheetpath (names "/") (tstamps "/"))
      (tstamps "3395bace-23d0-4048-a191-07279d2507e4"))
    (comp (ref "SW4")
      (value "A[3]")
      (footprint "footprints:OS102011MS2QN1C")
      (datasheet "https://www.ckswitches.com/media/1428/os.pdf")
      (fields
        (field (name "Digikey-Nr") "CKN12284-ND")
        (field (name "Mouser-Nr") " 611-OS102011MS2QN1C"))
      (libsource (lib "KiCAD_Library_FalkoSchmidt_UULM") (part "OS102011MS2Q") (description "Miniature slide switch (SPDT) created by C&K."))
      (property (name "Mouser-Nr") (value " 611-OS102011MS2QN1C"))
      (property (name "Digikey-Nr") (value "CKN12284-ND"))
      (property (name "Sheetname") (value ""))
      (property (name "Sheetfile") (value "MiniALU_UULM.kicad_sch"))
      (sheetpath (names "/") (tstamps "/"))
      (tstamps "b5770028-62ad-409c-bf22-c3ea8478a8e4"))
    (comp (ref "SW5")
      (value "B[0]")
      (footprint "footprints:OS102011MS2QN1C")
      (datasheet "https://www.ckswitches.com/media/1428/os.pdf")
      (fields
        (field (name "Digikey-Nr") "CKN12284-ND")
        (field (name "Mouser-Nr") " 611-OS102011MS2QN1C"))
      (libsource (lib "KiCAD_Library_FalkoSchmidt_UULM") (part "OS102011MS2Q") (description "Miniature slide switch (SPDT) created by C&K."))
      (property (name "Mouser-Nr") (value " 611-OS102011MS2QN1C"))
      (property (name "Digikey-Nr") (value "CKN12284-ND"))
      (property (name "Sheetname") (value ""))
      (property (name "Sheetfile") (value "MiniALU_UULM.kicad_sch"))
      (sheetpath (names "/") (tstamps "/"))
      (tstamps "18df9810-2349-4863-8056-db78ec5b1db0"))
    (comp (ref "SW6")
      (value "B[1]")
      (footprint "footprints:OS102011MS2QN1C")
      (datasheet "https://www.ckswitches.com/media/1428/os.pdf")
      (fields
        (field (name "Digikey-Nr") "CKN12284-ND")
        (field (name "Mouser-Nr") " 611-OS102011MS2QN1C"))
      (libsource (lib "KiCAD_Library_FalkoSchmidt_UULM") (part "OS102011MS2Q") (description "Miniature slide switch (SPDT) created by C&K."))
      (property (name "Mouser-Nr") (value " 611-OS102011MS2QN1C"))
      (property (name "Digikey-Nr") (value "CKN12284-ND"))
      (property (name "Sheetname") (value ""))
      (property (name "Sheetfile") (value "MiniALU_UULM.kicad_sch"))
      (sheetpath (names "/") (tstamps "/"))
      (tstamps "b89f1eb3-f0e3-4750-a5f9-e3076e6a034c"))
    (comp (ref "SW7")
      (value "B[2]")
      (footprint "footprints:OS102011MS2QN1C")
      (datasheet "https://www.ckswitches.com/media/1428/os.pdf")
      (fields
        (field (name "Digikey-Nr") "CKN12284-ND")
        (field (name "Mouser-Nr") " 611-OS102011MS2QN1C"))
      (libsource (lib "KiCAD_Library_FalkoSchmidt_UULM") (part "OS102011MS2Q") (description "Miniature slide switch (SPDT) created by C&K."))
      (property (name "Mouser-Nr") (value " 611-OS102011MS2QN1C"))
      (property (name "Digikey-Nr") (value "CKN12284-ND"))
      (property (name "Sheetname") (value ""))
      (property (name "Sheetfile") (value "MiniALU_UULM.kicad_sch"))
      (sheetpath (names "/") (tstamps "/"))
      (tstamps "f429333a-2939-4fa9-996b-3f1aeae4b80c"))
    (comp (ref "SW8")
      (value "B[3]")
      (footprint "footprints:OS102011MS2QN1C")
      (datasheet "https://www.ckswitches.com/media/1428/os.pdf")
      (fields
        (field (name "Digikey-Nr") "CKN12284-ND")
        (field (name "Mouser-Nr") " 611-OS102011MS2QN1C"))
      (libsource (lib "KiCAD_Library_FalkoSchmidt_UULM") (part "OS102011MS2Q") (description "Miniature slide switch (SPDT) created by C&K."))
      (property (name "Mouser-Nr") (value " 611-OS102011MS2QN1C"))
      (property (name "Digikey-Nr") (value "CKN12284-ND"))
      (property (name "Sheetname") (value ""))
      (property (name "Sheetfile") (value "MiniALU_UULM.kicad_sch"))
      (sheetpath (names "/") (tstamps "/"))
      (tstamps "1e5564db-94c9-45c1-b163-e7dd3f02af8d"))
    (comp (ref "SW9")
      (value "Add/Sub")
      (footprint "footprints:OS102011MS2QN1C")
      (datasheet "https://www.ckswitches.com/media/1428/os.pdf")
      (fields
        (field (name "Digikey-Nr") "CKN12284-ND")
        (field (name "Mouser-Nr") " 611-OS102011MS2QN1C"))
      (libsource (lib "KiCAD_Library_FalkoSchmidt_UULM") (part "OS102011MS2Q") (description "Miniature slide switch (SPDT) created by C&K."))
      (property (name "Mouser-Nr") (value " 611-OS102011MS2QN1C"))
      (property (name "Digikey-Nr") (value "CKN12284-ND"))
      (property (name "Sheetname") (value ""))
      (property (name "Sheetfile") (value "MiniALU_UULM.kicad_sch"))
      (sheetpath (names "/") (tstamps "/"))
      (tstamps "ecd4dcbe-5c59-4c0a-8539-b697a382d30a"))
    (comp (ref "U1")
      (value "74HC86_DIP_with_Socket")
      (footprint "footprints:DIP-14_W7.62mm_Socket")
      (datasheet "74xx/74ls86.pdf")
      (libsource (lib "KiCAD_Library_FalkoSchmidt_UULM") (part "74HC86_DIP_with_Socket") (description "Quad 2-input XOR"))
      (property (name "Sheetname") (value ""))
      (property (name "Sheetfile") (value "MiniALU_UULM.kicad_sch"))
      (sheetpath (names "/") (tstamps "/"))
      (tstamps "72b1ba79-7637-41c4-8d6c-21f6e2f295b0" "fa49303d-d7ef-452c-9f1b-4fde213fd03a" "96f27cfa-b550-490a-9c25-4cd4d6304395" "b5c8a160-4794-43d2-97c6-1730d61495e7" "26f21be5-e48d-44f0-8c5d-489fbe127b21"))
    (comp (ref "U2")
      (value "74HC283_DIP_with_Socket")
      (footprint "footprints:DIP-16_W7.62mm_Socket")
      (datasheet "https://www.ti.com/lit/ds/symlink/cd54hc283.pdf")
      (libsource (lib "KiCAD_Library_FalkoSchmidt_UULM") (part "74HC283_DIP_with_Socket") (description ""))
      (property (name "Sheetname") (value ""))
      (property (name "Sheetfile") (value "MiniALU_UULM.kicad_sch"))
      (sheetpath (names "/") (tstamps "/"))
      (tstamps "fc287207-e0ff-4bce-98af-afb0986aa385")))
  (libparts
    (libpart (lib "Device") (part "R_Small")
      (description "Resistor, small symbol")
      (docs "~")
      (footprints
        (fp "R_*"))
      (fields
        (field (name "Reference") "R")
        (field (name "Value") "R_Small")
        (field (name "Datasheet") "~"))
      (pins
        (pin (num "1") (name "") (type "passive"))
        (pin (num "2") (name "") (type "passive"))))
    (libpart (lib "KiCAD_Library_FalkoSchmidt_UULM") (part "74HC283_DIP_with_Socket")
      (docs "https://www.ti.com/lit/ds/symlink/cd54hc283.pdf")
      (fields
        (field (name "Reference") "U")
        (field (name "Value") "74HC283_DIP_with_Socket")
        (field (name "Footprint") "footprints:DIP-16_W7.62mm_Socket")
        (field (name "Datasheet") "https://www.ti.com/lit/ds/symlink/cd54hc283.pdf"))
      (pins
        (pin (num "1") (name "S2") (type "output"))
        (pin (num "2") (name "B2") (type "input"))
        (pin (num "3") (name "A2") (type "input"))
        (pin (num "4") (name "S1") (type "output"))
        (pin (num "5") (name "A1") (type "input"))
        (pin (num "6") (name "B1") (type "input"))
        (pin (num "7") (name "C0") (type "input"))
        (pin (num "8") (name "GND") (type "power_in"))
        (pin (num "9") (name "C4") (type "output"))
        (pin (num "10") (name "S4") (type "output"))
        (pin (num "11") (name "B4") (type "input"))
        (pin (num "12") (name "A4") (type "input"))
        (pin (num "13") (name "S3") (type "output"))
        (pin (num "14") (name "A3") (type "input"))
        (pin (num "15") (name "B3") (type "input"))
        (pin (num "16") (name "VCC") (type "power_in"))))
    (libpart (lib "KiCAD_Library_FalkoSchmidt_UULM") (part "74HC86_DIP_with_Socket")
      (description "Quad 2-input XOR")
      (docs "74xx/74ls86.pdf")
      (footprints
        (fp "DIP*W7.62mm*"))
      (fields
        (field (name "Reference") "U")
        (field (name "Value") "74HC86_DIP_with_Socket")
        (field (name "Footprint") "footprints:DIP-14_W7.62mm_Socket")
        (field (name "Datasheet") "74xx/74ls86.pdf"))
      (pins
        (pin (num "1") (name "") (type "input"))
        (pin (num "2") (name "") (type "input"))
        (pin (num "3") (name "") (type "output"))
        (pin (num "4") (name "") (type "input"))
        (pin (num "5") (name "") (type "input"))
        (pin (num "6") (name "") (type "output"))
        (pin (num "7") (name "GND") (type "power_in"))
        (pin (num "8") (name "") (type "output"))
        (pin (num "9") (name "") (type "input"))
        (pin (num "10") (name "") (type "input"))
        (pin (num "11") (name "") (type "output"))
        (pin (num "12") (name "") (type "input"))
        (pin (num "13") (name "") (type "input"))
        (pin (num "14") (name "VCC") (type "power_in"))))
    (libpart (lib "KiCAD_Library_FalkoSchmidt_UULM") (part "C_Vishay_K-Series")
      (description "Unpolarized capacitor, small symbol, K-Series, Size code 15")
      (docs "https://www.vishay.com/docs/45171/kseries.pdf")
      (footprints
        (fp "C_*"))
      (fields
        (field (name "Reference") "C")
        (field (name "Value") "C_Vishay_K-Series")
        (field (name "Footprint") "footprints:C_Disc_D5.0mm_W2.5mm_P2.50mm")
        (field (name "Datasheet") "https://www.vishay.com/docs/45171/kseries.pdf"))
      (pins
        (pin (num "1") (name "") (type "passive"))
        (pin (num "2") (name "") (type "passive"))))
    (libpart (lib "KiCAD_Library_FalkoSchmidt_UULM") (part "LED_T1-3{slash}4_D5mm_THT")
      (description "A standard LED in form factor 0603 (SMD).")
      (fields
        (field (name "Reference") "D")
        (field (name "Value") "LED_T1-3{slash}4_D5mm_THT")
        (field (name "Footprint") "footprints:LED_D5mm_THT"))
      (pins
        (pin (num "1") (name "K") (type "passive"))
        (pin (num "2") (name "A") (type "passive"))))
    (libpart (lib "KiCAD_Library_FalkoSchmidt_UULM") (part "MKDS_1.5{slash}_2-5.08")
      (description "Screw Terminal from Phoenix Contact with 5.08mm pitch.")
      (docs "https://www.mouser.de/datasheet/2/324/1/718760-1436873.pdf")
      (fields
        (field (name "Reference") "J")
        (field (name "Value") "MKDS_1.5{slash}_2-5.08")
        (field (name "Footprint") "footprints:MKDS_1.5-2-5.08 BK")
        (field (name "Datasheet") "https://www.mouser.de/datasheet/2/324/1/718760-1436873.pdf"))
      (pins
        (pin (num "1") (name "Pin_1") (type "passive"))
        (pin (num "2") (name "Pin_2") (type "passive"))))
    (libpart (lib "KiCAD_Library_FalkoSchmidt_UULM") (part "MountingHole_M3_DIN965_Pad")
      (description "A simple mounting hole for M3 screws with pads on both sides.")
      (fields
        (field (name "Reference") "H")
        (field (name "Value") "MountingHole_M3_DIN965_Pad")
        (field (name "Footprint") "footprints:MountingHole_M3_DIN965_Pad"))
      (pins
        (pin (num "1") (name "1") (type "input"))))
    (libpart (lib "KiCAD_Library_FalkoSchmidt_UULM") (part "OS102011MS2Q")
      (description "Miniature slide switch (SPDT) created by C&K.")
      (docs "https://www.ckswitches.com/media/1428/os.pdf")
      (fields
        (field (name "Reference") "SW")
        (field (name "Value") "OS102011MS2Q")
        (field (name "Footprint") "footprints:OS102011MS2QN1C")
        (field (name "Datasheet") "https://www.ckswitches.com/media/1428/os.pdf")
        (field (name "Mouser-Nr") " 611-OS102011MS2QN1C")
        (field (name "Digikey-Nr") "CKN12284-ND"))
      (pins
        (pin (num "1") (name "") (type "passive"))
        (pin (num "2") (name "") (type "passive"))
        (pin (num "3") (name "") (type "passive"))
        (pin (num "MP") (name "") (type "passive")))))
  (libraries
    (library (logical "Device")
      (uri "/Applications/KiCad/KiCad.app/Contents/SharedSupport/symbols//Device.kicad_sym"))
    (library (logical "KiCAD_Library_FalkoSchmidt_UULM")
      (uri "/Users/falkoschmidt/Documents/07_KiCAD-Libraries/kicad-components-falkoschmidt-uulm/KiCAD_Library_FalkoSchmidt_UULM.kicad_sym")))
  (nets
    (net (code "1") (name "GND")
      (node (ref "C1") (pin "2") (pintype "passive"))
      (node (ref "D1") (pin "1") (pinfunction "K") (pintype "passive"))
      (node (ref "D10") (pin "1") (pinfunction "K") (pintype "passive"))
      (node (ref "D11") (pin "1") (pinfunction "K") (pintype "passive"))
      (node (ref "D12") (pin "1") (pinfunction "K") (pintype "passive"))
      (node (ref "D13") (pin "1") (pinfunction "K") (pintype "passive"))
      (node (ref "D14") (pin "1") (pinfunction "K") (pintype "passive"))
      (node (ref "D2") (pin "1") (pinfunction "K") (pintype "passive"))
      (node (ref "D3") (pin "1") (pinfunction "K") (pintype "passive"))
      (node (ref "D4") (pin "1") (pinfunction "K") (pintype "passive"))
      (node (ref "D5") (pin "1") (pinfunction "K") (pintype "passive"))
      (node (ref "D6") (pin "1") (pinfunction "K") (pintype "passive"))
      (node (ref "D7") (pin "1") (pinfunction "K") (pintype "passive"))
      (node (ref "D8") (pin "1") (pinfunction "K") (pintype "passive"))
      (node (ref "D9") (pin "1") (pinfunction "K") (pintype "passive"))
      (node (ref "H1") (pin "1") (pinfunction "1") (pintype "input"))
      (node (ref "H2") (pin "1") (pinfunction "1") (pintype "input"))
      (node (ref "H3") (pin "1") (pinfunction "1") (pintype "input"))
      (node (ref "H4") (pin "1") (pinfunction "1") (pintype "input"))
      (node (ref "J1") (pin "1") (pinfunction "Pin_1") (pintype "passive"))
      (node (ref "SW1") (pin "1") (pintype "passive"))
      (node (ref "SW1") (pin "MP") (pintype "passive"))
      (node (ref "SW2") (pin "1") (pintype "passive"))
      (node (ref "SW2") (pin "MP") (pintype "passive"))
      (node (ref "SW3") (pin "1") (pintype "passive"))
      (node (ref "SW3") (pin "MP") (pintype "passive"))
      (node (ref "SW4") (pin "1") (pintype "passive"))
      (node (ref "SW4") (pin "MP") (pintype "passive"))
      (node (ref "SW5") (pin "1") (pintype "passive"))
      (node (ref "SW5") (pin "MP") (pintype "passive"))
      (node (ref "SW6") (pin "1") (pintype "passive"))
      (node (ref "SW6") (pin "MP") (pintype "passive"))
      (node (ref "SW7") (pin "1") (pintype "passive"))
      (node (ref "SW7") (pin "MP") (pintype "passive"))
      (node (ref "SW8") (pin "1") (pintype "passive"))
      (node (ref "SW8") (pin "MP") (pintype "passive"))
      (node (ref "SW9") (pin "1") (pintype "passive"))
      (node (ref "SW9") (pin "MP") (pintype "passive"))
      (node (ref "U1") (pin "7") (pinfunction "GND") (pintype "power_in"))
      (node (ref "U2") (pin "8") (pinfunction "GND") (pintype "power_in")))
    (net (code "2") (name "MODE")
      (node (ref "R14") (pin "1") (pintype "passive"))
      (node (ref "SW9") (pin "2") (pintype "passive"))
      (node (ref "U1") (pin "1") (pintype "input"))
      (node (ref "U1") (pin "12") (pintype "input"))
      (node (ref "U1") (pin "4") (pintype "input"))
      (node (ref "U1") (pin "9") (pintype "input"))
      (node (ref "U2") (pin "7") (pinfunction "C0") (pintype "input")))
    (net (code "3") (name "Net-(D1-Pad2)")
      (node (ref "D1") (pin "2") (pinfunction "A") (pintype "passive"))
      (node (ref "R1") (pin "2") (pintype "passive")))
    (net (code "4") (name "Net-(D2-Pad2)")
      (node (ref "D2") (pin "2") (pinfunction "A") (pintype "passive"))
      (node (ref "R2") (pin "2") (pintype "passive")))
    (net (code "5") (name "Net-(D3-Pad2)")
      (node (ref "D3") (pin "2") (pinfunction "A") (pintype "passive"))
      (node (ref "R3") (pin "2") (pintype "passive")))
    (net (code "6") (name "Net-(D4-Pad2)")
      (node (ref "D4") (pin "2") (pinfunction "A") (pintype "passive"))
      (node (ref "R4") (pin "2") (pintype "passive")))
    (net (code "7") (name "Net-(D5-Pad2)")
      (node (ref "D5") (pin "2") (pinfunction "A") (pintype "passive"))
      (node (ref "R5") (pin "2") (pintype "passive")))
    (net (code "8") (name "Net-(D6-Pad2)")
      (node (ref "D6") (pin "2") (pinfunction "A") (pintype "passive"))
      (node (ref "R6") (pin "2") (pintype "passive")))
    (net (code "9") (name "Net-(D7-Pad2)")
      (node (ref "D7") (pin "2") (pinfunction "A") (pintype "passive"))
      (node (ref "R7") (pin "2") (pintype "passive")))
    (net (code "10") (name "Net-(D8-Pad2)")
      (node (ref "D8") (pin "2") (pinfunction "A") (pintype "passive"))
      (node (ref "R8") (pin "2") (pintype "passive")))
    (net (code "11") (name "Net-(D9-Pad2)")
      (node (ref "D9") (pin "2") (pinfunction "A") (pintype "passive"))
      (node (ref "R9") (pin "2") (pintype "passive")))
    (net (code "12") (name "Net-(D10-Pad2)")
      (node (ref "D10") (pin "2") (pinfunction "A") (pintype "passive"))
      (node (ref "R10") (pin "2") (pintype "passive")))
    (net (code "13") (name "Net-(D11-Pad2)")
      (node (ref "D11") (pin "2") (pinfunction "A") (pintype "passive"))
      (node (ref "R11") (pin "2") (pintype "passive")))
    (net (code "14") (name "Net-(D12-Pad2)")
      (node (ref "D12") (pin "2") (pinfunction "A") (pintype "passive"))
      (node (ref "R12") (pin "2") (pintype "passive")))
    (net (code "15") (name "Net-(D13-Pad2)")
      (node (ref "D13") (pin "2") (pinfunction "A") (pintype "passive"))
      (node (ref "R13") (pin "2") (pintype "passive")))
    (net (code "16") (name "Net-(D14-Pad2)")
      (node (ref "D14") (pin "2") (pinfunction "A") (pintype "passive"))
      (node (ref "R14") (pin "2") (pintype "passive")))
    (net (code "17") (name "Net-(R1-Pad1)")
      (node (ref "R1") (pin "1") (pintype "passive"))
      (node (ref "SW1") (pin "2") (pintype "passive"))
      (node (ref "U2") (pin "12") (pinfunction "A4") (pintype "input")))
    (net (code "18") (name "Net-(R2-Pad1)")
      (node (ref "R2") (pin "1") (pintype "passive"))
      (node (ref "SW2") (pin "2") (pintype "passive"))
      (node (ref "U2") (pin "14") (pinfunction "A3") (pintype "input")))
    (net (code "19") (name "Net-(R3-Pad1)")
      (node (ref "R3") (pin "1") (pintype "passive"))
      (node (ref "SW3") (pin "2") (pintype "passive"))
      (node (ref "U2") (pin "3") (pinfunction "A2") (pintype "input")))
    (net (code "20") (name "Net-(R4-Pad1)")
      (node (ref "R4") (pin "1") (pintype "passive"))
      (node (ref "SW4") (pin "2") (pintype "passive"))
      (node (ref "U2") (pin "5") (pinfunction "A1") (pintype "input")))
    (net (code "21") (name "Net-(R5-Pad1)")
      (node (ref "R5") (pin "1") (pintype "passive"))
      (node (ref "SW5") (pin "2") (pintype "passive"))
      (node (ref "U1") (pin "2") (pintype "input")))
    (net (code "22") (name "Net-(R6-Pad1)")
      (node (ref "R6") (pin "1") (pintype "passive"))
      (node (ref "SW6") (pin "2") (pintype "passive"))
      (node (ref "U1") (pin "5") (pintype "input")))
    (net (code "23") (name "Net-(R7-Pad1)")
      (node (ref "R7") (pin "1") (pintype "passive"))
      (node (ref "SW7") (pin "2") (pintype "passive"))
      (node (ref "U1") (pin "13") (pintype "input")))
    (net (code "24") (name "Net-(R8-Pad1)")
      (node (ref "R8") (pin "1") (pintype "passive"))
      (node (ref "SW8") (pin "2") (pintype "passive"))
      (node (ref "U1") (pin "10") (pintype "input")))
    (net (code "25") (name "Net-(R9-Pad1)")
      (node (ref "R9") (pin "1") (pintype "passive"))
      (node (ref "U2") (pin "9") (pinfunction "C4") (pintype "output")))
    (net (code "26") (name "Net-(R10-Pad1)")
      (node (ref "R10") (pin "1") (pintype "passive"))
      (node (ref "U2") (pin "10") (pinfunction "S4") (pintype "output")))
    (net (code "27") (name "Net-(R11-Pad1)")
      (node (ref "R11") (pin "1") (pintype "passive"))
      (node (ref "U2") (pin "13") (pinfunction "S3") (pintype "output")))
    (net (code "28") (name "Net-(R12-Pad1)")
      (node (ref "R12") (pin "1") (pintype "passive"))
      (node (ref "U2") (pin "1") (pinfunction "S2") (pintype "output")))
    (net (code "29") (name "Net-(R13-Pad1)")
      (node (ref "R13") (pin "1") (pintype "passive"))
      (node (ref "U2") (pin "4") (pinfunction "S1") (pintype "output")))
    (net (code "30") (name "Net-(U1-Pad3)")
      (node (ref "U1") (pin "3") (pintype "output"))
      (node (ref "U2") (pin "11") (pinfunction "B4") (pintype "input")))
    (net (code "31") (name "Net-(U1-Pad6)")
      (node (ref "U1") (pin "6") (pintype "output"))
      (node (ref "U2") (pin "15") (pinfunction "B3") (pintype "input")))
    (net (code "32") (name "Net-(U1-Pad8)")
      (node (ref "U1") (pin "8") (pintype "output"))
      (node (ref "U2") (pin "6") (pinfunction "B1") (pintype "input")))
    (net (code "33") (name "Net-(U1-Pad11)")
      (node (ref "U1") (pin "11") (pintype "output"))
      (node (ref "U2") (pin "2") (pinfunction "B2") (pintype "input")))
    (net (code "34") (name "VCC")
      (node (ref "C1") (pin "1") (pintype "passive"))
      (node (ref "J1") (pin "2") (pinfunction "Pin_2") (pintype "passive"))
      (node (ref "SW1") (pin "3") (pintype "passive"))
      (node (ref "SW2") (pin "3") (pintype "passive"))
      (node (ref "SW3") (pin "3") (pintype "passive"))
      (node (ref "SW4") (pin "3") (pintype "passive"))
      (node (ref "SW5") (pin "3") (pintype "passive"))
      (node (ref "SW6") (pin "3") (pintype "passive"))
      (node (ref "SW7") (pin "3") (pintype "passive"))
      (node (ref "SW8") (pin "3") (pintype "passive"))
      (node (ref "SW9") (pin "3") (pintype "passive"))
      (node (ref "U1") (pin "14") (pinfunction "VCC") (pintype "power_in"))
      (node (ref "U2") (pin "16") (pinfunction "VCC") (pintype "power_in")))))