(export (version "E")
  (design
    (source "/Users/falko/Nextcloud/UULM_Schülerprojekte/uulm-stratduino-skeleton/pcb-design/StratDuino_Module.kicad_sch")
    (date "2022 March 29, Tuesday 23:01:06")
    (tool "Eeschema (6.0.4-0)")
    (sheet (number "1") (name "/") (tstamps "/")
      (title_block
        (title "StratDuino - Module: <MODULENAME>")
        (company "<NAME>, University of Ulm")
        (rev "<REVISION>")
        (date "<DATE>")
        (source "StratDuino_Module.kicad_sch")
        (comment (number "1") (value ""))
        (comment (number "2") (value ""))
        (comment (number "3") (value ""))
        (comment (number "4") (value ""))
        (comment (number "5") (value ""))
        (comment (number "6") (value ""))
        (comment (number "7") (value ""))
        (comment (number "8") (value ""))
        (comment (number "9") (value "")))))
  (components
    (comp (ref "H1")
      (value "MountingHole_M3")
      (footprint "footprints:MountingHole_M3_DIN965_Pad")
      (libsource (lib "KiCAD_Library_FalkoSchmidt_UULM") (part "MountingHole_M3_DIN965_Pad") (description "A simple mounting hole for M3 screws with pads on both sides."))
      (property (name "Sheetname") (value ""))
      (property (name "Sheetfile") (value "StratDuino_Module.kicad_sch"))
      (sheetpath (names "/") (tstamps "/"))
      (tstamps "f879c0e8-5893-4eb4-8e59-2292a632100f"))
    (comp (ref "H2")
      (value "MountingHole_M3")
      (footprint "footprints:MountingHole_M3_DIN965_Pad")
      (libsource (lib "KiCAD_Library_FalkoSchmidt_UULM") (part "MountingHole_M3_DIN965_Pad") (description "A simple mounting hole for M3 screws with pads on both sides."))
      (property (name "Sheetname") (value ""))
      (property (name "Sheetfile") (value "StratDuino_Module.kicad_sch"))
      (sheetpath (names "/") (tstamps "/"))
      (tstamps "47f8feda-cdab-4cb7-833a-5d8c6b1e99a5"))
    (comp (ref "H3")
      (value "MountingHole_M3")
      (footprint "footprints:MountingHole_M3_DIN965_Pad")
      (libsource (lib "KiCAD_Library_FalkoSchmidt_UULM") (part "MountingHole_M3_DIN965_Pad") (description "A simple mounting hole for M3 screws with pads on both sides."))
      (property (name "Sheetname") (value ""))
      (property (name "Sheetfile") (value "StratDuino_Module.kicad_sch"))
      (sheetpath (names "/") (tstamps "/"))
      (tstamps "73e6ff64-8915-4bf2-8341-ad1e32b02655"))
    (comp (ref "H4")
      (value "MountingHole_M3")
      (footprint "footprints:MountingHole_M3_DIN965_Pad")
      (libsource (lib "KiCAD_Library_FalkoSchmidt_UULM") (part "MountingHole_M3_DIN965_Pad") (description "A simple mounting hole for M3 screws with pads on both sides."))
      (property (name "Sheetname") (value ""))
      (property (name "Sheetfile") (value "StratDuino_Module.kicad_sch"))
      (sheetpath (names "/") (tstamps "/"))
      (tstamps "c7abff97-1868-47b6-9af5-30f0b35ef1d5"))
    (comp (ref "J2")
      (value "Conn_02x25 (left top)")
      (footprint "Connector_PinSocket_2.54mm:PinSocket_2x25_P2.54mm_Vertical_SMD")
      (libsource (lib "Connector_Generic") (part "Conn_02x25_Odd_Even") (description "Generic connector, double row, 02x25, odd/even pin numbering scheme (row 1 odd numbers, row 2 even numbers), script generated (kicad-library-utils/schlib/autogen/connector/)"))
      (property (name "Sheetname") (value ""))
      (property (name "Sheetfile") (value "StratDuino_Module.kicad_sch"))
      (sheetpath (names "/") (tstamps "/"))
      (tstamps "a8671358-855f-4669-a7dc-67a1d41cadeb"))
    (comp (ref "J3")
      (value "Conn_02x25 (left bottom)")
      (footprint "Connector_PinHeader_2.54mm:PinHeader_2x25_P2.54mm_Vertical_SMD")
      (libsource (lib "Connector_Generic") (part "Conn_02x25_Odd_Even") (description "Generic connector, double row, 02x25, odd/even pin numbering scheme (row 1 odd numbers, row 2 even numbers), script generated (kicad-library-utils/schlib/autogen/connector/)"))
      (property (name "Sheetname") (value ""))
      (property (name "Sheetfile") (value "StratDuino_Module.kicad_sch"))
      (sheetpath (names "/") (tstamps "/"))
      (tstamps "e9c8074e-3c85-4d03-84bf-a4abf79d058d"))
    (comp (ref "J5")
      (value "Conn_02x25 (right top)")
      (footprint "Connector_PinSocket_2.54mm:PinSocket_2x25_P2.54mm_Vertical_SMD")
      (libsource (lib "Connector_Generic") (part "Conn_02x25_Odd_Even") (description "Generic connector, double row, 02x25, odd/even pin numbering scheme (row 1 odd numbers, row 2 even numbers), script generated (kicad-library-utils/schlib/autogen/connector/)"))
      (property (name "Sheetname") (value ""))
      (property (name "Sheetfile") (value "StratDuino_Module.kicad_sch"))
      (sheetpath (names "/") (tstamps "/"))
      (tstamps "58be29b4-9eda-4daf-8675-82b8d22e98b3"))
    (comp (ref "J7")
      (value "Conn_02x25 (right bottom)")
      (footprint "Connector_PinHeader_2.54mm:PinHeader_2x25_P2.54mm_Vertical_SMD")
      (libsource (lib "Connector_Generic") (part "Conn_02x25_Odd_Even") (description "Generic connector, double row, 02x25, odd/even pin numbering scheme (row 1 odd numbers, row 2 even numbers), script generated (kicad-library-utils/schlib/autogen/connector/)"))
      (property (name "Sheetname") (value ""))
      (property (name "Sheetfile") (value "StratDuino_Module.kicad_sch"))
      (sheetpath (names "/") (tstamps "/"))
      (tstamps "5a6893ab-3242-4801-8fbe-119d5a3a2304")))
  (libparts
    (libpart (lib "Connector_Generic") (part "Conn_02x25_Odd_Even")
      (description "Generic connector, double row, 02x25, odd/even pin numbering scheme (row 1 odd numbers, row 2 even numbers), script generated (kicad-library-utils/schlib/autogen/connector/)")
      (docs "~")
      (footprints
        (fp "Connector*:*_2x??_*"))
      (fields
        (field (name "Reference") "J")
        (field (name "Value") "Conn_02x25_Odd_Even")
        (field (name "Datasheet") "~"))
      (pins
        (pin (num "1") (name "Pin_1") (type "passive"))
        (pin (num "2") (name "Pin_2") (type "passive"))
        (pin (num "3") (name "Pin_3") (type "passive"))
        (pin (num "4") (name "Pin_4") (type "passive"))
        (pin (num "5") (name "Pin_5") (type "passive"))
        (pin (num "6") (name "Pin_6") (type "passive"))
        (pin (num "7") (name "Pin_7") (type "passive"))
        (pin (num "8") (name "Pin_8") (type "passive"))
        (pin (num "9") (name "Pin_9") (type "passive"))
        (pin (num "10") (name "Pin_10") (type "passive"))
        (pin (num "11") (name "Pin_11") (type "passive"))
        (pin (num "12") (name "Pin_12") (type "passive"))
        (pin (num "13") (name "Pin_13") (type "passive"))
        (pin (num "14") (name "Pin_14") (type "passive"))
        (pin (num "15") (name "Pin_15") (type "passive"))
        (pin (num "16") (name "Pin_16") (type "passive"))
        (pin (num "17") (name "Pin_17") (type "passive"))
        (pin (num "18") (name "Pin_18") (type "passive"))
        (pin (num "19") (name "Pin_19") (type "passive"))
        (pin (num "20") (name "Pin_20") (type "passive"))
        (pin (num "21") (name "Pin_21") (type "passive"))
        (pin (num "22") (name "Pin_22") (type "passive"))
        (pin (num "23") (name "Pin_23") (type "passive"))
        (pin (num "24") (name "Pin_24") (type "passive"))
        (pin (num "25") (name "Pin_25") (type "passive"))
        (pin (num "26") (name "Pin_26") (type "passive"))
        (pin (num "27") (name "Pin_27") (type "passive"))
        (pin (num "28") (name "Pin_28") (type "passive"))
        (pin (num "29") (name "Pin_29") (type "passive"))
        (pin (num "30") (name "Pin_30") (type "passive"))
        (pin (num "31") (name "Pin_31") (type "passive"))
        (pin (num "32") (name "Pin_32") (type "passive"))
        (pin (num "33") (name "Pin_33") (type "passive"))
        (pin (num "34") (name "Pin_34") (type "passive"))
        (pin (num "35") (name "Pin_35") (type "passive"))
        (pin (num "36") (name "Pin_36") (type "passive"))
        (pin (num "37") (name "Pin_37") (type "passive"))
        (pin (num "38") (name "Pin_38") (type "passive"))
        (pin (num "39") (name "Pin_39") (type "passive"))
        (pin (num "40") (name "Pin_40") (type "passive"))
        (pin (num "41") (name "Pin_41") (type "passive"))
        (pin (num "42") (name "Pin_42") (type "passive"))
        (pin (num "43") (name "Pin_43") (type "passive"))
        (pin (num "44") (name "Pin_44") (type "passive"))
        (pin (num "45") (name "Pin_45") (type "passive"))
        (pin (num "46") (name "Pin_46") (type "passive"))
        (pin (num "47") (name "Pin_47") (type "passive"))
        (pin (num "48") (name "Pin_48") (type "passive"))
        (pin (num "49") (name "Pin_49") (type "passive"))
        (pin (num "50") (name "Pin_50") (type "passive"))))
    (libpart (lib "KiCAD_Library_FalkoSchmidt_UULM") (part "MountingHole_M3_DIN965_Pad")
      (description "A simple mounting hole for M3 screws with pads on both sides.")
      (fields
        (field (name "Reference") "H")
        (field (name "Value") "MountingHole_M3_DIN965_Pad")
        (field (name "Footprint") "footprints:MountingHole_M3_DIN965_Pad"))
      (pins
        (pin (num "1") (name "1") (type "input")))))
  (libraries
    (library (logical "Connector_Generic")
      (uri "/Applications/KiCad/KiCad.app/Contents/SharedSupport/symbols//Connector_Generic.kicad_sym"))
    (library (logical "KiCAD_Library_FalkoSchmidt_UULM")
      (uri "/Users/falko/Documents/KiCad/kicad-components-falkoschmidt-uulm/KiCAD_Library_FalkoSchmidt_UULM.kicad_sym")))
  (nets
    (net (code "1") (name "+3V3")
      (node (ref "J2") (pin "4") (pinfunction "Pin_4") (pintype "passive"))
      (node (ref "J3") (pin "4") (pinfunction "Pin_4") (pintype "passive"))
      (node (ref "J5") (pin "3") (pinfunction "Pin_3") (pintype "passive"))
      (node (ref "J7") (pin "3") (pinfunction "Pin_3") (pintype "passive")))
    (net (code "2") (name "+5V")
      (node (ref "J2") (pin "3") (pinfunction "Pin_3") (pintype "passive"))
      (node (ref "J3") (pin "3") (pinfunction "Pin_3") (pintype "passive"))
      (node (ref "J5") (pin "4") (pinfunction "Pin_4") (pintype "passive"))
      (node (ref "J7") (pin "4") (pinfunction "Pin_4") (pintype "passive")))
    (net (code "3") (name "GND")
      (node (ref "H1") (pin "1") (pinfunction "1") (pintype "input"))
      (node (ref "H2") (pin "1") (pinfunction "1") (pintype "input"))
      (node (ref "H3") (pin "1") (pinfunction "1") (pintype "input"))
      (node (ref "H4") (pin "1") (pinfunction "1") (pintype "input"))
      (node (ref "J2") (pin "1") (pinfunction "Pin_1") (pintype "passive"))
      (node (ref "J2") (pin "2") (pinfunction "Pin_2") (pintype "passive"))
      (node (ref "J2") (pin "23") (pinfunction "Pin_23") (pintype "passive"))
      (node (ref "J2") (pin "24") (pinfunction "Pin_24") (pintype "passive"))
      (node (ref "J2") (pin "41") (pinfunction "Pin_41") (pintype "passive"))
      (node (ref "J2") (pin "42") (pinfunction "Pin_42") (pintype "passive"))
      (node (ref "J2") (pin "49") (pinfunction "Pin_49") (pintype "passive"))
      (node (ref "J2") (pin "5") (pinfunction "Pin_5") (pintype "passive"))
      (node (ref "J2") (pin "50") (pinfunction "Pin_50") (pintype "passive"))
      (node (ref "J2") (pin "6") (pinfunction "Pin_6") (pintype "passive"))
      (node (ref "J3") (pin "1") (pinfunction "Pin_1") (pintype "passive"))
      (node (ref "J3") (pin "2") (pinfunction "Pin_2") (pintype "passive"))
      (node (ref "J3") (pin "23") (pinfunction "Pin_23") (pintype "passive"))
      (node (ref "J3") (pin "24") (pinfunction "Pin_24") (pintype "passive"))
      (node (ref "J3") (pin "41") (pinfunction "Pin_41") (pintype "passive"))
      (node (ref "J3") (pin "42") (pinfunction "Pin_42") (pintype "passive"))
      (node (ref "J3") (pin "49") (pinfunction "Pin_49") (pintype "passive"))
      (node (ref "J3") (pin "5") (pinfunction "Pin_5") (pintype "passive"))
      (node (ref "J3") (pin "50") (pinfunction "Pin_50") (pintype "passive"))
      (node (ref "J3") (pin "6") (pinfunction "Pin_6") (pintype "passive"))
      (node (ref "J5") (pin "1") (pinfunction "Pin_1") (pintype "passive"))
      (node (ref "J5") (pin "2") (pinfunction "Pin_2") (pintype "passive"))
      (node (ref "J5") (pin "23") (pinfunction "Pin_23") (pintype "passive"))
      (node (ref "J5") (pin "24") (pinfunction "Pin_24") (pintype "passive"))
      (node (ref "J5") (pin "41") (pinfunction "Pin_41") (pintype "passive"))
      (node (ref "J5") (pin "42") (pinfunction "Pin_42") (pintype "passive"))
      (node (ref "J5") (pin "45") (pinfunction "Pin_45") (pintype "passive"))
      (node (ref "J5") (pin "46") (pinfunction "Pin_46") (pintype "passive"))
      (node (ref "J5") (pin "49") (pinfunction "Pin_49") (pintype "passive"))
      (node (ref "J5") (pin "5") (pinfunction "Pin_5") (pintype "passive"))
      (node (ref "J5") (pin "50") (pinfunction "Pin_50") (pintype "passive"))
      (node (ref "J5") (pin "6") (pinfunction "Pin_6") (pintype "passive"))
      (node (ref "J7") (pin "1") (pinfunction "Pin_1") (pintype "passive"))
      (node (ref "J7") (pin "2") (pinfunction "Pin_2") (pintype "passive"))
      (node (ref "J7") (pin "23") (pinfunction "Pin_23") (pintype "passive"))
      (node (ref "J7") (pin "24") (pinfunction "Pin_24") (pintype "passive"))
      (node (ref "J7") (pin "41") (pinfunction "Pin_41") (pintype "passive"))
      (node (ref "J7") (pin "42") (pinfunction "Pin_42") (pintype "passive"))
      (node (ref "J7") (pin "45") (pinfunction "Pin_45") (pintype "passive"))
      (node (ref "J7") (pin "46") (pinfunction "Pin_46") (pintype "passive"))
      (node (ref "J7") (pin "49") (pinfunction "Pin_49") (pintype "passive"))
      (node (ref "J7") (pin "5") (pinfunction "Pin_5") (pintype "passive"))
      (node (ref "J7") (pin "50") (pinfunction "Pin_50") (pintype "passive"))
      (node (ref "J7") (pin "6") (pinfunction "Pin_6") (pintype "passive")))
    (net (code "4") (name "I2C_SCL")
      (node (ref "J5") (pin "44") (pinfunction "Pin_44") (pintype "passive"))
      (node (ref "J7") (pin "44") (pinfunction "Pin_44") (pintype "passive")))
    (net (code "5") (name "I2C_SDA")
      (node (ref "J5") (pin "43") (pinfunction "Pin_43") (pintype "passive"))
      (node (ref "J7") (pin "43") (pinfunction "Pin_43") (pintype "passive")))
    (net (code "6") (name "PB0")
      (node (ref "J2") (pin "39") (pinfunction "Pin_39") (pintype "passive"))
      (node (ref "J3") (pin "39") (pinfunction "Pin_39") (pintype "passive")))
    (net (code "7") (name "PB4")
      (node (ref "J2") (pin "46") (pinfunction "Pin_46") (pintype "passive"))
      (node (ref "J3") (pin "46") (pinfunction "Pin_46") (pintype "passive")))
    (net (code "8") (name "PB5")
      (node (ref "J2") (pin "47") (pinfunction "Pin_47") (pintype "passive"))
      (node (ref "J3") (pin "47") (pinfunction "Pin_47") (pintype "passive")))
    (net (code "9") (name "PB6")
      (node (ref "J2") (pin "48") (pinfunction "Pin_48") (pintype "passive"))
      (node (ref "J3") (pin "48") (pinfunction "Pin_48") (pintype "passive")))
    (net (code "10") (name "PB7")
      (node (ref "J2") (pin "40") (pinfunction "Pin_40") (pintype "passive"))
      (node (ref "J3") (pin "40") (pinfunction "Pin_40") (pintype "passive")))
    (net (code "11") (name "PC0")
      (node (ref "J5") (pin "21") (pinfunction "Pin_21") (pintype "passive"))
      (node (ref "J7") (pin "21") (pinfunction "Pin_21") (pintype "passive")))
    (net (code "12") (name "PC1")
      (node (ref "J5") (pin "22") (pinfunction "Pin_22") (pintype "passive"))
      (node (ref "J7") (pin "22") (pinfunction "Pin_22") (pintype "passive")))
    (net (code "13") (name "PC2")
      (node (ref "J5") (pin "19") (pinfunction "Pin_19") (pintype "passive"))
      (node (ref "J7") (pin "19") (pinfunction "Pin_19") (pintype "passive")))
    (net (code "14") (name "PC3")
      (node (ref "J5") (pin "20") (pinfunction "Pin_20") (pintype "passive"))
      (node (ref "J7") (pin "20") (pinfunction "Pin_20") (pintype "passive")))
    (net (code "15") (name "PC4")
      (node (ref "J5") (pin "17") (pinfunction "Pin_17") (pintype "passive"))
      (node (ref "J7") (pin "17") (pinfunction "Pin_17") (pintype "passive")))
    (net (code "16") (name "PC5")
      (node (ref "J5") (pin "18") (pinfunction "Pin_18") (pintype "passive"))
      (node (ref "J7") (pin "18") (pinfunction "Pin_18") (pintype "passive")))
    (net (code "17") (name "PC6")
      (node (ref "J5") (pin "15") (pinfunction "Pin_15") (pintype "passive"))
      (node (ref "J7") (pin "15") (pinfunction "Pin_15") (pintype "passive")))
    (net (code "18") (name "PC7")
      (node (ref "J5") (pin "16") (pinfunction "Pin_16") (pintype "passive"))
      (node (ref "J7") (pin "16") (pinfunction "Pin_16") (pintype "passive")))
    (net (code "19") (name "PD2")
      (node (ref "J5") (pin "31") (pinfunction "Pin_31") (pintype "passive"))
      (node (ref "J7") (pin "31") (pinfunction "Pin_31") (pintype "passive")))
    (net (code "20") (name "PD3")
      (node (ref "J5") (pin "32") (pinfunction "Pin_32") (pintype "passive"))
      (node (ref "J7") (pin "32") (pinfunction "Pin_32") (pintype "passive")))
    (net (code "21") (name "PD4")
      (node (ref "J5") (pin "29") (pinfunction "Pin_29") (pintype "passive"))
      (node (ref "J7") (pin "29") (pinfunction "Pin_29") (pintype "passive")))
    (net (code "22") (name "PD5")
      (node (ref "J5") (pin "30") (pinfunction "Pin_30") (pintype "passive"))
      (node (ref "J7") (pin "30") (pinfunction "Pin_30") (pintype "passive")))
    (net (code "23") (name "PD6")
      (node (ref "J5") (pin "27") (pinfunction "Pin_27") (pintype "passive"))
      (node (ref "J7") (pin "27") (pinfunction "Pin_27") (pintype "passive")))
    (net (code "24") (name "PD7")
      (node (ref "J5") (pin "28") (pinfunction "Pin_28") (pintype "passive"))
      (node (ref "J7") (pin "28") (pinfunction "Pin_28") (pintype "passive")))
    (net (code "25") (name "PE2")
      (node (ref "J2") (pin "26") (pinfunction "Pin_26") (pintype "passive"))
      (node (ref "J3") (pin "26") (pinfunction "Pin_26") (pintype "passive")))
    (net (code "26") (name "PE3")
      (node (ref "J2") (pin "27") (pinfunction "Pin_27") (pintype "passive"))
      (node (ref "J3") (pin "27") (pinfunction "Pin_27") (pintype "passive")))
    (net (code "27") (name "PE4")
      (node (ref "J2") (pin "28") (pinfunction "Pin_28") (pintype "passive"))
      (node (ref "J3") (pin "28") (pinfunction "Pin_28") (pintype "passive")))
    (net (code "28") (name "PE5")
      (node (ref "J2") (pin "29") (pinfunction "Pin_29") (pintype "passive"))
      (node (ref "J3") (pin "29") (pinfunction "Pin_29") (pintype "passive")))
    (net (code "29") (name "PE6")
      (node (ref "J2") (pin "30") (pinfunction "Pin_30") (pintype "passive"))
      (node (ref "J3") (pin "30") (pinfunction "Pin_30") (pintype "passive")))
    (net (code "30") (name "PE7")
      (node (ref "J2") (pin "31") (pinfunction "Pin_31") (pintype "passive"))
      (node (ref "J3") (pin "31") (pinfunction "Pin_31") (pintype "passive")))
    (net (code "31") (name "PF0")
      (node (ref "J2") (pin "22") (pinfunction "Pin_22") (pintype "passive"))
      (node (ref "J3") (pin "22") (pinfunction "Pin_22") (pintype "passive")))
    (net (code "32") (name "PF1")
      (node (ref "J2") (pin "21") (pinfunction "Pin_21") (pintype "passive"))
      (node (ref "J3") (pin "21") (pinfunction "Pin_21") (pintype "passive")))
    (net (code "33") (name "PF2")
      (node (ref "J2") (pin "20") (pinfunction "Pin_20") (pintype "passive"))
      (node (ref "J3") (pin "20") (pinfunction "Pin_20") (pintype "passive")))
    (net (code "34") (name "PF3")
      (node (ref "J2") (pin "19") (pinfunction "Pin_19") (pintype "passive"))
      (node (ref "J3") (pin "19") (pinfunction "Pin_19") (pintype "passive")))
    (net (code "35") (name "PF4")
      (node (ref "J2") (pin "18") (pinfunction "Pin_18") (pintype "passive"))
      (node (ref "J3") (pin "18") (pinfunction "Pin_18") (pintype "passive")))
    (net (code "36") (name "PF5")
      (node (ref "J2") (pin "17") (pinfunction "Pin_17") (pintype "passive"))
      (node (ref "J3") (pin "17") (pinfunction "Pin_17") (pintype "passive")))
    (net (code "37") (name "PF6")
      (node (ref "J2") (pin "16") (pinfunction "Pin_16") (pintype "passive"))
      (node (ref "J3") (pin "16") (pinfunction "Pin_16") (pintype "passive")))
    (net (code "38") (name "PF7")
      (node (ref "J2") (pin "15") (pinfunction "Pin_15") (pintype "passive"))
      (node (ref "J3") (pin "15") (pinfunction "Pin_15") (pintype "passive")))
    (net (code "39") (name "PG0")
      (node (ref "J5") (pin "25") (pinfunction "Pin_25") (pintype "passive"))
      (node (ref "J7") (pin "25") (pinfunction "Pin_25") (pintype "passive")))
    (net (code "40") (name "PG1")
      (node (ref "J5") (pin "26") (pinfunction "Pin_26") (pintype "passive"))
      (node (ref "J7") (pin "26") (pinfunction "Pin_26") (pintype "passive")))
    (net (code "41") (name "PG2")
      (node (ref "J5") (pin "8") (pinfunction "Pin_8") (pintype "passive"))
      (node (ref "J7") (pin "8") (pinfunction "Pin_8") (pintype "passive")))
    (net (code "42") (name "PG3")
      (node (ref "J5") (pin "47") (pinfunction "Pin_47") (pintype "passive"))
      (node (ref "J7") (pin "47") (pinfunction "Pin_47") (pintype "passive")))
    (net (code "43") (name "PG4")
      (node (ref "J5") (pin "48") (pinfunction "Pin_48") (pintype "passive"))
      (node (ref "J7") (pin "48") (pinfunction "Pin_48") (pintype "passive")))
    (net (code "44") (name "PG5")
      (node (ref "J2") (pin "25") (pinfunction "Pin_25") (pintype "passive"))
      (node (ref "J3") (pin "25") (pinfunction "Pin_25") (pintype "passive")))
    (net (code "45") (name "PH0")
      (node (ref "J2") (pin "32") (pinfunction "Pin_32") (pintype "passive"))
      (node (ref "J3") (pin "32") (pinfunction "Pin_32") (pintype "passive")))
    (net (code "46") (name "PH1")
      (node (ref "J2") (pin "33") (pinfunction "Pin_33") (pintype "passive"))
      (node (ref "J3") (pin "33") (pinfunction "Pin_33") (pintype "passive")))
    (net (code "47") (name "PH2")
      (node (ref "J2") (pin "34") (pinfunction "Pin_34") (pintype "passive"))
      (node (ref "J3") (pin "34") (pinfunction "Pin_34") (pintype "passive")))
    (net (code "48") (name "PH3")
      (node (ref "J2") (pin "35") (pinfunction "Pin_35") (pintype "passive"))
      (node (ref "J3") (pin "35") (pinfunction "Pin_35") (pintype "passive")))
    (net (code "49") (name "PH4")
      (node (ref "J2") (pin "36") (pinfunction "Pin_36") (pintype "passive"))
      (node (ref "J3") (pin "36") (pinfunction "Pin_36") (pintype "passive")))
    (net (code "50") (name "PH5")
      (node (ref "J2") (pin "37") (pinfunction "Pin_37") (pintype "passive"))
      (node (ref "J3") (pin "37") (pinfunction "Pin_37") (pintype "passive")))
    (net (code "51") (name "PH6")
      (node (ref "J2") (pin "38") (pinfunction "Pin_38") (pintype "passive"))
      (node (ref "J3") (pin "38") (pinfunction "Pin_38") (pintype "passive")))
    (net (code "52") (name "PJ0")
      (node (ref "J5") (pin "13") (pinfunction "Pin_13") (pintype "passive"))
      (node (ref "J7") (pin "13") (pinfunction "Pin_13") (pintype "passive")))
    (net (code "53") (name "PJ1")
      (node (ref "J5") (pin "14") (pinfunction "Pin_14") (pintype "passive"))
      (node (ref "J7") (pin "14") (pinfunction "Pin_14") (pintype "passive")))
    (net (code "54") (name "PJ2")
      (node (ref "J5") (pin "11") (pinfunction "Pin_11") (pintype "passive"))
      (node (ref "J7") (pin "11") (pinfunction "Pin_11") (pintype "passive")))
    (net (code "55") (name "PJ3")
      (node (ref "J5") (pin "12") (pinfunction "Pin_12") (pintype "passive"))
      (node (ref "J7") (pin "12") (pinfunction "Pin_12") (pintype "passive")))
    (net (code "56") (name "PJ4")
      (node (ref "J5") (pin "9") (pinfunction "Pin_9") (pintype "passive"))
      (node (ref "J7") (pin "9") (pinfunction "Pin_9") (pintype "passive")))
    (net (code "57") (name "PJ5")
      (node (ref "J5") (pin "10") (pinfunction "Pin_10") (pintype "passive"))
      (node (ref "J7") (pin "10") (pinfunction "Pin_10") (pintype "passive")))
    (net (code "58") (name "PJ6")
      (node (ref "J5") (pin "7") (pinfunction "Pin_7") (pintype "passive"))
      (node (ref "J7") (pin "7") (pinfunction "Pin_7") (pintype "passive")))
    (net (code "59") (name "PK0")
      (node (ref "J2") (pin "14") (pinfunction "Pin_14") (pintype "passive"))
      (node (ref "J3") (pin "14") (pinfunction "Pin_14") (pintype "passive")))
    (net (code "60") (name "PK1")
      (node (ref "J2") (pin "13") (pinfunction "Pin_13") (pintype "passive"))
      (node (ref "J3") (pin "13") (pinfunction "Pin_13") (pintype "passive")))
    (net (code "61") (name "PK2")
      (node (ref "J2") (pin "12") (pinfunction "Pin_12") (pintype "passive"))
      (node (ref "J3") (pin "12") (pinfunction "Pin_12") (pintype "passive")))
    (net (code "62") (name "PK3")
      (node (ref "J2") (pin "11") (pinfunction "Pin_11") (pintype "passive"))
      (node (ref "J3") (pin "11") (pinfunction "Pin_11") (pintype "passive")))
    (net (code "63") (name "PK4")
      (node (ref "J2") (pin "10") (pinfunction "Pin_10") (pintype "passive"))
      (node (ref "J3") (pin "10") (pinfunction "Pin_10") (pintype "passive")))
    (net (code "64") (name "PK5")
      (node (ref "J2") (pin "9") (pinfunction "Pin_9") (pintype "passive"))
      (node (ref "J3") (pin "9") (pinfunction "Pin_9") (pintype "passive")))
    (net (code "65") (name "PK6")
      (node (ref "J2") (pin "8") (pinfunction "Pin_8") (pintype "passive"))
      (node (ref "J3") (pin "8") (pinfunction "Pin_8") (pintype "passive")))
    (net (code "66") (name "PK7")
      (node (ref "J2") (pin "7") (pinfunction "Pin_7") (pintype "passive"))
      (node (ref "J3") (pin "7") (pinfunction "Pin_7") (pintype "passive")))
    (net (code "67") (name "PL0")
      (node (ref "J5") (pin "39") (pinfunction "Pin_39") (pintype "passive"))
      (node (ref "J7") (pin "39") (pinfunction "Pin_39") (pintype "passive")))
    (net (code "68") (name "PL1")
      (node (ref "J5") (pin "40") (pinfunction "Pin_40") (pintype "passive"))
      (node (ref "J7") (pin "40") (pinfunction "Pin_40") (pintype "passive")))
    (net (code "69") (name "PL2")
      (node (ref "J5") (pin "37") (pinfunction "Pin_37") (pintype "passive"))
      (node (ref "J7") (pin "37") (pinfunction "Pin_37") (pintype "passive")))
    (net (code "70") (name "PL3")
      (node (ref "J5") (pin "38") (pinfunction "Pin_38") (pintype "passive"))
      (node (ref "J7") (pin "38") (pinfunction "Pin_38") (pintype "passive")))
    (net (code "71") (name "PL4")
      (node (ref "J5") (pin "35") (pinfunction "Pin_35") (pintype "passive"))
      (node (ref "J7") (pin "35") (pinfunction "Pin_35") (pintype "passive")))
    (net (code "72") (name "PL5")
      (node (ref "J5") (pin "36") (pinfunction "Pin_36") (pintype "passive"))
      (node (ref "J7") (pin "36") (pinfunction "Pin_36") (pintype "passive")))
    (net (code "73") (name "PL6")
      (node (ref "J5") (pin "33") (pinfunction "Pin_33") (pintype "passive"))
      (node (ref "J7") (pin "33") (pinfunction "Pin_33") (pintype "passive")))
    (net (code "74") (name "PL7")
      (node (ref "J5") (pin "34") (pinfunction "Pin_34") (pintype "passive"))
      (node (ref "J7") (pin "34") (pinfunction "Pin_34") (pintype "passive")))
    (net (code "75") (name "SPI_MISO")
      (node (ref "J2") (pin "45") (pinfunction "Pin_45") (pintype "passive"))
      (node (ref "J3") (pin "45") (pinfunction "Pin_45") (pintype "passive")))
    (net (code "76") (name "SPI_MOSI")
      (node (ref "J2") (pin "44") (pinfunction "Pin_44") (pintype "passive"))
      (node (ref "J3") (pin "44") (pinfunction "Pin_44") (pintype "passive")))
    (net (code "77") (name "SPI_SCK")
      (node (ref "J2") (pin "43") (pinfunction "Pin_43") (pintype "passive"))
      (node (ref "J3") (pin "43") (pinfunction "Pin_43") (pintype "passive")))))