%TF.GenerationSoftware,KiCad,Pcbnew,(6.0.4-0)*%
%TF.CreationDate,2022-05-07T10:59:24+02:00*%
%TF.ProjectId,Stratberry_Module,53747261-7462-4657-9272-795f4d6f6475,rev?*%
%TF.SameCoordinates,Original*%
%TF.FileFunction,Legend,Bot*%
%TF.FilePolarity,Positive*%
%FSLAX46Y46*%
G04 Gerber Fmt 4.6, Leading zero omitted, Abs format (unit mm)*
G04 Created by KiCad (PCBNEW (6.0.4-0)) date 2022-05-07 10:59:24*
%MOMM*%
%LPD*%
G01*
G04 APERTURE LIST*
%ADD10C,0.300000*%
%ADD11C,0.150000*%
%ADD12C,0.200000*%
%ADD13C,0.120000*%
G04 APERTURE END LIST*
D10*
X16035714Y-21857142D02*
X16107142Y-21785714D01*
X16178571Y-21571428D01*
X16178571Y-21428571D01*
X16107142Y-21214285D01*
X15964285Y-21071428D01*
X15821428Y-21000000D01*
X15535714Y-20928571D01*
X15321428Y-20928571D01*
X15035714Y-21000000D01*
X14892857Y-21071428D01*
X14750000Y-21214285D01*
X14678571Y-21428571D01*
X14678571Y-21571428D01*
X14750000Y-21785714D01*
X14821428Y-21857142D01*
X16178571Y-23357142D02*
X15464285Y-22857142D01*
X16178571Y-22500000D02*
X14678571Y-22500000D01*
X14678571Y-23071428D01*
X14750000Y-23214285D01*
X14821428Y-23285714D01*
X14964285Y-23357142D01*
X15178571Y-23357142D01*
X15321428Y-23285714D01*
X15392857Y-23214285D01*
X15464285Y-23071428D01*
X15464285Y-22500000D01*
X14821428Y-23928571D02*
X14750000Y-24000000D01*
X14678571Y-24142857D01*
X14678571Y-24500000D01*
X14750000Y-24642857D01*
X14821428Y-24714285D01*
X14964285Y-24785714D01*
X15107142Y-24785714D01*
X15321428Y-24714285D01*
X16178571Y-23857142D01*
X16178571Y-24785714D01*
X14678571Y-25714285D02*
X14678571Y-25857142D01*
X14750000Y-26000000D01*
X14821428Y-26071428D01*
X14964285Y-26142857D01*
X15250000Y-26214285D01*
X15607142Y-26214285D01*
X15892857Y-26142857D01*
X16035714Y-26071428D01*
X16107142Y-26000000D01*
X16178571Y-25857142D01*
X16178571Y-25714285D01*
X16107142Y-25571428D01*
X16035714Y-25500000D01*
X15892857Y-25428571D01*
X15607142Y-25357142D01*
X15250000Y-25357142D01*
X14964285Y-25428571D01*
X14821428Y-25500000D01*
X14750000Y-25571428D01*
X14678571Y-25714285D01*
X14678571Y-26714285D02*
X14678571Y-27642857D01*
X15250000Y-27142857D01*
X15250000Y-27357142D01*
X15321428Y-27500000D01*
X15392857Y-27571428D01*
X15535714Y-27642857D01*
X15892857Y-27642857D01*
X16035714Y-27571428D01*
X16107142Y-27500000D01*
X16178571Y-27357142D01*
X16178571Y-26928571D01*
X16107142Y-26785714D01*
X16035714Y-26714285D01*
X14821428Y-28214285D02*
X14750000Y-28285714D01*
X14678571Y-28428571D01*
X14678571Y-28785714D01*
X14750000Y-28928571D01*
X14821428Y-29000000D01*
X14964285Y-29071428D01*
X15107142Y-29071428D01*
X15321428Y-29000000D01*
X16178571Y-28142857D01*
X16178571Y-29071428D01*
D11*
%TO.C,BT1*%
X27428473Y-24213209D02*
X27476157Y-24356262D01*
X27523842Y-24403946D01*
X27619210Y-24451630D01*
X27762263Y-24451630D01*
X27857632Y-24403946D01*
X27905316Y-24356262D01*
X27953000Y-24260893D01*
X27953000Y-23879419D01*
X26951630Y-23879419D01*
X26951630Y-24213209D01*
X26999315Y-24308577D01*
X27046999Y-24356262D01*
X27142367Y-24403946D01*
X27237736Y-24403946D01*
X27333105Y-24356262D01*
X27380789Y-24308577D01*
X27428473Y-24213209D01*
X27428473Y-23879419D01*
X26951630Y-24737736D02*
X26951630Y-25309947D01*
X27953000Y-25023842D02*
X26951630Y-25023842D01*
X27953000Y-26168265D02*
X27953000Y-25596053D01*
X27953000Y-25882159D02*
X26951630Y-25882159D01*
X27094683Y-25786790D01*
X27190052Y-25691422D01*
X27237736Y-25596053D01*
X23565162Y-11096938D02*
X23565162Y-11860061D01*
X23946723Y-11478500D02*
X23183601Y-11478500D01*
D12*
X37500000Y-25000000D02*
G75*
G03*
X37500000Y-25000000I-10000000J0D01*
G01*
X36500000Y-25000000D02*
G75*
G03*
X36500000Y-25000000I-9000000J0D01*
G01*
X24000000Y-10750000D02*
X24000000Y-15500000D01*
X31000000Y-10750000D02*
X31000000Y-15500000D01*
X24000000Y-34500000D02*
X24000000Y-39250000D01*
X31000000Y-34500000D02*
X31000000Y-39250000D01*
X29750000Y-10750000D02*
X31000000Y-10750000D01*
X25250000Y-10750000D02*
X24000000Y-10750000D01*
X29750000Y-39250000D02*
X31000000Y-39250000D01*
X24000000Y-39250000D02*
X25250000Y-39250000D01*
D13*
%TO.C,J6*%
X9600000Y-43500000D02*
X9600000Y-44520000D01*
X9600000Y-8390000D02*
X4400000Y-8390000D01*
X9600000Y-35880000D02*
X9600000Y-36900000D01*
X11040000Y-8960000D02*
X9600000Y-8960000D01*
X4400000Y-10480000D02*
X4400000Y-11500000D01*
X9600000Y-46610000D02*
X4400000Y-46610000D01*
X4400000Y-35880000D02*
X4400000Y-36900000D01*
X4400000Y-8390000D02*
X4400000Y-8960000D01*
X4400000Y-23180000D02*
X4400000Y-24200000D01*
X9600000Y-28260000D02*
X9600000Y-29280000D01*
X9600000Y-40960000D02*
X9600000Y-41980000D01*
X4400000Y-25720000D02*
X4400000Y-26740000D01*
X9600000Y-25720000D02*
X9600000Y-26740000D01*
X4400000Y-28260000D02*
X4400000Y-29280000D01*
X4400000Y-13020000D02*
X4400000Y-14040000D01*
X9600000Y-18100000D02*
X9600000Y-19120000D01*
X4400000Y-46040000D02*
X4400000Y-46610000D01*
X4400000Y-33340000D02*
X4400000Y-34360000D01*
X9600000Y-33340000D02*
X9600000Y-34360000D01*
X9600000Y-8390000D02*
X9600000Y-8960000D01*
X9600000Y-23180000D02*
X9600000Y-24200000D01*
X9600000Y-13020000D02*
X9600000Y-14040000D01*
X4400000Y-40960000D02*
X4400000Y-41980000D01*
X4400000Y-30800000D02*
X4400000Y-31820000D01*
X4400000Y-43500000D02*
X4400000Y-44520000D01*
X9600000Y-30800000D02*
X9600000Y-31820000D01*
X4400000Y-20640000D02*
X4400000Y-21660000D01*
X9600000Y-38420000D02*
X9600000Y-39440000D01*
X4400000Y-38420000D02*
X4400000Y-39440000D01*
X9600000Y-10480000D02*
X9600000Y-11500000D01*
X9600000Y-20640000D02*
X9600000Y-21660000D01*
X4400000Y-18100000D02*
X4400000Y-19120000D01*
X9600000Y-46040000D02*
X9600000Y-46610000D01*
X4400000Y-15560000D02*
X4400000Y-16580000D01*
X9600000Y-15560000D02*
X9600000Y-16580000D01*
%TO.C,J7*%
X45400000Y-10480000D02*
X45400000Y-11500000D01*
X50600000Y-33340000D02*
X50600000Y-34360000D01*
X45400000Y-28260000D02*
X45400000Y-29280000D01*
X45400000Y-20640000D02*
X45400000Y-21660000D01*
X50600000Y-8390000D02*
X50600000Y-8960000D01*
X45400000Y-18100000D02*
X45400000Y-19120000D01*
X52040000Y-8960000D02*
X50600000Y-8960000D01*
X45400000Y-33340000D02*
X45400000Y-34360000D01*
X50600000Y-25720000D02*
X50600000Y-26740000D01*
X50600000Y-13020000D02*
X50600000Y-14040000D01*
X45400000Y-13020000D02*
X45400000Y-14040000D01*
X50600000Y-46040000D02*
X50600000Y-46610000D01*
X50600000Y-38420000D02*
X50600000Y-39440000D01*
X45400000Y-46040000D02*
X45400000Y-46610000D01*
X45400000Y-38420000D02*
X45400000Y-39440000D01*
X45400000Y-43500000D02*
X45400000Y-44520000D01*
X50600000Y-40960000D02*
X50600000Y-41980000D01*
X50600000Y-46610000D02*
X45400000Y-46610000D01*
X45400000Y-15560000D02*
X45400000Y-16580000D01*
X45400000Y-35880000D02*
X45400000Y-36900000D01*
X50600000Y-43500000D02*
X50600000Y-44520000D01*
X50600000Y-10480000D02*
X50600000Y-11500000D01*
X45400000Y-23180000D02*
X45400000Y-24200000D01*
X50600000Y-35880000D02*
X50600000Y-36900000D01*
X45400000Y-8390000D02*
X45400000Y-8960000D01*
X45400000Y-25720000D02*
X45400000Y-26740000D01*
X50600000Y-18100000D02*
X50600000Y-19120000D01*
X50600000Y-30800000D02*
X50600000Y-31820000D01*
X50600000Y-8390000D02*
X45400000Y-8390000D01*
X45400000Y-30800000D02*
X45400000Y-31820000D01*
X50600000Y-28260000D02*
X50600000Y-29280000D01*
X50600000Y-23180000D02*
X50600000Y-24200000D01*
X50600000Y-15560000D02*
X50600000Y-16580000D01*
X45400000Y-40960000D02*
X45400000Y-41980000D01*
X50600000Y-20640000D02*
X50600000Y-21660000D01*
%TD*%
M02*
