%TF.GenerationSoftware,KiCad,Pcbnew,(6.0.4-0)*%
%TF.CreationDate,2022-05-07T10:59:24+02:00*%
%TF.ProjectId,Stratberry_Module,53747261-7462-4657-9272-795f4d6f6475,rev?*%
%TF.SameCoordinates,Original*%
%TF.FileFunction,Paste,Bot*%
%TF.FilePolarity,Positive*%
%FSLAX46Y46*%
G04 Gerber Fmt 4.6, Leading zero omitted, Abs format (unit mm)*
G04 Created by KiCad (PCBNEW (6.0.4-0)) date 2022-05-07 10:59:24*
%MOMM*%
%LPD*%
G01*
G04 APERTURE LIST*
%ADD10R,3.500000X2.600000*%
%ADD11R,3.150000X1.000000*%
G04 APERTURE END LIST*
D10*
%TO.C,BT1*%
X27500000Y-10300000D03*
X27500000Y-39700000D03*
%TD*%
D11*
%TO.C,J6*%
X9525000Y-9720000D03*
X4475000Y-9720000D03*
X9525000Y-12260000D03*
X4475000Y-12260000D03*
X9525000Y-14800000D03*
X4475000Y-14800000D03*
X9525000Y-17340000D03*
X4475000Y-17340000D03*
X9525000Y-19880000D03*
X4475000Y-19880000D03*
X9525000Y-22420000D03*
X4475000Y-22420000D03*
X9525000Y-24960000D03*
X4475000Y-24960000D03*
X9525000Y-27500000D03*
X4475000Y-27500000D03*
X9525000Y-30040000D03*
X4475000Y-30040000D03*
X9525000Y-32580000D03*
X4475000Y-32580000D03*
X9525000Y-35120000D03*
X4475000Y-35120000D03*
X9525000Y-37660000D03*
X4475000Y-37660000D03*
X9525000Y-40200000D03*
X4475000Y-40200000D03*
X9525000Y-42740000D03*
X4475000Y-42740000D03*
X9525000Y-45280000D03*
X4475000Y-45280000D03*
%TD*%
%TO.C,J7*%
X50525000Y-9720000D03*
X45475000Y-9720000D03*
X50525000Y-12260000D03*
X45475000Y-12260000D03*
X50525000Y-14800000D03*
X45475000Y-14800000D03*
X50525000Y-17340000D03*
X45475000Y-17340000D03*
X50525000Y-19880000D03*
X45475000Y-19880000D03*
X50525000Y-22420000D03*
X45475000Y-22420000D03*
X50525000Y-24960000D03*
X45475000Y-24960000D03*
X50525000Y-27500000D03*
X45475000Y-27500000D03*
X50525000Y-30040000D03*
X45475000Y-30040000D03*
X50525000Y-32580000D03*
X45475000Y-32580000D03*
X50525000Y-35120000D03*
X45475000Y-35120000D03*
X50525000Y-37660000D03*
X45475000Y-37660000D03*
X50525000Y-40200000D03*
X45475000Y-40200000D03*
X50525000Y-42740000D03*
X45475000Y-42740000D03*
X50525000Y-45280000D03*
X45475000Y-45280000D03*
%TD*%
M02*
