G04 #@! TF.GenerationSoftware,KiCad,Pcbnew,(6.0.0-rc1-343-g73b39e836d)*
G04 #@! TF.CreationDate,2021-12-12T23:08:17+01:00*
G04 #@! TF.ProjectId,AirQuality_PCB,41697251-7561-46c6-9974-795f5043422e,rev?*
G04 #@! TF.SameCoordinates,Original*
G04 #@! TF.FileFunction,Paste,Top*
G04 #@! TF.FilePolarity,Positive*
%FSLAX46Y46*%
G04 Gerber Fmt 4.6, Leading zero omitted, Abs format (unit mm)*
G04 Created by KiCad (PCBNEW (6.0.0-rc1-343-g73b39e836d)) date 2021-12-12 23:08:17*
%MOMM*%
%LPD*%
G01*
G04 APERTURE LIST*
G04 Aperture macros list*
%AMRoundRect*
0 Rectangle with rounded corners*
0 $1 Rounding radius*
0 $2 $3 $4 $5 $6 $7 $8 $9 X,Y pos of 4 corners*
0 Add a 4 corners polygon primitive as box body*
4,1,4,$2,$3,$4,$5,$6,$7,$8,$9,$2,$3,0*
0 Add four circle primitives for the rounded corners*
1,1,$1+$1,$2,$3*
1,1,$1+$1,$4,$5*
1,1,$1+$1,$6,$7*
1,1,$1+$1,$8,$9*
0 Add four rect primitives between the rounded corners*
20,1,$1+$1,$2,$3,$4,$5,0*
20,1,$1+$1,$4,$5,$6,$7,0*
20,1,$1+$1,$6,$7,$8,$9,0*
20,1,$1+$1,$8,$9,$2,$3,0*%
%AMFreePoly0*
4,1,6,0.450000,-0.800000,-0.450000,-0.800000,-0.450000,0.530000,-0.180000,0.800000,0.450000,0.800000,0.450000,-0.800000,0.450000,-0.800000,$1*%
G04 Aperture macros list end*
%ADD10RoundRect,0.150000X0.387870X0.283120X-0.074070X0.474461X-0.387870X-0.283120X0.074070X-0.474461X0*%
%ADD11RoundRect,0.143902X0.170000X0.458065X-0.332354X0.358141X-0.170000X-0.458065X0.332354X-0.358141X0*%
%ADD12RoundRect,0.143902X0.444109X0.203692X0.018234X0.488253X-0.444109X-0.203692X-0.018234X-0.488253X0*%
%ADD13RoundRect,0.143902X-0.018234X0.488253X-0.444109X0.203692X0.018234X-0.488253X0.444109X-0.203692X0*%
%ADD14RoundRect,0.143902X0.395838X0.286420X-0.077370X0.482429X-0.395838X-0.286420X0.077370X-0.482429X0*%
%ADD15RoundRect,0.150000X-0.074070X-0.474461X0.387870X-0.283120X0.074070X0.474461X-0.387870X0.283120X0*%
%ADD16RoundRect,0.150000X0.250000X0.410000X-0.250000X0.410000X-0.250000X-0.410000X0.250000X-0.410000X0*%
%ADD17RoundRect,0.143902X0.256098X0.416098X-0.256098X0.416098X-0.256098X-0.416098X0.256098X-0.416098X0*%
%ADD18RoundRect,0.143902X0.332354X0.358141X-0.170000X0.458065X-0.332354X-0.358141X0.170000X-0.458065X0*%
%ADD19RoundRect,0.150000X-0.019916X0.479795X-0.435651X0.202010X0.019916X-0.479795X0.435651X-0.202010X0*%
%ADD20RoundRect,0.150000X-0.435651X-0.202010X-0.019916X-0.479795X0.435651X0.202010X0.019916X0.479795X0*%
%ADD21RoundRect,0.150000X0.325183X0.353349X-0.165209X0.450895X-0.325183X-0.353349X0.165209X-0.450895X0*%
%ADD22RoundRect,0.150000X-0.325183X-0.353349X0.165209X-0.450895X0.325183X0.353349X-0.165209X0.450895X0*%
%ADD23RoundRect,0.150000X0.165209X0.450895X-0.325183X0.353349X-0.165209X-0.450895X0.325183X-0.353349X0*%
%ADD24RoundRect,0.150000X-0.387870X-0.283120X0.074070X-0.474461X0.387870X0.283120X-0.074070X0.474461X0*%
%ADD25RoundRect,0.150000X0.019916X-0.479795X0.435651X-0.202010X-0.019916X0.479795X-0.435651X0.202010X0*%
%ADD26RoundRect,0.150000X0.435651X0.202010X0.019916X0.479795X-0.435651X-0.202010X-0.019916X-0.479795X0*%
%ADD27RoundRect,0.243902X0.256098X0.456098X-0.256098X0.456098X-0.256098X-0.456098X0.256098X-0.456098X0*%
%ADD28FreePoly0,90.000000*%
%ADD29R,0.250000X0.550000*%
%ADD30RoundRect,0.150000X-0.250000X-0.410000X0.250000X-0.410000X0.250000X0.410000X-0.250000X0.410000X0*%
%ADD31RoundRect,0.143902X0.077370X0.482429X-0.395838X0.286420X-0.077370X-0.482429X0.395838X-0.286420X0*%
%ADD32RoundRect,0.150000X0.074070X0.474461X-0.387870X0.283120X-0.074070X-0.474461X0.387870X-0.283120X0*%
%ADD33RoundRect,0.150000X-0.165209X-0.450895X0.325183X-0.353349X0.165209X0.450895X-0.325183X0.353349X0*%
G04 APERTURE END LIST*
D10*
X43547137Y-54530766D03*
X41814863Y-53813234D03*
D11*
X40393967Y-44809980D03*
X38604033Y-45166020D03*
D12*
X38304716Y-55313958D03*
X36787284Y-54300042D03*
D13*
X16458716Y-54300042D03*
X14941284Y-55313958D03*
D14*
X15429040Y-42884199D03*
X13742960Y-42185801D03*
D15*
X9792863Y-54530766D03*
X11525137Y-53813234D03*
D16*
X44937500Y-47540000D03*
X43062500Y-47540000D03*
D17*
X40662500Y-47540000D03*
X38837500Y-47540000D03*
D18*
X14735967Y-45166020D03*
X12946033Y-44809980D03*
D19*
X41858503Y-37391153D03*
X40299497Y-38432847D03*
D20*
X11481497Y-37391153D03*
X13040503Y-38432847D03*
D12*
X16552716Y-40779958D03*
X15035284Y-39766042D03*
D21*
X44586486Y-51094897D03*
X42747514Y-50729103D03*
D22*
X8753514Y-43976103D03*
X10592486Y-44341897D03*
D14*
X39597040Y-52894199D03*
X37910960Y-52195801D03*
D13*
X38304716Y-39766042D03*
X36787284Y-40779958D03*
D23*
X44586486Y-43976103D03*
X42747514Y-44341897D03*
D24*
X9792863Y-40549234D03*
X11525137Y-41266766D03*
D25*
X11420497Y-57688847D03*
X12979503Y-56647153D03*
D26*
X41858503Y-57688847D03*
X40299497Y-56647153D03*
D17*
X14502500Y-47540000D03*
X12677500Y-47540000D03*
D27*
X25412500Y-5250000D03*
X23587500Y-5250000D03*
D28*
X26670000Y-49000000D03*
D29*
X25920000Y-50175000D03*
X26420000Y-50175000D03*
X26920000Y-50175000D03*
X27420000Y-50175000D03*
X27420000Y-47825000D03*
X26920000Y-47825000D03*
X26420000Y-47825000D03*
X25920000Y-47825000D03*
D30*
X8402500Y-47540000D03*
X10277500Y-47540000D03*
D31*
X15429040Y-52195801D03*
X13742960Y-52894199D03*
D32*
X43547137Y-40549234D03*
X41814863Y-41266766D03*
D33*
X8753514Y-51094897D03*
X10592486Y-50729103D03*
D27*
X27582500Y-45500000D03*
X25757500Y-45500000D03*
D11*
X14735967Y-49913980D03*
X12946033Y-50270020D03*
D18*
X40393967Y-50270020D03*
X38604033Y-49913980D03*
D31*
X39597040Y-42185801D03*
X37910960Y-42884199D03*
M02*
