G04 #@! TF.GenerationSoftware,KiCad,Pcbnew,(6.0.0-rc1-343-g73b39e836d)*
G04 #@! TF.CreationDate,2021-12-12T23:08:18+01:00*
G04 #@! TF.ProjectId,AirQuality_PCB,41697251-7561-46c6-9974-795f5043422e,rev?*
G04 #@! TF.SameCoordinates,Original*
G04 #@! TF.FileFunction,AssemblyDrawing,Top*
%FSLAX46Y46*%
G04 Gerber Fmt 4.6, Leading zero omitted, Abs format (unit mm)*
G04 Created by KiCad (PCBNEW (6.0.0-rc1-343-g73b39e836d)) date 2021-12-12 23:08:18*
%MOMM*%
%LPD*%
G01*
G04 APERTURE LIST*
%ADD10C,0.100000*%
%ADD11C,0.300000*%
%ADD12C,0.200000*%
%ADD13C,0.150000*%
%ADD14C,0.080000*%
%ADD15C,0.060000*%
G04 APERTURE END LIST*
D10*
X-2000000Y-47540000D02*
X57500000Y-47540000D01*
X34000000Y-38540000D02*
X34000000Y-62540000D01*
D11*
X-12121428Y-39234285D02*
X-12121428Y-39520000D01*
X-12050000Y-39662857D01*
X-11978571Y-39734285D01*
X-11764285Y-39877142D01*
X-11478571Y-39948571D01*
X-10907142Y-39948571D01*
X-10764285Y-39877142D01*
X-10692857Y-39805714D01*
X-10621428Y-39662857D01*
X-10621428Y-39377142D01*
X-10692857Y-39234285D01*
X-10764285Y-39162857D01*
X-10907142Y-39091428D01*
X-11264285Y-39091428D01*
X-11407142Y-39162857D01*
X-11478571Y-39234285D01*
X-11550000Y-39377142D01*
X-11550000Y-39662857D01*
X-11478571Y-39805714D01*
X-11407142Y-39877142D01*
X-11264285Y-39948571D01*
X-12121428Y-37805714D02*
X-12121428Y-38091428D01*
X-12050000Y-38234285D01*
X-11978571Y-38305714D01*
X-11764285Y-38448571D01*
X-11478571Y-38520000D01*
X-10907142Y-38520000D01*
X-10764285Y-38448571D01*
X-10692857Y-38377142D01*
X-10621428Y-38234285D01*
X-10621428Y-37948571D01*
X-10692857Y-37805714D01*
X-10764285Y-37734285D01*
X-10907142Y-37662857D01*
X-11264285Y-37662857D01*
X-11407142Y-37734285D01*
X-11478571Y-37805714D01*
X-11550000Y-37948571D01*
X-11550000Y-38234285D01*
X-11478571Y-38377142D01*
X-11407142Y-38448571D01*
X-11264285Y-38520000D01*
X-10692857Y-36948571D02*
X-10621428Y-36948571D01*
X-10478571Y-37020000D01*
X-10407142Y-37091428D01*
X-12121428Y-36020000D02*
X-12121428Y-35877142D01*
X-12050000Y-35734285D01*
X-11978571Y-35662857D01*
X-11835714Y-35591428D01*
X-11550000Y-35520000D01*
X-11192857Y-35520000D01*
X-10907142Y-35591428D01*
X-10764285Y-35662857D01*
X-10692857Y-35734285D01*
X-10621428Y-35877142D01*
X-10621428Y-36020000D01*
X-10692857Y-36162857D01*
X-10764285Y-36234285D01*
X-10907142Y-36305714D01*
X-11192857Y-36377142D01*
X-11550000Y-36377142D01*
X-11835714Y-36305714D01*
X-11978571Y-36234285D01*
X-12050000Y-36162857D01*
X-12121428Y-36020000D01*
X-11621428Y-34234285D02*
X-10621428Y-34234285D01*
X-12192857Y-34591428D02*
X-11121428Y-34948571D01*
X-11121428Y-34020000D01*
X-12121428Y-33162857D02*
X-12121428Y-33020000D01*
X-12050000Y-32877142D01*
X-11978571Y-32805714D01*
X-11835714Y-32734285D01*
X-11550000Y-32662857D01*
X-11192857Y-32662857D01*
X-10907142Y-32734285D01*
X-10764285Y-32805714D01*
X-10692857Y-32877142D01*
X-10621428Y-33020000D01*
X-10621428Y-33162857D01*
X-10692857Y-33305714D01*
X-10764285Y-33377142D01*
X-10907142Y-33448571D01*
X-11192857Y-33520000D01*
X-11550000Y-33520000D01*
X-11835714Y-33448571D01*
X-11978571Y-33377142D01*
X-12050000Y-33305714D01*
X-12121428Y-33162857D01*
X-12121428Y-31734285D02*
X-12121428Y-31591428D01*
X-12050000Y-31448571D01*
X-11978571Y-31377142D01*
X-11835714Y-31305714D01*
X-11550000Y-31234285D01*
X-11192857Y-31234285D01*
X-10907142Y-31305714D01*
X-10764285Y-31377142D01*
X-10692857Y-31448571D01*
X-10621428Y-31591428D01*
X-10621428Y-31734285D01*
X-10692857Y-31877142D01*
X-10764285Y-31948571D01*
X-10907142Y-32020000D01*
X-11192857Y-32091428D01*
X-11550000Y-32091428D01*
X-11835714Y-32020000D01*
X-11978571Y-31948571D01*
X-12050000Y-31877142D01*
X-12121428Y-31734285D01*
X-10621428Y-29448571D02*
X-11621428Y-29448571D01*
X-11478571Y-29448571D02*
X-11550000Y-29377142D01*
X-11621428Y-29234285D01*
X-11621428Y-29020000D01*
X-11550000Y-28877142D01*
X-11407142Y-28805714D01*
X-10621428Y-28805714D01*
X-11407142Y-28805714D02*
X-11550000Y-28734285D01*
X-11621428Y-28591428D01*
X-11621428Y-28377142D01*
X-11550000Y-28234285D01*
X-11407142Y-28162857D01*
X-10621428Y-28162857D01*
X-10621428Y-27448571D02*
X-11621428Y-27448571D01*
X-11478571Y-27448571D02*
X-11550000Y-27377142D01*
X-11621428Y-27234285D01*
X-11621428Y-27020000D01*
X-11550000Y-26877142D01*
X-11407142Y-26805714D01*
X-10621428Y-26805714D01*
X-11407142Y-26805714D02*
X-11550000Y-26734285D01*
X-11621428Y-26591428D01*
X-11621428Y-26377142D01*
X-11550000Y-26234285D01*
X-11407142Y-26162857D01*
X-10621428Y-26162857D01*
D12*
X-500000Y0D02*
X-10086420Y0D01*
X-500000Y-66040000D02*
X-10086420Y-66040000D01*
X-9500000Y0D02*
X-9500000Y-24905714D01*
X-9500000Y-41134285D02*
X-9500000Y-66040000D01*
X-9500000Y0D02*
X-10086421Y-1126504D01*
X-9500000Y0D02*
X-8913579Y-1126504D01*
X-9500000Y-66040000D02*
X-8913579Y-64913496D01*
X-9500000Y-66040000D02*
X-10086421Y-64913496D01*
D11*
X20527142Y19081428D02*
X19812857Y19081428D01*
X19741428Y18367142D01*
X19812857Y18438571D01*
X19955714Y18510000D01*
X20312857Y18510000D01*
X20455714Y18438571D01*
X20527142Y18367142D01*
X20598571Y18224285D01*
X20598571Y17867142D01*
X20527142Y17724285D01*
X20455714Y17652857D01*
X20312857Y17581428D01*
X19955714Y17581428D01*
X19812857Y17652857D01*
X19741428Y17724285D01*
X21098571Y19081428D02*
X22027142Y19081428D01*
X21527142Y18510000D01*
X21741428Y18510000D01*
X21884285Y18438571D01*
X21955714Y18367142D01*
X22027142Y18224285D01*
X22027142Y17867142D01*
X21955714Y17724285D01*
X21884285Y17652857D01*
X21741428Y17581428D01*
X21312857Y17581428D01*
X21169999Y17652857D01*
X21098571Y17724285D01*
X22741428Y17652857D02*
X22741428Y17581428D01*
X22669999Y17438571D01*
X22598571Y17367142D01*
X23241428Y19081428D02*
X24169999Y19081428D01*
X23669999Y18510000D01*
X23884285Y18510000D01*
X24027142Y18438571D01*
X24098571Y18367142D01*
X24169999Y18224285D01*
X24169999Y17867142D01*
X24098571Y17724285D01*
X24027142Y17652857D01*
X23884285Y17581428D01*
X23455714Y17581428D01*
X23312857Y17652857D01*
X23241428Y17724285D01*
X25455714Y18581428D02*
X25455714Y17581428D01*
X25098571Y19152857D02*
X24741428Y18081428D01*
X25669999Y18081428D01*
X26527142Y19081428D02*
X26669999Y19081428D01*
X26812857Y19010000D01*
X26884285Y18938571D01*
X26955714Y18795714D01*
X27027142Y18510000D01*
X27027142Y18152857D01*
X26955714Y17867142D01*
X26884285Y17724285D01*
X26812857Y17652857D01*
X26669999Y17581428D01*
X26527142Y17581428D01*
X26384285Y17652857D01*
X26312857Y17724285D01*
X26241428Y17867142D01*
X26169999Y18152857D01*
X26169999Y18510000D01*
X26241428Y18795714D01*
X26312857Y18938571D01*
X26384285Y19010000D01*
X26527142Y19081428D01*
X27955714Y19081428D02*
X28098571Y19081428D01*
X28241428Y19010000D01*
X28312857Y18938571D01*
X28384285Y18795714D01*
X28455714Y18510000D01*
X28455714Y18152857D01*
X28384285Y17867142D01*
X28312857Y17724285D01*
X28241428Y17652857D01*
X28098571Y17581428D01*
X27955714Y17581428D01*
X27812857Y17652857D01*
X27741428Y17724285D01*
X27669999Y17867142D01*
X27598571Y18152857D01*
X27598571Y18510000D01*
X27669999Y18795714D01*
X27741428Y18938571D01*
X27812857Y19010000D01*
X27955714Y19081428D01*
X30241428Y17581428D02*
X30241428Y18581428D01*
X30241428Y18438571D02*
X30312857Y18510000D01*
X30455714Y18581428D01*
X30669999Y18581428D01*
X30812857Y18510000D01*
X30884285Y18367142D01*
X30884285Y17581428D01*
X30884285Y18367142D02*
X30955714Y18510000D01*
X31098571Y18581428D01*
X31312857Y18581428D01*
X31455714Y18510000D01*
X31527142Y18367142D01*
X31527142Y17581428D01*
X32241428Y17581428D02*
X32241428Y18581428D01*
X32241428Y18438571D02*
X32312857Y18510000D01*
X32455714Y18581428D01*
X32669999Y18581428D01*
X32812857Y18510000D01*
X32884285Y18367142D01*
X32884285Y17581428D01*
X32884285Y18367142D02*
X32955714Y18510000D01*
X33098571Y18581428D01*
X33312857Y18581428D01*
X33455714Y18510000D01*
X33527142Y18367142D01*
X33527142Y17581428D01*
D12*
X0Y500000D02*
X0Y17046420D01*
X53340000Y500000D02*
X53340000Y17046420D01*
X0Y16460000D02*
X18555715Y16460000D01*
X34784286Y16460000D02*
X53340000Y16460000D01*
X0Y16460000D02*
X1126504Y15873579D01*
X0Y16460000D02*
X1126504Y17046421D01*
X53340000Y16460000D02*
X52213496Y17046421D01*
X53340000Y16460000D02*
X52213496Y15873579D01*
D13*
X43244970Y-53135488D02*
X43627653Y-52211609D01*
X43847624Y-52302724D01*
X43961384Y-52401387D01*
X44012927Y-52525822D01*
X44020475Y-52632033D01*
X43991577Y-52826233D01*
X43936908Y-52958216D01*
X43820022Y-53115970D01*
X43739581Y-53185736D01*
X43615147Y-53237278D01*
X43464941Y-53226603D01*
X43244970Y-53135488D01*
X44947481Y-52758299D02*
X44771504Y-52685407D01*
X44665292Y-52692955D01*
X44603075Y-52718727D01*
X44460418Y-52814263D01*
X44343531Y-52972017D01*
X44197747Y-53323972D01*
X44205295Y-53430183D01*
X44231067Y-53492400D01*
X44300832Y-53572841D01*
X44476809Y-53645733D01*
X44583021Y-53638185D01*
X44645238Y-53612413D01*
X44725678Y-53542648D01*
X44816793Y-53322676D01*
X44809245Y-53216465D01*
X44783474Y-53154248D01*
X44713708Y-53073807D01*
X44537731Y-53000915D01*
X44431520Y-53008463D01*
X44369302Y-53034235D01*
X44288862Y-53104000D01*
D10*
X44176624Y-53392129D02*
X44194200Y-53038612D01*
X43956653Y-53301014D02*
X44194200Y-53038612D01*
X44283751Y-52946849D01*
X44314860Y-52933964D01*
X44367966Y-52930190D01*
X43723148Y-52869267D02*
X43776254Y-52865493D01*
X43864243Y-52901939D01*
X43899125Y-52942159D01*
X43902900Y-52995265D01*
X43830007Y-53171242D01*
X43789787Y-53206125D01*
X43736682Y-53209899D01*
X43648693Y-53173453D01*
X43613810Y-53133233D01*
X43610036Y-53080127D01*
X43628259Y-53036133D01*
X43866454Y-53083254D01*
X43446297Y-52728821D02*
X43481180Y-52769041D01*
X43484954Y-52822146D01*
X43320947Y-53218095D01*
X43204329Y-52628594D02*
X43239212Y-52668814D01*
X43242986Y-52721920D01*
X43078978Y-53117868D01*
X42962360Y-52528367D02*
X42997243Y-52568587D01*
X43010129Y-52599696D01*
X43013903Y-52652802D01*
X42959234Y-52784785D01*
X42919014Y-52819667D01*
X42887905Y-52832553D01*
X42834799Y-52836327D01*
X42768808Y-52808993D01*
X42733925Y-52768773D01*
X42721039Y-52737664D01*
X42717265Y-52684558D01*
X42771934Y-52552575D01*
X42812154Y-52517693D01*
X42843263Y-52504807D01*
X42896369Y-52501033D01*
X42962360Y-52528367D01*
X42526839Y-52708766D02*
X42566412Y-52364360D01*
X42387308Y-52547885D01*
X42390435Y-52291468D01*
X42174885Y-52562982D01*
D14*
X43108514Y-54104255D02*
X42917173Y-54566195D01*
X42807187Y-54520637D01*
X42750307Y-54471306D01*
X42724536Y-54409088D01*
X42720762Y-54355983D01*
X42735211Y-54258883D01*
X42762545Y-54192891D01*
X42820988Y-54114014D01*
X42861209Y-54079131D01*
X42923426Y-54053360D01*
X42998529Y-54058698D01*
X43108514Y-54104255D01*
X42257259Y-54292850D02*
X42345247Y-54329296D01*
X42398353Y-54325522D01*
X42429462Y-54312636D01*
X42500790Y-54264868D01*
X42559234Y-54185991D01*
X42632126Y-54010013D01*
X42628352Y-53956908D01*
X42615466Y-53925799D01*
X42580583Y-53885579D01*
X42492595Y-53849133D01*
X42439489Y-53852907D01*
X42408380Y-53865793D01*
X42368160Y-53900675D01*
X42322603Y-54010661D01*
X42326377Y-54063767D01*
X42339262Y-54094875D01*
X42374145Y-54135096D01*
X42462134Y-54171542D01*
X42515239Y-54167768D01*
X42546348Y-54154882D01*
X42586568Y-54119999D01*
D13*
X36723796Y-45324790D02*
X37125806Y-44904962D01*
X36612316Y-44764342D02*
X37593101Y-44569251D01*
X37667421Y-44942884D01*
X37639297Y-45045582D01*
X37601883Y-45101576D01*
X37517765Y-45166860D01*
X37377653Y-45194730D01*
X37274955Y-45166606D01*
X37218961Y-45129192D01*
X37153676Y-45045074D01*
X37079356Y-44671442D01*
X37769611Y-45456629D02*
X37890381Y-46063781D01*
X37451719Y-45811173D01*
X37479589Y-45951285D01*
X37451465Y-46053983D01*
X37414051Y-46109977D01*
X37329933Y-46175262D01*
X37096412Y-46221712D01*
X36993714Y-46193588D01*
X36937720Y-46156174D01*
X36872436Y-46072055D01*
X36816696Y-45791831D01*
X36844820Y-45689133D01*
X36882234Y-45633139D01*
D14*
X39461395Y-45226101D02*
X39251481Y-45025096D01*
X39181171Y-45281841D02*
X39083625Y-44791449D01*
X39270442Y-44754289D01*
X39321791Y-44768351D01*
X39349788Y-44787058D01*
X39382430Y-44829117D01*
X39396365Y-44899173D01*
X39382303Y-44950522D01*
X39363596Y-44978519D01*
X39321537Y-45011161D01*
X39134721Y-45048321D01*
X39527314Y-44703194D02*
X39830890Y-44642809D01*
X39704586Y-44862140D01*
X39774642Y-44848205D01*
X39825991Y-44862267D01*
X39853988Y-44880974D01*
X39886631Y-44923033D01*
X39909856Y-45039793D01*
X39895794Y-45091142D01*
X39877087Y-45119139D01*
X39835027Y-45151781D01*
X39694915Y-45179651D01*
X39643566Y-45165589D01*
X39615569Y-45146882D01*
D13*
X35316454Y-53110092D02*
X35897582Y-53097493D01*
X35633922Y-52634966D02*
X36465392Y-53190537D01*
X36253746Y-53507287D01*
X36161241Y-53560019D01*
X36095191Y-53573157D01*
X35989548Y-53559839D01*
X35870767Y-53480472D01*
X35818035Y-53387967D01*
X35804897Y-53321917D01*
X35818214Y-53216274D01*
X36029860Y-52899524D01*
X35962733Y-53942819D02*
X35592353Y-54497132D01*
X34998985Y-53585217D01*
D14*
X37740953Y-54665227D02*
X37747253Y-54955791D01*
X37978516Y-54823961D02*
X37700731Y-55239696D01*
X37542356Y-55133873D01*
X37515990Y-55087620D01*
X37509421Y-55054595D01*
X37516080Y-55001774D01*
X37555763Y-54942383D01*
X37602016Y-54916017D01*
X37635041Y-54909448D01*
X37687862Y-54916107D01*
X37846237Y-55021930D01*
X37324590Y-54988366D02*
X37047433Y-54803176D01*
X37503391Y-54506492D01*
D13*
X18433293Y-53883187D02*
X18222545Y-54424901D01*
X18750762Y-54358313D02*
X17919292Y-54913883D01*
X17707646Y-54597133D01*
X17694328Y-54491489D01*
X17707467Y-54425440D01*
X17760198Y-54332935D01*
X17878980Y-54253567D01*
X17984623Y-54240250D01*
X18050673Y-54253388D01*
X18143178Y-54306120D01*
X18354824Y-54622870D01*
X17904178Y-53091311D02*
X18221647Y-53566437D01*
X18062913Y-53328874D02*
X17231443Y-53884444D01*
X17403136Y-53884265D01*
X17535235Y-53910541D01*
X17627740Y-53963273D01*
X16873662Y-52749003D02*
X17427975Y-52378623D01*
X16689190Y-53158618D02*
X17415376Y-52959751D01*
X17071452Y-52445032D01*
D14*
X15558406Y-55173646D02*
X15287549Y-55068272D01*
X15320843Y-55332381D02*
X15043058Y-54916646D01*
X15201433Y-54810823D01*
X15254255Y-54804164D01*
X15287280Y-54810733D01*
X15333532Y-54837099D01*
X15373216Y-54896490D01*
X15379875Y-54949311D01*
X15373306Y-54982336D01*
X15346940Y-55028589D01*
X15188565Y-55134412D01*
X15954344Y-54909089D02*
X15716781Y-55067823D01*
X15835563Y-54988456D02*
X15557778Y-54572721D01*
X15557867Y-54658568D01*
X15544729Y-54724617D01*
X15518363Y-54770870D01*
X16125498Y-54393831D02*
X16310688Y-54670987D01*
X15920691Y-54301595D02*
X16020124Y-54664688D01*
X16277484Y-54492726D01*
D13*
X17154163Y-43727098D02*
X16586660Y-43852828D01*
X16935487Y-44255029D02*
X16011608Y-43872346D01*
X16157392Y-43520392D01*
X16237832Y-43450626D01*
X16300049Y-43424855D01*
X16406261Y-43417307D01*
X16538244Y-43471976D01*
X16608009Y-43552416D01*
X16633780Y-43614633D01*
X16641329Y-43720845D01*
X16495545Y-44072799D01*
X17336394Y-43287155D02*
X17409286Y-43111178D01*
X17401737Y-43004967D01*
X17375966Y-42942750D01*
X17280430Y-42800092D01*
X17122675Y-42683206D01*
X16770721Y-42537421D01*
X16664510Y-42544970D01*
X16602293Y-42570741D01*
X16521852Y-42640506D01*
X16448960Y-42816484D01*
X16456508Y-42922695D01*
X16482280Y-42984912D01*
X16552045Y-43065353D01*
X16772016Y-43156468D01*
X16878228Y-43148920D01*
X16940445Y-43123148D01*
X17020886Y-43053383D01*
X17093778Y-42877406D01*
X17086229Y-42771194D01*
X17060458Y-42708977D01*
X16990693Y-42628537D01*
D14*
X14749549Y-42357917D02*
X14812414Y-42641669D01*
X15013514Y-42467255D02*
X14822173Y-42929195D01*
X14646196Y-42856303D01*
X14611313Y-42816083D01*
X14598427Y-42784974D01*
X14594653Y-42731868D01*
X14621988Y-42665877D01*
X14662208Y-42630994D01*
X14693316Y-42618109D01*
X14746422Y-42614334D01*
X14922399Y-42687226D01*
X14529577Y-42266802D02*
X14441589Y-42230356D01*
X14388483Y-42234130D01*
X14357375Y-42247016D01*
X14286046Y-42294784D01*
X14227603Y-42373661D01*
X14154710Y-42549638D01*
X14158485Y-42602744D01*
X14171370Y-42633852D01*
X14206253Y-42674073D01*
X14294242Y-42710519D01*
X14347347Y-42706745D01*
X14378456Y-42693859D01*
X14418676Y-42658976D01*
X14464234Y-42548991D01*
X14460460Y-42495885D01*
X14447574Y-42464776D01*
X14412691Y-42424556D01*
X14324703Y-42388110D01*
X14271597Y-42391884D01*
X14240488Y-42404770D01*
X14200268Y-42439652D01*
D13*
X9097971Y-53576425D02*
X8715288Y-52652545D01*
X8935259Y-52561430D01*
X9085465Y-52550756D01*
X9209900Y-52602298D01*
X9290340Y-52672064D01*
X9407226Y-52829818D01*
X9461895Y-52961800D01*
X9490793Y-53156000D01*
X9483245Y-53262212D01*
X9431703Y-53386647D01*
X9317943Y-53485310D01*
X9097971Y-53576425D01*
X10505788Y-52993288D02*
X9977857Y-53211965D01*
X10241822Y-53102626D02*
X9859139Y-52178747D01*
X9825819Y-52347176D01*
X9774277Y-52471610D01*
X9704511Y-52552051D01*
X10431064Y-51941848D02*
X11002990Y-51704948D01*
X10840814Y-52184464D01*
X10972797Y-52129795D01*
X11079008Y-52137343D01*
X11141226Y-52163114D01*
X11221666Y-52232880D01*
X11312781Y-52452851D01*
X11305233Y-52559062D01*
X11279462Y-52621280D01*
X11209696Y-52701720D01*
X10945731Y-52811058D01*
X10839519Y-52803510D01*
X10777302Y-52777739D01*
D10*
X10152885Y-55781017D02*
X10390432Y-56043419D01*
X10372857Y-55689902D02*
X10390432Y-56043419D01*
X10391995Y-56171628D01*
X10379110Y-56202737D01*
X10344227Y-56242957D01*
X10843260Y-55830081D02*
X10808378Y-55870301D01*
X10720389Y-55906747D01*
X10667283Y-55902973D01*
X10627063Y-55868090D01*
X10554171Y-55692113D01*
X10557945Y-55639007D01*
X10592828Y-55598787D01*
X10680816Y-55562341D01*
X10733922Y-55566115D01*
X10774142Y-55600998D01*
X10792365Y-55644992D01*
X10590617Y-55780101D01*
X11138334Y-55733628D02*
X11085229Y-55729854D01*
X11045009Y-55694971D01*
X10881001Y-55299023D01*
X11380303Y-55633401D02*
X11327197Y-55629627D01*
X11286977Y-55594745D01*
X11122970Y-55198796D01*
X11622271Y-55533175D02*
X11569166Y-55529401D01*
X11538057Y-55516515D01*
X11497837Y-55481632D01*
X11443168Y-55349650D01*
X11446942Y-55296544D01*
X11459827Y-55265435D01*
X11494710Y-55225215D01*
X11560702Y-55197880D01*
X11613807Y-55201655D01*
X11644916Y-55214540D01*
X11685136Y-55249423D01*
X11739805Y-55381406D01*
X11736031Y-55434512D01*
X11723146Y-55465620D01*
X11688263Y-55505840D01*
X11622271Y-55533175D01*
X11802670Y-55097654D02*
X12018220Y-55369168D01*
X12015093Y-55112750D01*
X12194197Y-55296276D01*
X12154624Y-54951870D01*
D14*
X10184632Y-54613316D02*
X9993290Y-54151376D01*
X10103276Y-54105818D01*
X10178379Y-54100481D01*
X10240596Y-54126252D01*
X10280816Y-54161135D01*
X10339259Y-54240012D01*
X10366594Y-54306003D01*
X10381043Y-54403103D01*
X10377269Y-54456209D01*
X10351498Y-54518427D01*
X10294618Y-54567758D01*
X10184632Y-54613316D01*
X10888540Y-54321747D02*
X10624575Y-54431086D01*
X10756557Y-54376416D02*
X10565216Y-53914477D01*
X10548556Y-53998691D01*
X10522785Y-54060908D01*
X10487902Y-54101129D01*
X10851178Y-53796027D02*
X11137141Y-53677577D01*
X11056053Y-53917335D01*
X11122045Y-53890001D01*
X11175150Y-53893775D01*
X11206259Y-53906660D01*
X11246479Y-53941543D01*
X11292037Y-54051529D01*
X11288263Y-54104634D01*
X11275377Y-54135743D01*
X11240494Y-54175963D01*
X11108512Y-54230632D01*
X11055406Y-54226858D01*
X11024297Y-54213973D01*
D13*
X44161904Y-46352380D02*
X44161904Y-45352380D01*
X44400000Y-45352380D01*
X44542857Y-45400000D01*
X44638095Y-45495238D01*
X44685714Y-45590476D01*
X44733333Y-45780952D01*
X44733333Y-45923809D01*
X44685714Y-46114285D01*
X44638095Y-46209523D01*
X44542857Y-46304761D01*
X44400000Y-46352380D01*
X44161904Y-46352380D01*
X45590476Y-45685714D02*
X45590476Y-46352380D01*
X45352380Y-45304761D02*
X45114285Y-46019047D01*
X45733333Y-46019047D01*
D10*
X44702380Y-46247142D02*
X44702380Y-45842380D01*
X44726190Y-45794761D01*
X44750000Y-45770952D01*
X44797619Y-45747142D01*
X44869047Y-45747142D01*
X44916666Y-45770952D01*
X44702380Y-45937619D02*
X44750000Y-45913809D01*
X44845238Y-45913809D01*
X44892857Y-45937619D01*
X44916666Y-45961428D01*
X44940476Y-46009047D01*
X44940476Y-46151904D01*
X44916666Y-46199523D01*
X44892857Y-46223333D01*
X44845238Y-46247142D01*
X44750000Y-46247142D01*
X44702380Y-46223333D01*
X44464285Y-45913809D02*
X44464285Y-46247142D01*
X44464285Y-46151904D02*
X44440476Y-46199523D01*
X44416666Y-46223333D01*
X44369047Y-46247142D01*
X44321428Y-46247142D01*
X43964285Y-45937619D02*
X44011904Y-45913809D01*
X44107142Y-45913809D01*
X44154761Y-45937619D01*
X44178571Y-45985238D01*
X44178571Y-46175714D01*
X44154761Y-46223333D01*
X44107142Y-46247142D01*
X44011904Y-46247142D01*
X43964285Y-46223333D01*
X43940476Y-46175714D01*
X43940476Y-46128095D01*
X44178571Y-46080476D01*
X43535714Y-45937619D02*
X43583333Y-45913809D01*
X43678571Y-45913809D01*
X43726190Y-45937619D01*
X43750000Y-45985238D01*
X43750000Y-46175714D01*
X43726190Y-46223333D01*
X43678571Y-46247142D01*
X43583333Y-46247142D01*
X43535714Y-46223333D01*
X43511904Y-46175714D01*
X43511904Y-46128095D01*
X43750000Y-46080476D01*
X43297619Y-46247142D02*
X43297619Y-45913809D01*
X43297619Y-46199523D02*
X43273809Y-46223333D01*
X43226190Y-46247142D01*
X43154761Y-46247142D01*
X43107142Y-46223333D01*
X43083333Y-46175714D01*
X43083333Y-45913809D01*
D14*
X43630952Y-47766190D02*
X43630952Y-47266190D01*
X43750000Y-47266190D01*
X43821428Y-47290000D01*
X43869047Y-47337619D01*
X43892857Y-47385238D01*
X43916666Y-47480476D01*
X43916666Y-47551904D01*
X43892857Y-47647142D01*
X43869047Y-47694761D01*
X43821428Y-47742380D01*
X43750000Y-47766190D01*
X43630952Y-47766190D01*
X44345238Y-47432857D02*
X44345238Y-47766190D01*
X44226190Y-47242380D02*
X44107142Y-47599523D01*
X44416666Y-47599523D01*
D13*
X36947619Y-47333333D02*
X37423809Y-47000000D01*
X36947619Y-46761904D02*
X37947619Y-46761904D01*
X37947619Y-47142857D01*
X37900000Y-47238095D01*
X37852380Y-47285714D01*
X37757142Y-47333333D01*
X37614285Y-47333333D01*
X37519047Y-47285714D01*
X37471428Y-47238095D01*
X37423809Y-47142857D01*
X37423809Y-46761904D01*
X37614285Y-48190476D02*
X36947619Y-48190476D01*
X37995238Y-47952380D02*
X37280952Y-47714285D01*
X37280952Y-48333333D01*
D14*
X39666666Y-47766190D02*
X39500000Y-47528095D01*
X39380952Y-47766190D02*
X39380952Y-47266190D01*
X39571428Y-47266190D01*
X39619047Y-47290000D01*
X39642857Y-47313809D01*
X39666666Y-47361428D01*
X39666666Y-47432857D01*
X39642857Y-47480476D01*
X39619047Y-47504285D01*
X39571428Y-47528095D01*
X39380952Y-47528095D01*
X40095238Y-47432857D02*
X40095238Y-47766190D01*
X39976190Y-47242380D02*
X39857142Y-47599523D01*
X40166666Y-47599523D01*
D13*
X22146190Y-20272380D02*
X22336666Y-20272380D01*
X22431904Y-20320000D01*
X22527142Y-20415238D01*
X22574761Y-20605714D01*
X22574761Y-20939047D01*
X22527142Y-21129523D01*
X22431904Y-21224761D01*
X22336666Y-21272380D01*
X22146190Y-21272380D01*
X22050952Y-21224761D01*
X21955714Y-21129523D01*
X21908095Y-20939047D01*
X21908095Y-20605714D01*
X21955714Y-20415238D01*
X22050952Y-20320000D01*
X22146190Y-20272380D01*
X23479523Y-21272380D02*
X23003333Y-21272380D01*
X23003333Y-20272380D01*
X23812857Y-20748571D02*
X24146190Y-20748571D01*
X24289047Y-21272380D02*
X23812857Y-21272380D01*
X23812857Y-20272380D01*
X24289047Y-20272380D01*
X24717619Y-21272380D02*
X24717619Y-20272380D01*
X24955714Y-20272380D01*
X25098571Y-20320000D01*
X25193809Y-20415238D01*
X25241428Y-20510476D01*
X25289047Y-20700952D01*
X25289047Y-20843809D01*
X25241428Y-21034285D01*
X25193809Y-21129523D01*
X25098571Y-21224761D01*
X24955714Y-21272380D01*
X24717619Y-21272380D01*
X25479523Y-21367619D02*
X26241428Y-21367619D01*
X26479523Y-21272380D02*
X26479523Y-20272380D01*
X26717619Y-20272380D01*
X26860476Y-20320000D01*
X26955714Y-20415238D01*
X27003333Y-20510476D01*
X27050952Y-20700952D01*
X27050952Y-20843809D01*
X27003333Y-21034285D01*
X26955714Y-21129523D01*
X26860476Y-21224761D01*
X26717619Y-21272380D01*
X26479523Y-21272380D01*
X27479523Y-21272380D02*
X27479523Y-20605714D01*
X27479523Y-20272380D02*
X27431904Y-20320000D01*
X27479523Y-20367619D01*
X27527142Y-20320000D01*
X27479523Y-20272380D01*
X27479523Y-20367619D01*
X27908095Y-21224761D02*
X28003333Y-21272380D01*
X28193809Y-21272380D01*
X28289047Y-21224761D01*
X28336666Y-21129523D01*
X28336666Y-21081904D01*
X28289047Y-20986666D01*
X28193809Y-20939047D01*
X28050952Y-20939047D01*
X27955714Y-20891428D01*
X27908095Y-20796190D01*
X27908095Y-20748571D01*
X27955714Y-20653333D01*
X28050952Y-20605714D01*
X28193809Y-20605714D01*
X28289047Y-20653333D01*
X28765238Y-20605714D02*
X28765238Y-21605714D01*
X28765238Y-20653333D02*
X28860476Y-20605714D01*
X29050952Y-20605714D01*
X29146190Y-20653333D01*
X29193809Y-20700952D01*
X29241428Y-20796190D01*
X29241428Y-21081904D01*
X29193809Y-21177142D01*
X29146190Y-21224761D01*
X29050952Y-21272380D01*
X28860476Y-21272380D01*
X28765238Y-21224761D01*
X29812857Y-21272380D02*
X29717619Y-21224761D01*
X29670000Y-21129523D01*
X29670000Y-20272380D01*
X30622380Y-21272380D02*
X30622380Y-20748571D01*
X30574761Y-20653333D01*
X30479523Y-20605714D01*
X30289047Y-20605714D01*
X30193809Y-20653333D01*
X30622380Y-21224761D02*
X30527142Y-21272380D01*
X30289047Y-21272380D01*
X30193809Y-21224761D01*
X30146190Y-21129523D01*
X30146190Y-21034285D01*
X30193809Y-20939047D01*
X30289047Y-20891428D01*
X30527142Y-20891428D01*
X30622380Y-20843809D01*
X31003333Y-20605714D02*
X31241428Y-21272380D01*
X31479523Y-20605714D02*
X31241428Y-21272380D01*
X31146190Y-21510476D01*
X31098571Y-21558095D01*
X31003333Y-21605714D01*
X25908095Y-17732380D02*
X25908095Y-18541904D01*
X25955714Y-18637142D01*
X26003333Y-18684761D01*
X26098571Y-18732380D01*
X26289047Y-18732380D01*
X26384285Y-18684761D01*
X26431904Y-18637142D01*
X26479523Y-18541904D01*
X26479523Y-17732380D01*
X26908095Y-17827619D02*
X26955714Y-17780000D01*
X27050952Y-17732380D01*
X27289047Y-17732380D01*
X27384285Y-17780000D01*
X27431904Y-17827619D01*
X27479523Y-17922857D01*
X27479523Y-18018095D01*
X27431904Y-18160952D01*
X26860476Y-18732380D01*
X27479523Y-18732380D01*
X16418273Y-46218759D02*
X15886202Y-46452788D01*
X16306793Y-46779208D02*
X15326007Y-46584118D01*
X15400328Y-46210485D01*
X15465612Y-46126367D01*
X15521606Y-46088953D01*
X15624304Y-46060829D01*
X15764416Y-46088699D01*
X15848534Y-46153983D01*
X15885948Y-46209977D01*
X15914072Y-46312676D01*
X15839752Y-46686308D01*
X16604073Y-45284678D02*
X16492593Y-45845127D01*
X16548333Y-45564903D02*
X15567548Y-45369812D01*
X15689080Y-45491090D01*
X15763908Y-45603079D01*
X15792032Y-45705777D01*
X15744058Y-44482435D02*
X15762638Y-44389027D01*
X15827922Y-44304909D01*
X15883916Y-44267495D01*
X15986614Y-44239371D01*
X16182721Y-44229827D01*
X16416241Y-44276277D01*
X16593767Y-44360141D01*
X16677885Y-44425425D01*
X16715299Y-44481419D01*
X16743423Y-44584117D01*
X16724843Y-44677525D01*
X16659559Y-44761644D01*
X16603565Y-44799058D01*
X16500867Y-44827182D01*
X16304761Y-44836726D01*
X16071241Y-44790276D01*
X15893714Y-44706411D01*
X15809596Y-44641127D01*
X15772182Y-44585133D01*
X15744058Y-44482435D01*
D14*
X14200379Y-44828863D02*
X14317394Y-45094898D01*
X14480604Y-44884603D02*
X14383059Y-45374996D01*
X14196242Y-45337835D01*
X14154183Y-45305193D01*
X14135476Y-45277196D01*
X14121414Y-45225847D01*
X14135349Y-45155791D01*
X14167991Y-45113732D01*
X14195988Y-45095025D01*
X14247338Y-45080963D01*
X14434154Y-45118123D01*
X13733339Y-44735963D02*
X14013563Y-44791703D01*
X13873451Y-44763833D02*
X13775906Y-45254225D01*
X13836545Y-45193459D01*
X13892539Y-45156045D01*
X13943888Y-45141983D01*
X13332217Y-45165970D02*
X13285513Y-45156680D01*
X13243454Y-45124038D01*
X13224747Y-45096041D01*
X13210685Y-45044692D01*
X13205913Y-44946639D01*
X13229138Y-44829879D01*
X13271070Y-44741116D01*
X13303712Y-44699057D01*
X13331709Y-44680350D01*
X13383058Y-44666288D01*
X13429762Y-44675578D01*
X13471822Y-44708220D01*
X13490529Y-44736217D01*
X13504591Y-44787566D01*
X13509363Y-44885619D01*
X13486138Y-45002379D01*
X13444205Y-45091142D01*
X13411563Y-45133201D01*
X13383566Y-45151908D01*
X13332217Y-45165970D01*
D13*
X40537625Y-36886204D02*
X39982055Y-36054735D01*
X40180024Y-35922456D01*
X40325261Y-35882683D01*
X40457360Y-35908959D01*
X40549865Y-35961691D01*
X40695282Y-36093610D01*
X40774649Y-36212391D01*
X40840878Y-36397222D01*
X40854196Y-36502866D01*
X40827920Y-36634965D01*
X40735594Y-36753926D01*
X40537625Y-36886204D01*
X41804626Y-36039621D02*
X41329501Y-36357090D01*
X41567064Y-36198355D02*
X41011493Y-35366886D01*
X41011673Y-35538579D01*
X40985397Y-35670678D01*
X40932665Y-35763183D01*
D10*
X40571475Y-36295315D02*
X40756665Y-36572471D01*
X40703753Y-36493284D02*
X40710412Y-36546105D01*
X40703843Y-36579130D01*
X40677477Y-36625383D01*
X40637883Y-36651838D01*
X40168968Y-36592897D02*
X40195334Y-36546644D01*
X40274521Y-36493733D01*
X40327343Y-36487074D01*
X40373596Y-36513440D01*
X40479418Y-36671815D01*
X40486077Y-36724637D01*
X40459711Y-36770889D01*
X40380524Y-36823801D01*
X40327702Y-36830459D01*
X40281450Y-36804094D01*
X40254994Y-36764500D01*
X40426507Y-36592627D01*
X39779599Y-36824429D02*
X40057384Y-37240164D01*
X39792827Y-36844226D02*
X39819193Y-36797974D01*
X39898380Y-36745062D01*
X39951202Y-36738403D01*
X39984227Y-36744972D01*
X40030479Y-36771338D01*
X40109846Y-36890120D01*
X40116505Y-36942941D01*
X40109936Y-36975966D01*
X40083570Y-37022219D01*
X40004383Y-37075130D01*
X39951561Y-37081789D01*
D14*
X40897812Y-38305102D02*
X40620027Y-37889367D01*
X40719012Y-37823228D01*
X40791630Y-37803341D01*
X40857680Y-37816479D01*
X40903932Y-37842845D01*
X40976641Y-37908805D01*
X41016324Y-37968195D01*
X41049439Y-38060611D01*
X41056098Y-38113433D01*
X41042960Y-38179482D01*
X40996797Y-38238963D01*
X40897812Y-38305102D01*
X41531313Y-37881810D02*
X41293750Y-38040545D01*
X41412532Y-37961177D02*
X41134746Y-37545443D01*
X41134836Y-37631289D01*
X41121698Y-37697339D01*
X41095332Y-37743591D01*
D13*
X12284878Y-36547726D02*
X12840449Y-35716256D01*
X13038418Y-35848535D01*
X13130743Y-35967496D01*
X13157019Y-36099595D01*
X13143702Y-36205238D01*
X13077473Y-36390069D01*
X12998105Y-36508850D01*
X12852689Y-36640770D01*
X12760183Y-36693502D01*
X12628084Y-36719778D01*
X12482847Y-36680004D01*
X12284878Y-36547726D01*
X13552598Y-36707538D02*
X13499866Y-36615032D01*
X13486728Y-36548983D01*
X13500046Y-36443340D01*
X13526502Y-36403746D01*
X13619007Y-36351014D01*
X13685056Y-36337876D01*
X13790700Y-36351194D01*
X13949075Y-36457016D01*
X14001807Y-36549522D01*
X14014945Y-36615571D01*
X14001627Y-36721215D01*
X13975171Y-36760808D01*
X13882666Y-36813540D01*
X13816617Y-36826678D01*
X13710973Y-36813361D01*
X13552598Y-36707538D01*
X13446955Y-36694220D01*
X13380905Y-36707358D01*
X13288400Y-36760090D01*
X13182577Y-36918465D01*
X13169259Y-37024108D01*
X13182397Y-37090158D01*
X13235129Y-37182663D01*
X13393504Y-37288486D01*
X13499148Y-37301804D01*
X13565197Y-37288666D01*
X13657703Y-37235934D01*
X13763525Y-37077559D01*
X13776843Y-36971915D01*
X13763705Y-36905866D01*
X13710973Y-36813361D01*
D10*
X10961599Y-38999570D02*
X11146789Y-38722413D01*
X11093878Y-38801601D02*
X11140130Y-38775235D01*
X11173155Y-38768666D01*
X11225977Y-38775325D01*
X11265570Y-38801780D01*
X11390562Y-39257558D02*
X11337740Y-39250899D01*
X11258552Y-39197988D01*
X11232186Y-39151735D01*
X11238845Y-39098913D01*
X11344668Y-38940538D01*
X11390921Y-38914172D01*
X11443742Y-38920831D01*
X11522930Y-38973743D01*
X11549296Y-39019995D01*
X11542637Y-39072817D01*
X11516181Y-39112411D01*
X11291757Y-39019726D01*
X11753475Y-39528684D02*
X12031260Y-39112949D01*
X11766703Y-39508887D02*
X11713881Y-39502229D01*
X11634693Y-39449317D01*
X11608327Y-39403064D01*
X11601758Y-39370040D01*
X11608417Y-39317218D01*
X11687784Y-39198437D01*
X11734037Y-39172071D01*
X11767062Y-39165502D01*
X11819883Y-39172161D01*
X11899071Y-39225072D01*
X11925437Y-39271325D01*
D14*
X12693516Y-37928961D02*
X12415731Y-38344696D01*
X12316746Y-38278556D01*
X12270584Y-38219076D01*
X12257446Y-38153026D01*
X12264104Y-38100205D01*
X12297219Y-38007789D01*
X12336903Y-37948399D01*
X12409611Y-37882439D01*
X12455864Y-37856073D01*
X12521913Y-37842935D01*
X12594532Y-37862822D01*
X12693516Y-37928961D01*
X12059656Y-37849055D02*
X12086022Y-37895308D01*
X12092591Y-37928332D01*
X12085932Y-37981154D01*
X12072704Y-38000951D01*
X12026452Y-38027317D01*
X11993427Y-38033886D01*
X11940605Y-38027227D01*
X11861418Y-37974316D01*
X11835052Y-37928063D01*
X11828483Y-37895038D01*
X11835142Y-37842216D01*
X11848370Y-37822420D01*
X11894622Y-37796054D01*
X11927647Y-37789485D01*
X11980469Y-37796143D01*
X12059656Y-37849055D01*
X12112478Y-37855714D01*
X12145503Y-37849145D01*
X12191755Y-37822779D01*
X12244667Y-37743591D01*
X12251326Y-37690770D01*
X12244757Y-37657745D01*
X12218391Y-37611492D01*
X12139203Y-37558581D01*
X12086381Y-37551922D01*
X12053357Y-37558491D01*
X12007104Y-37584857D01*
X11954193Y-37664044D01*
X11947534Y-37716866D01*
X11954103Y-37749891D01*
X11980469Y-37796143D01*
D13*
X18083545Y-41889907D02*
X17502417Y-41902506D01*
X17766077Y-42365033D02*
X16934607Y-41809462D01*
X17146253Y-41492712D01*
X17238758Y-41439980D01*
X17304808Y-41426842D01*
X17410451Y-41440160D01*
X17529232Y-41519527D01*
X17581964Y-41612032D01*
X17595102Y-41678082D01*
X17581785Y-41783725D01*
X17370139Y-42100475D01*
X17925889Y-41097313D02*
X17833383Y-41150045D01*
X17767334Y-41163183D01*
X17661691Y-41149865D01*
X17622097Y-41123409D01*
X17569365Y-41030904D01*
X17556227Y-40964855D01*
X17569545Y-40859211D01*
X17675367Y-40700836D01*
X17767873Y-40648104D01*
X17833922Y-40634966D01*
X17939566Y-40648284D01*
X17979159Y-40674740D01*
X18031891Y-40767245D01*
X18045029Y-40833294D01*
X18031712Y-40938938D01*
X17925889Y-41097313D01*
X17912571Y-41202956D01*
X17925709Y-41269006D01*
X17978441Y-41361511D01*
X18136816Y-41467334D01*
X18242459Y-41480652D01*
X18308509Y-41467514D01*
X18401014Y-41414782D01*
X18506837Y-41256407D01*
X18520155Y-41150763D01*
X18507017Y-41084714D01*
X18454285Y-40992208D01*
X18295910Y-40886386D01*
X18190266Y-40873068D01*
X18124217Y-40886206D01*
X18031712Y-40938938D01*
D14*
X15988953Y-40131227D02*
X15995253Y-40421791D01*
X16226516Y-40289961D02*
X15948731Y-40705696D01*
X15790356Y-40599873D01*
X15763990Y-40553620D01*
X15757421Y-40520595D01*
X15764080Y-40467774D01*
X15803763Y-40408383D01*
X15850016Y-40382017D01*
X15883041Y-40375448D01*
X15935862Y-40382107D01*
X16094237Y-40487930D01*
X15592656Y-40210055D02*
X15619022Y-40256308D01*
X15625591Y-40289332D01*
X15618932Y-40342154D01*
X15605704Y-40361951D01*
X15559452Y-40388317D01*
X15526427Y-40394886D01*
X15473605Y-40388227D01*
X15394418Y-40335316D01*
X15368052Y-40289063D01*
X15361483Y-40256038D01*
X15368142Y-40203216D01*
X15381370Y-40183420D01*
X15427622Y-40157054D01*
X15460647Y-40150485D01*
X15513469Y-40157143D01*
X15592656Y-40210055D01*
X15645478Y-40216714D01*
X15678503Y-40210145D01*
X15724755Y-40183779D01*
X15777667Y-40104591D01*
X15784326Y-40051770D01*
X15777757Y-40018745D01*
X15751391Y-39972492D01*
X15672203Y-39919581D01*
X15619381Y-39912922D01*
X15586357Y-39919491D01*
X15540104Y-39945857D01*
X15487193Y-40025044D01*
X15480534Y-40077866D01*
X15487103Y-40110891D01*
X15513469Y-40157143D01*
D13*
X43987831Y-49799693D02*
X44182922Y-48818908D01*
X44416442Y-48865358D01*
X44547264Y-48939932D01*
X44622092Y-49051920D01*
X44650216Y-49154618D01*
X44659760Y-49350724D01*
X44631890Y-49490836D01*
X44548026Y-49668363D01*
X44482742Y-49752481D01*
X44370754Y-49827309D01*
X44221352Y-49846143D01*
X43987831Y-49799693D01*
X45630748Y-49106898D02*
X45163707Y-49013998D01*
X45024103Y-49471748D01*
X45080097Y-49434334D01*
X45182795Y-49406210D01*
X45416315Y-49452660D01*
X45500433Y-49517945D01*
X45537847Y-49573939D01*
X45565971Y-49676637D01*
X45519521Y-49910157D01*
X45454237Y-49994275D01*
X45398243Y-50031689D01*
X45295545Y-50059813D01*
X45062025Y-50013363D01*
X44977907Y-49948079D01*
X44940493Y-49892085D01*
D10*
X44608108Y-49781012D02*
X44687073Y-49384028D01*
X44719715Y-49341969D01*
X44747712Y-49323262D01*
X44799061Y-49309200D01*
X44869117Y-49323135D01*
X44911176Y-49355777D01*
X44668493Y-49477436D02*
X44719842Y-49463374D01*
X44813250Y-49481954D01*
X44855309Y-49514596D01*
X44874016Y-49542593D01*
X44888078Y-49593942D01*
X44860208Y-49734054D01*
X44827566Y-49776113D01*
X44799569Y-49794820D01*
X44748220Y-49808882D01*
X44654812Y-49790302D01*
X44612753Y-49757660D01*
X44439618Y-49407634D02*
X44374588Y-49734562D01*
X44393168Y-49641154D02*
X44360526Y-49683213D01*
X44332529Y-49701920D01*
X44281179Y-49715982D01*
X44234475Y-49706692D01*
X43944580Y-49333441D02*
X43995929Y-49319379D01*
X44089337Y-49337959D01*
X44131396Y-49370601D01*
X44145458Y-49421950D01*
X44108298Y-49608766D01*
X44075656Y-49650825D01*
X44024307Y-49664887D01*
X43930899Y-49646307D01*
X43888840Y-49613665D01*
X43874778Y-49562316D01*
X43884068Y-49515612D01*
X44126878Y-49515358D01*
X43524243Y-49249831D02*
X43575593Y-49235769D01*
X43669001Y-49254349D01*
X43711060Y-49286991D01*
X43725122Y-49338340D01*
X43687962Y-49525156D01*
X43655320Y-49567215D01*
X43603971Y-49581277D01*
X43510562Y-49562697D01*
X43468503Y-49530055D01*
X43454441Y-49478706D01*
X43463731Y-49432002D01*
X43706542Y-49431748D01*
X43230338Y-49506957D02*
X43295368Y-49180028D01*
X43239628Y-49460253D02*
X43211631Y-49478960D01*
X43160282Y-49493022D01*
X43090226Y-49479087D01*
X43048167Y-49446445D01*
X43034105Y-49395096D01*
X43085200Y-49138223D01*
D14*
X44073084Y-50762153D02*
X43975538Y-51252545D01*
X43858778Y-51229320D01*
X43793367Y-51192033D01*
X43755953Y-51136039D01*
X43741891Y-51084690D01*
X43737119Y-50986637D01*
X43751054Y-50916581D01*
X43792986Y-50827818D01*
X43825628Y-50785759D01*
X43881622Y-50748345D01*
X43956323Y-50738928D01*
X44073084Y-50762153D01*
X43251625Y-51108550D02*
X43485146Y-51155000D01*
X43554948Y-50926125D01*
X43526951Y-50944832D01*
X43475602Y-50958894D01*
X43358842Y-50935669D01*
X43316783Y-50903027D01*
X43298076Y-50875030D01*
X43284014Y-50823681D01*
X43307239Y-50706921D01*
X43339881Y-50664862D01*
X43367878Y-50646155D01*
X43419227Y-50632093D01*
X43535987Y-50655318D01*
X43578046Y-50687960D01*
X43596753Y-50715957D01*
D13*
X8705936Y-42796537D02*
X8901026Y-41815751D01*
X9134546Y-41862201D01*
X9265369Y-41936776D01*
X9340197Y-42048764D01*
X9368321Y-42151462D01*
X9377865Y-42347568D01*
X9349995Y-42487680D01*
X9266131Y-42665207D01*
X9200846Y-42749325D01*
X9088858Y-42824153D01*
X8939456Y-42842987D01*
X8705936Y-42796537D01*
X10200466Y-43093817D02*
X9640017Y-42982337D01*
X9920241Y-43038077D02*
X10115332Y-42057292D01*
X9994054Y-42178824D01*
X9882065Y-42253652D01*
X9779367Y-42281776D01*
X11002709Y-42233802D02*
X11096117Y-42252382D01*
X11180235Y-42317666D01*
X11217649Y-42373660D01*
X11245773Y-42476358D01*
X11255317Y-42672465D01*
X11208867Y-42905985D01*
X11125003Y-43083511D01*
X11059719Y-43167629D01*
X11003725Y-43205043D01*
X10901027Y-43233167D01*
X10807619Y-43214587D01*
X10723500Y-43149303D01*
X10686086Y-43093309D01*
X10657962Y-42990611D01*
X10648418Y-42794505D01*
X10694868Y-42560985D01*
X10778733Y-42383458D01*
X10844017Y-42299340D01*
X10900011Y-42261926D01*
X11002709Y-42233802D01*
D10*
X8731891Y-45289987D02*
X8652926Y-45686971D01*
X8620284Y-45729030D01*
X8592287Y-45747737D01*
X8540938Y-45761799D01*
X8470882Y-45747864D01*
X8428823Y-45715222D01*
X8671506Y-45593563D02*
X8620157Y-45607625D01*
X8526749Y-45589045D01*
X8484690Y-45556403D01*
X8465983Y-45528406D01*
X8451921Y-45477057D01*
X8479791Y-45336945D01*
X8512433Y-45294886D01*
X8540430Y-45276179D01*
X8591779Y-45262117D01*
X8685187Y-45280697D01*
X8727246Y-45313339D01*
X8900381Y-45663365D02*
X8965411Y-45336437D01*
X8946831Y-45429845D02*
X8979473Y-45387786D01*
X9007470Y-45369079D01*
X9058820Y-45355017D01*
X9105524Y-45364307D01*
X9395419Y-45737558D02*
X9344070Y-45751620D01*
X9250662Y-45733040D01*
X9208603Y-45700398D01*
X9194541Y-45649049D01*
X9231701Y-45462233D01*
X9264343Y-45420174D01*
X9315692Y-45406112D01*
X9409100Y-45424692D01*
X9451159Y-45457334D01*
X9465221Y-45508683D01*
X9455931Y-45555387D01*
X9213121Y-45555641D01*
X9815756Y-45821168D02*
X9764406Y-45835230D01*
X9670998Y-45816650D01*
X9628939Y-45784008D01*
X9614877Y-45732659D01*
X9652037Y-45545843D01*
X9684679Y-45503784D01*
X9736028Y-45489722D01*
X9829437Y-45508302D01*
X9871496Y-45540944D01*
X9885558Y-45592293D01*
X9876268Y-45638997D01*
X9633457Y-45639251D01*
X10109661Y-45564042D02*
X10044631Y-45890971D01*
X10100371Y-45610746D02*
X10128368Y-45592039D01*
X10179717Y-45577977D01*
X10249773Y-45591912D01*
X10291832Y-45624554D01*
X10305894Y-45675903D01*
X10254799Y-45932776D01*
D14*
X10312604Y-44055603D02*
X10215059Y-44545996D01*
X10098299Y-44522771D01*
X10032887Y-44485483D01*
X9995473Y-44429489D01*
X9981411Y-44378140D01*
X9976639Y-44280087D01*
X9990574Y-44210031D01*
X10032506Y-44121268D01*
X10065149Y-44079209D01*
X10121143Y-44041795D01*
X10195844Y-44032378D01*
X10312604Y-44055603D01*
X9565339Y-43906963D02*
X9845563Y-43962703D01*
X9705451Y-43934833D02*
X9607906Y-44425225D01*
X9668545Y-44364459D01*
X9724539Y-44327045D01*
X9775888Y-44312983D01*
X9164217Y-44336970D02*
X9117513Y-44327680D01*
X9075454Y-44295038D01*
X9056747Y-44267041D01*
X9042685Y-44215692D01*
X9037913Y-44117639D01*
X9061138Y-44000879D01*
X9103070Y-43912116D01*
X9135712Y-43870057D01*
X9163709Y-43851350D01*
X9215058Y-43837288D01*
X9261762Y-43846578D01*
X9303822Y-43879220D01*
X9322529Y-43907217D01*
X9336591Y-43958566D01*
X9341363Y-44056619D01*
X9318138Y-44173379D01*
X9276205Y-44262142D01*
X9243563Y-44304201D01*
X9215566Y-44322908D01*
X9164217Y-44336970D01*
D13*
X36245835Y-51272901D02*
X36813338Y-51147171D01*
X36464511Y-50744970D02*
X37388390Y-51127653D01*
X37242606Y-51479607D01*
X37162166Y-51549373D01*
X37099949Y-51575144D01*
X36993737Y-51582692D01*
X36861754Y-51528023D01*
X36791989Y-51447583D01*
X36766218Y-51385366D01*
X36758669Y-51279154D01*
X36904453Y-50927200D01*
X36841700Y-52447481D02*
X36914592Y-52271504D01*
X36907044Y-52165292D01*
X36881272Y-52103075D01*
X36785736Y-51960418D01*
X36627982Y-51843531D01*
X36276027Y-51697747D01*
X36169816Y-51705295D01*
X36107599Y-51731067D01*
X36027158Y-51800832D01*
X35954266Y-51976809D01*
X35961814Y-52083021D01*
X35987586Y-52145238D01*
X36057351Y-52225678D01*
X36277323Y-52316793D01*
X36383534Y-52309245D01*
X36445751Y-52283474D01*
X36526192Y-52213708D01*
X36599084Y-52037731D01*
X36591536Y-51931520D01*
X36565764Y-51869302D01*
X36495999Y-51788862D01*
D14*
X38917549Y-52367917D02*
X38980414Y-52651669D01*
X39181514Y-52477255D02*
X38990173Y-52939195D01*
X38814196Y-52866303D01*
X38779313Y-52826083D01*
X38766427Y-52794974D01*
X38762653Y-52741868D01*
X38789988Y-52675877D01*
X38830208Y-52640994D01*
X38861316Y-52628109D01*
X38914422Y-52624334D01*
X39090399Y-52697226D01*
X38330259Y-52665850D02*
X38418247Y-52702296D01*
X38471353Y-52698522D01*
X38502462Y-52685636D01*
X38573790Y-52637868D01*
X38632234Y-52558991D01*
X38705126Y-52383013D01*
X38701352Y-52329908D01*
X38688466Y-52298799D01*
X38653583Y-52258579D01*
X38565595Y-52222133D01*
X38512489Y-52225907D01*
X38481380Y-52238793D01*
X38441160Y-52273675D01*
X38395603Y-52383661D01*
X38399377Y-52436767D01*
X38412262Y-52467875D01*
X38447145Y-52508096D01*
X38535134Y-52544542D01*
X38588239Y-52540768D01*
X38619348Y-52527882D01*
X38659568Y-52492999D01*
D13*
X35131263Y-41712752D02*
X35342011Y-41171038D01*
X34813795Y-41237626D02*
X35645264Y-40682056D01*
X35856910Y-40998806D01*
X35870228Y-41104450D01*
X35857090Y-41170499D01*
X35804358Y-41263004D01*
X35685577Y-41342371D01*
X35579933Y-41355689D01*
X35513884Y-41342551D01*
X35421378Y-41289819D01*
X35209733Y-40973069D01*
X35660378Y-42504627D02*
X35342909Y-42029502D01*
X35501644Y-42267065D02*
X36333113Y-41711494D01*
X36161420Y-41711674D01*
X36029321Y-41685398D01*
X35936816Y-41632666D01*
D14*
X37602375Y-40507368D02*
X37331518Y-40401994D01*
X37364812Y-40666102D02*
X37087027Y-40250367D01*
X37245402Y-40144544D01*
X37298224Y-40137885D01*
X37331249Y-40144454D01*
X37377501Y-40170820D01*
X37417185Y-40230211D01*
X37423844Y-40283033D01*
X37417275Y-40316057D01*
X37390909Y-40362310D01*
X37232534Y-40468133D01*
X37998313Y-40242810D02*
X37760750Y-40401545D01*
X37879532Y-40322177D02*
X37601746Y-39906443D01*
X37601836Y-39992289D01*
X37588698Y-40058339D01*
X37562332Y-40104591D01*
D13*
X43564342Y-42987683D02*
X43369251Y-42006898D01*
X43602772Y-41960448D01*
X43752174Y-41979282D01*
X43864162Y-42054110D01*
X43929446Y-42138228D01*
X44013310Y-42315754D01*
X44041180Y-42455867D01*
X44031636Y-42651973D01*
X44003512Y-42754671D01*
X43928684Y-42866659D01*
X43797862Y-42941233D01*
X43564342Y-42987683D01*
X44256629Y-41830388D02*
X44863781Y-41709618D01*
X44611173Y-42148280D01*
X44751285Y-42120410D01*
X44853983Y-42148534D01*
X44909977Y-42185948D01*
X44975262Y-42270066D01*
X45021712Y-42503587D01*
X44993588Y-42606285D01*
X44956174Y-42662279D01*
X44872055Y-42727563D01*
X44591831Y-42783303D01*
X44489133Y-42755179D01*
X44433139Y-42717765D01*
D10*
X44103661Y-42753957D02*
X44024696Y-42356972D01*
X44038758Y-42305623D01*
X44057465Y-42277626D01*
X44099524Y-42244984D01*
X44169580Y-42231049D01*
X44220929Y-42245111D01*
X44043276Y-42450381D02*
X44085335Y-42417738D01*
X44178743Y-42399158D01*
X44230092Y-42413220D01*
X44258089Y-42431927D01*
X44290731Y-42473987D01*
X44318601Y-42614099D01*
X44304539Y-42665448D01*
X44285832Y-42693445D01*
X44243773Y-42726087D01*
X44150365Y-42744667D01*
X44099016Y-42730605D01*
X43805111Y-42473479D02*
X43870141Y-42800407D01*
X43851561Y-42706999D02*
X43837499Y-42758348D01*
X43818792Y-42786345D01*
X43776733Y-42818987D01*
X43730028Y-42828277D01*
X43319363Y-42594376D02*
X43361422Y-42561734D01*
X43454830Y-42543154D01*
X43506179Y-42557216D01*
X43538821Y-42599275D01*
X43575981Y-42786091D01*
X43561919Y-42837440D01*
X43519860Y-42870082D01*
X43426452Y-42888662D01*
X43375103Y-42874600D01*
X43342461Y-42832541D01*
X43333171Y-42785837D01*
X43557401Y-42692683D01*
X42899026Y-42677986D02*
X42941085Y-42645344D01*
X43034494Y-42626764D01*
X43085843Y-42640826D01*
X43118485Y-42682885D01*
X43155645Y-42869701D01*
X43141583Y-42921050D01*
X43099524Y-42953692D01*
X43006116Y-42972272D01*
X42954766Y-42958210D01*
X42922124Y-42916151D01*
X42912834Y-42869447D01*
X43137065Y-42776293D01*
X42725891Y-43028012D02*
X42660861Y-42701084D01*
X42716601Y-42981308D02*
X42697894Y-43009305D01*
X42655835Y-43041947D01*
X42585779Y-43055882D01*
X42534430Y-43041820D01*
X42501788Y-42999761D01*
X42450693Y-42742889D01*
D14*
X43349171Y-44452841D02*
X43251625Y-43962449D01*
X43368386Y-43939224D01*
X43443087Y-43948641D01*
X43499081Y-43986055D01*
X43531723Y-44028114D01*
X43573655Y-44116877D01*
X43587590Y-44186933D01*
X43582818Y-44284986D01*
X43568756Y-44336335D01*
X43531342Y-44392329D01*
X43465931Y-44429616D01*
X43349171Y-44452841D01*
X43695314Y-43874194D02*
X43998890Y-43813809D01*
X43872586Y-44033140D01*
X43942642Y-44019205D01*
X43993991Y-44033267D01*
X44021988Y-44051974D01*
X44054631Y-44094033D01*
X44077856Y-44210793D01*
X44063794Y-44262142D01*
X44045087Y-44290139D01*
X44003027Y-44322781D01*
X43862915Y-44350651D01*
X43811566Y-44336589D01*
X43783569Y-44317882D01*
D13*
X10416263Y-39565281D02*
X10798946Y-38641402D01*
X11018917Y-38732517D01*
X11132677Y-38831180D01*
X11184220Y-38955615D01*
X11191768Y-39061826D01*
X11162870Y-39256026D01*
X11108201Y-39388009D01*
X10991315Y-39545763D01*
X10910874Y-39615529D01*
X10786440Y-39667071D01*
X10636234Y-39656396D01*
X10416263Y-39565281D01*
X11384137Y-39966188D02*
X11560114Y-40039080D01*
X11666325Y-40031531D01*
X11728542Y-40005760D01*
X11871200Y-39910224D01*
X11988086Y-39752469D01*
X12133871Y-39400515D01*
X12126322Y-39294304D01*
X12100551Y-39232087D01*
X12030786Y-39151646D01*
X11854808Y-39078754D01*
X11748597Y-39086302D01*
X11686380Y-39112074D01*
X11605939Y-39181839D01*
X11514824Y-39401810D01*
X11522372Y-39508022D01*
X11548144Y-39570239D01*
X11617909Y-39650680D01*
X11793886Y-39723572D01*
X11900098Y-39716023D01*
X11962315Y-39690252D01*
X12042755Y-39620487D01*
D10*
X9163375Y-41687870D02*
X9145799Y-42041387D01*
X9383346Y-41778985D02*
X9145799Y-42041387D01*
X9056248Y-42133150D01*
X9025139Y-42146035D01*
X8972033Y-42149809D01*
X9616851Y-42210732D02*
X9563745Y-42214506D01*
X9475756Y-42178060D01*
X9440874Y-42137840D01*
X9437099Y-42084734D01*
X9509992Y-41908757D01*
X9550212Y-41873874D01*
X9603317Y-41870100D01*
X9691306Y-41906546D01*
X9726189Y-41946766D01*
X9729963Y-41999872D01*
X9711740Y-42043866D01*
X9473545Y-41996745D01*
X9893702Y-42351178D02*
X9858819Y-42310958D01*
X9855045Y-42257853D01*
X10019052Y-41861904D01*
X10135670Y-42451405D02*
X10100787Y-42411185D01*
X10097013Y-42358079D01*
X10261021Y-41962131D01*
X10377639Y-42551632D02*
X10342756Y-42511412D01*
X10329870Y-42480303D01*
X10326096Y-42427197D01*
X10380765Y-42295214D01*
X10420985Y-42260332D01*
X10452094Y-42247446D01*
X10505200Y-42243672D01*
X10571191Y-42271006D01*
X10606074Y-42311226D01*
X10618960Y-42342335D01*
X10622734Y-42395441D01*
X10568065Y-42527424D01*
X10527845Y-42562306D01*
X10496736Y-42575192D01*
X10443630Y-42578966D01*
X10377639Y-42551632D01*
X10813160Y-42371233D02*
X10773587Y-42715639D01*
X10952691Y-42532114D01*
X10949564Y-42788531D01*
X11165114Y-42517017D01*
D14*
X11086514Y-40840255D02*
X10895173Y-41302195D01*
X10785187Y-41256637D01*
X10728307Y-41207306D01*
X10702536Y-41145088D01*
X10698762Y-41091983D01*
X10713211Y-40994883D01*
X10740545Y-40928891D01*
X10798988Y-40850014D01*
X10839209Y-40815131D01*
X10901426Y-40789360D01*
X10976529Y-40794698D01*
X11086514Y-40840255D01*
X10602577Y-40639802D02*
X10514589Y-40603356D01*
X10461483Y-40607130D01*
X10430375Y-40620016D01*
X10359046Y-40667784D01*
X10300603Y-40746661D01*
X10227710Y-40922638D01*
X10231485Y-40975744D01*
X10244370Y-41006852D01*
X10279253Y-41047073D01*
X10367242Y-41083519D01*
X10420347Y-41079745D01*
X10451456Y-41066859D01*
X10491676Y-41031976D01*
X10537234Y-40921991D01*
X10533460Y-40868885D01*
X10520574Y-40837776D01*
X10485691Y-40797556D01*
X10397703Y-40761110D01*
X10344597Y-40764884D01*
X10313488Y-40777770D01*
X10273268Y-40812652D01*
D13*
X10552775Y-56888411D02*
X9997205Y-56056941D01*
X10195174Y-55924662D01*
X10340411Y-55884889D01*
X10472510Y-55911165D01*
X10565015Y-55963897D01*
X10710432Y-56095816D01*
X10789799Y-56214598D01*
X10856028Y-56399429D01*
X10869346Y-56505072D01*
X10843070Y-56637171D01*
X10750744Y-56756132D01*
X10552775Y-56888411D01*
X11819777Y-56041827D02*
X11344651Y-56359296D01*
X11582214Y-56200562D02*
X11026644Y-55369092D01*
X11026823Y-55540785D01*
X11000547Y-55672884D01*
X10947815Y-55765389D01*
X12162085Y-55011311D02*
X12532465Y-55565624D01*
X11752470Y-54826839D02*
X11951337Y-55553025D01*
X12466056Y-55209101D01*
D10*
X12707524Y-58784684D02*
X12522334Y-58507528D01*
X12575246Y-58586715D02*
X12568587Y-58533894D01*
X12575156Y-58500869D01*
X12601522Y-58454616D01*
X12641116Y-58428161D01*
X13110031Y-58487102D02*
X13083665Y-58533355D01*
X13004478Y-58586266D01*
X12951656Y-58592925D01*
X12905403Y-58566559D01*
X12799581Y-58408184D01*
X12792922Y-58355362D01*
X12819288Y-58309110D01*
X12898475Y-58256198D01*
X12951297Y-58249540D01*
X12997549Y-58275905D01*
X13024005Y-58315499D01*
X12852492Y-58487372D01*
X13499400Y-58255570D02*
X13221615Y-57839835D01*
X13486172Y-58235773D02*
X13459806Y-58282025D01*
X13380619Y-58334937D01*
X13327797Y-58341596D01*
X13294772Y-58335027D01*
X13248520Y-58308661D01*
X13169153Y-58189879D01*
X13162494Y-58137058D01*
X13169063Y-58104033D01*
X13195429Y-58057780D01*
X13274616Y-58004869D01*
X13327438Y-57998210D01*
D14*
X11820843Y-57693381D02*
X11543058Y-57277646D01*
X11642043Y-57211506D01*
X11714661Y-57191620D01*
X11780711Y-57204758D01*
X11826963Y-57231124D01*
X11899672Y-57297083D01*
X11939355Y-57356474D01*
X11972470Y-57448890D01*
X11979129Y-57501711D01*
X11965991Y-57567761D01*
X11919828Y-57627241D01*
X11820843Y-57693381D01*
X12454344Y-57270089D02*
X12216781Y-57428823D01*
X12335563Y-57349456D02*
X12057778Y-56933721D01*
X12057867Y-57019568D01*
X12044729Y-57085617D01*
X12018363Y-57131870D01*
X12625498Y-56754831D02*
X12810688Y-57031987D01*
X12420691Y-56662595D02*
X12520124Y-57025688D01*
X12777484Y-56853726D01*
D13*
X41834966Y-56266077D02*
X42390537Y-55434607D01*
X42588506Y-55566886D01*
X42680831Y-55685847D01*
X42707107Y-55817946D01*
X42693790Y-55923589D01*
X42627561Y-56108420D01*
X42548193Y-56227201D01*
X42402777Y-56359121D01*
X42310271Y-56411853D01*
X42178172Y-56438129D01*
X42032935Y-56398355D01*
X41834966Y-56266077D01*
X43142819Y-55937266D02*
X43697132Y-56307646D01*
X42785217Y-56901014D01*
D10*
X42378400Y-56080429D02*
X42193210Y-56357586D01*
X42246121Y-56278398D02*
X42199869Y-56304764D01*
X42166844Y-56311333D01*
X42114022Y-56304674D01*
X42074429Y-56278219D01*
X41949437Y-55822441D02*
X42002259Y-55829100D01*
X42081447Y-55882011D01*
X42107813Y-55928264D01*
X42101154Y-55981086D01*
X41995331Y-56139461D01*
X41949078Y-56165827D01*
X41896257Y-56159168D01*
X41817069Y-56106256D01*
X41790703Y-56060004D01*
X41797362Y-56007182D01*
X41823818Y-55967588D01*
X42048242Y-56060273D01*
X41586524Y-55551315D02*
X41308739Y-55967050D01*
X41573296Y-55571112D02*
X41626118Y-55577770D01*
X41705306Y-55630682D01*
X41731672Y-55676935D01*
X41738241Y-55709959D01*
X41731582Y-55762781D01*
X41652215Y-55881562D01*
X41605962Y-55907928D01*
X41572937Y-55914497D01*
X41520116Y-55907838D01*
X41440928Y-55854927D01*
X41414562Y-55808674D01*
D14*
X41511516Y-57184961D02*
X41233731Y-57600696D01*
X41134746Y-57534556D01*
X41088584Y-57475076D01*
X41075446Y-57409026D01*
X41082104Y-57356205D01*
X41115219Y-57263789D01*
X41154903Y-57204399D01*
X41227611Y-57138439D01*
X41273864Y-57112073D01*
X41339913Y-57098935D01*
X41412532Y-57118822D01*
X41511516Y-57184961D01*
X40857590Y-57349366D02*
X40580433Y-57164176D01*
X41036391Y-56867492D01*
D13*
X14257857Y-48687619D02*
X14591190Y-49163809D01*
X14829285Y-48687619D02*
X14829285Y-49687619D01*
X14448333Y-49687619D01*
X14353095Y-49640000D01*
X14305476Y-49592380D01*
X14257857Y-49497142D01*
X14257857Y-49354285D01*
X14305476Y-49259047D01*
X14353095Y-49211428D01*
X14448333Y-49163809D01*
X14829285Y-49163809D01*
X13305476Y-48687619D02*
X13876904Y-48687619D01*
X13591190Y-48687619D02*
X13591190Y-49687619D01*
X13686428Y-49544761D01*
X13781666Y-49449523D01*
X13876904Y-49401904D01*
X12353095Y-48687619D02*
X12924523Y-48687619D01*
X12638809Y-48687619D02*
X12638809Y-49687619D01*
X12734047Y-49544761D01*
X12829285Y-49449523D01*
X12924523Y-49401904D01*
D14*
X13268571Y-47766190D02*
X13101904Y-47528095D01*
X12982857Y-47766190D02*
X12982857Y-47266190D01*
X13173333Y-47266190D01*
X13220952Y-47290000D01*
X13244761Y-47313809D01*
X13268571Y-47361428D01*
X13268571Y-47432857D01*
X13244761Y-47480476D01*
X13220952Y-47504285D01*
X13173333Y-47528095D01*
X12982857Y-47528095D01*
X13744761Y-47766190D02*
X13459047Y-47766190D01*
X13601904Y-47766190D02*
X13601904Y-47266190D01*
X13554285Y-47337619D01*
X13506666Y-47385238D01*
X13459047Y-47409047D01*
X14220952Y-47766190D02*
X13935238Y-47766190D01*
X14078095Y-47766190D02*
X14078095Y-47266190D01*
X14030476Y-47337619D01*
X13982857Y-47385238D01*
X13935238Y-47409047D01*
X24416666Y-5428571D02*
X24392857Y-5452380D01*
X24321428Y-5476190D01*
X24273809Y-5476190D01*
X24202380Y-5452380D01*
X24154761Y-5404761D01*
X24130952Y-5357142D01*
X24107142Y-5261904D01*
X24107142Y-5190476D01*
X24130952Y-5095238D01*
X24154761Y-5047619D01*
X24202380Y-5000000D01*
X24273809Y-4976190D01*
X24321428Y-4976190D01*
X24392857Y-5000000D01*
X24416666Y-5023809D01*
X24892857Y-5476190D02*
X24607142Y-5476190D01*
X24750000Y-5476190D02*
X24750000Y-4976190D01*
X24702380Y-5047619D01*
X24654761Y-5095238D01*
X24607142Y-5119047D01*
D13*
X23922380Y-49761904D02*
X24731904Y-49761904D01*
X24827142Y-49714285D01*
X24874761Y-49666666D01*
X24922380Y-49571428D01*
X24922380Y-49380952D01*
X24874761Y-49285714D01*
X24827142Y-49238095D01*
X24731904Y-49190476D01*
X23922380Y-49190476D01*
X24922380Y-48190476D02*
X24922380Y-48761904D01*
X24922380Y-48476190D02*
X23922380Y-48476190D01*
X24065238Y-48571428D01*
X24160476Y-48666666D01*
X24208095Y-48761904D01*
D15*
X26450952Y-49304761D02*
X26774761Y-49304761D01*
X26812857Y-49285714D01*
X26831904Y-49266666D01*
X26850952Y-49228571D01*
X26850952Y-49152380D01*
X26831904Y-49114285D01*
X26812857Y-49095238D01*
X26774761Y-49076190D01*
X26450952Y-49076190D01*
X26850952Y-48676190D02*
X26850952Y-48904761D01*
X26850952Y-48790476D02*
X26450952Y-48790476D01*
X26508095Y-48828571D01*
X26546190Y-48866666D01*
X26565238Y-48904761D01*
D13*
X833333Y-1785714D02*
X833333Y-2261904D01*
X547619Y-1690476D02*
X1547619Y-2023809D01*
X547619Y-2357142D01*
X547619Y-3214285D02*
X547619Y-2642857D01*
X547619Y-2928571D02*
X1547619Y-2928571D01*
X1404761Y-2833333D01*
X1309523Y-2738095D01*
X1261904Y-2642857D01*
X-1666666Y-5952380D02*
X-1666666Y-6428571D01*
X-1952380Y-5857142D02*
X-952380Y-6190476D01*
X-1952380Y-6523809D01*
X-1952380Y-6857142D02*
X-1285714Y-6857142D01*
X-1476190Y-6857142D02*
X-1380952Y-6904761D01*
X-1333333Y-6952380D01*
X-1285714Y-7047619D01*
X-1285714Y-7142857D01*
X-1952380Y-7904761D02*
X-952380Y-7904761D01*
X-1904761Y-7904761D02*
X-1952380Y-7809523D01*
X-1952380Y-7619047D01*
X-1904761Y-7523809D01*
X-1857142Y-7476190D01*
X-1761904Y-7428571D01*
X-1476190Y-7428571D01*
X-1380952Y-7476190D01*
X-1333333Y-7523809D01*
X-1285714Y-7619047D01*
X-1285714Y-7809523D01*
X-1333333Y-7904761D01*
X-1285714Y-8809523D02*
X-1952380Y-8809523D01*
X-1285714Y-8380952D02*
X-1809523Y-8380952D01*
X-1904761Y-8428571D01*
X-1952380Y-8523809D01*
X-1952380Y-8666666D01*
X-1904761Y-8761904D01*
X-1857142Y-8809523D01*
X-1952380Y-9285714D02*
X-1285714Y-9285714D01*
X-952380Y-9285714D02*
X-999999Y-9238095D01*
X-1047619Y-9285714D01*
X-999999Y-9333333D01*
X-952380Y-9285714D01*
X-1047619Y-9285714D01*
X-1285714Y-9761904D02*
X-1952380Y-9761904D01*
X-1380952Y-9761904D02*
X-1333333Y-9809523D01*
X-1285714Y-9904761D01*
X-1285714Y-10047619D01*
X-1333333Y-10142857D01*
X-1428571Y-10190476D01*
X-1952380Y-10190476D01*
X-1952380Y-10809523D02*
X-1904761Y-10714285D01*
X-1857142Y-10666666D01*
X-1761904Y-10619047D01*
X-1476190Y-10619047D01*
X-1380952Y-10666666D01*
X-1333333Y-10714285D01*
X-1285714Y-10809523D01*
X-1285714Y-10952380D01*
X-1333333Y-11047619D01*
X-1380952Y-11095238D01*
X-1476190Y-11142857D01*
X-1761904Y-11142857D01*
X-1857142Y-11095238D01*
X-1904761Y-11047619D01*
X-1952380Y-10952380D01*
X-1952380Y-10809523D01*
X-2047619Y-11333333D02*
X-2047619Y-12095238D01*
X-952380Y-12333333D02*
X-1761904Y-12333333D01*
X-1857142Y-12380952D01*
X-1904761Y-12428571D01*
X-1952380Y-12523809D01*
X-1952380Y-12714285D01*
X-1904761Y-12809523D01*
X-1857142Y-12857142D01*
X-1761904Y-12904761D01*
X-952380Y-12904761D01*
X-1952380Y-13380952D02*
X-952380Y-13380952D01*
X-1952380Y-13952380D01*
X-952380Y-13952380D01*
X-952380Y-14619047D02*
X-952380Y-14809523D01*
X-1000000Y-14904761D01*
X-1095238Y-15000000D01*
X-1285714Y-15047619D01*
X-1619047Y-15047619D01*
X-1809523Y-15000000D01*
X-1904761Y-14904761D01*
X-1952380Y-14809523D01*
X-1952380Y-14619047D01*
X-1904761Y-14523809D01*
X-1809523Y-14428571D01*
X-1619047Y-14380952D01*
X-1285714Y-14380952D01*
X-1095238Y-14428571D01*
X-1000000Y-14523809D01*
X-952380Y-14619047D01*
X8125714Y-46392380D02*
X8125714Y-45392380D01*
X8363809Y-45392380D01*
X8506666Y-45440000D01*
X8601904Y-45535238D01*
X8649523Y-45630476D01*
X8697142Y-45820952D01*
X8697142Y-45963809D01*
X8649523Y-46154285D01*
X8601904Y-46249523D01*
X8506666Y-46344761D01*
X8363809Y-46392380D01*
X8125714Y-46392380D01*
X9649523Y-46392380D02*
X9078095Y-46392380D01*
X9363809Y-46392380D02*
X9363809Y-45392380D01*
X9268571Y-45535238D01*
X9173333Y-45630476D01*
X9078095Y-45678095D01*
X10601904Y-46392380D02*
X10030476Y-46392380D01*
X10316190Y-46392380D02*
X10316190Y-45392380D01*
X10220952Y-45535238D01*
X10125714Y-45630476D01*
X10030476Y-45678095D01*
D10*
X8637619Y-48832857D02*
X8637619Y-49237619D01*
X8613809Y-49285238D01*
X8590000Y-49309047D01*
X8542380Y-49332857D01*
X8470952Y-49332857D01*
X8423333Y-49309047D01*
X8637619Y-49142380D02*
X8590000Y-49166190D01*
X8494761Y-49166190D01*
X8447142Y-49142380D01*
X8423333Y-49118571D01*
X8399523Y-49070952D01*
X8399523Y-48928095D01*
X8423333Y-48880476D01*
X8447142Y-48856666D01*
X8494761Y-48832857D01*
X8590000Y-48832857D01*
X8637619Y-48856666D01*
X8875714Y-49166190D02*
X8875714Y-48832857D01*
X8875714Y-48928095D02*
X8899523Y-48880476D01*
X8923333Y-48856666D01*
X8970952Y-48832857D01*
X9018571Y-48832857D01*
X9375714Y-49142380D02*
X9328095Y-49166190D01*
X9232857Y-49166190D01*
X9185238Y-49142380D01*
X9161428Y-49094761D01*
X9161428Y-48904285D01*
X9185238Y-48856666D01*
X9232857Y-48832857D01*
X9328095Y-48832857D01*
X9375714Y-48856666D01*
X9399523Y-48904285D01*
X9399523Y-48951904D01*
X9161428Y-48999523D01*
X9804285Y-49142380D02*
X9756666Y-49166190D01*
X9661428Y-49166190D01*
X9613809Y-49142380D01*
X9590000Y-49094761D01*
X9590000Y-48904285D01*
X9613809Y-48856666D01*
X9661428Y-48832857D01*
X9756666Y-48832857D01*
X9804285Y-48856666D01*
X9828095Y-48904285D01*
X9828095Y-48951904D01*
X9590000Y-48999523D01*
X10042380Y-48832857D02*
X10042380Y-49166190D01*
X10042380Y-48880476D02*
X10066190Y-48856666D01*
X10113809Y-48832857D01*
X10185238Y-48832857D01*
X10232857Y-48856666D01*
X10256666Y-48904285D01*
X10256666Y-49166190D01*
D14*
X8732857Y-47766190D02*
X8732857Y-47266190D01*
X8851904Y-47266190D01*
X8923333Y-47290000D01*
X8970952Y-47337619D01*
X8994761Y-47385238D01*
X9018571Y-47480476D01*
X9018571Y-47551904D01*
X8994761Y-47647142D01*
X8970952Y-47694761D01*
X8923333Y-47742380D01*
X8851904Y-47766190D01*
X8732857Y-47766190D01*
X9494761Y-47766190D02*
X9209047Y-47766190D01*
X9351904Y-47766190D02*
X9351904Y-47266190D01*
X9304285Y-47337619D01*
X9256666Y-47385238D01*
X9209047Y-47409047D01*
X9970952Y-47766190D02*
X9685238Y-47766190D01*
X9828095Y-47766190D02*
X9828095Y-47266190D01*
X9780476Y-47337619D01*
X9732857Y-47385238D01*
X9685238Y-47409047D01*
D13*
X17263956Y-51620802D02*
X16951574Y-52110992D01*
X17482632Y-52148734D02*
X16558752Y-52531417D01*
X16412968Y-52179463D01*
X16420517Y-52073251D01*
X16446288Y-52011034D01*
X16516053Y-51930594D01*
X16648036Y-51875925D01*
X16754248Y-51883473D01*
X16816465Y-51909244D01*
X16896905Y-51979010D01*
X17042689Y-52330964D01*
X16899495Y-50740917D02*
X17118172Y-51268848D01*
X17008833Y-51004883D02*
X16084954Y-51387566D01*
X16253383Y-51420886D01*
X16377817Y-51472428D01*
X16458258Y-51542194D01*
X15848055Y-50815641D02*
X15611155Y-50243715D01*
X16090671Y-50405891D01*
X16036002Y-50273908D01*
X16043550Y-50167697D01*
X16069321Y-50105479D01*
X16139087Y-50025039D01*
X16359058Y-49933924D01*
X16465269Y-49941472D01*
X16527487Y-49967243D01*
X16607927Y-50037009D01*
X16717265Y-50300974D01*
X16709717Y-50407186D01*
X16683946Y-50469403D01*
D14*
X14375598Y-52876978D02*
X14130503Y-52720787D01*
X14111632Y-52986316D02*
X13920290Y-52524376D01*
X14096267Y-52451484D01*
X14149373Y-52455258D01*
X14180482Y-52468144D01*
X14220702Y-52503026D01*
X14248036Y-52569018D01*
X14244262Y-52622124D01*
X14231377Y-52653232D01*
X14196494Y-52693452D01*
X14020517Y-52766344D01*
X14815540Y-52694747D02*
X14551575Y-52804086D01*
X14683557Y-52749416D02*
X14492216Y-52287477D01*
X14475556Y-52371691D01*
X14449785Y-52433908D01*
X14414902Y-52474129D01*
X14778178Y-52169027D02*
X15064141Y-52050577D01*
X14983053Y-52290335D01*
X15049045Y-52263001D01*
X15102150Y-52266775D01*
X15133259Y-52279660D01*
X15173479Y-52314543D01*
X15219037Y-52424529D01*
X15215263Y-52477634D01*
X15202377Y-52508743D01*
X15167494Y-52548963D01*
X15035512Y-52603632D01*
X14982406Y-52599858D01*
X14951297Y-52586973D01*
D13*
X42391207Y-39800402D02*
X42008524Y-38876522D01*
X42228495Y-38785407D01*
X42378701Y-38774732D01*
X42503135Y-38826275D01*
X42583576Y-38896040D01*
X42700462Y-39053794D01*
X42755131Y-39185777D01*
X42784029Y-39379977D01*
X42776481Y-39486189D01*
X42724938Y-39610623D01*
X42611178Y-39709287D01*
X42391207Y-39800402D01*
X42924855Y-38600050D02*
X42950626Y-38537833D01*
X43020392Y-38457393D01*
X43240363Y-38366278D01*
X43346575Y-38373826D01*
X43408792Y-38399597D01*
X43489232Y-38469363D01*
X43525678Y-38557351D01*
X43536353Y-38707557D01*
X43227098Y-39454164D01*
X43799024Y-39217265D01*
D10*
X43187114Y-39298982D02*
X42949567Y-39036580D01*
X42967142Y-39390097D02*
X42949567Y-39036580D01*
X42948004Y-38908371D01*
X42960889Y-38877262D01*
X42995772Y-38837042D01*
X42496739Y-39249918D02*
X42531621Y-39209698D01*
X42619610Y-39173252D01*
X42672716Y-39177026D01*
X42712936Y-39211909D01*
X42785828Y-39387886D01*
X42782054Y-39440992D01*
X42747171Y-39481212D01*
X42659183Y-39517658D01*
X42606077Y-39513884D01*
X42565857Y-39479001D01*
X42547634Y-39435007D01*
X42749382Y-39299898D01*
X42201665Y-39346371D02*
X42254770Y-39350145D01*
X42294990Y-39385028D01*
X42458998Y-39780976D01*
X41959696Y-39446598D02*
X42012802Y-39450372D01*
X42053022Y-39485254D01*
X42217029Y-39881203D01*
X41717728Y-39546824D02*
X41770833Y-39550598D01*
X41801942Y-39563484D01*
X41842162Y-39598367D01*
X41896831Y-39730349D01*
X41893057Y-39783455D01*
X41880172Y-39814564D01*
X41845289Y-39854784D01*
X41779297Y-39882119D01*
X41726192Y-39878344D01*
X41695083Y-39865459D01*
X41654863Y-39830576D01*
X41600194Y-39698593D01*
X41603968Y-39645487D01*
X41616853Y-39614379D01*
X41651736Y-39574159D01*
X41717728Y-39546824D01*
X41537329Y-39982345D02*
X41321779Y-39710831D01*
X41324906Y-39967249D01*
X41145802Y-39783723D01*
X41185375Y-40128129D01*
D14*
X42426603Y-41258201D02*
X42235262Y-40796261D01*
X42345247Y-40750703D01*
X42420350Y-40745366D01*
X42482567Y-40771137D01*
X42522788Y-40806020D01*
X42581231Y-40884897D01*
X42608565Y-40950888D01*
X42623014Y-41047988D01*
X42619240Y-41101094D01*
X42593469Y-41163311D01*
X42536589Y-41212643D01*
X42426603Y-41258201D01*
X42693427Y-40658025D02*
X42706313Y-40626916D01*
X42741196Y-40586696D01*
X42851181Y-40541139D01*
X42904287Y-40544913D01*
X42935396Y-40557798D01*
X42975616Y-40592681D01*
X42993839Y-40636675D01*
X42999176Y-40711778D01*
X42844549Y-41085082D01*
X43130512Y-40966632D01*
D13*
X8258156Y-50023327D02*
X8063066Y-49042542D01*
X8296586Y-48996092D01*
X8445988Y-49014926D01*
X8557976Y-49089754D01*
X8623261Y-49173872D01*
X8707125Y-49351399D01*
X8734995Y-49491511D01*
X8725451Y-49687617D01*
X8697327Y-49790315D01*
X8622499Y-49902303D01*
X8491676Y-49976877D01*
X8258156Y-50023327D01*
X9752686Y-49726047D02*
X9192237Y-49837527D01*
X9472462Y-49781787D02*
X9277371Y-48801002D01*
X9211833Y-48959694D01*
X9137005Y-49071682D01*
X9052887Y-49136966D01*
X9949808Y-48764350D02*
X9987222Y-48708356D01*
X10071340Y-48643072D01*
X10304861Y-48596621D01*
X10407559Y-48624745D01*
X10463553Y-48662160D01*
X10528837Y-48746278D01*
X10547417Y-48839686D01*
X10528583Y-48989088D01*
X10079614Y-49661017D01*
X10686767Y-49540247D01*
D10*
X9236338Y-52317042D02*
X9315303Y-52714027D01*
X9301241Y-52765376D01*
X9282534Y-52793373D01*
X9240475Y-52826015D01*
X9170419Y-52839950D01*
X9119070Y-52825888D01*
X9296723Y-52620618D02*
X9254664Y-52653261D01*
X9161256Y-52671841D01*
X9109907Y-52657779D01*
X9081910Y-52639072D01*
X9049268Y-52597012D01*
X9021398Y-52456900D01*
X9035460Y-52405551D01*
X9054167Y-52377554D01*
X9096226Y-52344912D01*
X9189634Y-52326332D01*
X9240983Y-52340394D01*
X9534888Y-52597520D02*
X9469858Y-52270592D01*
X9488438Y-52364000D02*
X9502500Y-52312651D01*
X9521207Y-52284654D01*
X9563266Y-52252012D01*
X9609971Y-52242722D01*
X10020636Y-52476623D02*
X9978577Y-52509265D01*
X9885169Y-52527845D01*
X9833820Y-52513783D01*
X9801178Y-52471724D01*
X9764018Y-52284908D01*
X9778080Y-52233559D01*
X9820139Y-52200917D01*
X9913547Y-52182337D01*
X9964896Y-52196399D01*
X9997538Y-52238458D01*
X10006828Y-52285162D01*
X9782598Y-52378316D01*
X10440973Y-52393013D02*
X10398914Y-52425655D01*
X10305505Y-52444235D01*
X10254156Y-52430173D01*
X10221514Y-52388114D01*
X10184354Y-52201298D01*
X10198416Y-52149949D01*
X10240475Y-52117307D01*
X10333883Y-52098727D01*
X10385233Y-52112789D01*
X10417875Y-52154848D01*
X10427165Y-52201552D01*
X10202934Y-52294706D01*
X10614108Y-52042987D02*
X10679138Y-52369915D01*
X10623398Y-52089691D02*
X10642105Y-52061694D01*
X10684164Y-52029052D01*
X10754220Y-52015117D01*
X10805569Y-52029179D01*
X10838211Y-52071238D01*
X10889306Y-52328110D01*
D14*
X9121650Y-51252291D02*
X9024105Y-50761899D01*
X9140865Y-50738674D01*
X9215566Y-50748091D01*
X9271560Y-50785505D01*
X9304203Y-50827564D01*
X9346135Y-50916327D01*
X9360070Y-50986383D01*
X9355298Y-51084436D01*
X9341236Y-51135785D01*
X9303822Y-51191779D01*
X9238410Y-51229066D01*
X9121650Y-51252291D01*
X9868915Y-51103651D02*
X9588691Y-51159391D01*
X9728803Y-51131521D02*
X9631258Y-50641129D01*
X9598489Y-50720475D01*
X9561075Y-50776469D01*
X9519016Y-50809111D01*
X9967476Y-50622803D02*
X9986183Y-50594806D01*
X10028242Y-50562164D01*
X10145003Y-50538938D01*
X10196352Y-50553000D01*
X10224349Y-50571708D01*
X10256991Y-50613767D01*
X10266281Y-50660471D01*
X10256864Y-50735172D01*
X10032379Y-51071136D01*
X10335956Y-51010751D01*
D13*
X23982857Y-44833333D02*
X23935238Y-44785714D01*
X23887619Y-44642857D01*
X23887619Y-44547619D01*
X23935238Y-44404761D01*
X24030476Y-44309523D01*
X24125714Y-44261904D01*
X24316190Y-44214285D01*
X24459047Y-44214285D01*
X24649523Y-44261904D01*
X24744761Y-44309523D01*
X24840000Y-44404761D01*
X24887619Y-44547619D01*
X24887619Y-44642857D01*
X24840000Y-44785714D01*
X24792380Y-44833333D01*
X24887619Y-45166666D02*
X24887619Y-45785714D01*
X24506666Y-45452380D01*
X24506666Y-45595238D01*
X24459047Y-45690476D01*
X24411428Y-45738095D01*
X24316190Y-45785714D01*
X24078095Y-45785714D01*
X23982857Y-45738095D01*
X23935238Y-45690476D01*
X23887619Y-45595238D01*
X23887619Y-45309523D01*
X23935238Y-45214285D01*
X23982857Y-45166666D01*
D14*
X26586666Y-45678571D02*
X26562857Y-45702380D01*
X26491428Y-45726190D01*
X26443809Y-45726190D01*
X26372380Y-45702380D01*
X26324761Y-45654761D01*
X26300952Y-45607142D01*
X26277142Y-45511904D01*
X26277142Y-45440476D01*
X26300952Y-45345238D01*
X26324761Y-45297619D01*
X26372380Y-45250000D01*
X26443809Y-45226190D01*
X26491428Y-45226190D01*
X26562857Y-45250000D01*
X26586666Y-45273809D01*
X26753333Y-45226190D02*
X27062857Y-45226190D01*
X26896190Y-45416666D01*
X26967619Y-45416666D01*
X27015238Y-45440476D01*
X27039047Y-45464285D01*
X27062857Y-45511904D01*
X27062857Y-45630952D01*
X27039047Y-45678571D01*
X27015238Y-45702380D01*
X26967619Y-45726190D01*
X26824761Y-45726190D01*
X26777142Y-45702380D01*
X26753333Y-45678571D01*
D13*
X14719913Y-51087275D02*
X15139742Y-51489285D01*
X15280362Y-50975795D02*
X15475452Y-51956580D01*
X15101820Y-52030900D01*
X14999122Y-52002776D01*
X14943128Y-51965362D01*
X14877843Y-51881244D01*
X14849973Y-51741132D01*
X14878097Y-51638433D01*
X14915511Y-51582439D01*
X14999630Y-51517155D01*
X15373262Y-51442835D01*
X13785832Y-51273075D02*
X14346281Y-51161595D01*
X14066056Y-51217335D02*
X14261147Y-52198120D01*
X14326685Y-52039428D01*
X14401513Y-51927440D01*
X14485631Y-51862156D01*
X13588710Y-52234772D02*
X13551296Y-52290766D01*
X13467178Y-52356050D01*
X13233657Y-52402501D01*
X13130959Y-52374377D01*
X13074965Y-52336962D01*
X13009681Y-52252844D01*
X12991101Y-52159436D01*
X13009935Y-52010034D01*
X13458904Y-51338105D01*
X12851751Y-51458875D01*
D14*
X13569875Y-50376551D02*
X13359960Y-50175546D01*
X13289650Y-50432291D02*
X13192105Y-49941899D01*
X13378921Y-49904739D01*
X13430270Y-49918801D01*
X13458267Y-49937508D01*
X13490910Y-49979567D01*
X13504845Y-50049623D01*
X13490783Y-50100972D01*
X13472076Y-50128969D01*
X13430016Y-50161611D01*
X13243200Y-50198771D01*
X14036915Y-50283651D02*
X13756691Y-50339391D01*
X13896803Y-50311521D02*
X13799258Y-49821129D01*
X13766489Y-49900475D01*
X13729075Y-49956469D01*
X13687016Y-49989111D01*
X14135476Y-49802803D02*
X14154183Y-49774806D01*
X14196242Y-49742164D01*
X14313003Y-49718938D01*
X14364352Y-49733000D01*
X14392349Y-49751708D01*
X14424991Y-49793767D01*
X14434281Y-49840471D01*
X14424864Y-49915172D01*
X14200379Y-50251136D01*
X14503956Y-50190751D01*
D13*
X36788826Y-49348280D02*
X37320897Y-49114252D01*
X36900306Y-48787831D02*
X37881091Y-48982922D01*
X37806771Y-49356554D01*
X37741487Y-49440672D01*
X37685493Y-49478086D01*
X37582795Y-49506210D01*
X37442683Y-49478340D01*
X37358565Y-49413056D01*
X37321151Y-49357062D01*
X37293027Y-49254364D01*
X37367347Y-48880732D01*
X37593101Y-50430748D02*
X37686001Y-49963707D01*
X37228251Y-49824103D01*
X37265665Y-49880097D01*
X37293789Y-49982795D01*
X37247339Y-50216315D01*
X37182054Y-50300433D01*
X37126060Y-50337847D01*
X37023362Y-50365971D01*
X36789842Y-50319521D01*
X36705724Y-50254237D01*
X36668310Y-50198243D01*
X36640186Y-50095545D01*
X36686636Y-49862025D01*
X36751920Y-49777907D01*
X36807914Y-49740493D01*
D14*
X39624859Y-49886413D02*
X39741873Y-50152448D01*
X39905084Y-49942153D02*
X39807538Y-50432545D01*
X39620722Y-50395385D01*
X39578663Y-50362743D01*
X39559956Y-50334746D01*
X39545894Y-50283397D01*
X39559829Y-50213341D01*
X39592471Y-50171282D01*
X39620468Y-50152575D01*
X39671817Y-50138513D01*
X39858633Y-50175673D01*
X39083625Y-50288550D02*
X39317146Y-50335000D01*
X39386948Y-50106125D01*
X39358951Y-50124832D01*
X39307602Y-50138894D01*
X39190842Y-50115669D01*
X39148783Y-50083027D01*
X39130076Y-50055030D01*
X39116014Y-50003681D01*
X39139239Y-49886921D01*
X39171881Y-49844862D01*
X39199878Y-49826155D01*
X39251227Y-49812093D01*
X39367987Y-49835318D01*
X39410046Y-49867960D01*
X39428753Y-49895957D01*
D13*
X36118273Y-43419138D02*
X36430655Y-42928948D01*
X35899597Y-42891207D02*
X36823477Y-42508524D01*
X36969261Y-42860478D01*
X36961713Y-42966689D01*
X36935941Y-43028907D01*
X36866176Y-43109347D01*
X36734193Y-43164016D01*
X36627982Y-43156468D01*
X36565764Y-43130697D01*
X36485324Y-43060931D01*
X36339540Y-42708977D01*
X37099949Y-43424855D02*
X37162166Y-43450626D01*
X37242606Y-43520392D01*
X37333721Y-43740363D01*
X37326173Y-43846575D01*
X37300402Y-43908792D01*
X37230636Y-43989232D01*
X37142648Y-44025678D01*
X36992442Y-44036353D01*
X36245835Y-43727098D01*
X36482734Y-44299024D01*
D14*
X38763569Y-42775863D02*
X38518474Y-42619672D01*
X38499603Y-42885201D02*
X38308262Y-42423261D01*
X38484239Y-42350369D01*
X38537344Y-42354143D01*
X38568453Y-42367029D01*
X38608673Y-42401911D01*
X38636008Y-42467903D01*
X38632234Y-42521008D01*
X38619348Y-42552117D01*
X38584465Y-42592337D01*
X38408488Y-42665229D01*
X38766427Y-42285025D02*
X38779313Y-42253916D01*
X38814196Y-42213696D01*
X38924181Y-42168139D01*
X38977287Y-42171913D01*
X39008396Y-42184798D01*
X39048616Y-42219681D01*
X39066839Y-42263675D01*
X39072176Y-42338778D01*
X38917549Y-42712082D01*
X39203512Y-42593632D01*
D10*
X43834490Y-54000356D02*
X41986731Y-53234989D01*
X43490075Y-54831847D02*
X43834490Y-54000356D01*
X43098106Y-54994206D02*
X43490075Y-54831847D01*
X41527510Y-54343644D02*
X43098106Y-54994206D01*
X41986731Y-53234989D02*
X41527510Y-54343644D01*
X40357854Y-44179919D02*
X40601717Y-45405900D01*
X40601717Y-45405900D02*
X38640146Y-45796081D01*
X38396283Y-44570100D02*
X40357854Y-44179919D01*
X38640146Y-45796081D02*
X38396283Y-44570100D01*
X38030238Y-55882239D02*
X36367299Y-54771098D01*
X36367299Y-54771098D02*
X37061762Y-53731761D01*
X38724701Y-54842902D02*
X38030238Y-55882239D01*
X37061762Y-53731761D02*
X38724701Y-54842902D01*
X16878701Y-54771098D02*
X15215762Y-55882239D01*
X14521299Y-54842902D02*
X16184238Y-53731761D01*
X15215762Y-55882239D02*
X14521299Y-54842902D01*
X16184238Y-53731761D02*
X16878701Y-54771098D01*
X15749057Y-42340259D02*
X15270702Y-43495108D01*
X13901298Y-41574892D02*
X15749057Y-42340259D01*
X13422943Y-42729741D02*
X13901298Y-41574892D01*
X15270702Y-43495108D02*
X13422943Y-42729741D01*
X11812490Y-54343644D02*
X11353269Y-53234989D01*
X9620315Y-54277520D02*
X9964731Y-55109011D01*
X9964731Y-55109011D02*
X11812490Y-54343644D01*
X11353269Y-53234989D02*
X9782674Y-53885551D01*
X9782674Y-53885551D02*
X9620315Y-54277520D01*
X43000000Y-48140000D02*
X44700000Y-48140000D01*
X45000000Y-46940000D02*
X43000000Y-46940000D01*
X44700000Y-48140000D02*
X45000000Y-47840000D01*
X43000000Y-46940000D02*
X43000000Y-48140000D01*
X45000000Y-47840000D02*
X45000000Y-46940000D01*
X40750000Y-46915000D02*
X40750000Y-48165000D01*
X38750000Y-46915000D02*
X40750000Y-46915000D01*
X40750000Y-48165000D02*
X38750000Y-48165000D01*
X38750000Y-48165000D02*
X38750000Y-46915000D01*
X21590000Y-3135000D02*
X21590000Y-1230000D01*
X31750000Y-3770000D02*
X22225000Y-3770000D01*
X22225000Y-3770000D02*
X21590000Y-3135000D01*
X21590000Y-1230000D02*
X31750000Y-1230000D01*
X31750000Y-1230000D02*
X31750000Y-3770000D01*
X14699854Y-45796081D02*
X12738283Y-45405900D01*
X14943717Y-44570100D02*
X14699854Y-45796081D01*
X12982146Y-44179919D02*
X14943717Y-44570100D01*
X12738283Y-45405900D02*
X12982146Y-44179919D01*
X42077141Y-37605871D02*
X41577127Y-36857548D01*
X39914188Y-37968688D02*
X40580873Y-38966452D01*
X40580873Y-38966452D02*
X41994371Y-38021983D01*
X41994371Y-38021983D02*
X42077141Y-37605871D01*
X41577127Y-36857548D02*
X39914188Y-37968688D01*
X12012313Y-37024219D02*
X11596201Y-37106989D01*
X12759127Y-38966452D02*
X13425812Y-37968688D01*
X11596201Y-37106989D02*
X11096188Y-37855312D01*
X11096188Y-37855312D02*
X12759127Y-38966452D01*
X13425812Y-37968688D02*
X12012313Y-37024219D01*
X14615299Y-40237098D02*
X15309762Y-39197761D01*
X16972701Y-40308902D02*
X16278238Y-41348239D01*
X16278238Y-41348239D02*
X14615299Y-40237098D01*
X15309762Y-39197761D02*
X16972701Y-40308902D01*
X44764839Y-50518619D02*
X42803269Y-50128439D01*
X44236496Y-51637034D02*
X44589258Y-51401326D01*
X44589258Y-51401326D02*
X44764839Y-50518619D01*
X42803269Y-50128439D02*
X42569161Y-51305381D01*
X42569161Y-51305381D02*
X44236496Y-51637034D01*
X8575161Y-44552381D02*
X10536731Y-44942561D01*
X10770839Y-43765619D02*
X9103504Y-43433966D01*
X10536731Y-44942561D02*
X10770839Y-43765619D01*
X9103504Y-43433966D02*
X8750742Y-43669674D01*
X8750742Y-43669674D02*
X8575161Y-44552381D01*
X39917057Y-52350259D02*
X39438702Y-53505108D01*
X39438702Y-53505108D02*
X37590943Y-52739741D01*
X37590943Y-52739741D02*
X38069298Y-51584892D01*
X38069298Y-51584892D02*
X39917057Y-52350259D01*
X37061762Y-41348239D02*
X36367299Y-40308902D01*
X36367299Y-40308902D02*
X38030238Y-39197761D01*
X38030238Y-39197761D02*
X38724701Y-40237098D01*
X38724701Y-40237098D02*
X37061762Y-41348239D01*
X42569161Y-43765619D02*
X42803269Y-44942561D01*
X44470604Y-44610908D02*
X44706312Y-44258145D01*
X44706312Y-44258145D02*
X44530731Y-43375439D01*
X42803269Y-44942561D02*
X44470604Y-44610908D01*
X44530731Y-43375439D02*
X42569161Y-43765619D01*
X11353269Y-41845011D02*
X11812490Y-40736356D01*
X11812490Y-40736356D02*
X10241894Y-40085794D01*
X10241894Y-40085794D02*
X9849925Y-40248153D01*
X9505510Y-41079644D02*
X11353269Y-41845011D01*
X9849925Y-40248153D02*
X9505510Y-41079644D01*
X13364812Y-57111312D02*
X12698127Y-56113548D01*
X12698127Y-56113548D02*
X11284629Y-57058017D01*
X11284629Y-57058017D02*
X11201859Y-57474129D01*
X11201859Y-57474129D02*
X11701873Y-58222452D01*
X11701873Y-58222452D02*
X13364812Y-57111312D01*
X40580873Y-56113548D02*
X39914188Y-57111312D01*
X39914188Y-57111312D02*
X41327687Y-58055781D01*
X41743799Y-57973011D02*
X42243812Y-57224688D01*
X42243812Y-57224688D02*
X40580873Y-56113548D01*
X41327687Y-58055781D02*
X41743799Y-57973011D01*
X12590000Y-46915000D02*
X14590000Y-46915000D01*
X14590000Y-46915000D02*
X14590000Y-48165000D01*
X12590000Y-48165000D02*
X12590000Y-46915000D01*
X14590000Y-48165000D02*
X12590000Y-48165000D01*
X23500000Y-5875000D02*
X23500000Y-4625000D01*
X23500000Y-4625000D02*
X25500000Y-4625000D01*
X25500000Y-5875000D02*
X23500000Y-5875000D01*
X25500000Y-4625000D02*
X25500000Y-5875000D01*
X27920000Y-50250000D02*
X25920000Y-50250000D01*
X25420000Y-47750000D02*
X27920000Y-47750000D01*
X25920000Y-50250000D02*
X25420000Y-49750000D01*
X25420000Y-49750000D02*
X25420000Y-47750000D01*
X27920000Y-47750000D02*
X27920000Y-50250000D01*
X10340000Y-46940000D02*
X8640000Y-46940000D01*
X8640000Y-46940000D02*
X8340000Y-47240000D01*
X8340000Y-48140000D02*
X10340000Y-48140000D01*
X10340000Y-48140000D02*
X10340000Y-46940000D01*
X8340000Y-47240000D02*
X8340000Y-48140000D01*
X13901298Y-53505108D02*
X13422943Y-52350259D01*
X13422943Y-52350259D02*
X15270702Y-51584892D01*
X15270702Y-51584892D02*
X15749057Y-52739741D01*
X15749057Y-52739741D02*
X13901298Y-53505108D01*
X41986731Y-41845011D02*
X43557326Y-41194449D01*
X43557326Y-41194449D02*
X43719685Y-40802480D01*
X43719685Y-40802480D02*
X43375269Y-39970989D01*
X41527510Y-40736356D02*
X41986731Y-41845011D01*
X43375269Y-39970989D02*
X41527510Y-40736356D01*
X10770839Y-51305381D02*
X10536731Y-50128439D01*
X10536731Y-50128439D02*
X8869396Y-50460092D01*
X8633688Y-50812855D02*
X8809269Y-51695561D01*
X8809269Y-51695561D02*
X10770839Y-51305381D01*
X8869396Y-50460092D02*
X8633688Y-50812855D01*
X27670000Y-44875000D02*
X27670000Y-46125000D01*
X25670000Y-44875000D02*
X27670000Y-44875000D01*
X25670000Y-46125000D02*
X25670000Y-44875000D01*
X27670000Y-46125000D02*
X25670000Y-46125000D01*
X12982146Y-50900081D02*
X12738283Y-49674100D01*
X14943717Y-50509900D02*
X12982146Y-50900081D01*
X12738283Y-49674100D02*
X14699854Y-49283919D01*
X14699854Y-49283919D02*
X14943717Y-50509900D01*
X38640146Y-49283919D02*
X40601717Y-49674100D01*
X40357854Y-50900081D02*
X38396283Y-50509900D01*
X40601717Y-49674100D02*
X40357854Y-50900081D01*
X38396283Y-50509900D02*
X38640146Y-49283919D01*
X39917057Y-42729741D02*
X38069298Y-43495108D01*
X39438702Y-41574892D02*
X39917057Y-42729741D01*
X38069298Y-43495108D02*
X37590943Y-42340259D01*
X37590943Y-42340259D02*
X39438702Y-41574892D01*
M02*
