M48
; DRILL file {KiCad (6.0.4-0)} date 2022 April 10, Sunday 13:29:25
; FORMAT={-:-/ absolute / metric / decimal}
; #@! TF.CreationDate,2022-04-10T13:29:25+02:00
; #@! TF.GenerationSoftware,Kicad,Pcbnew,(6.0.4-0)
; #@! TF.FileFunction,Plated,1,2,PTH
FMAT,2
METRIC
; #@! TA.AperFunction,Plated,PTH,ComponentDrill
T1C0.350
; #@! TA.AperFunction,Plated,PTH,ViaDrill
T2C0.400
; #@! TA.AperFunction,Plated,PTH,ComponentDrill
T3C0.400
; #@! TA.AperFunction,Plated,PTH,ComponentDrill
T4C1.000
; #@! TA.AperFunction,Plated,PTH,ComponentDrill
T5C1.100
; #@! TA.AperFunction,Plated,PTH,ComponentDrill
T6C3.200
%
G90
G05
T1
X26.225Y-26.425
X26.225Y-27.7
X26.225Y-28.975
X27.5Y-26.425
X27.5Y-27.7
X27.5Y-28.975
X28.775Y-26.425
X28.775Y-27.7
X28.775Y-28.975
T2
X14.4Y-13.1
X17.4Y-41.1
X17.4Y-42.7
X17.7Y-14.3
X19.1Y-24.6
X19.4Y-45.4
X19.6Y-11.3
X23.5Y-40.0
X24.7Y-41.9
X26.0Y-14.6
X26.0Y-40.0
X27.5Y-18.6
X27.7Y-30.05
X27.9Y-25.35
X28.5Y-19.6
X29.3Y-34.2
X29.5Y-19.6
X29.85Y-25.35
X30.0Y-45.4
X31.3Y-21.1
X31.4Y-7.2
X32.0Y-41.1
X32.0Y-42.7
X37.8Y-6.5
X38.8Y-6.5
T3
X2.174Y-9.72
X2.174Y-12.26
X2.174Y-14.8
X2.174Y-17.34
X2.174Y-19.88
X2.174Y-22.42
X2.174Y-24.96
X2.174Y-27.5
X2.174Y-30.04
X2.174Y-32.58
X2.174Y-35.12
X2.174Y-37.66
X2.174Y-40.2
X2.174Y-42.74
X2.174Y-45.28
X11.826Y-9.72
X11.826Y-12.26
X11.826Y-14.8
X11.826Y-17.34
X11.826Y-19.88
X11.826Y-22.42
X11.826Y-24.96
X11.826Y-27.5
X11.826Y-30.04
X11.826Y-32.58
X11.826Y-35.12
X11.826Y-37.66
X11.826Y-40.2
X11.826Y-42.74
X11.826Y-45.28
X43.174Y-9.72
X43.174Y-12.26
X43.174Y-14.8
X43.174Y-17.34
X43.174Y-19.88
X43.174Y-22.42
X43.174Y-24.96
X43.174Y-27.5
X43.174Y-30.04
X43.174Y-32.58
X43.174Y-35.12
X43.174Y-37.66
X43.174Y-40.2
X43.174Y-42.74
X43.174Y-45.28
X52.826Y-9.72
X52.826Y-12.26
X52.826Y-14.8
X52.826Y-17.34
X52.826Y-19.88
X52.826Y-22.42
X52.826Y-24.96
X52.826Y-27.5
X52.826Y-30.04
X52.826Y-32.58
X52.826Y-35.12
X52.826Y-37.66
X52.826Y-40.2
X52.826Y-42.74
X52.826Y-45.28
T4
X34.0Y-44.5
X36.54Y-44.5
X39.08Y-44.5
T5
X15.25Y-2.25
X15.25Y-8.75
X19.75Y-2.25
X19.75Y-8.75
T6
X7.0Y-4.0
X7.0Y-51.0
X48.0Y-4.0
X48.0Y-51.0
T0
M30
