"Id";"Designator";"Package";"Quantity";"Designation";"Supplier and ref";
1;"R8,R1,R7,R2,R5,R3,R4,R6";"R_0805_2012Metric_Pad1.20x1.40mm_HandSolder";8;"200";;;
2;"U1";"LGA-12_2x2mm_P0.5mm";1;"LIS3MDL";;;
3;"D5,D3,D1,D7,D4,D8,D2,D6";"LED_0805_2012Metric_Pad1.15x1.40mm_HandSolder";8;"red";;;
4;"C3,C1,C4";"C_0805_2012Metric_Pad1.18x1.45mm_HandSolder";3;"100n";;;
5;"C2";"C_0805_2012Metric_Pad1.18x1.45mm_HandSolder";1;"1u";;;
6;"A1";"Arduino_Uno_Shield";1;"Arduino_UNO";;;
7;"Q1";"SOT-23";1;"BSS83P";;;
8;"R10";"R_0805_2012Metric_Pad1.20x1.40mm_HandSolder";1;"100";;;
9;"R11,R12,R13";"R_0805_2012Metric_Pad1.20x1.40mm_HandSolder";3;"DNI";;;
10;"R14";"R_0805_2012Metric_Pad1.20x1.40mm_HandSolder";1;"0";;;
11;"R9";"R_0805_2012Metric_Pad1.20x1.40mm_HandSolder";1;"10k";;;
