%TF.GenerationSoftware,KiCad,Pcbnew,(6.0.7-1)-1*%
%TF.CreationDate,2022-08-19T11:56:30+02:00*%
%TF.ProjectId,UULM_Compass,55554c4d-5f43-46f6-9d70-6173732e6b69,rev?*%
%TF.SameCoordinates,Original*%
%TF.FileFunction,Soldermask,Bot*%
%TF.FilePolarity,Negative*%
%FSLAX46Y46*%
G04 Gerber Fmt 4.6, Leading zero omitted, Abs format (unit mm)*
G04 Created by KiCad (PCBNEW (6.0.7-1)-1) date 2022-08-19 11:56:30*
%MOMM*%
%LPD*%
G01*
G04 APERTURE LIST*
G04 Aperture macros list*
%AMRoundRect*
0 Rectangle with rounded corners*
0 $1 Rounding radius*
0 $2 $3 $4 $5 $6 $7 $8 $9 X,Y pos of 4 corners*
0 Add a 4 corners polygon primitive as box body*
4,1,4,$2,$3,$4,$5,$6,$7,$8,$9,$2,$3,0*
0 Add four circle primitives for the rounded corners*
1,1,$1+$1,$2,$3*
1,1,$1+$1,$4,$5*
1,1,$1+$1,$6,$7*
1,1,$1+$1,$8,$9*
0 Add four rect primitives between the rounded corners*
20,1,$1+$1,$2,$3,$4,$5,0*
20,1,$1+$1,$4,$5,$6,$7,0*
20,1,$1+$1,$6,$7,$8,$9,0*
20,1,$1+$1,$8,$9,$2,$3,0*%
G04 Aperture macros list end*
%ADD10C,3.200000*%
%ADD11O,1.727200X1.727200*%
%ADD12RoundRect,0.150000X-0.587500X-0.150000X0.587500X-0.150000X0.587500X0.150000X-0.587500X0.150000X0*%
%ADD13RoundRect,0.250000X-0.350000X-0.450000X0.350000X-0.450000X0.350000X0.450000X-0.350000X0.450000X0*%
%ADD14RoundRect,0.250000X-0.450000X0.350000X-0.450000X-0.350000X0.450000X-0.350000X0.450000X0.350000X0*%
%ADD15RoundRect,0.250000X0.350000X0.450000X-0.350000X0.450000X-0.350000X-0.450000X0.350000X-0.450000X0*%
%ADD16RoundRect,0.250000X0.450000X-0.350000X0.450000X0.350000X-0.450000X0.350000X-0.450000X-0.350000X0*%
G04 APERTURE END LIST*
D10*
%TO.C,A1*%
X7620000Y-66040000D03*
X2540000Y-13970000D03*
X35560000Y-66040000D03*
X50800000Y-15240000D03*
D11*
X2540000Y-27940000D03*
X2540000Y-30480000D03*
X2540000Y-33020000D03*
X2540000Y-35560000D03*
X2540000Y-38100000D03*
X30480000Y-66167000D03*
X2540000Y-40640000D03*
X2540000Y-43180000D03*
X2540000Y-45720000D03*
X2540000Y-50800000D03*
X2540000Y-53340000D03*
X2540000Y-55880000D03*
X2540000Y-58420000D03*
X2540000Y-60960000D03*
X2540000Y-63500000D03*
X50800000Y-63500000D03*
X50800000Y-60960000D03*
X50800000Y-58420000D03*
X50800000Y-55880000D03*
X50800000Y-53340000D03*
X50800000Y-50800000D03*
X50800000Y-48260000D03*
X50800000Y-45720000D03*
X50800000Y-41656000D03*
X50800000Y-39116000D03*
X50800000Y-36576000D03*
X50800000Y-34036000D03*
X50800000Y-31496000D03*
X50800000Y-28956000D03*
X50800000Y-26416000D03*
X50800000Y-23876000D03*
X50800000Y-21336000D03*
X50800000Y-18796000D03*
X25400000Y-66167000D03*
X30480000Y-63627000D03*
X27940000Y-66167000D03*
X25400000Y-63627000D03*
X27940000Y-63627000D03*
%TD*%
D12*
%TO.C,Q1*%
X42062500Y-56950000D03*
X42062500Y-55050000D03*
X43937500Y-56000000D03*
%TD*%
D13*
%TO.C,R10*%
X42000000Y-59500000D03*
X44000000Y-59500000D03*
%TD*%
%TO.C,R11*%
X12500000Y-61000000D03*
X14500000Y-61000000D03*
%TD*%
D14*
%TO.C,R14*%
X28500000Y-39500000D03*
X28500000Y-41500000D03*
%TD*%
%TO.C,R9*%
X39500000Y-55000000D03*
X39500000Y-57000000D03*
%TD*%
D15*
%TO.C,R12*%
X14500000Y-63500000D03*
X12500000Y-63500000D03*
%TD*%
D16*
%TO.C,R13*%
X30500000Y-41500000D03*
X30500000Y-39500000D03*
%TD*%
M02*
