Ref,Val,Package,PosX,PosY,Rot,Side
"A1","Arduino_UNO","Arduino_Uno_Shield",0.000000,0.000000,-90.000000,top
"C1","100n","C_0805_2012Metric_Pad1.18x1.45mm_HandSolder",26.500000,-37.500000,180.000000,top
"C2","1u","C_0805_2012Metric_Pad1.18x1.45mm_HandSolder",26.500000,-31.500000,180.000000,top
"C3","100n","C_0805_2012Metric_Pad1.18x1.45mm_HandSolder",29.500000,-34.500000,90.000000,top
"C4","100n","C_0805_2012Metric_Pad1.18x1.45mm_HandSolder",23.500000,-34.500000,90.000000,top
"D1","red","LED_0805_2012Metric_Pad1.15x1.40mm_HandSolder",26.500000,-17.000000,180.000000,top
"D2","red","LED_0805_2012Metric_Pad1.15x1.40mm_HandSolder",37.500000,-23.500000,45.000000,top
"D3","red","LED_0805_2012Metric_Pad1.15x1.40mm_HandSolder",44.000000,-34.500000,90.000000,top
"D4","red","LED_0805_2012Metric_Pad1.15x1.40mm_HandSolder",37.500000,-45.500000,-45.000000,top
"D5","red","LED_0805_2012Metric_Pad1.15x1.40mm_HandSolder",26.500000,-52.000000,180.000000,top
"D6","red","LED_0805_2012Metric_Pad1.15x1.40mm_HandSolder",15.500000,-45.500000,-135.000000,top
"D7","red","LED_0805_2012Metric_Pad1.15x1.40mm_HandSolder",9.000000,-34.500000,90.000000,top
"D8","red","LED_0805_2012Metric_Pad1.15x1.40mm_HandSolder",15.500000,-23.500000,135.000000,top
"R1","200","R_0805_2012Metric_Pad1.20x1.40mm_HandSolder",26.500000,-15.000000,0.000000,top
"R2","200","R_0805_2012Metric_Pad1.20x1.40mm_HandSolder",40.500000,-20.500000,45.000000,top
"R3","200","R_0805_2012Metric_Pad1.20x1.40mm_HandSolder",46.000000,-34.500000,-90.000000,top
"R4","200","R_0805_2012Metric_Pad1.20x1.40mm_HandSolder",40.500000,-48.500000,-45.000000,top
"R5","200","R_0805_2012Metric_Pad1.20x1.40mm_HandSolder",26.500000,-54.000000,0.000000,top
"R6","200","R_0805_2012Metric_Pad1.20x1.40mm_HandSolder",12.500000,-48.500000,-135.000000,top
"R7","200","R_0805_2012Metric_Pad1.20x1.40mm_HandSolder",7.000000,-34.500000,-90.000000,top
"R8","200","R_0805_2012Metric_Pad1.20x1.40mm_HandSolder",12.500000,-20.500000,135.000000,top
"U1","LIS3MDL","LGA-12_2x2mm_P0.5mm",26.500000,-34.500000,0.000000,top
