M48
; DRILL file {KiCad (6.0.7-1)-1} date 2022 August 19, Friday 11:56:44
; FORMAT={-:-/ absolute / metric / decimal}
; #@! TF.CreationDate,2022-08-19T11:56:44+02:00
; #@! TF.GenerationSoftware,Kicad,Pcbnew,(6.0.7-1)-1
; #@! TF.FileFunction,Plated,1,2,PTH
FMAT,2
METRIC
; #@! TA.AperFunction,Plated,PTH,ViaDrill
T1C0.400
; #@! TA.AperFunction,Plated,PTH,ComponentDrill
T2C1.016
%
G90
G05
T1
X5.4Y-35.55
X9.0Y-37.0
X15.0Y-25.5
X15.0Y-43.5
X16.0Y-61.0
X21.85Y-32.65
X24.9Y-33.5
X26.7Y-32.9
X27.7Y-30.1
X27.7Y-32.9
X28.1Y-35.3
X29.0Y-17.0
X34.25Y-52.0
X38.0Y-25.5
X38.0Y-43.5
X43.938Y-54.062
X44.0Y-37.0
T2
X2.54Y-27.94
X2.54Y-30.48
X2.54Y-33.02
X2.54Y-35.56
X2.54Y-38.1
X2.54Y-40.64
X2.54Y-43.18
X2.54Y-45.72
X2.54Y-50.8
X2.54Y-53.34
X2.54Y-55.88
X2.54Y-58.42
X2.54Y-60.96
X2.54Y-63.5
X25.4Y-63.627
X25.4Y-66.167
X27.94Y-63.627
X27.94Y-66.167
X30.48Y-63.627
X30.48Y-66.167
X50.8Y-18.796
X50.8Y-21.336
X50.8Y-23.876
X50.8Y-26.416
X50.8Y-28.956
X50.8Y-31.496
X50.8Y-34.036
X50.8Y-36.576
X50.8Y-39.116
X50.8Y-41.656
X50.8Y-45.72
X50.8Y-48.26
X50.8Y-50.8
X50.8Y-53.34
X50.8Y-55.88
X50.8Y-58.42
X50.8Y-60.96
X50.8Y-63.5
T0
M30
