%TF.GenerationSoftware,KiCad,Pcbnew,(6.0.7-1)-1*%
%TF.CreationDate,2022-08-19T11:56:30+02:00*%
%TF.ProjectId,UULM_Compass,55554c4d-5f43-46f6-9d70-6173732e6b69,rev?*%
%TF.SameCoordinates,Original*%
%TF.FileFunction,Soldermask,Top*%
%TF.FilePolarity,Negative*%
%FSLAX46Y46*%
G04 Gerber Fmt 4.6, Leading zero omitted, Abs format (unit mm)*
G04 Created by KiCad (PCBNEW (6.0.7-1)-1) date 2022-08-19 11:56:30*
%MOMM*%
%LPD*%
G01*
G04 APERTURE LIST*
G04 Aperture macros list*
%AMRoundRect*
0 Rectangle with rounded corners*
0 $1 Rounding radius*
0 $2 $3 $4 $5 $6 $7 $8 $9 X,Y pos of 4 corners*
0 Add a 4 corners polygon primitive as box body*
4,1,4,$2,$3,$4,$5,$6,$7,$8,$9,$2,$3,0*
0 Add four circle primitives for the rounded corners*
1,1,$1+$1,$2,$3*
1,1,$1+$1,$4,$5*
1,1,$1+$1,$6,$7*
1,1,$1+$1,$8,$9*
0 Add four rect primitives between the rounded corners*
20,1,$1+$1,$2,$3,$4,$5,0*
20,1,$1+$1,$4,$5,$6,$7,0*
20,1,$1+$1,$6,$7,$8,$9,0*
20,1,$1+$1,$8,$9,$2,$3,0*%
G04 Aperture macros list end*
%ADD10RoundRect,0.250000X0.565685X0.070711X0.070711X0.565685X-0.565685X-0.070711X-0.070711X-0.565685X0*%
%ADD11RoundRect,0.250000X-0.350000X-0.450000X0.350000X-0.450000X0.350000X0.450000X-0.350000X0.450000X0*%
%ADD12RoundRect,0.250000X-0.450000X0.350000X-0.450000X-0.350000X0.450000X-0.350000X0.450000X0.350000X0*%
%ADD13R,0.375000X0.350000*%
%ADD14R,0.350000X0.375000*%
%ADD15RoundRect,0.250000X0.325000X0.450000X-0.325000X0.450000X-0.325000X-0.450000X0.325000X-0.450000X0*%
%ADD16RoundRect,0.250000X0.070711X-0.565685X0.565685X-0.070711X-0.070711X0.565685X-0.565685X0.070711X0*%
%ADD17RoundRect,0.250000X0.450000X-0.325000X0.450000X0.325000X-0.450000X0.325000X-0.450000X-0.325000X0*%
%ADD18RoundRect,0.250000X0.475000X-0.337500X0.475000X0.337500X-0.475000X0.337500X-0.475000X-0.337500X0*%
%ADD19RoundRect,0.250000X0.337500X0.475000X-0.337500X0.475000X-0.337500X-0.475000X0.337500X-0.475000X0*%
%ADD20RoundRect,0.250000X-0.548008X-0.088388X-0.088388X-0.548008X0.548008X0.088388X0.088388X0.548008X0*%
%ADD21RoundRect,0.250000X0.548008X0.088388X0.088388X0.548008X-0.548008X-0.088388X-0.088388X-0.548008X0*%
%ADD22RoundRect,0.250000X0.088388X-0.548008X0.548008X-0.088388X-0.088388X0.548008X-0.548008X0.088388X0*%
%ADD23C,3.200000*%
%ADD24O,1.727200X1.727200*%
%ADD25RoundRect,0.250000X-0.088388X0.548008X-0.548008X0.088388X0.088388X-0.548008X0.548008X-0.088388X0*%
%ADD26RoundRect,0.250000X-0.565685X-0.070711X-0.070711X-0.565685X0.565685X0.070711X0.070711X0.565685X0*%
%ADD27RoundRect,0.250000X-0.070711X0.565685X-0.565685X0.070711X0.070711X-0.565685X0.565685X-0.070711X0*%
G04 APERTURE END LIST*
D10*
%TO.C,R8*%
X13207107Y-21207107D03*
X11792893Y-19792893D03*
%TD*%
D11*
%TO.C,R1*%
X25500000Y-15000000D03*
X27500000Y-15000000D03*
%TD*%
D12*
%TO.C,R7*%
X7000000Y-33500000D03*
X7000000Y-35500000D03*
%TD*%
D13*
%TO.C,U1*%
X25737500Y-33750000D03*
X25737500Y-34250000D03*
X25737500Y-34750000D03*
X25737500Y-35250000D03*
D14*
X26250000Y-35262500D03*
X26750000Y-35262500D03*
D13*
X27262500Y-35250000D03*
X27262500Y-34750000D03*
X27262500Y-34250000D03*
X27262500Y-33750000D03*
D14*
X26750000Y-33737500D03*
X26250000Y-33737500D03*
%TD*%
D15*
%TO.C,D5*%
X27525000Y-52000000D03*
X25475000Y-52000000D03*
%TD*%
D16*
%TO.C,R2*%
X39792893Y-21207107D03*
X41207107Y-19792893D03*
%TD*%
D11*
%TO.C,R5*%
X25500000Y-54000000D03*
X27500000Y-54000000D03*
%TD*%
D17*
%TO.C,D3*%
X44000000Y-35525000D03*
X44000000Y-33475000D03*
%TD*%
D12*
%TO.C,R3*%
X46000000Y-33500000D03*
X46000000Y-35500000D03*
%TD*%
D15*
%TO.C,D1*%
X27525000Y-17000000D03*
X25475000Y-17000000D03*
%TD*%
D17*
%TO.C,D7*%
X9000000Y-35525000D03*
X9000000Y-33475000D03*
%TD*%
D18*
%TO.C,C3*%
X29500000Y-35537500D03*
X29500000Y-33462500D03*
%TD*%
D19*
%TO.C,C2*%
X27537500Y-31500000D03*
X25462500Y-31500000D03*
%TD*%
D20*
%TO.C,D4*%
X36775216Y-44775216D03*
X38224784Y-46224784D03*
%TD*%
D19*
%TO.C,C1*%
X27537500Y-37500000D03*
X25462500Y-37500000D03*
%TD*%
D21*
%TO.C,D8*%
X16224784Y-24224784D03*
X14775216Y-22775216D03*
%TD*%
D22*
%TO.C,D2*%
X36775216Y-24224784D03*
X38224784Y-22775216D03*
%TD*%
D23*
%TO.C,A1*%
X7620000Y-66040000D03*
X2540000Y-13970000D03*
X35560000Y-66040000D03*
X50800000Y-15240000D03*
D24*
X2540000Y-27940000D03*
X2540000Y-30480000D03*
X2540000Y-33020000D03*
X2540000Y-35560000D03*
X2540000Y-38100000D03*
X30480000Y-66167000D03*
X2540000Y-40640000D03*
X2540000Y-43180000D03*
X2540000Y-45720000D03*
X2540000Y-50800000D03*
X2540000Y-53340000D03*
X2540000Y-55880000D03*
X2540000Y-58420000D03*
X2540000Y-60960000D03*
X2540000Y-63500000D03*
X50800000Y-63500000D03*
X50800000Y-60960000D03*
X50800000Y-58420000D03*
X50800000Y-55880000D03*
X50800000Y-53340000D03*
X50800000Y-50800000D03*
X50800000Y-48260000D03*
X50800000Y-45720000D03*
X50800000Y-41656000D03*
X50800000Y-39116000D03*
X50800000Y-36576000D03*
X50800000Y-34036000D03*
X50800000Y-31496000D03*
X50800000Y-28956000D03*
X50800000Y-26416000D03*
X50800000Y-23876000D03*
X50800000Y-21336000D03*
X50800000Y-18796000D03*
X25400000Y-66167000D03*
X30480000Y-63627000D03*
X27940000Y-66167000D03*
X25400000Y-63627000D03*
X27940000Y-63627000D03*
%TD*%
D18*
%TO.C,C4*%
X23500000Y-35537500D03*
X23500000Y-33462500D03*
%TD*%
D25*
%TO.C,D6*%
X16224784Y-44775216D03*
X14775216Y-46224784D03*
%TD*%
D26*
%TO.C,R4*%
X39792893Y-47792893D03*
X41207107Y-49207107D03*
%TD*%
D27*
%TO.C,R6*%
X13207107Y-47792893D03*
X11792893Y-49207107D03*
%TD*%
M02*
