%TF.GenerationSoftware,KiCad,Pcbnew,(6.0.7-1)-1*%
%TF.CreationDate,2022-08-19T11:56:30+02:00*%
%TF.ProjectId,UULM_Compass,55554c4d-5f43-46f6-9d70-6173732e6b69,rev?*%
%TF.SameCoordinates,Original*%
%TF.FileFunction,AssemblyDrawing,Top*%
%FSLAX46Y46*%
G04 Gerber Fmt 4.6, Leading zero omitted, Abs format (unit mm)*
G04 Created by KiCad (PCBNEW (6.0.7-1)-1) date 2022-08-19 11:56:30*
%MOMM*%
%LPD*%
G01*
G04 APERTURE LIST*
%ADD10C,0.150000*%
%ADD11C,0.080000*%
%ADD12C,0.075000*%
%ADD13C,0.300000*%
%ADD14C,0.100000*%
G04 APERTURE END LIST*
D10*
%TO.C,R8*%
X14222309Y-20528621D02*
X14154966Y-20528621D01*
X14053951Y-20494949D01*
X13885592Y-20326590D01*
X13851920Y-20225575D01*
X13851920Y-20158231D01*
X13885592Y-20057216D01*
X13952935Y-19989873D01*
X14087622Y-19922529D01*
X14895744Y-19922529D01*
X14458012Y-19484796D01*
X13313172Y-19754170D02*
X13245829Y-19686827D01*
X13212157Y-19585812D01*
X13212157Y-19518468D01*
X13245829Y-19417453D01*
X13346844Y-19249094D01*
X13515203Y-19080735D01*
X13683561Y-18979720D01*
X13784577Y-18946048D01*
X13851920Y-18946048D01*
X13952935Y-18979720D01*
X14020279Y-19047064D01*
X14053951Y-19148079D01*
X14053951Y-19215422D01*
X14020279Y-19316438D01*
X13919264Y-19484796D01*
X13750905Y-19653155D01*
X13582546Y-19754170D01*
X13481531Y-19787842D01*
X13414187Y-19787842D01*
X13313172Y-19754170D01*
X12639737Y-19080735D02*
X12572394Y-19013392D01*
X12538722Y-18912377D01*
X12538722Y-18845033D01*
X12572394Y-18744018D01*
X12673409Y-18575659D01*
X12841768Y-18407300D01*
X13010126Y-18306285D01*
X13111142Y-18272613D01*
X13178485Y-18272613D01*
X13279500Y-18306285D01*
X13346844Y-18373629D01*
X13380516Y-18474644D01*
X13380516Y-18541987D01*
X13346844Y-18643003D01*
X13245829Y-18811361D01*
X13077470Y-18979720D01*
X12909111Y-19080735D01*
X12808096Y-19114407D01*
X12740752Y-19114407D01*
X12639737Y-19080735D01*
D11*
X12718866Y-20398984D02*
X12668358Y-20685194D01*
X12920896Y-20601015D02*
X12567343Y-20954568D01*
X12432656Y-20819881D01*
X12415820Y-20769374D01*
X12415820Y-20735702D01*
X12432656Y-20685194D01*
X12483164Y-20634687D01*
X12533671Y-20617851D01*
X12567343Y-20617851D01*
X12617851Y-20634687D01*
X12752538Y-20769374D01*
X12314805Y-20398984D02*
X12331641Y-20449492D01*
X12331641Y-20483164D01*
X12314805Y-20533671D01*
X12297969Y-20550507D01*
X12247461Y-20567343D01*
X12213790Y-20567343D01*
X12163282Y-20550507D01*
X12095938Y-20483164D01*
X12079103Y-20432656D01*
X12079103Y-20398984D01*
X12095938Y-20348477D01*
X12112774Y-20331641D01*
X12163282Y-20314805D01*
X12196954Y-20314805D01*
X12247461Y-20331641D01*
X12314805Y-20398984D01*
X12365312Y-20415820D01*
X12398984Y-20415820D01*
X12449492Y-20398984D01*
X12516835Y-20331641D01*
X12533671Y-20281133D01*
X12533671Y-20247461D01*
X12516835Y-20196954D01*
X12449492Y-20129610D01*
X12398984Y-20112774D01*
X12365312Y-20112774D01*
X12314805Y-20129610D01*
X12247461Y-20196954D01*
X12230625Y-20247461D01*
X12230625Y-20281133D01*
X12247461Y-20331641D01*
D10*
%TO.C,R1*%
X25261904Y-16197619D02*
X25309523Y-16150000D01*
X25404761Y-16102380D01*
X25642857Y-16102380D01*
X25738095Y-16150000D01*
X25785714Y-16197619D01*
X25833333Y-16292857D01*
X25833333Y-16388095D01*
X25785714Y-16530952D01*
X25214285Y-17102380D01*
X25833333Y-17102380D01*
X26452380Y-16102380D02*
X26547619Y-16102380D01*
X26642857Y-16150000D01*
X26690476Y-16197619D01*
X26738095Y-16292857D01*
X26785714Y-16483333D01*
X26785714Y-16721428D01*
X26738095Y-16911904D01*
X26690476Y-17007142D01*
X26642857Y-17054761D01*
X26547619Y-17102380D01*
X26452380Y-17102380D01*
X26357142Y-17054761D01*
X26309523Y-17007142D01*
X26261904Y-16911904D01*
X26214285Y-16721428D01*
X26214285Y-16483333D01*
X26261904Y-16292857D01*
X26309523Y-16197619D01*
X26357142Y-16150000D01*
X26452380Y-16102380D01*
X27404761Y-16102380D02*
X27500000Y-16102380D01*
X27595238Y-16150000D01*
X27642857Y-16197619D01*
X27690476Y-16292857D01*
X27738095Y-16483333D01*
X27738095Y-16721428D01*
X27690476Y-16911904D01*
X27642857Y-17007142D01*
X27595238Y-17054761D01*
X27500000Y-17102380D01*
X27404761Y-17102380D01*
X27309523Y-17054761D01*
X27261904Y-17007142D01*
X27214285Y-16911904D01*
X27166666Y-16721428D01*
X27166666Y-16483333D01*
X27214285Y-16292857D01*
X27261904Y-16197619D01*
X27309523Y-16150000D01*
X27404761Y-16102380D01*
D11*
X26416666Y-15226190D02*
X26250000Y-14988095D01*
X26130952Y-15226190D02*
X26130952Y-14726190D01*
X26321428Y-14726190D01*
X26369047Y-14750000D01*
X26392857Y-14773809D01*
X26416666Y-14821428D01*
X26416666Y-14892857D01*
X26392857Y-14940476D01*
X26369047Y-14964285D01*
X26321428Y-14988095D01*
X26130952Y-14988095D01*
X26892857Y-15226190D02*
X26607142Y-15226190D01*
X26750000Y-15226190D02*
X26750000Y-14726190D01*
X26702380Y-14797619D01*
X26654761Y-14845238D01*
X26607142Y-14869047D01*
D10*
%TO.C,R7*%
X4897619Y-35738095D02*
X4850000Y-35690476D01*
X4802380Y-35595238D01*
X4802380Y-35357142D01*
X4850000Y-35261904D01*
X4897619Y-35214285D01*
X4992857Y-35166666D01*
X5088095Y-35166666D01*
X5230952Y-35214285D01*
X5802380Y-35785714D01*
X5802380Y-35166666D01*
X4802380Y-34547619D02*
X4802380Y-34452380D01*
X4850000Y-34357142D01*
X4897619Y-34309523D01*
X4992857Y-34261904D01*
X5183333Y-34214285D01*
X5421428Y-34214285D01*
X5611904Y-34261904D01*
X5707142Y-34309523D01*
X5754761Y-34357142D01*
X5802380Y-34452380D01*
X5802380Y-34547619D01*
X5754761Y-34642857D01*
X5707142Y-34690476D01*
X5611904Y-34738095D01*
X5421428Y-34785714D01*
X5183333Y-34785714D01*
X4992857Y-34738095D01*
X4897619Y-34690476D01*
X4850000Y-34642857D01*
X4802380Y-34547619D01*
X4802380Y-33595238D02*
X4802380Y-33500000D01*
X4850000Y-33404761D01*
X4897619Y-33357142D01*
X4992857Y-33309523D01*
X5183333Y-33261904D01*
X5421428Y-33261904D01*
X5611904Y-33309523D01*
X5707142Y-33357142D01*
X5754761Y-33404761D01*
X5802380Y-33500000D01*
X5802380Y-33595238D01*
X5754761Y-33690476D01*
X5707142Y-33738095D01*
X5611904Y-33785714D01*
X5421428Y-33833333D01*
X5183333Y-33833333D01*
X4992857Y-33785714D01*
X4897619Y-33738095D01*
X4850000Y-33690476D01*
X4802380Y-33595238D01*
D11*
X7226190Y-34583333D02*
X6988095Y-34750000D01*
X7226190Y-34869047D02*
X6726190Y-34869047D01*
X6726190Y-34678571D01*
X6750000Y-34630952D01*
X6773809Y-34607142D01*
X6821428Y-34583333D01*
X6892857Y-34583333D01*
X6940476Y-34607142D01*
X6964285Y-34630952D01*
X6988095Y-34678571D01*
X6988095Y-34869047D01*
X6726190Y-34416666D02*
X6726190Y-34083333D01*
X7226190Y-34297619D01*
D10*
%TO.C,U1*%
X24142857Y-36552380D02*
X23666666Y-36552380D01*
X23666666Y-35552380D01*
X24476190Y-36552380D02*
X24476190Y-35552380D01*
X24904761Y-36504761D02*
X25047619Y-36552380D01*
X25285714Y-36552380D01*
X25380952Y-36504761D01*
X25428571Y-36457142D01*
X25476190Y-36361904D01*
X25476190Y-36266666D01*
X25428571Y-36171428D01*
X25380952Y-36123809D01*
X25285714Y-36076190D01*
X25095238Y-36028571D01*
X25000000Y-35980952D01*
X24952380Y-35933333D01*
X24904761Y-35838095D01*
X24904761Y-35742857D01*
X24952380Y-35647619D01*
X25000000Y-35600000D01*
X25095238Y-35552380D01*
X25333333Y-35552380D01*
X25476190Y-35600000D01*
X25809523Y-35552380D02*
X26428571Y-35552380D01*
X26095238Y-35933333D01*
X26238095Y-35933333D01*
X26333333Y-35980952D01*
X26380952Y-36028571D01*
X26428571Y-36123809D01*
X26428571Y-36361904D01*
X26380952Y-36457142D01*
X26333333Y-36504761D01*
X26238095Y-36552380D01*
X25952380Y-36552380D01*
X25857142Y-36504761D01*
X25809523Y-36457142D01*
X26857142Y-36552380D02*
X26857142Y-35552380D01*
X27190476Y-36266666D01*
X27523809Y-35552380D01*
X27523809Y-36552380D01*
X28000000Y-36552380D02*
X28000000Y-35552380D01*
X28238095Y-35552380D01*
X28380952Y-35600000D01*
X28476190Y-35695238D01*
X28523809Y-35790476D01*
X28571428Y-35980952D01*
X28571428Y-36123809D01*
X28523809Y-36314285D01*
X28476190Y-36409523D01*
X28380952Y-36504761D01*
X28238095Y-36552380D01*
X28000000Y-36552380D01*
X29476190Y-36552380D02*
X29000000Y-36552380D01*
X29000000Y-35552380D01*
D12*
X26119047Y-34226190D02*
X26119047Y-34630952D01*
X26142857Y-34678571D01*
X26166666Y-34702380D01*
X26214285Y-34726190D01*
X26309523Y-34726190D01*
X26357142Y-34702380D01*
X26380952Y-34678571D01*
X26404761Y-34630952D01*
X26404761Y-34226190D01*
X26904761Y-34726190D02*
X26619047Y-34726190D01*
X26761904Y-34726190D02*
X26761904Y-34226190D01*
X26714285Y-34297619D01*
X26666666Y-34345238D01*
X26619047Y-34369047D01*
D10*
%TO.C,D5*%
X25547619Y-50802380D02*
X25547619Y-50135714D01*
X25547619Y-50326190D02*
X25595238Y-50230952D01*
X25642857Y-50183333D01*
X25738095Y-50135714D01*
X25833333Y-50135714D01*
X26547619Y-50754761D02*
X26452380Y-50802380D01*
X26261904Y-50802380D01*
X26166666Y-50754761D01*
X26119047Y-50659523D01*
X26119047Y-50278571D01*
X26166666Y-50183333D01*
X26261904Y-50135714D01*
X26452380Y-50135714D01*
X26547619Y-50183333D01*
X26595238Y-50278571D01*
X26595238Y-50373809D01*
X26119047Y-50469047D01*
X27452380Y-50802380D02*
X27452380Y-49802380D01*
X27452380Y-50754761D02*
X27357142Y-50802380D01*
X27166666Y-50802380D01*
X27071428Y-50754761D01*
X27023809Y-50707142D01*
X26976190Y-50611904D01*
X26976190Y-50326190D01*
X27023809Y-50230952D01*
X27071428Y-50183333D01*
X27166666Y-50135714D01*
X27357142Y-50135714D01*
X27452380Y-50183333D01*
D11*
X26130952Y-52226190D02*
X26130952Y-51726190D01*
X26250000Y-51726190D01*
X26321428Y-51750000D01*
X26369047Y-51797619D01*
X26392857Y-51845238D01*
X26416666Y-51940476D01*
X26416666Y-52011904D01*
X26392857Y-52107142D01*
X26369047Y-52154761D01*
X26321428Y-52202380D01*
X26250000Y-52226190D01*
X26130952Y-52226190D01*
X26869047Y-51726190D02*
X26630952Y-51726190D01*
X26607142Y-51964285D01*
X26630952Y-51940476D01*
X26678571Y-51916666D01*
X26797619Y-51916666D01*
X26845238Y-51940476D01*
X26869047Y-51964285D01*
X26892857Y-52011904D01*
X26892857Y-52130952D01*
X26869047Y-52178571D01*
X26845238Y-52202380D01*
X26797619Y-52226190D01*
X26678571Y-52226190D01*
X26630952Y-52202380D01*
X26607142Y-52178571D01*
D10*
%TO.C,R2*%
X40471378Y-22222309D02*
X40471378Y-22154966D01*
X40505050Y-22053951D01*
X40673409Y-21885592D01*
X40774424Y-21851920D01*
X40841768Y-21851920D01*
X40942783Y-21885592D01*
X41010126Y-21952935D01*
X41077470Y-22087622D01*
X41077470Y-22895744D01*
X41515203Y-22458012D01*
X41245829Y-21313172D02*
X41313172Y-21245829D01*
X41414187Y-21212157D01*
X41481531Y-21212157D01*
X41582546Y-21245829D01*
X41750905Y-21346844D01*
X41919264Y-21515203D01*
X42020279Y-21683561D01*
X42053951Y-21784577D01*
X42053951Y-21851920D01*
X42020279Y-21952935D01*
X41952935Y-22020279D01*
X41851920Y-22053951D01*
X41784577Y-22053951D01*
X41683561Y-22020279D01*
X41515203Y-21919264D01*
X41346844Y-21750905D01*
X41245829Y-21582546D01*
X41212157Y-21481531D01*
X41212157Y-21414187D01*
X41245829Y-21313172D01*
X41919264Y-20639737D02*
X41986607Y-20572394D01*
X42087622Y-20538722D01*
X42154966Y-20538722D01*
X42255981Y-20572394D01*
X42424340Y-20673409D01*
X42592699Y-20841768D01*
X42693714Y-21010126D01*
X42727386Y-21111142D01*
X42727386Y-21178485D01*
X42693714Y-21279500D01*
X42626370Y-21346844D01*
X42525355Y-21380516D01*
X42458012Y-21380516D01*
X42356996Y-21346844D01*
X42188638Y-21245829D01*
X42020279Y-21077470D01*
X41919264Y-20909111D01*
X41885592Y-20808096D01*
X41885592Y-20740752D01*
X41919264Y-20639737D01*
D11*
X40601015Y-20718866D02*
X40314805Y-20668358D01*
X40398984Y-20920896D02*
X40045431Y-20567343D01*
X40180118Y-20432656D01*
X40230625Y-20415820D01*
X40264297Y-20415820D01*
X40314805Y-20432656D01*
X40365312Y-20483164D01*
X40382148Y-20533671D01*
X40382148Y-20567343D01*
X40365312Y-20617851D01*
X40230625Y-20752538D01*
X40415820Y-20264297D02*
X40415820Y-20230625D01*
X40432656Y-20180118D01*
X40516835Y-20095938D01*
X40567343Y-20079103D01*
X40601015Y-20079103D01*
X40651522Y-20095938D01*
X40685194Y-20129610D01*
X40718866Y-20196954D01*
X40718866Y-20601015D01*
X40937732Y-20382148D01*
D10*
%TO.C,R5*%
X25261904Y-55197619D02*
X25309523Y-55150000D01*
X25404761Y-55102380D01*
X25642857Y-55102380D01*
X25738095Y-55150000D01*
X25785714Y-55197619D01*
X25833333Y-55292857D01*
X25833333Y-55388095D01*
X25785714Y-55530952D01*
X25214285Y-56102380D01*
X25833333Y-56102380D01*
X26452380Y-55102380D02*
X26547619Y-55102380D01*
X26642857Y-55150000D01*
X26690476Y-55197619D01*
X26738095Y-55292857D01*
X26785714Y-55483333D01*
X26785714Y-55721428D01*
X26738095Y-55911904D01*
X26690476Y-56007142D01*
X26642857Y-56054761D01*
X26547619Y-56102380D01*
X26452380Y-56102380D01*
X26357142Y-56054761D01*
X26309523Y-56007142D01*
X26261904Y-55911904D01*
X26214285Y-55721428D01*
X26214285Y-55483333D01*
X26261904Y-55292857D01*
X26309523Y-55197619D01*
X26357142Y-55150000D01*
X26452380Y-55102380D01*
X27404761Y-55102380D02*
X27500000Y-55102380D01*
X27595238Y-55150000D01*
X27642857Y-55197619D01*
X27690476Y-55292857D01*
X27738095Y-55483333D01*
X27738095Y-55721428D01*
X27690476Y-55911904D01*
X27642857Y-56007142D01*
X27595238Y-56054761D01*
X27500000Y-56102380D01*
X27404761Y-56102380D01*
X27309523Y-56054761D01*
X27261904Y-56007142D01*
X27214285Y-55911904D01*
X27166666Y-55721428D01*
X27166666Y-55483333D01*
X27214285Y-55292857D01*
X27261904Y-55197619D01*
X27309523Y-55150000D01*
X27404761Y-55102380D01*
D11*
X26416666Y-54226190D02*
X26250000Y-53988095D01*
X26130952Y-54226190D02*
X26130952Y-53726190D01*
X26321428Y-53726190D01*
X26369047Y-53750000D01*
X26392857Y-53773809D01*
X26416666Y-53821428D01*
X26416666Y-53892857D01*
X26392857Y-53940476D01*
X26369047Y-53964285D01*
X26321428Y-53988095D01*
X26130952Y-53988095D01*
X26869047Y-53726190D02*
X26630952Y-53726190D01*
X26607142Y-53964285D01*
X26630952Y-53940476D01*
X26678571Y-53916666D01*
X26797619Y-53916666D01*
X26845238Y-53940476D01*
X26869047Y-53964285D01*
X26892857Y-54011904D01*
X26892857Y-54130952D01*
X26869047Y-54178571D01*
X26845238Y-54202380D01*
X26797619Y-54226190D01*
X26678571Y-54226190D01*
X26630952Y-54202380D01*
X26607142Y-54178571D01*
D10*
%TO.C,D3*%
X46102380Y-35452380D02*
X45435714Y-35452380D01*
X45626190Y-35452380D02*
X45530952Y-35404761D01*
X45483333Y-35357142D01*
X45435714Y-35261904D01*
X45435714Y-35166666D01*
X46054761Y-34452380D02*
X46102380Y-34547619D01*
X46102380Y-34738095D01*
X46054761Y-34833333D01*
X45959523Y-34880952D01*
X45578571Y-34880952D01*
X45483333Y-34833333D01*
X45435714Y-34738095D01*
X45435714Y-34547619D01*
X45483333Y-34452380D01*
X45578571Y-34404761D01*
X45673809Y-34404761D01*
X45769047Y-34880952D01*
X46102380Y-33547619D02*
X45102380Y-33547619D01*
X46054761Y-33547619D02*
X46102380Y-33642857D01*
X46102380Y-33833333D01*
X46054761Y-33928571D01*
X46007142Y-33976190D01*
X45911904Y-34023809D01*
X45626190Y-34023809D01*
X45530952Y-33976190D01*
X45483333Y-33928571D01*
X45435714Y-33833333D01*
X45435714Y-33642857D01*
X45483333Y-33547619D01*
D11*
X44226190Y-34869047D02*
X43726190Y-34869047D01*
X43726190Y-34750000D01*
X43750000Y-34678571D01*
X43797619Y-34630952D01*
X43845238Y-34607142D01*
X43940476Y-34583333D01*
X44011904Y-34583333D01*
X44107142Y-34607142D01*
X44154761Y-34630952D01*
X44202380Y-34678571D01*
X44226190Y-34750000D01*
X44226190Y-34869047D01*
X43726190Y-34416666D02*
X43726190Y-34107142D01*
X43916666Y-34273809D01*
X43916666Y-34202380D01*
X43940476Y-34154761D01*
X43964285Y-34130952D01*
X44011904Y-34107142D01*
X44130952Y-34107142D01*
X44178571Y-34130952D01*
X44202380Y-34154761D01*
X44226190Y-34202380D01*
X44226190Y-34345238D01*
X44202380Y-34392857D01*
X44178571Y-34416666D01*
D10*
%TO.C,R3*%
X43897619Y-35738095D02*
X43850000Y-35690476D01*
X43802380Y-35595238D01*
X43802380Y-35357142D01*
X43850000Y-35261904D01*
X43897619Y-35214285D01*
X43992857Y-35166666D01*
X44088095Y-35166666D01*
X44230952Y-35214285D01*
X44802380Y-35785714D01*
X44802380Y-35166666D01*
X43802380Y-34547619D02*
X43802380Y-34452380D01*
X43850000Y-34357142D01*
X43897619Y-34309523D01*
X43992857Y-34261904D01*
X44183333Y-34214285D01*
X44421428Y-34214285D01*
X44611904Y-34261904D01*
X44707142Y-34309523D01*
X44754761Y-34357142D01*
X44802380Y-34452380D01*
X44802380Y-34547619D01*
X44754761Y-34642857D01*
X44707142Y-34690476D01*
X44611904Y-34738095D01*
X44421428Y-34785714D01*
X44183333Y-34785714D01*
X43992857Y-34738095D01*
X43897619Y-34690476D01*
X43850000Y-34642857D01*
X43802380Y-34547619D01*
X43802380Y-33595238D02*
X43802380Y-33500000D01*
X43850000Y-33404761D01*
X43897619Y-33357142D01*
X43992857Y-33309523D01*
X44183333Y-33261904D01*
X44421428Y-33261904D01*
X44611904Y-33309523D01*
X44707142Y-33357142D01*
X44754761Y-33404761D01*
X44802380Y-33500000D01*
X44802380Y-33595238D01*
X44754761Y-33690476D01*
X44707142Y-33738095D01*
X44611904Y-33785714D01*
X44421428Y-33833333D01*
X44183333Y-33833333D01*
X43992857Y-33785714D01*
X43897619Y-33738095D01*
X43850000Y-33690476D01*
X43802380Y-33595238D01*
D11*
X46226190Y-34583333D02*
X45988095Y-34750000D01*
X46226190Y-34869047D02*
X45726190Y-34869047D01*
X45726190Y-34678571D01*
X45750000Y-34630952D01*
X45773809Y-34607142D01*
X45821428Y-34583333D01*
X45892857Y-34583333D01*
X45940476Y-34607142D01*
X45964285Y-34630952D01*
X45988095Y-34678571D01*
X45988095Y-34869047D01*
X45726190Y-34416666D02*
X45726190Y-34107142D01*
X45916666Y-34273809D01*
X45916666Y-34202380D01*
X45940476Y-34154761D01*
X45964285Y-34130952D01*
X46011904Y-34107142D01*
X46130952Y-34107142D01*
X46178571Y-34130952D01*
X46202380Y-34154761D01*
X46226190Y-34202380D01*
X46226190Y-34345238D01*
X46202380Y-34392857D01*
X46178571Y-34416666D01*
D10*
%TO.C,D1*%
X25547619Y-15802380D02*
X25547619Y-15135714D01*
X25547619Y-15326190D02*
X25595238Y-15230952D01*
X25642857Y-15183333D01*
X25738095Y-15135714D01*
X25833333Y-15135714D01*
X26547619Y-15754761D02*
X26452380Y-15802380D01*
X26261904Y-15802380D01*
X26166666Y-15754761D01*
X26119047Y-15659523D01*
X26119047Y-15278571D01*
X26166666Y-15183333D01*
X26261904Y-15135714D01*
X26452380Y-15135714D01*
X26547619Y-15183333D01*
X26595238Y-15278571D01*
X26595238Y-15373809D01*
X26119047Y-15469047D01*
X27452380Y-15802380D02*
X27452380Y-14802380D01*
X27452380Y-15754761D02*
X27357142Y-15802380D01*
X27166666Y-15802380D01*
X27071428Y-15754761D01*
X27023809Y-15707142D01*
X26976190Y-15611904D01*
X26976190Y-15326190D01*
X27023809Y-15230952D01*
X27071428Y-15183333D01*
X27166666Y-15135714D01*
X27357142Y-15135714D01*
X27452380Y-15183333D01*
D11*
X26130952Y-17226190D02*
X26130952Y-16726190D01*
X26250000Y-16726190D01*
X26321428Y-16750000D01*
X26369047Y-16797619D01*
X26392857Y-16845238D01*
X26416666Y-16940476D01*
X26416666Y-17011904D01*
X26392857Y-17107142D01*
X26369047Y-17154761D01*
X26321428Y-17202380D01*
X26250000Y-17226190D01*
X26130952Y-17226190D01*
X26892857Y-17226190D02*
X26607142Y-17226190D01*
X26750000Y-17226190D02*
X26750000Y-16726190D01*
X26702380Y-16797619D01*
X26654761Y-16845238D01*
X26607142Y-16869047D01*
D10*
%TO.C,D7*%
X11102380Y-35452380D02*
X10435714Y-35452380D01*
X10626190Y-35452380D02*
X10530952Y-35404761D01*
X10483333Y-35357142D01*
X10435714Y-35261904D01*
X10435714Y-35166666D01*
X11054761Y-34452380D02*
X11102380Y-34547619D01*
X11102380Y-34738095D01*
X11054761Y-34833333D01*
X10959523Y-34880952D01*
X10578571Y-34880952D01*
X10483333Y-34833333D01*
X10435714Y-34738095D01*
X10435714Y-34547619D01*
X10483333Y-34452380D01*
X10578571Y-34404761D01*
X10673809Y-34404761D01*
X10769047Y-34880952D01*
X11102380Y-33547619D02*
X10102380Y-33547619D01*
X11054761Y-33547619D02*
X11102380Y-33642857D01*
X11102380Y-33833333D01*
X11054761Y-33928571D01*
X11007142Y-33976190D01*
X10911904Y-34023809D01*
X10626190Y-34023809D01*
X10530952Y-33976190D01*
X10483333Y-33928571D01*
X10435714Y-33833333D01*
X10435714Y-33642857D01*
X10483333Y-33547619D01*
D11*
X9226190Y-34869047D02*
X8726190Y-34869047D01*
X8726190Y-34750000D01*
X8750000Y-34678571D01*
X8797619Y-34630952D01*
X8845238Y-34607142D01*
X8940476Y-34583333D01*
X9011904Y-34583333D01*
X9107142Y-34607142D01*
X9154761Y-34630952D01*
X9202380Y-34678571D01*
X9226190Y-34750000D01*
X9226190Y-34869047D01*
X8726190Y-34416666D02*
X8726190Y-34083333D01*
X9226190Y-34297619D01*
D10*
%TO.C,C3*%
X31632380Y-35619047D02*
X31632380Y-36190476D01*
X31632380Y-35904761D02*
X30632380Y-35904761D01*
X30775238Y-36000000D01*
X30870476Y-36095238D01*
X30918095Y-36190476D01*
X30632380Y-35000000D02*
X30632380Y-34904761D01*
X30680000Y-34809523D01*
X30727619Y-34761904D01*
X30822857Y-34714285D01*
X31013333Y-34666666D01*
X31251428Y-34666666D01*
X31441904Y-34714285D01*
X31537142Y-34761904D01*
X31584761Y-34809523D01*
X31632380Y-34904761D01*
X31632380Y-35000000D01*
X31584761Y-35095238D01*
X31537142Y-35142857D01*
X31441904Y-35190476D01*
X31251428Y-35238095D01*
X31013333Y-35238095D01*
X30822857Y-35190476D01*
X30727619Y-35142857D01*
X30680000Y-35095238D01*
X30632380Y-35000000D01*
X30632380Y-34047619D02*
X30632380Y-33952380D01*
X30680000Y-33857142D01*
X30727619Y-33809523D01*
X30822857Y-33761904D01*
X31013333Y-33714285D01*
X31251428Y-33714285D01*
X31441904Y-33761904D01*
X31537142Y-33809523D01*
X31584761Y-33857142D01*
X31632380Y-33952380D01*
X31632380Y-34047619D01*
X31584761Y-34142857D01*
X31537142Y-34190476D01*
X31441904Y-34238095D01*
X31251428Y-34285714D01*
X31013333Y-34285714D01*
X30822857Y-34238095D01*
X30727619Y-34190476D01*
X30680000Y-34142857D01*
X30632380Y-34047619D01*
X30965714Y-33285714D02*
X31632380Y-33285714D01*
X31060952Y-33285714D02*
X31013333Y-33238095D01*
X30965714Y-33142857D01*
X30965714Y-33000000D01*
X31013333Y-32904761D01*
X31108571Y-32857142D01*
X31632380Y-32857142D01*
D11*
X29678571Y-34583333D02*
X29702380Y-34607142D01*
X29726190Y-34678571D01*
X29726190Y-34726190D01*
X29702380Y-34797619D01*
X29654761Y-34845238D01*
X29607142Y-34869047D01*
X29511904Y-34892857D01*
X29440476Y-34892857D01*
X29345238Y-34869047D01*
X29297619Y-34845238D01*
X29250000Y-34797619D01*
X29226190Y-34726190D01*
X29226190Y-34678571D01*
X29250000Y-34607142D01*
X29273809Y-34583333D01*
X29226190Y-34416666D02*
X29226190Y-34107142D01*
X29416666Y-34273809D01*
X29416666Y-34202380D01*
X29440476Y-34154761D01*
X29464285Y-34130952D01*
X29511904Y-34107142D01*
X29630952Y-34107142D01*
X29678571Y-34130952D01*
X29702380Y-34154761D01*
X29726190Y-34202380D01*
X29726190Y-34345238D01*
X29702380Y-34392857D01*
X29678571Y-34416666D01*
D10*
%TO.C,C2*%
X26333333Y-30272380D02*
X25761904Y-30272380D01*
X26047619Y-30272380D02*
X26047619Y-29272380D01*
X25952380Y-29415238D01*
X25857142Y-29510476D01*
X25761904Y-29558095D01*
X27190476Y-29605714D02*
X27190476Y-30272380D01*
X26761904Y-29605714D02*
X26761904Y-30129523D01*
X26809523Y-30224761D01*
X26904761Y-30272380D01*
X27047619Y-30272380D01*
X27142857Y-30224761D01*
X27190476Y-30177142D01*
D11*
X26416666Y-31678571D02*
X26392857Y-31702380D01*
X26321428Y-31726190D01*
X26273809Y-31726190D01*
X26202380Y-31702380D01*
X26154761Y-31654761D01*
X26130952Y-31607142D01*
X26107142Y-31511904D01*
X26107142Y-31440476D01*
X26130952Y-31345238D01*
X26154761Y-31297619D01*
X26202380Y-31250000D01*
X26273809Y-31226190D01*
X26321428Y-31226190D01*
X26392857Y-31250000D01*
X26416666Y-31273809D01*
X26607142Y-31273809D02*
X26630952Y-31250000D01*
X26678571Y-31226190D01*
X26797619Y-31226190D01*
X26845238Y-31250000D01*
X26869047Y-31273809D01*
X26892857Y-31321428D01*
X26892857Y-31369047D01*
X26869047Y-31440476D01*
X26583333Y-31726190D01*
X26892857Y-31726190D01*
D10*
%TO.C,D4*%
X37326590Y-47020279D02*
X36855186Y-47491683D01*
X36989873Y-47356996D02*
X36888857Y-47390668D01*
X36821514Y-47390668D01*
X36720499Y-47356996D01*
X36653155Y-47289653D01*
X36585812Y-46346844D02*
X36686827Y-46380516D01*
X36821514Y-46515203D01*
X36855186Y-46616218D01*
X36821514Y-46717233D01*
X36552140Y-46986607D01*
X36451125Y-47020279D01*
X36350109Y-46986607D01*
X36215422Y-46851920D01*
X36181751Y-46750905D01*
X36215422Y-46649890D01*
X36282766Y-46582546D01*
X36686827Y-46851920D01*
X35979720Y-45673409D02*
X35272613Y-46380516D01*
X35946048Y-45707081D02*
X36047064Y-45740752D01*
X36181751Y-45875439D01*
X36215422Y-45976455D01*
X36215422Y-46043798D01*
X36181751Y-46144813D01*
X35979720Y-46346844D01*
X35878705Y-46380516D01*
X35811361Y-46380516D01*
X35710346Y-46346844D01*
X35575659Y-46212157D01*
X35541987Y-46111142D01*
D11*
X37920896Y-45601015D02*
X37567343Y-45954568D01*
X37483164Y-45870389D01*
X37449492Y-45803045D01*
X37449492Y-45735702D01*
X37466328Y-45685194D01*
X37516835Y-45601015D01*
X37567343Y-45550507D01*
X37651522Y-45500000D01*
X37702030Y-45483164D01*
X37769374Y-45483164D01*
X37836717Y-45516835D01*
X37920896Y-45601015D01*
X37180118Y-45331641D02*
X37415820Y-45095938D01*
X37129610Y-45550507D02*
X37466328Y-45382148D01*
X37247461Y-45163282D01*
D10*
%TO.C,C1*%
X25380952Y-36272380D02*
X24809523Y-36272380D01*
X25095238Y-36272380D02*
X25095238Y-35272380D01*
X25000000Y-35415238D01*
X24904761Y-35510476D01*
X24809523Y-35558095D01*
X26000000Y-35272380D02*
X26095238Y-35272380D01*
X26190476Y-35320000D01*
X26238095Y-35367619D01*
X26285714Y-35462857D01*
X26333333Y-35653333D01*
X26333333Y-35891428D01*
X26285714Y-36081904D01*
X26238095Y-36177142D01*
X26190476Y-36224761D01*
X26095238Y-36272380D01*
X26000000Y-36272380D01*
X25904761Y-36224761D01*
X25857142Y-36177142D01*
X25809523Y-36081904D01*
X25761904Y-35891428D01*
X25761904Y-35653333D01*
X25809523Y-35462857D01*
X25857142Y-35367619D01*
X25904761Y-35320000D01*
X26000000Y-35272380D01*
X26952380Y-35272380D02*
X27047619Y-35272380D01*
X27142857Y-35320000D01*
X27190476Y-35367619D01*
X27238095Y-35462857D01*
X27285714Y-35653333D01*
X27285714Y-35891428D01*
X27238095Y-36081904D01*
X27190476Y-36177142D01*
X27142857Y-36224761D01*
X27047619Y-36272380D01*
X26952380Y-36272380D01*
X26857142Y-36224761D01*
X26809523Y-36177142D01*
X26761904Y-36081904D01*
X26714285Y-35891428D01*
X26714285Y-35653333D01*
X26761904Y-35462857D01*
X26809523Y-35367619D01*
X26857142Y-35320000D01*
X26952380Y-35272380D01*
X27714285Y-35605714D02*
X27714285Y-36272380D01*
X27714285Y-35700952D02*
X27761904Y-35653333D01*
X27857142Y-35605714D01*
X28000000Y-35605714D01*
X28095238Y-35653333D01*
X28142857Y-35748571D01*
X28142857Y-36272380D01*
D11*
X26416666Y-37678571D02*
X26392857Y-37702380D01*
X26321428Y-37726190D01*
X26273809Y-37726190D01*
X26202380Y-37702380D01*
X26154761Y-37654761D01*
X26130952Y-37607142D01*
X26107142Y-37511904D01*
X26107142Y-37440476D01*
X26130952Y-37345238D01*
X26154761Y-37297619D01*
X26202380Y-37250000D01*
X26273809Y-37226190D01*
X26321428Y-37226190D01*
X26392857Y-37250000D01*
X26416666Y-37273809D01*
X26892857Y-37726190D02*
X26607142Y-37726190D01*
X26750000Y-37726190D02*
X26750000Y-37226190D01*
X26702380Y-37297619D01*
X26654761Y-37345238D01*
X26607142Y-37369047D01*
D10*
%TO.C,D8*%
X17660042Y-22686827D02*
X17188638Y-23158231D01*
X17323325Y-23023544D02*
X17222309Y-23057216D01*
X17154966Y-23057216D01*
X17053951Y-23023544D01*
X16986607Y-22956201D01*
X16919264Y-22013392D02*
X17020279Y-22047064D01*
X17154966Y-22181751D01*
X17188638Y-22282766D01*
X17154966Y-22383781D01*
X16885592Y-22653155D01*
X16784577Y-22686827D01*
X16683561Y-22653155D01*
X16548874Y-22518468D01*
X16515203Y-22417453D01*
X16548874Y-22316438D01*
X16616218Y-22249094D01*
X17020279Y-22518468D01*
X16313172Y-21339957D02*
X15606065Y-22047064D01*
X16279500Y-21373629D02*
X16380516Y-21407300D01*
X16515203Y-21541987D01*
X16548874Y-21643003D01*
X16548874Y-21710346D01*
X16515203Y-21811361D01*
X16313172Y-22013392D01*
X16212157Y-22047064D01*
X16144813Y-22047064D01*
X16043798Y-22013392D01*
X15909111Y-21878705D01*
X15875439Y-21777690D01*
D11*
X15920896Y-23601015D02*
X15567343Y-23954568D01*
X15483164Y-23870389D01*
X15449492Y-23803045D01*
X15449492Y-23735702D01*
X15466328Y-23685194D01*
X15516835Y-23601015D01*
X15567343Y-23550507D01*
X15651522Y-23500000D01*
X15702030Y-23483164D01*
X15769374Y-23483164D01*
X15836717Y-23516835D01*
X15920896Y-23601015D01*
X15314805Y-23398984D02*
X15331641Y-23449492D01*
X15331641Y-23483164D01*
X15314805Y-23533671D01*
X15297969Y-23550507D01*
X15247461Y-23567343D01*
X15213790Y-23567343D01*
X15163282Y-23550507D01*
X15095938Y-23483164D01*
X15079103Y-23432656D01*
X15079103Y-23398984D01*
X15095938Y-23348477D01*
X15112774Y-23331641D01*
X15163282Y-23314805D01*
X15196954Y-23314805D01*
X15247461Y-23331641D01*
X15314805Y-23398984D01*
X15365312Y-23415820D01*
X15398984Y-23415820D01*
X15449492Y-23398984D01*
X15516835Y-23331641D01*
X15533671Y-23281133D01*
X15533671Y-23247461D01*
X15516835Y-23196954D01*
X15449492Y-23129610D01*
X15398984Y-23112774D01*
X15365312Y-23112774D01*
X15314805Y-23129610D01*
X15247461Y-23196954D01*
X15230625Y-23247461D01*
X15230625Y-23281133D01*
X15247461Y-23331641D01*
D10*
%TO.C,D2*%
X38313172Y-25660042D02*
X37841768Y-25188638D01*
X37976455Y-25323325D02*
X37942783Y-25222309D01*
X37942783Y-25154966D01*
X37976455Y-25053951D01*
X38043798Y-24986607D01*
X38986607Y-24919264D02*
X38952935Y-25020279D01*
X38818248Y-25154966D01*
X38717233Y-25188638D01*
X38616218Y-25154966D01*
X38346844Y-24885592D01*
X38313172Y-24784577D01*
X38346844Y-24683561D01*
X38481531Y-24548874D01*
X38582546Y-24515203D01*
X38683561Y-24548874D01*
X38750905Y-24616218D01*
X38481531Y-25020279D01*
X39660042Y-24313172D02*
X38952935Y-23606065D01*
X39626370Y-24279500D02*
X39592699Y-24380516D01*
X39458012Y-24515203D01*
X39356996Y-24548874D01*
X39289653Y-24548874D01*
X39188638Y-24515203D01*
X38986607Y-24313172D01*
X38952935Y-24212157D01*
X38952935Y-24144813D01*
X38986607Y-24043798D01*
X39121294Y-23909111D01*
X39222309Y-23875439D01*
D11*
X37398984Y-23920896D02*
X37045431Y-23567343D01*
X37129610Y-23483164D01*
X37196954Y-23449492D01*
X37264297Y-23449492D01*
X37314805Y-23466328D01*
X37398984Y-23516835D01*
X37449492Y-23567343D01*
X37500000Y-23651522D01*
X37516835Y-23702030D01*
X37516835Y-23769374D01*
X37483164Y-23836717D01*
X37398984Y-23920896D01*
X37415820Y-23264297D02*
X37415820Y-23230625D01*
X37432656Y-23180118D01*
X37516835Y-23095938D01*
X37567343Y-23079103D01*
X37601015Y-23079103D01*
X37651522Y-23095938D01*
X37685194Y-23129610D01*
X37718866Y-23196954D01*
X37718866Y-23601015D01*
X37937732Y-23382148D01*
D10*
%TO.C,A1*%
X54522666Y-3254285D02*
X54522666Y-2778095D01*
X54808380Y-3349523D02*
X53808380Y-3016190D01*
X54808380Y-2682857D01*
X54808380Y-1825714D02*
X54808380Y-2397142D01*
X54808380Y-2111428D02*
X53808380Y-2111428D01*
X53951238Y-2206666D01*
X54046476Y-2301904D01*
X54094095Y-2397142D01*
X54522666Y-20041619D02*
X54522666Y-19565428D01*
X54808380Y-20136857D02*
X53808380Y-19803523D01*
X54808380Y-19470190D01*
X54808380Y-19136857D02*
X54141714Y-19136857D01*
X54332190Y-19136857D02*
X54236952Y-19089238D01*
X54189333Y-19041619D01*
X54141714Y-18946380D01*
X54141714Y-18851142D01*
X54808380Y-18089238D02*
X53808380Y-18089238D01*
X54760761Y-18089238D02*
X54808380Y-18184476D01*
X54808380Y-18374952D01*
X54760761Y-18470190D01*
X54713142Y-18517809D01*
X54617904Y-18565428D01*
X54332190Y-18565428D01*
X54236952Y-18517809D01*
X54189333Y-18470190D01*
X54141714Y-18374952D01*
X54141714Y-18184476D01*
X54189333Y-18089238D01*
X54141714Y-17184476D02*
X54808380Y-17184476D01*
X54141714Y-17613047D02*
X54665523Y-17613047D01*
X54760761Y-17565428D01*
X54808380Y-17470190D01*
X54808380Y-17327333D01*
X54760761Y-17232095D01*
X54713142Y-17184476D01*
X54808380Y-16708285D02*
X54141714Y-16708285D01*
X53808380Y-16708285D02*
X53856000Y-16755904D01*
X53903619Y-16708285D01*
X53856000Y-16660666D01*
X53808380Y-16708285D01*
X53903619Y-16708285D01*
X54141714Y-16232095D02*
X54808380Y-16232095D01*
X54236952Y-16232095D02*
X54189333Y-16184476D01*
X54141714Y-16089238D01*
X54141714Y-15946380D01*
X54189333Y-15851142D01*
X54284571Y-15803523D01*
X54808380Y-15803523D01*
X54808380Y-15184476D02*
X54760761Y-15279714D01*
X54713142Y-15327333D01*
X54617904Y-15374952D01*
X54332190Y-15374952D01*
X54236952Y-15327333D01*
X54189333Y-15279714D01*
X54141714Y-15184476D01*
X54141714Y-15041619D01*
X54189333Y-14946380D01*
X54236952Y-14898761D01*
X54332190Y-14851142D01*
X54617904Y-14851142D01*
X54713142Y-14898761D01*
X54760761Y-14946380D01*
X54808380Y-15041619D01*
X54808380Y-15184476D01*
X54903619Y-14660666D02*
X54903619Y-13898761D01*
X53808380Y-13660666D02*
X54617904Y-13660666D01*
X54713142Y-13613047D01*
X54760761Y-13565428D01*
X54808380Y-13470190D01*
X54808380Y-13279714D01*
X54760761Y-13184476D01*
X54713142Y-13136857D01*
X54617904Y-13089238D01*
X53808380Y-13089238D01*
X54808380Y-12613047D02*
X53808380Y-12613047D01*
X54808380Y-12041619D01*
X53808380Y-12041619D01*
X53808380Y-11374952D02*
X53808380Y-11184476D01*
X53856000Y-11089238D01*
X53951238Y-10994000D01*
X54141714Y-10946380D01*
X54475047Y-10946380D01*
X54665523Y-10994000D01*
X54760761Y-11089238D01*
X54808380Y-11184476D01*
X54808380Y-11374952D01*
X54760761Y-11470190D01*
X54665523Y-11565428D01*
X54475047Y-11613047D01*
X54141714Y-11613047D01*
X53951238Y-11565428D01*
X53856000Y-11470190D01*
X53808380Y-11374952D01*
%TO.C,C4*%
X25632380Y-35619047D02*
X25632380Y-36190476D01*
X25632380Y-35904761D02*
X24632380Y-35904761D01*
X24775238Y-36000000D01*
X24870476Y-36095238D01*
X24918095Y-36190476D01*
X24632380Y-35000000D02*
X24632380Y-34904761D01*
X24680000Y-34809523D01*
X24727619Y-34761904D01*
X24822857Y-34714285D01*
X25013333Y-34666666D01*
X25251428Y-34666666D01*
X25441904Y-34714285D01*
X25537142Y-34761904D01*
X25584761Y-34809523D01*
X25632380Y-34904761D01*
X25632380Y-35000000D01*
X25584761Y-35095238D01*
X25537142Y-35142857D01*
X25441904Y-35190476D01*
X25251428Y-35238095D01*
X25013333Y-35238095D01*
X24822857Y-35190476D01*
X24727619Y-35142857D01*
X24680000Y-35095238D01*
X24632380Y-35000000D01*
X24632380Y-34047619D02*
X24632380Y-33952380D01*
X24680000Y-33857142D01*
X24727619Y-33809523D01*
X24822857Y-33761904D01*
X25013333Y-33714285D01*
X25251428Y-33714285D01*
X25441904Y-33761904D01*
X25537142Y-33809523D01*
X25584761Y-33857142D01*
X25632380Y-33952380D01*
X25632380Y-34047619D01*
X25584761Y-34142857D01*
X25537142Y-34190476D01*
X25441904Y-34238095D01*
X25251428Y-34285714D01*
X25013333Y-34285714D01*
X24822857Y-34238095D01*
X24727619Y-34190476D01*
X24680000Y-34142857D01*
X24632380Y-34047619D01*
X24965714Y-33285714D02*
X25632380Y-33285714D01*
X25060952Y-33285714D02*
X25013333Y-33238095D01*
X24965714Y-33142857D01*
X24965714Y-33000000D01*
X25013333Y-32904761D01*
X25108571Y-32857142D01*
X25632380Y-32857142D01*
D11*
X23678571Y-34583333D02*
X23702380Y-34607142D01*
X23726190Y-34678571D01*
X23726190Y-34726190D01*
X23702380Y-34797619D01*
X23654761Y-34845238D01*
X23607142Y-34869047D01*
X23511904Y-34892857D01*
X23440476Y-34892857D01*
X23345238Y-34869047D01*
X23297619Y-34845238D01*
X23250000Y-34797619D01*
X23226190Y-34726190D01*
X23226190Y-34678571D01*
X23250000Y-34607142D01*
X23273809Y-34583333D01*
X23392857Y-34154761D02*
X23726190Y-34154761D01*
X23202380Y-34273809D02*
X23559523Y-34392857D01*
X23559523Y-34083333D01*
D10*
%TO.C,D6*%
X13979720Y-45326590D02*
X13508316Y-44855186D01*
X13643003Y-44989873D02*
X13609331Y-44888857D01*
X13609331Y-44821514D01*
X13643003Y-44720499D01*
X13710346Y-44653155D01*
X14653155Y-44585812D02*
X14619483Y-44686827D01*
X14484796Y-44821514D01*
X14383781Y-44855186D01*
X14282766Y-44821514D01*
X14013392Y-44552140D01*
X13979720Y-44451125D01*
X14013392Y-44350109D01*
X14148079Y-44215422D01*
X14249094Y-44181751D01*
X14350109Y-44215422D01*
X14417453Y-44282766D01*
X14148079Y-44686827D01*
X15326590Y-43979720D02*
X14619483Y-43272613D01*
X15292918Y-43946048D02*
X15259247Y-44047064D01*
X15124560Y-44181751D01*
X15023544Y-44215422D01*
X14956201Y-44215422D01*
X14855186Y-44181751D01*
X14653155Y-43979720D01*
X14619483Y-43878705D01*
X14619483Y-43811361D01*
X14653155Y-43710346D01*
X14787842Y-43575659D01*
X14888857Y-43541987D01*
D11*
X15398984Y-45920896D02*
X15045431Y-45567343D01*
X15129610Y-45483164D01*
X15196954Y-45449492D01*
X15264297Y-45449492D01*
X15314805Y-45466328D01*
X15398984Y-45516835D01*
X15449492Y-45567343D01*
X15500000Y-45651522D01*
X15516835Y-45702030D01*
X15516835Y-45769374D01*
X15483164Y-45836717D01*
X15398984Y-45920896D01*
X15550507Y-45062267D02*
X15483164Y-45129610D01*
X15466328Y-45180118D01*
X15466328Y-45213790D01*
X15483164Y-45297969D01*
X15533671Y-45382148D01*
X15668358Y-45516835D01*
X15718866Y-45533671D01*
X15752538Y-45533671D01*
X15803045Y-45516835D01*
X15870389Y-45449492D01*
X15887225Y-45398984D01*
X15887225Y-45365312D01*
X15870389Y-45314805D01*
X15786209Y-45230625D01*
X15735702Y-45213790D01*
X15702030Y-45213790D01*
X15651522Y-45230625D01*
X15584179Y-45297969D01*
X15567343Y-45348477D01*
X15567343Y-45382148D01*
X15584179Y-45432656D01*
D10*
%TO.C,R4*%
X39888857Y-50862073D02*
X39821514Y-50862073D01*
X39720499Y-50828401D01*
X39552140Y-50660042D01*
X39518468Y-50559027D01*
X39518468Y-50491683D01*
X39552140Y-50390668D01*
X39619483Y-50323325D01*
X39754170Y-50255981D01*
X40562292Y-50255981D01*
X40124560Y-49818248D01*
X38979720Y-50087622D02*
X38912377Y-50020279D01*
X38878705Y-49919264D01*
X38878705Y-49851920D01*
X38912377Y-49750905D01*
X39013392Y-49582546D01*
X39181751Y-49414187D01*
X39350109Y-49313172D01*
X39451125Y-49279500D01*
X39518468Y-49279500D01*
X39619483Y-49313172D01*
X39686827Y-49380516D01*
X39720499Y-49481531D01*
X39720499Y-49548874D01*
X39686827Y-49649890D01*
X39585812Y-49818248D01*
X39417453Y-49986607D01*
X39249094Y-50087622D01*
X39148079Y-50121294D01*
X39080735Y-50121294D01*
X38979720Y-50087622D01*
X38306285Y-49414187D02*
X38238942Y-49346844D01*
X38205270Y-49245829D01*
X38205270Y-49178485D01*
X38238942Y-49077470D01*
X38339957Y-48909111D01*
X38508316Y-48740752D01*
X38676674Y-48639737D01*
X38777690Y-48606065D01*
X38845033Y-48606065D01*
X38946048Y-48639737D01*
X39013392Y-48707081D01*
X39047064Y-48808096D01*
X39047064Y-48875439D01*
X39013392Y-48976455D01*
X38912377Y-49144813D01*
X38744018Y-49313172D01*
X38575659Y-49414187D01*
X38474644Y-49447859D01*
X38407300Y-49447859D01*
X38306285Y-49414187D01*
D11*
X40718866Y-48398984D02*
X40668358Y-48685194D01*
X40920896Y-48601015D02*
X40567343Y-48954568D01*
X40432656Y-48819881D01*
X40415820Y-48769374D01*
X40415820Y-48735702D01*
X40432656Y-48685194D01*
X40483164Y-48634687D01*
X40533671Y-48617851D01*
X40567343Y-48617851D01*
X40617851Y-48634687D01*
X40752538Y-48769374D01*
X40180118Y-48331641D02*
X40415820Y-48095938D01*
X40129610Y-48550507D02*
X40466328Y-48382148D01*
X40247461Y-48163282D01*
D10*
%TO.C,R6*%
X10137926Y-47888857D02*
X10137926Y-47821514D01*
X10171598Y-47720499D01*
X10339957Y-47552140D01*
X10440972Y-47518468D01*
X10508316Y-47518468D01*
X10609331Y-47552140D01*
X10676674Y-47619483D01*
X10744018Y-47754170D01*
X10744018Y-48562292D01*
X11181751Y-48124560D01*
X10912377Y-46979720D02*
X10979720Y-46912377D01*
X11080735Y-46878705D01*
X11148079Y-46878705D01*
X11249094Y-46912377D01*
X11417453Y-47013392D01*
X11585812Y-47181751D01*
X11686827Y-47350109D01*
X11720499Y-47451125D01*
X11720499Y-47518468D01*
X11686827Y-47619483D01*
X11619483Y-47686827D01*
X11518468Y-47720499D01*
X11451125Y-47720499D01*
X11350109Y-47686827D01*
X11181751Y-47585812D01*
X11013392Y-47417453D01*
X10912377Y-47249094D01*
X10878705Y-47148079D01*
X10878705Y-47080735D01*
X10912377Y-46979720D01*
X11585812Y-46306285D02*
X11653155Y-46238942D01*
X11754170Y-46205270D01*
X11821514Y-46205270D01*
X11922529Y-46238942D01*
X12090888Y-46339957D01*
X12259247Y-46508316D01*
X12360262Y-46676674D01*
X12393934Y-46777690D01*
X12393934Y-46845033D01*
X12360262Y-46946048D01*
X12292918Y-47013392D01*
X12191903Y-47047064D01*
X12124560Y-47047064D01*
X12023544Y-47013392D01*
X11855186Y-46912377D01*
X11686827Y-46744018D01*
X11585812Y-46575659D01*
X11552140Y-46474644D01*
X11552140Y-46407300D01*
X11585812Y-46306285D01*
D11*
X12601015Y-48718866D02*
X12314805Y-48668358D01*
X12398984Y-48920896D02*
X12045431Y-48567343D01*
X12180118Y-48432656D01*
X12230625Y-48415820D01*
X12264297Y-48415820D01*
X12314805Y-48432656D01*
X12365312Y-48483164D01*
X12382148Y-48533671D01*
X12382148Y-48567343D01*
X12365312Y-48617851D01*
X12230625Y-48752538D01*
X12550507Y-48062267D02*
X12483164Y-48129610D01*
X12466328Y-48180118D01*
X12466328Y-48213790D01*
X12483164Y-48297969D01*
X12533671Y-48382148D01*
X12668358Y-48516835D01*
X12718866Y-48533671D01*
X12752538Y-48533671D01*
X12803045Y-48516835D01*
X12870389Y-48449492D01*
X12887225Y-48398984D01*
X12887225Y-48365312D01*
X12870389Y-48314805D01*
X12786209Y-48230625D01*
X12735702Y-48213790D01*
X12702030Y-48213790D01*
X12651522Y-48230625D01*
X12584179Y-48297969D01*
X12567343Y-48348477D01*
X12567343Y-48382148D01*
X12584179Y-48432656D01*
D13*
%TO.C,G\u002A\u002A\u002A*%
X25327428Y-5488000D02*
X25182285Y-5415428D01*
X24964571Y-5415428D01*
X24746857Y-5488000D01*
X24601714Y-5633142D01*
X24529142Y-5778285D01*
X24456571Y-6068571D01*
X24456571Y-6286285D01*
X24529142Y-6576571D01*
X24601714Y-6721714D01*
X24746857Y-6866857D01*
X24964571Y-6939428D01*
X25109714Y-6939428D01*
X25327428Y-6866857D01*
X25400000Y-6794285D01*
X25400000Y-6286285D01*
X25109714Y-6286285D01*
X26270857Y-5415428D02*
X26270857Y-5778285D01*
X25908000Y-5633142D02*
X26270857Y-5778285D01*
X26633714Y-5633142D01*
X26053142Y-6068571D02*
X26270857Y-5778285D01*
X26488571Y-6068571D01*
X27432000Y-5415428D02*
X27432000Y-5778285D01*
X27069142Y-5633142D02*
X27432000Y-5778285D01*
X27794857Y-5633142D01*
X27214285Y-6068571D02*
X27432000Y-5778285D01*
X27649714Y-6068571D01*
X28593142Y-5415428D02*
X28593142Y-5778285D01*
X28230285Y-5633142D02*
X28593142Y-5778285D01*
X28956000Y-5633142D01*
X28375428Y-6068571D02*
X28593142Y-5778285D01*
X28810857Y-6068571D01*
D14*
%TO.C,R8*%
X13649049Y-20765165D02*
X12765165Y-21649049D01*
X11350951Y-20234835D02*
X12234835Y-19350951D01*
X12234835Y-19350951D02*
X13649049Y-20765165D01*
X12765165Y-21649049D02*
X11350951Y-20234835D01*
%TO.C,R1*%
X25500000Y-15625000D02*
X25500000Y-14375000D01*
X27500000Y-14375000D02*
X27500000Y-15625000D01*
X27500000Y-15625000D02*
X25500000Y-15625000D01*
X25500000Y-14375000D02*
X27500000Y-14375000D01*
%TO.C,R7*%
X6375000Y-33500000D02*
X7625000Y-33500000D01*
X7625000Y-35500000D02*
X6375000Y-35500000D01*
X7625000Y-33500000D02*
X7625000Y-35500000D01*
X6375000Y-35500000D02*
X6375000Y-33500000D01*
%TO.C,U1*%
X27500000Y-33500000D02*
X27500000Y-35500000D01*
X25500000Y-35500000D02*
X25500000Y-34000000D01*
X26000000Y-33500000D02*
X27500000Y-33500000D01*
X27500000Y-35500000D02*
X25500000Y-35500000D01*
X25500000Y-34000000D02*
X26000000Y-33500000D01*
%TO.C,D5*%
X27500000Y-52300000D02*
X27500000Y-51400000D01*
X25500000Y-52600000D02*
X27200000Y-52600000D01*
X27500000Y-51400000D02*
X25500000Y-51400000D01*
X25500000Y-51400000D02*
X25500000Y-52600000D01*
X27200000Y-52600000D02*
X27500000Y-52300000D01*
%TO.C,R2*%
X40765165Y-19350951D02*
X41649049Y-20234835D01*
X39350951Y-20765165D02*
X40765165Y-19350951D01*
X41649049Y-20234835D02*
X40234835Y-21649049D01*
X40234835Y-21649049D02*
X39350951Y-20765165D01*
%TO.C,R5*%
X25500000Y-54625000D02*
X25500000Y-53375000D01*
X27500000Y-54625000D02*
X25500000Y-54625000D01*
X25500000Y-53375000D02*
X27500000Y-53375000D01*
X27500000Y-53375000D02*
X27500000Y-54625000D01*
%TO.C,D3*%
X44600000Y-35500000D02*
X44600000Y-33500000D01*
X43700000Y-35500000D02*
X44600000Y-35500000D01*
X43400000Y-35200000D02*
X43700000Y-35500000D01*
X44600000Y-33500000D02*
X43400000Y-33500000D01*
X43400000Y-33500000D02*
X43400000Y-35200000D01*
%TO.C,R3*%
X46625000Y-33500000D02*
X46625000Y-35500000D01*
X45375000Y-35500000D02*
X45375000Y-33500000D01*
X46625000Y-35500000D02*
X45375000Y-35500000D01*
X45375000Y-33500000D02*
X46625000Y-33500000D01*
%TO.C,D1*%
X27500000Y-17300000D02*
X27500000Y-16400000D01*
X25500000Y-16400000D02*
X25500000Y-17600000D01*
X27500000Y-16400000D02*
X25500000Y-16400000D01*
X25500000Y-17600000D02*
X27200000Y-17600000D01*
X27200000Y-17600000D02*
X27500000Y-17300000D01*
%TO.C,D7*%
X9600000Y-35500000D02*
X9600000Y-33500000D01*
X8400000Y-35200000D02*
X8700000Y-35500000D01*
X9600000Y-33500000D02*
X8400000Y-33500000D01*
X8400000Y-33500000D02*
X8400000Y-35200000D01*
X8700000Y-35500000D02*
X9600000Y-35500000D01*
%TO.C,C3*%
X30125000Y-35500000D02*
X28875000Y-35500000D01*
X28875000Y-33500000D02*
X30125000Y-33500000D01*
X28875000Y-35500000D02*
X28875000Y-33500000D01*
X30125000Y-33500000D02*
X30125000Y-35500000D01*
%TO.C,C2*%
X25500000Y-32125000D02*
X25500000Y-30875000D01*
X27500000Y-30875000D02*
X27500000Y-32125000D01*
X27500000Y-32125000D02*
X25500000Y-32125000D01*
X25500000Y-30875000D02*
X27500000Y-30875000D01*
%TO.C,D4*%
X37782843Y-46631371D02*
X38631371Y-45782843D01*
X38631371Y-45782843D02*
X37429289Y-44580761D01*
X36368629Y-45217157D02*
X37782843Y-46631371D01*
X37005025Y-44580761D02*
X36368629Y-45217157D01*
X37429289Y-44580761D02*
X37005025Y-44580761D01*
%TO.C,C1*%
X25500000Y-38125000D02*
X25500000Y-36875000D01*
X27500000Y-36875000D02*
X27500000Y-38125000D01*
X25500000Y-36875000D02*
X27500000Y-36875000D01*
X27500000Y-38125000D02*
X25500000Y-38125000D01*
%TO.C,D8*%
X15570711Y-24419239D02*
X15994975Y-24419239D01*
X15217157Y-22368629D02*
X14368629Y-23217157D01*
X14368629Y-23217157D02*
X15570711Y-24419239D01*
X16631371Y-23782843D02*
X15217157Y-22368629D01*
X15994975Y-24419239D02*
X16631371Y-23782843D01*
%TO.C,D2*%
X36580761Y-23994975D02*
X37217157Y-24631371D01*
X37782843Y-22368629D02*
X36580761Y-23570711D01*
X36580761Y-23570711D02*
X36580761Y-23994975D01*
X38631371Y-23217157D02*
X37782843Y-22368629D01*
X37217157Y-24631371D02*
X38631371Y-23217157D01*
%TO.C,C4*%
X24125000Y-33500000D02*
X24125000Y-35500000D01*
X24125000Y-35500000D02*
X22875000Y-35500000D01*
X22875000Y-35500000D02*
X22875000Y-33500000D01*
X22875000Y-33500000D02*
X24125000Y-33500000D01*
%TO.C,D6*%
X16419239Y-45429289D02*
X16419239Y-45005025D01*
X15217157Y-46631371D02*
X16419239Y-45429289D01*
X14368629Y-45782843D02*
X15217157Y-46631371D01*
X16419239Y-45005025D02*
X15782843Y-44368629D01*
X15782843Y-44368629D02*
X14368629Y-45782843D01*
%TO.C,R4*%
X40234835Y-47350951D02*
X41649049Y-48765165D01*
X40765165Y-49649049D02*
X39350951Y-48234835D01*
X39350951Y-48234835D02*
X40234835Y-47350951D01*
X41649049Y-48765165D02*
X40765165Y-49649049D01*
%TO.C,R6*%
X13649049Y-48234835D02*
X12234835Y-49649049D01*
X12765165Y-47350951D02*
X13649049Y-48234835D01*
X11350951Y-48765165D02*
X12765165Y-47350951D01*
X12234835Y-49649049D02*
X11350951Y-48765165D01*
%TD*%
M02*
