Ref,Val,Package,PosX,PosY,Rot,Side
"Q1","BSS83P","SOT-23",-43.000000,-56.000000,0.000000,bottom
"R9","10k","R_0805_2012Metric_Pad1.20x1.40mm_HandSolder",-39.500000,-56.000000,-90.000000,bottom
"R10","100","R_0805_2012Metric_Pad1.20x1.40mm_HandSolder",-43.000000,-59.500000,0.000000,bottom
"R11","DNI","R_0805_2012Metric_Pad1.20x1.40mm_HandSolder",-13.500000,-61.000000,0.000000,bottom
"R12","DNI","R_0805_2012Metric_Pad1.20x1.40mm_HandSolder",-13.500000,-63.500000,180.000000,bottom
"R13","DNI","R_0805_2012Metric_Pad1.20x1.40mm_HandSolder",-30.500000,-40.500000,90.000000,bottom
"R14","0","R_0805_2012Metric_Pad1.20x1.40mm_HandSolder",-28.500000,-40.500000,-90.000000,bottom
