%TF.GenerationSoftware,KiCad,Pcbnew,(6.0.7-1)-1*%
%TF.CreationDate,2022-08-19T11:56:30+02:00*%
%TF.ProjectId,UULM_Compass,55554c4d-5f43-46f6-9d70-6173732e6b69,rev?*%
%TF.SameCoordinates,Original*%
%TF.FileFunction,Legend,Bot*%
%TF.FilePolarity,Positive*%
%FSLAX46Y46*%
G04 Gerber Fmt 4.6, Leading zero omitted, Abs format (unit mm)*
G04 Created by KiCad (PCBNEW (6.0.7-1)-1) date 2022-08-19 11:56:30*
%MOMM*%
%LPD*%
G01*
G04 APERTURE LIST*
%ADD10C,0.150000*%
%ADD11C,0.300000*%
%ADD12C,0.120000*%
G04 APERTURE END LIST*
D10*
X17000000Y-61000000D02*
X17500000Y-61500000D01*
X33500000Y-43500000D02*
X21500000Y-43500000D01*
X21500000Y-43500000D02*
X21500000Y-23500000D01*
X21500000Y-23500000D02*
X33500000Y-23500000D01*
X33500000Y-23500000D02*
X33500000Y-43500000D01*
X17000000Y-61000000D02*
X17500000Y-60500000D01*
X28500000Y-36250000D02*
X28500000Y-38250000D01*
X23000000Y-67500000D02*
X10000000Y-67500000D01*
X10000000Y-67500000D02*
X10000000Y-51000000D01*
X10000000Y-51000000D02*
X23000000Y-51000000D01*
X23000000Y-51000000D02*
X23000000Y-67500000D01*
X17000000Y-63500000D02*
X17500000Y-63000000D01*
X28500000Y-38250000D02*
X29000000Y-37750000D01*
X24000000Y-59000000D02*
X32000000Y-59000000D01*
X32000000Y-59000000D02*
X32000000Y-67500000D01*
X32000000Y-67500000D02*
X24000000Y-67500000D01*
X24000000Y-67500000D02*
X24000000Y-59000000D01*
X48500000Y-62500000D02*
X35500000Y-62500000D01*
X35500000Y-62500000D02*
X35500000Y-46000000D01*
X35500000Y-46000000D02*
X48500000Y-46000000D01*
X48500000Y-46000000D02*
X48500000Y-62500000D01*
X17000000Y-63500000D02*
X19000000Y-63500000D01*
X17000000Y-61000000D02*
X19000000Y-61000000D01*
X30500000Y-36250000D02*
X30500000Y-38250000D01*
X31000000Y-37750000D02*
X30500000Y-38250000D01*
X28500000Y-38250000D02*
X28000000Y-37750000D01*
X30500000Y-38250000D02*
X30500000Y-36250000D01*
X17000000Y-63500000D02*
X17500000Y-64000000D01*
X30000000Y-37750000D02*
X30500000Y-38250000D01*
X52750000Y-500000D02*
X50250000Y-500000D01*
X50250000Y-500000D02*
X50250000Y-3500000D01*
X50250000Y-3500000D02*
X52750000Y-3500000D01*
X52750000Y-3500000D02*
X52750000Y-500000D01*
X46952380Y-47785904D02*
X46952380Y-46985904D01*
X46647619Y-46985904D01*
X46571428Y-47024000D01*
X46533333Y-47062095D01*
X46495238Y-47138285D01*
X46495238Y-47252571D01*
X46533333Y-47328761D01*
X46571428Y-47366857D01*
X46647619Y-47404952D01*
X46952380Y-47404952D01*
X46038095Y-47785904D02*
X46114285Y-47747809D01*
X46152380Y-47709714D01*
X46190476Y-47633523D01*
X46190476Y-47404952D01*
X46152380Y-47328761D01*
X46114285Y-47290666D01*
X46038095Y-47252571D01*
X45923809Y-47252571D01*
X45847619Y-47290666D01*
X45809523Y-47328761D01*
X45771428Y-47404952D01*
X45771428Y-47633523D01*
X45809523Y-47709714D01*
X45847619Y-47747809D01*
X45923809Y-47785904D01*
X46038095Y-47785904D01*
X45504761Y-47252571D02*
X45352380Y-47785904D01*
X45200000Y-47404952D01*
X45047619Y-47785904D01*
X44895238Y-47252571D01*
X44285714Y-47747809D02*
X44361904Y-47785904D01*
X44514285Y-47785904D01*
X44590476Y-47747809D01*
X44628571Y-47671619D01*
X44628571Y-47366857D01*
X44590476Y-47290666D01*
X44514285Y-47252571D01*
X44361904Y-47252571D01*
X44285714Y-47290666D01*
X44247619Y-47366857D01*
X44247619Y-47443047D01*
X44628571Y-47519238D01*
X43904761Y-47785904D02*
X43904761Y-47252571D01*
X43904761Y-47404952D02*
X43866666Y-47328761D01*
X43828571Y-47290666D01*
X43752380Y-47252571D01*
X43676190Y-47252571D01*
X42838095Y-47747809D02*
X42761904Y-47785904D01*
X42609523Y-47785904D01*
X42533333Y-47747809D01*
X42495238Y-47671619D01*
X42495238Y-47633523D01*
X42533333Y-47557333D01*
X42609523Y-47519238D01*
X42723809Y-47519238D01*
X42800000Y-47481142D01*
X42838095Y-47404952D01*
X42838095Y-47366857D01*
X42800000Y-47290666D01*
X42723809Y-47252571D01*
X42609523Y-47252571D01*
X42533333Y-47290666D01*
X41809523Y-47252571D02*
X41809523Y-47785904D01*
X42152380Y-47252571D02*
X42152380Y-47671619D01*
X42114285Y-47747809D01*
X42038095Y-47785904D01*
X41923809Y-47785904D01*
X41847619Y-47747809D01*
X41809523Y-47709714D01*
X41428571Y-47252571D02*
X41428571Y-48052571D01*
X41428571Y-47290666D02*
X41352380Y-47252571D01*
X41200000Y-47252571D01*
X41123809Y-47290666D01*
X41085714Y-47328761D01*
X41047619Y-47404952D01*
X41047619Y-47633523D01*
X41085714Y-47709714D01*
X41123809Y-47747809D01*
X41200000Y-47785904D01*
X41352380Y-47785904D01*
X41428571Y-47747809D01*
X40704761Y-47252571D02*
X40704761Y-48052571D01*
X40704761Y-47290666D02*
X40628571Y-47252571D01*
X40476190Y-47252571D01*
X40400000Y-47290666D01*
X40361904Y-47328761D01*
X40323809Y-47404952D01*
X40323809Y-47633523D01*
X40361904Y-47709714D01*
X40400000Y-47747809D01*
X40476190Y-47785904D01*
X40628571Y-47785904D01*
X40704761Y-47747809D01*
X39866666Y-47785904D02*
X39942857Y-47747809D01*
X39980952Y-47671619D01*
X39980952Y-46985904D01*
X39638095Y-47252571D02*
X39447619Y-47785904D01*
X39257142Y-47252571D02*
X39447619Y-47785904D01*
X39523809Y-47976380D01*
X39561904Y-48014476D01*
X39638095Y-48052571D01*
X38457142Y-47252571D02*
X38152380Y-47252571D01*
X38342857Y-47785904D02*
X38342857Y-47100190D01*
X38304761Y-47024000D01*
X38228571Y-46985904D01*
X38152380Y-46985904D01*
X37771428Y-47785904D02*
X37847619Y-47747809D01*
X37885714Y-47709714D01*
X37923809Y-47633523D01*
X37923809Y-47404952D01*
X37885714Y-47328761D01*
X37847619Y-47290666D01*
X37771428Y-47252571D01*
X37657142Y-47252571D01*
X37580952Y-47290666D01*
X37542857Y-47328761D01*
X37504761Y-47404952D01*
X37504761Y-47633523D01*
X37542857Y-47709714D01*
X37580952Y-47747809D01*
X37657142Y-47785904D01*
X37771428Y-47785904D01*
X37161904Y-47785904D02*
X37161904Y-47252571D01*
X37161904Y-47404952D02*
X37123809Y-47328761D01*
X37085714Y-47290666D01*
X37009523Y-47252571D01*
X36933333Y-47252571D01*
X47523809Y-49073904D02*
X47904761Y-49073904D01*
X47904761Y-48273904D01*
X47257142Y-48654857D02*
X46990476Y-48654857D01*
X46876190Y-49073904D02*
X47257142Y-49073904D01*
X47257142Y-48273904D01*
X46876190Y-48273904D01*
X46533333Y-49073904D02*
X46533333Y-48273904D01*
X46342857Y-48273904D01*
X46228571Y-48312000D01*
X46152380Y-48388190D01*
X46114285Y-48464380D01*
X46076190Y-48616761D01*
X46076190Y-48731047D01*
X46114285Y-48883428D01*
X46152380Y-48959619D01*
X46228571Y-49035809D01*
X46342857Y-49073904D01*
X46533333Y-49073904D01*
X45771428Y-49035809D02*
X45695238Y-49073904D01*
X45542857Y-49073904D01*
X45466666Y-49035809D01*
X45428571Y-48959619D01*
X45428571Y-48921523D01*
X45466666Y-48845333D01*
X45542857Y-48807238D01*
X45657142Y-48807238D01*
X45733333Y-48769142D01*
X45771428Y-48692952D01*
X45771428Y-48654857D01*
X45733333Y-48578666D01*
X45657142Y-48540571D01*
X45542857Y-48540571D01*
X45466666Y-48578666D01*
X45085714Y-48997714D02*
X45047619Y-49035809D01*
X45085714Y-49073904D01*
X45123809Y-49035809D01*
X45085714Y-48997714D01*
X45085714Y-49073904D01*
X44209523Y-48273904D02*
X43752380Y-48273904D01*
X43980952Y-49073904D02*
X43980952Y-48273904D01*
X43485714Y-49073904D02*
X43485714Y-48273904D01*
X43142857Y-49073904D02*
X43142857Y-48654857D01*
X43180952Y-48578666D01*
X43257142Y-48540571D01*
X43371428Y-48540571D01*
X43447619Y-48578666D01*
X43485714Y-48616761D01*
X42457142Y-49035809D02*
X42533333Y-49073904D01*
X42685714Y-49073904D01*
X42761904Y-49035809D01*
X42800000Y-48959619D01*
X42800000Y-48654857D01*
X42761904Y-48578666D01*
X42685714Y-48540571D01*
X42533333Y-48540571D01*
X42457142Y-48578666D01*
X42419047Y-48654857D01*
X42419047Y-48731047D01*
X42800000Y-48807238D01*
X41580952Y-48540571D02*
X41276190Y-48540571D01*
X41466666Y-48273904D02*
X41466666Y-48959619D01*
X41428571Y-49035809D01*
X41352380Y-49073904D01*
X41276190Y-49073904D01*
X41009523Y-49073904D02*
X41009523Y-48540571D01*
X41009523Y-48692952D02*
X40971428Y-48616761D01*
X40933333Y-48578666D01*
X40857142Y-48540571D01*
X40780952Y-48540571D01*
X40171428Y-49073904D02*
X40171428Y-48654857D01*
X40209523Y-48578666D01*
X40285714Y-48540571D01*
X40438095Y-48540571D01*
X40514285Y-48578666D01*
X40171428Y-49035809D02*
X40247619Y-49073904D01*
X40438095Y-49073904D01*
X40514285Y-49035809D01*
X40552380Y-48959619D01*
X40552380Y-48883428D01*
X40514285Y-48807238D01*
X40438095Y-48769142D01*
X40247619Y-48769142D01*
X40171428Y-48731047D01*
X39790476Y-48540571D02*
X39790476Y-49073904D01*
X39790476Y-48616761D02*
X39752380Y-48578666D01*
X39676190Y-48540571D01*
X39561904Y-48540571D01*
X39485714Y-48578666D01*
X39447619Y-48654857D01*
X39447619Y-49073904D01*
X39104761Y-49035809D02*
X39028571Y-49073904D01*
X38876190Y-49073904D01*
X38800000Y-49035809D01*
X38761904Y-48959619D01*
X38761904Y-48921523D01*
X38800000Y-48845333D01*
X38876190Y-48807238D01*
X38990476Y-48807238D01*
X39066666Y-48769142D01*
X39104761Y-48692952D01*
X39104761Y-48654857D01*
X39066666Y-48578666D01*
X38990476Y-48540571D01*
X38876190Y-48540571D01*
X38800000Y-48578666D01*
X38419047Y-49073904D02*
X38419047Y-48540571D01*
X38419047Y-48273904D02*
X38457142Y-48312000D01*
X38419047Y-48350095D01*
X38380952Y-48312000D01*
X38419047Y-48273904D01*
X38419047Y-48350095D01*
X38076190Y-49035809D02*
X38000000Y-49073904D01*
X37847619Y-49073904D01*
X37771428Y-49035809D01*
X37733333Y-48959619D01*
X37733333Y-48921523D01*
X37771428Y-48845333D01*
X37847619Y-48807238D01*
X37961904Y-48807238D01*
X38038095Y-48769142D01*
X38076190Y-48692952D01*
X38076190Y-48654857D01*
X38038095Y-48578666D01*
X37961904Y-48540571D01*
X37847619Y-48540571D01*
X37771428Y-48578666D01*
X37504761Y-48540571D02*
X37200000Y-48540571D01*
X37390476Y-48273904D02*
X37390476Y-48959619D01*
X37352380Y-49035809D01*
X37276190Y-49073904D01*
X37200000Y-49073904D01*
X36819047Y-49073904D02*
X36895238Y-49035809D01*
X36933333Y-48997714D01*
X36971428Y-48921523D01*
X36971428Y-48692952D01*
X36933333Y-48616761D01*
X36895238Y-48578666D01*
X36819047Y-48540571D01*
X36704761Y-48540571D01*
X36628571Y-48578666D01*
X36590476Y-48616761D01*
X36552380Y-48692952D01*
X36552380Y-48921523D01*
X36590476Y-48997714D01*
X36628571Y-49035809D01*
X36704761Y-49073904D01*
X36819047Y-49073904D01*
X36209523Y-49073904D02*
X36209523Y-48540571D01*
X36209523Y-48692952D02*
X36171428Y-48616761D01*
X36133333Y-48578666D01*
X36057142Y-48540571D01*
X35980952Y-48540571D01*
X47123809Y-50361904D02*
X47123809Y-49828571D01*
X47123809Y-49561904D02*
X47161904Y-49600000D01*
X47123809Y-49638095D01*
X47085714Y-49600000D01*
X47123809Y-49561904D01*
X47123809Y-49638095D01*
X46780952Y-50323809D02*
X46704761Y-50361904D01*
X46552380Y-50361904D01*
X46476190Y-50323809D01*
X46438095Y-50247619D01*
X46438095Y-50209523D01*
X46476190Y-50133333D01*
X46552380Y-50095238D01*
X46666666Y-50095238D01*
X46742857Y-50057142D01*
X46780952Y-49980952D01*
X46780952Y-49942857D01*
X46742857Y-49866666D01*
X46666666Y-49828571D01*
X46552380Y-49828571D01*
X46476190Y-49866666D01*
X45142857Y-50323809D02*
X45219047Y-50361904D01*
X45371428Y-50361904D01*
X45447619Y-50323809D01*
X45485714Y-50285714D01*
X45523809Y-50209523D01*
X45523809Y-49980952D01*
X45485714Y-49904761D01*
X45447619Y-49866666D01*
X45371428Y-49828571D01*
X45219047Y-49828571D01*
X45142857Y-49866666D01*
X44685714Y-50361904D02*
X44761904Y-50323809D01*
X44800000Y-50285714D01*
X44838095Y-50209523D01*
X44838095Y-49980952D01*
X44800000Y-49904761D01*
X44761904Y-49866666D01*
X44685714Y-49828571D01*
X44571428Y-49828571D01*
X44495238Y-49866666D01*
X44457142Y-49904761D01*
X44419047Y-49980952D01*
X44419047Y-50209523D01*
X44457142Y-50285714D01*
X44495238Y-50323809D01*
X44571428Y-50361904D01*
X44685714Y-50361904D01*
X44076190Y-49828571D02*
X44076190Y-50361904D01*
X44076190Y-49904761D02*
X44038095Y-49866666D01*
X43961904Y-49828571D01*
X43847619Y-49828571D01*
X43771428Y-49866666D01*
X43733333Y-49942857D01*
X43733333Y-50361904D01*
X43466666Y-49828571D02*
X43161904Y-49828571D01*
X43352380Y-49561904D02*
X43352380Y-50247619D01*
X43314285Y-50323809D01*
X43238095Y-50361904D01*
X43161904Y-50361904D01*
X42895238Y-50361904D02*
X42895238Y-49828571D01*
X42895238Y-49980952D02*
X42857142Y-49904761D01*
X42819047Y-49866666D01*
X42742857Y-49828571D01*
X42666666Y-49828571D01*
X42285714Y-50361904D02*
X42361904Y-50323809D01*
X42400000Y-50285714D01*
X42438095Y-50209523D01*
X42438095Y-49980952D01*
X42400000Y-49904761D01*
X42361904Y-49866666D01*
X42285714Y-49828571D01*
X42171428Y-49828571D01*
X42095238Y-49866666D01*
X42057142Y-49904761D01*
X42019047Y-49980952D01*
X42019047Y-50209523D01*
X42057142Y-50285714D01*
X42095238Y-50323809D01*
X42171428Y-50361904D01*
X42285714Y-50361904D01*
X41561904Y-50361904D02*
X41638095Y-50323809D01*
X41676190Y-50247619D01*
X41676190Y-49561904D01*
X41142857Y-50361904D02*
X41219047Y-50323809D01*
X41257142Y-50247619D01*
X41257142Y-49561904D01*
X40533333Y-50323809D02*
X40609523Y-50361904D01*
X40761904Y-50361904D01*
X40838095Y-50323809D01*
X40876190Y-50247619D01*
X40876190Y-49942857D01*
X40838095Y-49866666D01*
X40761904Y-49828571D01*
X40609523Y-49828571D01*
X40533333Y-49866666D01*
X40495238Y-49942857D01*
X40495238Y-50019047D01*
X40876190Y-50095238D01*
X39809523Y-50361904D02*
X39809523Y-49561904D01*
X39809523Y-50323809D02*
X39885714Y-50361904D01*
X40038095Y-50361904D01*
X40114285Y-50323809D01*
X40152380Y-50285714D01*
X40190476Y-50209523D01*
X40190476Y-49980952D01*
X40152380Y-49904761D01*
X40114285Y-49866666D01*
X40038095Y-49828571D01*
X39885714Y-49828571D01*
X39809523Y-49866666D01*
X38895238Y-49828571D02*
X38704761Y-50361904D01*
X38514285Y-49828571D01*
X38209523Y-50361904D02*
X38209523Y-49828571D01*
X38209523Y-49561904D02*
X38247619Y-49600000D01*
X38209523Y-49638095D01*
X38171428Y-49600000D01*
X38209523Y-49561904D01*
X38209523Y-49638095D01*
X37485714Y-50361904D02*
X37485714Y-49942857D01*
X37523809Y-49866666D01*
X37600000Y-49828571D01*
X37752380Y-49828571D01*
X37828571Y-49866666D01*
X37485714Y-50323809D02*
X37561904Y-50361904D01*
X37752380Y-50361904D01*
X37828571Y-50323809D01*
X37866666Y-50247619D01*
X37866666Y-50171428D01*
X37828571Y-50095238D01*
X37752380Y-50057142D01*
X37561904Y-50057142D01*
X37485714Y-50019047D01*
X47638095Y-51649904D02*
X47638095Y-50849904D01*
X47333333Y-50849904D01*
X47257142Y-50888000D01*
X47219047Y-50926095D01*
X47180952Y-51002285D01*
X47180952Y-51116571D01*
X47219047Y-51192761D01*
X47257142Y-51230857D01*
X47333333Y-51268952D01*
X47638095Y-51268952D01*
X46914285Y-50849904D02*
X46723809Y-51649904D01*
X46571428Y-51078476D01*
X46419047Y-51649904D01*
X46228571Y-50849904D01*
X45923809Y-51649904D02*
X45923809Y-50849904D01*
X45657142Y-51421333D01*
X45390476Y-50849904D01*
X45390476Y-51649904D01*
X44438095Y-51611809D02*
X44361904Y-51649904D01*
X44209523Y-51649904D01*
X44133333Y-51611809D01*
X44095238Y-51535619D01*
X44095238Y-51497523D01*
X44133333Y-51421333D01*
X44209523Y-51383238D01*
X44323809Y-51383238D01*
X44400000Y-51345142D01*
X44438095Y-51268952D01*
X44438095Y-51230857D01*
X44400000Y-51154666D01*
X44323809Y-51116571D01*
X44209523Y-51116571D01*
X44133333Y-51154666D01*
X43752380Y-51649904D02*
X43752380Y-51116571D01*
X43752380Y-50849904D02*
X43790476Y-50888000D01*
X43752380Y-50926095D01*
X43714285Y-50888000D01*
X43752380Y-50849904D01*
X43752380Y-50926095D01*
X43028571Y-51116571D02*
X43028571Y-51764190D01*
X43066666Y-51840380D01*
X43104761Y-51878476D01*
X43180952Y-51916571D01*
X43295238Y-51916571D01*
X43371428Y-51878476D01*
X43028571Y-51611809D02*
X43104761Y-51649904D01*
X43257142Y-51649904D01*
X43333333Y-51611809D01*
X43371428Y-51573714D01*
X43409523Y-51497523D01*
X43409523Y-51268952D01*
X43371428Y-51192761D01*
X43333333Y-51154666D01*
X43257142Y-51116571D01*
X43104761Y-51116571D01*
X43028571Y-51154666D01*
X42647619Y-51116571D02*
X42647619Y-51649904D01*
X42647619Y-51192761D02*
X42609523Y-51154666D01*
X42533333Y-51116571D01*
X42419047Y-51116571D01*
X42342857Y-51154666D01*
X42304761Y-51230857D01*
X42304761Y-51649904D01*
X41580952Y-51649904D02*
X41580952Y-51230857D01*
X41619047Y-51154666D01*
X41695238Y-51116571D01*
X41847619Y-51116571D01*
X41923809Y-51154666D01*
X41580952Y-51611809D02*
X41657142Y-51649904D01*
X41847619Y-51649904D01*
X41923809Y-51611809D01*
X41961904Y-51535619D01*
X41961904Y-51459428D01*
X41923809Y-51383238D01*
X41847619Y-51345142D01*
X41657142Y-51345142D01*
X41580952Y-51307047D01*
X41085714Y-51649904D02*
X41161904Y-51611809D01*
X41200000Y-51535619D01*
X41200000Y-50849904D01*
X40285714Y-51116571D02*
X39980952Y-51116571D01*
X40171428Y-50849904D02*
X40171428Y-51535619D01*
X40133333Y-51611809D01*
X40057142Y-51649904D01*
X39980952Y-51649904D01*
X39600000Y-51649904D02*
X39676190Y-51611809D01*
X39714285Y-51573714D01*
X39752380Y-51497523D01*
X39752380Y-51268952D01*
X39714285Y-51192761D01*
X39676190Y-51154666D01*
X39600000Y-51116571D01*
X39485714Y-51116571D01*
X39409523Y-51154666D01*
X39371428Y-51192761D01*
X39333333Y-51268952D01*
X39333333Y-51497523D01*
X39371428Y-51573714D01*
X39409523Y-51611809D01*
X39485714Y-51649904D01*
X39600000Y-51649904D01*
X38419047Y-51611809D02*
X38342857Y-51649904D01*
X38190476Y-51649904D01*
X38114285Y-51611809D01*
X38076190Y-51535619D01*
X38076190Y-51497523D01*
X38114285Y-51421333D01*
X38190476Y-51383238D01*
X38304761Y-51383238D01*
X38380952Y-51345142D01*
X38419047Y-51268952D01*
X38419047Y-51230857D01*
X38380952Y-51154666D01*
X38304761Y-51116571D01*
X38190476Y-51116571D01*
X38114285Y-51154666D01*
X37428571Y-51611809D02*
X37504761Y-51649904D01*
X37657142Y-51649904D01*
X37733333Y-51611809D01*
X37771428Y-51535619D01*
X37771428Y-51230857D01*
X37733333Y-51154666D01*
X37657142Y-51116571D01*
X37504761Y-51116571D01*
X37428571Y-51154666D01*
X37390476Y-51230857D01*
X37390476Y-51307047D01*
X37771428Y-51383238D01*
X37161904Y-51116571D02*
X36857142Y-51116571D01*
X37047619Y-50849904D02*
X37047619Y-51535619D01*
X37009523Y-51611809D01*
X36933333Y-51649904D01*
X36857142Y-51649904D01*
X47847619Y-52404571D02*
X47542857Y-52404571D01*
X47733333Y-52137904D02*
X47733333Y-52823619D01*
X47695238Y-52899809D01*
X47619047Y-52937904D01*
X47542857Y-52937904D01*
X47276190Y-52937904D02*
X47276190Y-52137904D01*
X46933333Y-52937904D02*
X46933333Y-52518857D01*
X46971428Y-52442666D01*
X47047619Y-52404571D01*
X47161904Y-52404571D01*
X47238095Y-52442666D01*
X47276190Y-52480761D01*
X46247619Y-52899809D02*
X46323809Y-52937904D01*
X46476190Y-52937904D01*
X46552380Y-52899809D01*
X46590476Y-52823619D01*
X46590476Y-52518857D01*
X46552380Y-52442666D01*
X46476190Y-52404571D01*
X46323809Y-52404571D01*
X46247619Y-52442666D01*
X46209523Y-52518857D01*
X46209523Y-52595047D01*
X46590476Y-52671238D01*
X44876190Y-52937904D02*
X45257142Y-52937904D01*
X45257142Y-52137904D01*
X44609523Y-52518857D02*
X44342857Y-52518857D01*
X44228571Y-52937904D02*
X44609523Y-52937904D01*
X44609523Y-52137904D01*
X44228571Y-52137904D01*
X43885714Y-52937904D02*
X43885714Y-52137904D01*
X43695238Y-52137904D01*
X43580952Y-52176000D01*
X43504761Y-52252190D01*
X43466666Y-52328380D01*
X43428571Y-52480761D01*
X43428571Y-52595047D01*
X43466666Y-52747428D01*
X43504761Y-52823619D01*
X43580952Y-52899809D01*
X43695238Y-52937904D01*
X43885714Y-52937904D01*
X42476190Y-52937904D02*
X42476190Y-52137904D01*
X42476190Y-52442666D02*
X42400000Y-52404571D01*
X42247619Y-52404571D01*
X42171428Y-52442666D01*
X42133333Y-52480761D01*
X42095238Y-52556952D01*
X42095238Y-52785523D01*
X42133333Y-52861714D01*
X42171428Y-52899809D01*
X42247619Y-52937904D01*
X42400000Y-52937904D01*
X42476190Y-52899809D01*
X41752380Y-52937904D02*
X41752380Y-52404571D01*
X41752380Y-52556952D02*
X41714285Y-52480761D01*
X41676190Y-52442666D01*
X41600000Y-52404571D01*
X41523809Y-52404571D01*
X41257142Y-52937904D02*
X41257142Y-52404571D01*
X41257142Y-52137904D02*
X41295238Y-52176000D01*
X41257142Y-52214095D01*
X41219047Y-52176000D01*
X41257142Y-52137904D01*
X41257142Y-52214095D01*
X40533333Y-52404571D02*
X40533333Y-53052190D01*
X40571428Y-53128380D01*
X40609523Y-53166476D01*
X40685714Y-53204571D01*
X40800000Y-53204571D01*
X40876190Y-53166476D01*
X40533333Y-52899809D02*
X40609523Y-52937904D01*
X40761904Y-52937904D01*
X40838095Y-52899809D01*
X40876190Y-52861714D01*
X40914285Y-52785523D01*
X40914285Y-52556952D01*
X40876190Y-52480761D01*
X40838095Y-52442666D01*
X40761904Y-52404571D01*
X40609523Y-52404571D01*
X40533333Y-52442666D01*
X40152380Y-52937904D02*
X40152380Y-52137904D01*
X39809523Y-52937904D02*
X39809523Y-52518857D01*
X39847619Y-52442666D01*
X39923809Y-52404571D01*
X40038095Y-52404571D01*
X40114285Y-52442666D01*
X40152380Y-52480761D01*
X39542857Y-52404571D02*
X39238095Y-52404571D01*
X39428571Y-52137904D02*
X39428571Y-52823619D01*
X39390476Y-52899809D01*
X39314285Y-52937904D01*
X39238095Y-52937904D01*
X38971428Y-52404571D02*
X38971428Y-52937904D01*
X38971428Y-52480761D02*
X38933333Y-52442666D01*
X38857142Y-52404571D01*
X38742857Y-52404571D01*
X38666666Y-52442666D01*
X38628571Y-52518857D01*
X38628571Y-52937904D01*
X37942857Y-52899809D02*
X38019047Y-52937904D01*
X38171428Y-52937904D01*
X38247619Y-52899809D01*
X38285714Y-52823619D01*
X38285714Y-52518857D01*
X38247619Y-52442666D01*
X38171428Y-52404571D01*
X38019047Y-52404571D01*
X37942857Y-52442666D01*
X37904761Y-52518857D01*
X37904761Y-52595047D01*
X38285714Y-52671238D01*
X37600000Y-52899809D02*
X37523809Y-52937904D01*
X37371428Y-52937904D01*
X37295238Y-52899809D01*
X37257142Y-52823619D01*
X37257142Y-52785523D01*
X37295238Y-52709333D01*
X37371428Y-52671238D01*
X37485714Y-52671238D01*
X37561904Y-52633142D01*
X37600000Y-52556952D01*
X37600000Y-52518857D01*
X37561904Y-52442666D01*
X37485714Y-52404571D01*
X37371428Y-52404571D01*
X37295238Y-52442666D01*
X36952380Y-52899809D02*
X36876190Y-52937904D01*
X36723809Y-52937904D01*
X36647619Y-52899809D01*
X36609523Y-52823619D01*
X36609523Y-52785523D01*
X36647619Y-52709333D01*
X36723809Y-52671238D01*
X36838095Y-52671238D01*
X36914285Y-52633142D01*
X36952380Y-52556952D01*
X36952380Y-52518857D01*
X36914285Y-52442666D01*
X36838095Y-52404571D01*
X36723809Y-52404571D01*
X36647619Y-52442666D01*
X36266666Y-52861714D02*
X36228571Y-52899809D01*
X36266666Y-52937904D01*
X36304761Y-52899809D01*
X36266666Y-52861714D01*
X36266666Y-52937904D01*
X22190476Y-63904761D02*
X22047619Y-63952380D01*
X21809523Y-63952380D01*
X21714285Y-63904761D01*
X21666666Y-63857142D01*
X21619047Y-63761904D01*
X21619047Y-63666666D01*
X21666666Y-63571428D01*
X21714285Y-63523809D01*
X21809523Y-63476190D01*
X22000000Y-63428571D01*
X22095238Y-63380952D01*
X22142857Y-63333333D01*
X22190476Y-63238095D01*
X22190476Y-63142857D01*
X22142857Y-63047619D01*
X22095238Y-63000000D01*
X22000000Y-62952380D01*
X21761904Y-62952380D01*
X21619047Y-63000000D01*
X20619047Y-63857142D02*
X20666666Y-63904761D01*
X20809523Y-63952380D01*
X20904761Y-63952380D01*
X21047619Y-63904761D01*
X21142857Y-63809523D01*
X21190476Y-63714285D01*
X21238095Y-63523809D01*
X21238095Y-63380952D01*
X21190476Y-63190476D01*
X21142857Y-63095238D01*
X21047619Y-63000000D01*
X20904761Y-62952380D01*
X20809523Y-62952380D01*
X20666666Y-63000000D01*
X20619047Y-63047619D01*
X19714285Y-63952380D02*
X20190476Y-63952380D01*
X20190476Y-62952380D01*
D11*
X30214285Y-61678571D02*
X30214285Y-60178571D01*
X28642857Y-61535714D02*
X28714285Y-61607142D01*
X28928571Y-61678571D01*
X29071428Y-61678571D01*
X29285714Y-61607142D01*
X29428571Y-61464285D01*
X29500000Y-61321428D01*
X29571428Y-61035714D01*
X29571428Y-60821428D01*
X29500000Y-60535714D01*
X29428571Y-60392857D01*
X29285714Y-60250000D01*
X29071428Y-60178571D01*
X28928571Y-60178571D01*
X28714285Y-60250000D01*
X28642857Y-60321428D01*
X28071428Y-61607142D02*
X27857142Y-61678571D01*
X27500000Y-61678571D01*
X27357142Y-61607142D01*
X27285714Y-61535714D01*
X27214285Y-61392857D01*
X27214285Y-61250000D01*
X27285714Y-61107142D01*
X27357142Y-61035714D01*
X27500000Y-60964285D01*
X27785714Y-60892857D01*
X27928571Y-60821428D01*
X28000000Y-60750000D01*
X28071428Y-60607142D01*
X28071428Y-60464285D01*
X28000000Y-60321428D01*
X27928571Y-60250000D01*
X27785714Y-60178571D01*
X27428571Y-60178571D01*
X27214285Y-60250000D01*
X26571428Y-61678571D02*
X26571428Y-60178571D01*
X26000000Y-60178571D01*
X25857142Y-60250000D01*
X25785714Y-60321428D01*
X25714285Y-60464285D01*
X25714285Y-60678571D01*
X25785714Y-60821428D01*
X25857142Y-60892857D01*
X26000000Y-60964285D01*
X26571428Y-60964285D01*
D10*
X22214285Y-61404761D02*
X22071428Y-61452380D01*
X21833333Y-61452380D01*
X21738095Y-61404761D01*
X21690476Y-61357142D01*
X21642857Y-61261904D01*
X21642857Y-61166666D01*
X21690476Y-61071428D01*
X21738095Y-61023809D01*
X21833333Y-60976190D01*
X22023809Y-60928571D01*
X22119047Y-60880952D01*
X22166666Y-60833333D01*
X22214285Y-60738095D01*
X22214285Y-60642857D01*
X22166666Y-60547619D01*
X22119047Y-60500000D01*
X22023809Y-60452380D01*
X21785714Y-60452380D01*
X21642857Y-60500000D01*
X21214285Y-61452380D02*
X21214285Y-60452380D01*
X20976190Y-60452380D01*
X20833333Y-60500000D01*
X20738095Y-60595238D01*
X20690476Y-60690476D01*
X20642857Y-60880952D01*
X20642857Y-61023809D01*
X20690476Y-61214285D01*
X20738095Y-61309523D01*
X20833333Y-61404761D01*
X20976190Y-61452380D01*
X21214285Y-61452380D01*
X20261904Y-61166666D02*
X19785714Y-61166666D01*
X20357142Y-61452380D02*
X20023809Y-60452380D01*
X19690476Y-61452380D01*
D11*
X51928571Y-1321428D02*
X51857142Y-1250000D01*
X51714285Y-1178571D01*
X51357142Y-1178571D01*
X51214285Y-1250000D01*
X51142857Y-1321428D01*
X51071428Y-1464285D01*
X51071428Y-1607142D01*
X51142857Y-1821428D01*
X52000000Y-2678571D01*
X51071428Y-2678571D01*
D10*
X28547619Y-34452380D02*
X28452380Y-34452380D01*
X28357142Y-34500000D01*
X28309523Y-34547619D01*
X28261904Y-34642857D01*
X28214285Y-34833333D01*
X28214285Y-35071428D01*
X28261904Y-35261904D01*
X28309523Y-35357142D01*
X28357142Y-35404761D01*
X28452380Y-35452380D01*
X28547619Y-35452380D01*
X28642857Y-35404761D01*
X28690476Y-35357142D01*
X28738095Y-35261904D01*
X28785714Y-35071428D01*
X28785714Y-34833333D01*
X28738095Y-34642857D01*
X28690476Y-34547619D01*
X28642857Y-34500000D01*
X28547619Y-34452380D01*
X31328571Y-25141904D02*
X31328571Y-24341904D01*
X31061904Y-24913333D01*
X30795238Y-24341904D01*
X30795238Y-25141904D01*
X30300000Y-25141904D02*
X30376190Y-25103809D01*
X30414285Y-25065714D01*
X30452380Y-24989523D01*
X30452380Y-24760952D01*
X30414285Y-24684761D01*
X30376190Y-24646666D01*
X30300000Y-24608571D01*
X30185714Y-24608571D01*
X30109523Y-24646666D01*
X30071428Y-24684761D01*
X30033333Y-24760952D01*
X30033333Y-24989523D01*
X30071428Y-25065714D01*
X30109523Y-25103809D01*
X30185714Y-25141904D01*
X30300000Y-25141904D01*
X29347619Y-24608571D02*
X29347619Y-25141904D01*
X29690476Y-24608571D02*
X29690476Y-25027619D01*
X29652380Y-25103809D01*
X29576190Y-25141904D01*
X29461904Y-25141904D01*
X29385714Y-25103809D01*
X29347619Y-25065714D01*
X28966666Y-24608571D02*
X28966666Y-25141904D01*
X28966666Y-24684761D02*
X28928571Y-24646666D01*
X28852380Y-24608571D01*
X28738095Y-24608571D01*
X28661904Y-24646666D01*
X28623809Y-24722857D01*
X28623809Y-25141904D01*
X28357142Y-24608571D02*
X28052380Y-24608571D01*
X28242857Y-24341904D02*
X28242857Y-25027619D01*
X28204761Y-25103809D01*
X28128571Y-25141904D01*
X28052380Y-25141904D01*
X27023809Y-24341904D02*
X26947619Y-24341904D01*
X26871428Y-24380000D01*
X26833333Y-24418095D01*
X26795238Y-24494285D01*
X26757142Y-24646666D01*
X26757142Y-24837142D01*
X26795238Y-24989523D01*
X26833333Y-25065714D01*
X26871428Y-25103809D01*
X26947619Y-25141904D01*
X27023809Y-25141904D01*
X27100000Y-25103809D01*
X27138095Y-25065714D01*
X27176190Y-24989523D01*
X27214285Y-24837142D01*
X27214285Y-24646666D01*
X27176190Y-24494285D01*
X27138095Y-24418095D01*
X27100000Y-24380000D01*
X27023809Y-24341904D01*
X25690476Y-25141904D02*
X25766666Y-25103809D01*
X25804761Y-25065714D01*
X25842857Y-24989523D01*
X25842857Y-24760952D01*
X25804761Y-24684761D01*
X25766666Y-24646666D01*
X25690476Y-24608571D01*
X25576190Y-24608571D01*
X25500000Y-24646666D01*
X25461904Y-24684761D01*
X25423809Y-24760952D01*
X25423809Y-24989523D01*
X25461904Y-25065714D01*
X25500000Y-25103809D01*
X25576190Y-25141904D01*
X25690476Y-25141904D01*
X25080952Y-25141904D02*
X25080952Y-24341904D01*
X24738095Y-25141904D02*
X24738095Y-24722857D01*
X24776190Y-24646666D01*
X24852380Y-24608571D01*
X24966666Y-24608571D01*
X25042857Y-24646666D01*
X25080952Y-24684761D01*
X24357142Y-25141904D02*
X24357142Y-24608571D01*
X24357142Y-24684761D02*
X24319047Y-24646666D01*
X24242857Y-24608571D01*
X24128571Y-24608571D01*
X24052380Y-24646666D01*
X24014285Y-24722857D01*
X24014285Y-25141904D01*
X24014285Y-24722857D02*
X23976190Y-24646666D01*
X23900000Y-24608571D01*
X23785714Y-24608571D01*
X23709523Y-24646666D01*
X23671428Y-24722857D01*
X23671428Y-25141904D01*
X30471428Y-26429904D02*
X30471428Y-25896571D01*
X30471428Y-26048952D02*
X30433333Y-25972761D01*
X30395238Y-25934666D01*
X30319047Y-25896571D01*
X30242857Y-25896571D01*
X29671428Y-26391809D02*
X29747619Y-26429904D01*
X29900000Y-26429904D01*
X29976190Y-26391809D01*
X30014285Y-26315619D01*
X30014285Y-26010857D01*
X29976190Y-25934666D01*
X29900000Y-25896571D01*
X29747619Y-25896571D01*
X29671428Y-25934666D01*
X29633333Y-26010857D01*
X29633333Y-26087047D01*
X30014285Y-26163238D01*
X29328571Y-26391809D02*
X29252380Y-26429904D01*
X29100000Y-26429904D01*
X29023809Y-26391809D01*
X28985714Y-26315619D01*
X28985714Y-26277523D01*
X29023809Y-26201333D01*
X29100000Y-26163238D01*
X29214285Y-26163238D01*
X29290476Y-26125142D01*
X29328571Y-26048952D01*
X29328571Y-26010857D01*
X29290476Y-25934666D01*
X29214285Y-25896571D01*
X29100000Y-25896571D01*
X29023809Y-25934666D01*
X28642857Y-26429904D02*
X28642857Y-25896571D01*
X28642857Y-25629904D02*
X28680952Y-25668000D01*
X28642857Y-25706095D01*
X28604761Y-25668000D01*
X28642857Y-25629904D01*
X28642857Y-25706095D01*
X28300000Y-26391809D02*
X28223809Y-26429904D01*
X28071428Y-26429904D01*
X27995238Y-26391809D01*
X27957142Y-26315619D01*
X27957142Y-26277523D01*
X27995238Y-26201333D01*
X28071428Y-26163238D01*
X28185714Y-26163238D01*
X28261904Y-26125142D01*
X28300000Y-26048952D01*
X28300000Y-26010857D01*
X28261904Y-25934666D01*
X28185714Y-25896571D01*
X28071428Y-25896571D01*
X27995238Y-25934666D01*
X27728571Y-25896571D02*
X27423809Y-25896571D01*
X27614285Y-25629904D02*
X27614285Y-26315619D01*
X27576190Y-26391809D01*
X27500000Y-26429904D01*
X27423809Y-26429904D01*
X27042857Y-26429904D02*
X27119047Y-26391809D01*
X27157142Y-26353714D01*
X27195238Y-26277523D01*
X27195238Y-26048952D01*
X27157142Y-25972761D01*
X27119047Y-25934666D01*
X27042857Y-25896571D01*
X26928571Y-25896571D01*
X26852380Y-25934666D01*
X26814285Y-25972761D01*
X26776190Y-26048952D01*
X26776190Y-26277523D01*
X26814285Y-26353714D01*
X26852380Y-26391809D01*
X26928571Y-26429904D01*
X27042857Y-26429904D01*
X26433333Y-26429904D02*
X26433333Y-25896571D01*
X26433333Y-26048952D02*
X26395238Y-25972761D01*
X26357142Y-25934666D01*
X26280952Y-25896571D01*
X26204761Y-25896571D01*
X25442857Y-25896571D02*
X25138095Y-25896571D01*
X25328571Y-25629904D02*
X25328571Y-26315619D01*
X25290476Y-26391809D01*
X25214285Y-26429904D01*
X25138095Y-26429904D01*
X24757142Y-26429904D02*
X24833333Y-26391809D01*
X24871428Y-26353714D01*
X24909523Y-26277523D01*
X24909523Y-26048952D01*
X24871428Y-25972761D01*
X24833333Y-25934666D01*
X24757142Y-25896571D01*
X24642857Y-25896571D01*
X24566666Y-25934666D01*
X24528571Y-25972761D01*
X24490476Y-26048952D01*
X24490476Y-26277523D01*
X24528571Y-26353714D01*
X24566666Y-26391809D01*
X24642857Y-26429904D01*
X24757142Y-26429904D01*
X31404761Y-27679809D02*
X31328571Y-27717904D01*
X31176190Y-27717904D01*
X31100000Y-27679809D01*
X31061904Y-27603619D01*
X31061904Y-27565523D01*
X31100000Y-27489333D01*
X31176190Y-27451238D01*
X31290476Y-27451238D01*
X31366666Y-27413142D01*
X31404761Y-27336952D01*
X31404761Y-27298857D01*
X31366666Y-27222666D01*
X31290476Y-27184571D01*
X31176190Y-27184571D01*
X31100000Y-27222666D01*
X30414285Y-27679809D02*
X30490476Y-27717904D01*
X30642857Y-27717904D01*
X30719047Y-27679809D01*
X30757142Y-27603619D01*
X30757142Y-27298857D01*
X30719047Y-27222666D01*
X30642857Y-27184571D01*
X30490476Y-27184571D01*
X30414285Y-27222666D01*
X30376190Y-27298857D01*
X30376190Y-27375047D01*
X30757142Y-27451238D01*
X30147619Y-27184571D02*
X29842857Y-27184571D01*
X30033333Y-26917904D02*
X30033333Y-27603619D01*
X29995238Y-27679809D01*
X29919047Y-27717904D01*
X29842857Y-27717904D01*
X29004761Y-27489333D02*
X28623809Y-27489333D01*
X29080952Y-27717904D02*
X28814285Y-26917904D01*
X28547619Y-27717904D01*
X28128571Y-26917904D02*
X28052380Y-26917904D01*
X27976190Y-26956000D01*
X27938095Y-26994095D01*
X27900000Y-27070285D01*
X27861904Y-27222666D01*
X27861904Y-27413142D01*
X27900000Y-27565523D01*
X27938095Y-27641714D01*
X27976190Y-27679809D01*
X28052380Y-27717904D01*
X28128571Y-27717904D01*
X28204761Y-27679809D01*
X28242857Y-27641714D01*
X28280952Y-27565523D01*
X28319047Y-27413142D01*
X28319047Y-27222666D01*
X28280952Y-27070285D01*
X28242857Y-26994095D01*
X28204761Y-26956000D01*
X28128571Y-26917904D01*
X26795238Y-27717904D02*
X26871428Y-27679809D01*
X26909523Y-27641714D01*
X26947619Y-27565523D01*
X26947619Y-27336952D01*
X26909523Y-27260761D01*
X26871428Y-27222666D01*
X26795238Y-27184571D01*
X26680952Y-27184571D01*
X26604761Y-27222666D01*
X26566666Y-27260761D01*
X26528571Y-27336952D01*
X26528571Y-27565523D01*
X26566666Y-27641714D01*
X26604761Y-27679809D01*
X26680952Y-27717904D01*
X26795238Y-27717904D01*
X26300000Y-27184571D02*
X25995238Y-27184571D01*
X26185714Y-27717904D02*
X26185714Y-27032190D01*
X26147619Y-26956000D01*
X26071428Y-26917904D01*
X25995238Y-26917904D01*
X25233333Y-27184571D02*
X24928571Y-27184571D01*
X25119047Y-26917904D02*
X25119047Y-27603619D01*
X25080952Y-27679809D01*
X25004761Y-27717904D01*
X24928571Y-27717904D01*
X24661904Y-27717904D02*
X24661904Y-26917904D01*
X24319047Y-27717904D02*
X24319047Y-27298857D01*
X24357142Y-27222666D01*
X24433333Y-27184571D01*
X24547619Y-27184571D01*
X24623809Y-27222666D01*
X24661904Y-27260761D01*
X23633333Y-27679809D02*
X23709523Y-27717904D01*
X23861904Y-27717904D01*
X23938095Y-27679809D01*
X23976190Y-27603619D01*
X23976190Y-27298857D01*
X23938095Y-27222666D01*
X23861904Y-27184571D01*
X23709523Y-27184571D01*
X23633333Y-27222666D01*
X23595238Y-27298857D01*
X23595238Y-27375047D01*
X23976190Y-27451238D01*
X31747619Y-29005904D02*
X31747619Y-28472571D01*
X31747619Y-28205904D02*
X31785714Y-28244000D01*
X31747619Y-28282095D01*
X31709523Y-28244000D01*
X31747619Y-28205904D01*
X31747619Y-28282095D01*
X31404761Y-28282095D02*
X31366666Y-28244000D01*
X31290476Y-28205904D01*
X31099999Y-28205904D01*
X31023809Y-28244000D01*
X30985714Y-28282095D01*
X30947619Y-28358285D01*
X30947619Y-28434476D01*
X30985714Y-28548761D01*
X31442857Y-29005904D01*
X30947619Y-29005904D01*
X30261904Y-28967809D02*
X30338095Y-29005904D01*
X30490476Y-29005904D01*
X30566666Y-28967809D01*
X30604761Y-28929714D01*
X30642857Y-28853523D01*
X30642857Y-28624952D01*
X30604761Y-28548761D01*
X30566666Y-28510666D01*
X30490476Y-28472571D01*
X30338095Y-28472571D01*
X30261904Y-28510666D01*
X28966666Y-29005904D02*
X28966666Y-28586857D01*
X29004761Y-28510666D01*
X29080952Y-28472571D01*
X29233333Y-28472571D01*
X29309523Y-28510666D01*
X28966666Y-28967809D02*
X29042857Y-29005904D01*
X29233333Y-29005904D01*
X29309523Y-28967809D01*
X29347619Y-28891619D01*
X29347619Y-28815428D01*
X29309523Y-28739238D01*
X29233333Y-28701142D01*
X29042857Y-28701142D01*
X28966666Y-28663047D01*
X28242857Y-29005904D02*
X28242857Y-28205904D01*
X28242857Y-28967809D02*
X28319047Y-29005904D01*
X28471428Y-29005904D01*
X28547619Y-28967809D01*
X28585714Y-28929714D01*
X28623809Y-28853523D01*
X28623809Y-28624952D01*
X28585714Y-28548761D01*
X28547619Y-28510666D01*
X28471428Y-28472571D01*
X28319047Y-28472571D01*
X28242857Y-28510666D01*
X27519047Y-29005904D02*
X27519047Y-28205904D01*
X27519047Y-28967809D02*
X27595238Y-29005904D01*
X27747619Y-29005904D01*
X27823809Y-28967809D01*
X27861904Y-28929714D01*
X27900000Y-28853523D01*
X27900000Y-28624952D01*
X27861904Y-28548761D01*
X27823809Y-28510666D01*
X27747619Y-28472571D01*
X27595238Y-28472571D01*
X27519047Y-28510666D01*
X27138095Y-29005904D02*
X27138095Y-28472571D01*
X27138095Y-28624952D02*
X27100000Y-28548761D01*
X27061904Y-28510666D01*
X26985714Y-28472571D01*
X26909523Y-28472571D01*
X26338095Y-28967809D02*
X26414285Y-29005904D01*
X26566666Y-29005904D01*
X26642857Y-28967809D01*
X26680952Y-28891619D01*
X26680952Y-28586857D01*
X26642857Y-28510666D01*
X26566666Y-28472571D01*
X26414285Y-28472571D01*
X26338095Y-28510666D01*
X26300000Y-28586857D01*
X26300000Y-28663047D01*
X26680952Y-28739238D01*
X25995238Y-28967809D02*
X25919047Y-29005904D01*
X25766666Y-29005904D01*
X25690476Y-28967809D01*
X25652380Y-28891619D01*
X25652380Y-28853523D01*
X25690476Y-28777333D01*
X25766666Y-28739238D01*
X25880952Y-28739238D01*
X25957142Y-28701142D01*
X25995238Y-28624952D01*
X25995238Y-28586857D01*
X25957142Y-28510666D01*
X25880952Y-28472571D01*
X25766666Y-28472571D01*
X25690476Y-28510666D01*
X25347619Y-28967809D02*
X25271428Y-29005904D01*
X25119047Y-29005904D01*
X25042857Y-28967809D01*
X25004761Y-28891619D01*
X25004761Y-28853523D01*
X25042857Y-28777333D01*
X25119047Y-28739238D01*
X25233333Y-28739238D01*
X25309523Y-28701142D01*
X25347619Y-28624952D01*
X25347619Y-28586857D01*
X25309523Y-28510666D01*
X25233333Y-28472571D01*
X25119047Y-28472571D01*
X25042857Y-28510666D01*
X23938095Y-29005904D02*
X24014285Y-28967809D01*
X24052380Y-28929714D01*
X24090476Y-28853523D01*
X24090476Y-28624952D01*
X24052380Y-28548761D01*
X24014285Y-28510666D01*
X23938095Y-28472571D01*
X23823809Y-28472571D01*
X23747619Y-28510666D01*
X23709523Y-28548761D01*
X23671428Y-28624952D01*
X23671428Y-28853523D01*
X23709523Y-28929714D01*
X23747619Y-28967809D01*
X23823809Y-29005904D01*
X23938095Y-29005904D01*
X23442857Y-28472571D02*
X23138095Y-28472571D01*
X23328571Y-29005904D02*
X23328571Y-28320190D01*
X23290476Y-28244000D01*
X23214285Y-28205904D01*
X23138095Y-28205904D01*
X31652380Y-30293904D02*
X32033333Y-30293904D01*
X32033333Y-29493904D01*
X31385714Y-30293904D02*
X31385714Y-29493904D01*
X31042857Y-30255809D02*
X30928571Y-30293904D01*
X30738095Y-30293904D01*
X30661904Y-30255809D01*
X30623809Y-30217714D01*
X30585714Y-30141523D01*
X30585714Y-30065333D01*
X30623809Y-29989142D01*
X30661904Y-29951047D01*
X30738095Y-29912952D01*
X30890476Y-29874857D01*
X30966666Y-29836761D01*
X31004761Y-29798666D01*
X31042857Y-29722476D01*
X31042857Y-29646285D01*
X31004761Y-29570095D01*
X30966666Y-29532000D01*
X30890476Y-29493904D01*
X30700000Y-29493904D01*
X30585714Y-29532000D01*
X30319047Y-29493904D02*
X29823809Y-29493904D01*
X30090476Y-29798666D01*
X29976190Y-29798666D01*
X29900000Y-29836761D01*
X29861904Y-29874857D01*
X29823809Y-29951047D01*
X29823809Y-30141523D01*
X29861904Y-30217714D01*
X29900000Y-30255809D01*
X29976190Y-30293904D01*
X30204761Y-30293904D01*
X30280952Y-30255809D01*
X30319047Y-30217714D01*
X29480952Y-30293904D02*
X29480952Y-29493904D01*
X29214285Y-30065333D01*
X28947619Y-29493904D01*
X28947619Y-30293904D01*
X28566666Y-30293904D02*
X28566666Y-29493904D01*
X28376190Y-29493904D01*
X28261904Y-29532000D01*
X28185714Y-29608190D01*
X28147619Y-29684380D01*
X28109523Y-29836761D01*
X28109523Y-29951047D01*
X28147619Y-30103428D01*
X28185714Y-30179619D01*
X28261904Y-30255809D01*
X28376190Y-30293904D01*
X28566666Y-30293904D01*
X27385714Y-30293904D02*
X27766666Y-30293904D01*
X27766666Y-29493904D01*
X26547619Y-30255809D02*
X26471428Y-30293904D01*
X26319047Y-30293904D01*
X26242857Y-30255809D01*
X26204761Y-30179619D01*
X26204761Y-30141523D01*
X26242857Y-30065333D01*
X26319047Y-30027238D01*
X26433333Y-30027238D01*
X26509523Y-29989142D01*
X26547619Y-29912952D01*
X26547619Y-29874857D01*
X26509523Y-29798666D01*
X26433333Y-29760571D01*
X26319047Y-29760571D01*
X26242857Y-29798666D01*
X25557142Y-30255809D02*
X25633333Y-30293904D01*
X25785714Y-30293904D01*
X25861904Y-30255809D01*
X25900000Y-30179619D01*
X25900000Y-29874857D01*
X25861904Y-29798666D01*
X25785714Y-29760571D01*
X25633333Y-29760571D01*
X25557142Y-29798666D01*
X25519047Y-29874857D01*
X25519047Y-29951047D01*
X25900000Y-30027238D01*
X25176190Y-29760571D02*
X25176190Y-30293904D01*
X25176190Y-29836761D02*
X25138095Y-29798666D01*
X25061904Y-29760571D01*
X24947619Y-29760571D01*
X24871428Y-29798666D01*
X24833333Y-29874857D01*
X24833333Y-30293904D01*
X24490476Y-30255809D02*
X24414285Y-30293904D01*
X24261904Y-30293904D01*
X24185714Y-30255809D01*
X24147619Y-30179619D01*
X24147619Y-30141523D01*
X24185714Y-30065333D01*
X24261904Y-30027238D01*
X24376190Y-30027238D01*
X24452380Y-29989142D01*
X24490476Y-29912952D01*
X24490476Y-29874857D01*
X24452380Y-29798666D01*
X24376190Y-29760571D01*
X24261904Y-29760571D01*
X24185714Y-29798666D01*
X23690476Y-30293904D02*
X23766666Y-30255809D01*
X23804761Y-30217714D01*
X23842857Y-30141523D01*
X23842857Y-29912952D01*
X23804761Y-29836761D01*
X23766666Y-29798666D01*
X23690476Y-29760571D01*
X23576190Y-29760571D01*
X23500000Y-29798666D01*
X23461904Y-29836761D01*
X23423809Y-29912952D01*
X23423809Y-30141523D01*
X23461904Y-30217714D01*
X23500000Y-30255809D01*
X23576190Y-30293904D01*
X23690476Y-30293904D01*
X23080952Y-30293904D02*
X23080952Y-29760571D01*
X23080952Y-29912952D02*
X23042857Y-29836761D01*
X23004761Y-29798666D01*
X22928571Y-29760571D01*
X22852380Y-29760571D01*
X30338095Y-31581904D02*
X30338095Y-31048571D01*
X30338095Y-30781904D02*
X30376190Y-30820000D01*
X30338095Y-30858095D01*
X30300000Y-30820000D01*
X30338095Y-30781904D01*
X30338095Y-30858095D01*
X30071428Y-31048571D02*
X29766666Y-31048571D01*
X29957142Y-31581904D02*
X29957142Y-30896190D01*
X29919047Y-30820000D01*
X29842857Y-30781904D01*
X29766666Y-30781904D01*
X28890476Y-31048571D02*
X28890476Y-31581904D01*
X28890476Y-31124761D02*
X28852380Y-31086666D01*
X28776190Y-31048571D01*
X28661904Y-31048571D01*
X28585714Y-31086666D01*
X28547619Y-31162857D01*
X28547619Y-31581904D01*
X27861904Y-31543809D02*
X27938095Y-31581904D01*
X28090476Y-31581904D01*
X28166666Y-31543809D01*
X28204761Y-31467619D01*
X28204761Y-31162857D01*
X28166666Y-31086666D01*
X28090476Y-31048571D01*
X27938095Y-31048571D01*
X27861904Y-31086666D01*
X27823809Y-31162857D01*
X27823809Y-31239047D01*
X28204761Y-31315238D01*
X27176190Y-31543809D02*
X27252380Y-31581904D01*
X27404761Y-31581904D01*
X27480952Y-31543809D01*
X27519047Y-31467619D01*
X27519047Y-31162857D01*
X27480952Y-31086666D01*
X27404761Y-31048571D01*
X27252380Y-31048571D01*
X27176190Y-31086666D01*
X27138095Y-31162857D01*
X27138095Y-31239047D01*
X27519047Y-31315238D01*
X26452380Y-31581904D02*
X26452380Y-30781904D01*
X26452380Y-31543809D02*
X26528571Y-31581904D01*
X26680952Y-31581904D01*
X26757142Y-31543809D01*
X26795238Y-31505714D01*
X26833333Y-31429523D01*
X26833333Y-31200952D01*
X26795238Y-31124761D01*
X26757142Y-31086666D01*
X26680952Y-31048571D01*
X26528571Y-31048571D01*
X26452380Y-31086666D01*
X25766666Y-31543809D02*
X25842857Y-31581904D01*
X25995238Y-31581904D01*
X26071428Y-31543809D01*
X26109523Y-31467619D01*
X26109523Y-31162857D01*
X26071428Y-31086666D01*
X25995238Y-31048571D01*
X25842857Y-31048571D01*
X25766666Y-31086666D01*
X25728571Y-31162857D01*
X25728571Y-31239047D01*
X26109523Y-31315238D01*
X25042857Y-31581904D02*
X25042857Y-30781904D01*
X25042857Y-31543809D02*
X25119047Y-31581904D01*
X25271428Y-31581904D01*
X25347619Y-31543809D01*
X25385714Y-31505714D01*
X25423809Y-31429523D01*
X25423809Y-31200952D01*
X25385714Y-31124761D01*
X25347619Y-31086666D01*
X25271428Y-31048571D01*
X25119047Y-31048571D01*
X25042857Y-31086666D01*
X24661904Y-31505714D02*
X24623809Y-31543809D01*
X24661904Y-31581904D01*
X24699999Y-31543809D01*
X24661904Y-31505714D01*
X24661904Y-31581904D01*
X21319047Y-51341904D02*
X21166666Y-51341904D01*
X21090476Y-51380000D01*
X21014285Y-51456190D01*
X20976190Y-51608571D01*
X20976190Y-51875238D01*
X21014285Y-52027619D01*
X21090476Y-52103809D01*
X21166666Y-52141904D01*
X21319047Y-52141904D01*
X21395238Y-52103809D01*
X21471428Y-52027619D01*
X21509523Y-51875238D01*
X21509523Y-51608571D01*
X21471428Y-51456190D01*
X21395238Y-51380000D01*
X21319047Y-51341904D01*
X20633333Y-51608571D02*
X20633333Y-52408571D01*
X20633333Y-51646666D02*
X20557142Y-51608571D01*
X20404761Y-51608571D01*
X20328571Y-51646666D01*
X20290476Y-51684761D01*
X20252380Y-51760952D01*
X20252380Y-51989523D01*
X20290476Y-52065714D01*
X20328571Y-52103809D01*
X20404761Y-52141904D01*
X20557142Y-52141904D01*
X20633333Y-52103809D01*
X20023809Y-51608571D02*
X19719047Y-51608571D01*
X19909523Y-51341904D02*
X19909523Y-52027619D01*
X19871428Y-52103809D01*
X19795238Y-52141904D01*
X19719047Y-52141904D01*
X19452380Y-52141904D02*
X19452380Y-51608571D01*
X19452380Y-51341904D02*
X19490476Y-51380000D01*
X19452380Y-51418095D01*
X19414285Y-51380000D01*
X19452380Y-51341904D01*
X19452380Y-51418095D01*
X18957142Y-52141904D02*
X19033333Y-52103809D01*
X19071428Y-52065714D01*
X19109523Y-51989523D01*
X19109523Y-51760952D01*
X19071428Y-51684761D01*
X19033333Y-51646666D01*
X18957142Y-51608571D01*
X18842857Y-51608571D01*
X18766666Y-51646666D01*
X18728571Y-51684761D01*
X18690476Y-51760952D01*
X18690476Y-51989523D01*
X18728571Y-52065714D01*
X18766666Y-52103809D01*
X18842857Y-52141904D01*
X18957142Y-52141904D01*
X18347619Y-51608571D02*
X18347619Y-52141904D01*
X18347619Y-51684761D02*
X18309523Y-51646666D01*
X18233333Y-51608571D01*
X18119047Y-51608571D01*
X18042857Y-51646666D01*
X18004761Y-51722857D01*
X18004761Y-52141904D01*
X17280952Y-52141904D02*
X17280952Y-51722857D01*
X17319047Y-51646666D01*
X17395238Y-51608571D01*
X17547619Y-51608571D01*
X17623809Y-51646666D01*
X17280952Y-52103809D02*
X17357142Y-52141904D01*
X17547619Y-52141904D01*
X17623809Y-52103809D01*
X17661904Y-52027619D01*
X17661904Y-51951428D01*
X17623809Y-51875238D01*
X17547619Y-51837142D01*
X17357142Y-51837142D01*
X17280952Y-51799047D01*
X16785714Y-52141904D02*
X16861904Y-52103809D01*
X16900000Y-52027619D01*
X16900000Y-51341904D01*
X15871428Y-51608571D02*
X15871428Y-52408571D01*
X15871428Y-51646666D02*
X15795238Y-51608571D01*
X15642857Y-51608571D01*
X15566666Y-51646666D01*
X15528571Y-51684761D01*
X15490476Y-51760952D01*
X15490476Y-51989523D01*
X15528571Y-52065714D01*
X15566666Y-52103809D01*
X15642857Y-52141904D01*
X15795238Y-52141904D01*
X15871428Y-52103809D01*
X14804761Y-51608571D02*
X14804761Y-52141904D01*
X15147619Y-51608571D02*
X15147619Y-52027619D01*
X15109523Y-52103809D01*
X15033333Y-52141904D01*
X14919047Y-52141904D01*
X14842857Y-52103809D01*
X14804761Y-52065714D01*
X14309523Y-52141904D02*
X14385714Y-52103809D01*
X14423809Y-52027619D01*
X14423809Y-51341904D01*
X13890476Y-52141904D02*
X13966666Y-52103809D01*
X14004761Y-52027619D01*
X14004761Y-51341904D01*
X13585714Y-51837142D02*
X12976190Y-51837142D01*
X12252380Y-51608571D02*
X12252380Y-52141904D01*
X12595238Y-51608571D02*
X12595238Y-52027619D01*
X12557142Y-52103809D01*
X12480952Y-52141904D01*
X12366666Y-52141904D01*
X12290476Y-52103809D01*
X12252380Y-52065714D01*
X11871428Y-51608571D02*
X11871428Y-52408571D01*
X11871428Y-51646666D02*
X11795238Y-51608571D01*
X11642857Y-51608571D01*
X11566666Y-51646666D01*
X11528571Y-51684761D01*
X11490476Y-51760952D01*
X11490476Y-51989523D01*
X11528571Y-52065714D01*
X11566666Y-52103809D01*
X11642857Y-52141904D01*
X11795238Y-52141904D01*
X11871428Y-52103809D01*
X21261904Y-53429904D02*
X21261904Y-52896571D01*
X21261904Y-53048952D02*
X21223809Y-52972761D01*
X21185714Y-52934666D01*
X21109523Y-52896571D01*
X21033333Y-52896571D01*
X20461904Y-53391809D02*
X20538095Y-53429904D01*
X20690476Y-53429904D01*
X20766666Y-53391809D01*
X20804761Y-53315619D01*
X20804761Y-53010857D01*
X20766666Y-52934666D01*
X20690476Y-52896571D01*
X20538095Y-52896571D01*
X20461904Y-52934666D01*
X20423809Y-53010857D01*
X20423809Y-53087047D01*
X20804761Y-53163238D01*
X20119047Y-53391809D02*
X20042857Y-53429904D01*
X19890476Y-53429904D01*
X19814285Y-53391809D01*
X19776190Y-53315619D01*
X19776190Y-53277523D01*
X19814285Y-53201333D01*
X19890476Y-53163238D01*
X20004761Y-53163238D01*
X20080952Y-53125142D01*
X20119047Y-53048952D01*
X20119047Y-53010857D01*
X20080952Y-52934666D01*
X20004761Y-52896571D01*
X19890476Y-52896571D01*
X19814285Y-52934666D01*
X19433333Y-53429904D02*
X19433333Y-52896571D01*
X19433333Y-52629904D02*
X19471428Y-52668000D01*
X19433333Y-52706095D01*
X19395238Y-52668000D01*
X19433333Y-52629904D01*
X19433333Y-52706095D01*
X19090476Y-53391809D02*
X19014285Y-53429904D01*
X18861904Y-53429904D01*
X18785714Y-53391809D01*
X18747619Y-53315619D01*
X18747619Y-53277523D01*
X18785714Y-53201333D01*
X18861904Y-53163238D01*
X18976190Y-53163238D01*
X19052380Y-53125142D01*
X19090476Y-53048952D01*
X19090476Y-53010857D01*
X19052380Y-52934666D01*
X18976190Y-52896571D01*
X18861904Y-52896571D01*
X18785714Y-52934666D01*
X18519047Y-52896571D02*
X18214285Y-52896571D01*
X18404761Y-52629904D02*
X18404761Y-53315619D01*
X18366666Y-53391809D01*
X18290476Y-53429904D01*
X18214285Y-53429904D01*
X17833333Y-53429904D02*
X17909523Y-53391809D01*
X17947619Y-53353714D01*
X17985714Y-53277523D01*
X17985714Y-53048952D01*
X17947619Y-52972761D01*
X17909523Y-52934666D01*
X17833333Y-52896571D01*
X17719047Y-52896571D01*
X17642857Y-52934666D01*
X17604761Y-52972761D01*
X17566666Y-53048952D01*
X17566666Y-53277523D01*
X17604761Y-53353714D01*
X17642857Y-53391809D01*
X17719047Y-53429904D01*
X17833333Y-53429904D01*
X17223809Y-53429904D02*
X17223809Y-52896571D01*
X17223809Y-53048952D02*
X17185714Y-52972761D01*
X17147619Y-52934666D01*
X17071428Y-52896571D01*
X16995238Y-52896571D01*
X16766666Y-53391809D02*
X16690476Y-53429904D01*
X16538095Y-53429904D01*
X16461904Y-53391809D01*
X16423809Y-53315619D01*
X16423809Y-53277523D01*
X16461904Y-53201333D01*
X16538095Y-53163238D01*
X16652380Y-53163238D01*
X16728571Y-53125142D01*
X16766666Y-53048952D01*
X16766666Y-53010857D01*
X16728571Y-52934666D01*
X16652380Y-52896571D01*
X16538095Y-52896571D01*
X16461904Y-52934666D01*
X15585714Y-52896571D02*
X15280952Y-52896571D01*
X15471428Y-53429904D02*
X15471428Y-52744190D01*
X15433333Y-52668000D01*
X15357142Y-52629904D01*
X15280952Y-52629904D01*
X14900000Y-53429904D02*
X14976190Y-53391809D01*
X15014285Y-53353714D01*
X15052380Y-53277523D01*
X15052380Y-53048952D01*
X15014285Y-52972761D01*
X14976190Y-52934666D01*
X14900000Y-52896571D01*
X14785714Y-52896571D01*
X14709523Y-52934666D01*
X14671428Y-52972761D01*
X14633333Y-53048952D01*
X14633333Y-53277523D01*
X14671428Y-53353714D01*
X14709523Y-53391809D01*
X14785714Y-53429904D01*
X14900000Y-53429904D01*
X14290476Y-53429904D02*
X14290476Y-52896571D01*
X14290476Y-53048952D02*
X14252380Y-52972761D01*
X14214285Y-52934666D01*
X14138095Y-52896571D01*
X14061904Y-52896571D01*
X13185714Y-53429904D02*
X13185714Y-52896571D01*
X13185714Y-52629904D02*
X13223809Y-52668000D01*
X13185714Y-52706095D01*
X13147619Y-52668000D01*
X13185714Y-52629904D01*
X13185714Y-52706095D01*
X12842857Y-52706095D02*
X12804761Y-52668000D01*
X12728571Y-52629904D01*
X12538095Y-52629904D01*
X12461904Y-52668000D01*
X12423809Y-52706095D01*
X12385714Y-52782285D01*
X12385714Y-52858476D01*
X12423809Y-52972761D01*
X12880952Y-53429904D01*
X12385714Y-53429904D01*
X11700000Y-53391809D02*
X11776190Y-53429904D01*
X11928571Y-53429904D01*
X12004761Y-53391809D01*
X12042857Y-53353714D01*
X12080952Y-53277523D01*
X12080952Y-53048952D01*
X12042857Y-52972761D01*
X12004761Y-52934666D01*
X11928571Y-52896571D01*
X11776190Y-52896571D01*
X11700000Y-52934666D01*
X20861904Y-54679809D02*
X20785714Y-54717904D01*
X20633333Y-54717904D01*
X20557142Y-54679809D01*
X20519047Y-54603619D01*
X20519047Y-54565523D01*
X20557142Y-54489333D01*
X20633333Y-54451238D01*
X20747619Y-54451238D01*
X20823809Y-54413142D01*
X20861904Y-54336952D01*
X20861904Y-54298857D01*
X20823809Y-54222666D01*
X20747619Y-54184571D01*
X20633333Y-54184571D01*
X20557142Y-54222666D01*
X20176190Y-54717904D02*
X20176190Y-54184571D01*
X20176190Y-53917904D02*
X20214285Y-53956000D01*
X20176190Y-53994095D01*
X20138095Y-53956000D01*
X20176190Y-53917904D01*
X20176190Y-53994095D01*
X19452380Y-54184571D02*
X19452380Y-54832190D01*
X19490476Y-54908380D01*
X19528571Y-54946476D01*
X19604761Y-54984571D01*
X19719047Y-54984571D01*
X19795238Y-54946476D01*
X19452380Y-54679809D02*
X19528571Y-54717904D01*
X19680952Y-54717904D01*
X19757142Y-54679809D01*
X19795238Y-54641714D01*
X19833333Y-54565523D01*
X19833333Y-54336952D01*
X19795238Y-54260761D01*
X19757142Y-54222666D01*
X19680952Y-54184571D01*
X19528571Y-54184571D01*
X19452380Y-54222666D01*
X19071428Y-54184571D02*
X19071428Y-54717904D01*
X19071428Y-54260761D02*
X19033333Y-54222666D01*
X18957142Y-54184571D01*
X18842857Y-54184571D01*
X18766666Y-54222666D01*
X18728571Y-54298857D01*
X18728571Y-54717904D01*
X18004761Y-54717904D02*
X18004761Y-54298857D01*
X18042857Y-54222666D01*
X18119047Y-54184571D01*
X18271428Y-54184571D01*
X18347619Y-54222666D01*
X18004761Y-54679809D02*
X18080952Y-54717904D01*
X18271428Y-54717904D01*
X18347619Y-54679809D01*
X18385714Y-54603619D01*
X18385714Y-54527428D01*
X18347619Y-54451238D01*
X18271428Y-54413142D01*
X18080952Y-54413142D01*
X18004761Y-54375047D01*
X17509523Y-54717904D02*
X17585714Y-54679809D01*
X17623809Y-54603619D01*
X17623809Y-53917904D01*
X17242857Y-54679809D02*
X17166666Y-54717904D01*
X17014285Y-54717904D01*
X16938095Y-54679809D01*
X16900000Y-54603619D01*
X16900000Y-54565523D01*
X16938095Y-54489333D01*
X17014285Y-54451238D01*
X17128571Y-54451238D01*
X17204761Y-54413142D01*
X17242857Y-54336952D01*
X17242857Y-54298857D01*
X17204761Y-54222666D01*
X17128571Y-54184571D01*
X17014285Y-54184571D01*
X16938095Y-54222666D01*
X16557142Y-54641714D02*
X16519047Y-54679809D01*
X16557142Y-54717904D01*
X16595238Y-54679809D01*
X16557142Y-54641714D01*
X16557142Y-54717904D01*
X15566666Y-54717904D02*
X15566666Y-53917904D01*
X15185714Y-54184571D02*
X15185714Y-54717904D01*
X15185714Y-54260761D02*
X15147619Y-54222666D01*
X15071428Y-54184571D01*
X14957142Y-54184571D01*
X14880952Y-54222666D01*
X14842857Y-54298857D01*
X14842857Y-54717904D01*
X14500000Y-54679809D02*
X14423809Y-54717904D01*
X14271428Y-54717904D01*
X14195238Y-54679809D01*
X14157142Y-54603619D01*
X14157142Y-54565523D01*
X14195238Y-54489333D01*
X14271428Y-54451238D01*
X14385714Y-54451238D01*
X14461904Y-54413142D01*
X14500000Y-54336952D01*
X14500000Y-54298857D01*
X14461904Y-54222666D01*
X14385714Y-54184571D01*
X14271428Y-54184571D01*
X14195238Y-54222666D01*
X13928571Y-54184571D02*
X13623809Y-54184571D01*
X13814285Y-53917904D02*
X13814285Y-54603619D01*
X13776190Y-54679809D01*
X13700000Y-54717904D01*
X13623809Y-54717904D01*
X13014285Y-54717904D02*
X13014285Y-54298857D01*
X13052380Y-54222666D01*
X13128571Y-54184571D01*
X13280952Y-54184571D01*
X13357142Y-54222666D01*
X13014285Y-54679809D02*
X13090476Y-54717904D01*
X13280952Y-54717904D01*
X13357142Y-54679809D01*
X13395238Y-54603619D01*
X13395238Y-54527428D01*
X13357142Y-54451238D01*
X13280952Y-54413142D01*
X13090476Y-54413142D01*
X13014285Y-54375047D01*
X12519047Y-54717904D02*
X12595238Y-54679809D01*
X12633333Y-54603619D01*
X12633333Y-53917904D01*
X12100000Y-54717904D02*
X12176190Y-54679809D01*
X12214285Y-54603619D01*
X12214285Y-53917904D01*
X21128571Y-56005904D02*
X21128571Y-55472571D01*
X21128571Y-55205904D02*
X21166666Y-55244000D01*
X21128571Y-55282095D01*
X21090476Y-55244000D01*
X21128571Y-55205904D01*
X21128571Y-55282095D01*
X20861904Y-55472571D02*
X20557142Y-55472571D01*
X20747619Y-56005904D02*
X20747619Y-55320190D01*
X20709523Y-55244000D01*
X20633333Y-55205904D01*
X20557142Y-55205904D01*
X19680952Y-56005904D02*
X19680952Y-55472571D01*
X19680952Y-55624952D02*
X19642857Y-55548761D01*
X19604761Y-55510666D01*
X19528571Y-55472571D01*
X19452380Y-55472571D01*
X19185714Y-56005904D02*
X19185714Y-55472571D01*
X19185714Y-55205904D02*
X19223809Y-55244000D01*
X19185714Y-55282095D01*
X19147619Y-55244000D01*
X19185714Y-55205904D01*
X19185714Y-55282095D01*
X18842857Y-55967809D02*
X18766666Y-56005904D01*
X18614285Y-56005904D01*
X18538095Y-55967809D01*
X18500000Y-55891619D01*
X18500000Y-55853523D01*
X18538095Y-55777333D01*
X18614285Y-55739238D01*
X18728571Y-55739238D01*
X18804761Y-55701142D01*
X18842857Y-55624952D01*
X18842857Y-55586857D01*
X18804761Y-55510666D01*
X18728571Y-55472571D01*
X18614285Y-55472571D01*
X18538095Y-55510666D01*
X18157142Y-56005904D02*
X18157142Y-55472571D01*
X18157142Y-55205904D02*
X18195238Y-55244000D01*
X18157142Y-55282095D01*
X18119047Y-55244000D01*
X18157142Y-55205904D01*
X18157142Y-55282095D01*
X17776190Y-55472571D02*
X17776190Y-56005904D01*
X17776190Y-55548761D02*
X17738095Y-55510666D01*
X17661904Y-55472571D01*
X17547619Y-55472571D01*
X17471428Y-55510666D01*
X17433333Y-55586857D01*
X17433333Y-56005904D01*
X16709523Y-55472571D02*
X16709523Y-56120190D01*
X16747619Y-56196380D01*
X16785714Y-56234476D01*
X16861904Y-56272571D01*
X16976190Y-56272571D01*
X17052380Y-56234476D01*
X16709523Y-55967809D02*
X16785714Y-56005904D01*
X16938095Y-56005904D01*
X17014285Y-55967809D01*
X17052380Y-55929714D01*
X17090476Y-55853523D01*
X17090476Y-55624952D01*
X17052380Y-55548761D01*
X17014285Y-55510666D01*
X16938095Y-55472571D01*
X16785714Y-55472571D01*
X16709523Y-55510666D01*
X15833333Y-55472571D02*
X15528571Y-55472571D01*
X15719047Y-55205904D02*
X15719047Y-55891619D01*
X15680952Y-55967809D01*
X15604761Y-56005904D01*
X15528571Y-56005904D01*
X15261904Y-56005904D02*
X15261904Y-55472571D01*
X15261904Y-55205904D02*
X15300000Y-55244000D01*
X15261904Y-55282095D01*
X15223809Y-55244000D01*
X15261904Y-55205904D01*
X15261904Y-55282095D01*
X14880952Y-56005904D02*
X14880952Y-55472571D01*
X14880952Y-55548761D02*
X14842857Y-55510666D01*
X14766666Y-55472571D01*
X14652380Y-55472571D01*
X14576190Y-55510666D01*
X14538095Y-55586857D01*
X14538095Y-56005904D01*
X14538095Y-55586857D02*
X14500000Y-55510666D01*
X14423809Y-55472571D01*
X14309523Y-55472571D01*
X14233333Y-55510666D01*
X14195238Y-55586857D01*
X14195238Y-56005904D01*
X13509523Y-55967809D02*
X13585714Y-56005904D01*
X13738095Y-56005904D01*
X13814285Y-55967809D01*
X13852380Y-55891619D01*
X13852380Y-55586857D01*
X13814285Y-55510666D01*
X13738095Y-55472571D01*
X13585714Y-55472571D01*
X13509523Y-55510666D01*
X13471428Y-55586857D01*
X13471428Y-55663047D01*
X13852380Y-55739238D01*
X12519047Y-56005904D02*
X12519047Y-55472571D01*
X12519047Y-55205904D02*
X12557142Y-55244000D01*
X12519047Y-55282095D01*
X12480952Y-55244000D01*
X12519047Y-55205904D01*
X12519047Y-55282095D01*
X12176190Y-55967809D02*
X12100000Y-56005904D01*
X11947619Y-56005904D01*
X11871428Y-55967809D01*
X11833333Y-55891619D01*
X11833333Y-55853523D01*
X11871428Y-55777333D01*
X11947619Y-55739238D01*
X12061904Y-55739238D01*
X12138095Y-55701142D01*
X12176190Y-55624952D01*
X12176190Y-55586857D01*
X12138095Y-55510666D01*
X12061904Y-55472571D01*
X11947619Y-55472571D01*
X11871428Y-55510666D01*
X22347619Y-56760571D02*
X22042857Y-56760571D01*
X22233333Y-56493904D02*
X22233333Y-57179619D01*
X22195238Y-57255809D01*
X22119047Y-57293904D01*
X22042857Y-57293904D01*
X21661904Y-57293904D02*
X21738095Y-57255809D01*
X21776190Y-57217714D01*
X21814285Y-57141523D01*
X21814285Y-56912952D01*
X21776190Y-56836761D01*
X21738095Y-56798666D01*
X21661904Y-56760571D01*
X21547619Y-56760571D01*
X21471428Y-56798666D01*
X21433333Y-56836761D01*
X21395238Y-56912952D01*
X21395238Y-57141523D01*
X21433333Y-57217714D01*
X21471428Y-57255809D01*
X21547619Y-57293904D01*
X21661904Y-57293904D01*
X20938095Y-57293904D02*
X21014285Y-57255809D01*
X21052380Y-57217714D01*
X21090476Y-57141523D01*
X21090476Y-56912952D01*
X21052380Y-56836761D01*
X21014285Y-56798666D01*
X20938095Y-56760571D01*
X20823809Y-56760571D01*
X20747619Y-56798666D01*
X20709523Y-56836761D01*
X20671428Y-56912952D01*
X20671428Y-57141523D01*
X20709523Y-57217714D01*
X20747619Y-57255809D01*
X20823809Y-57293904D01*
X20938095Y-57293904D01*
X19757142Y-57255809D02*
X19680952Y-57293904D01*
X19528571Y-57293904D01*
X19452380Y-57255809D01*
X19414285Y-57179619D01*
X19414285Y-57141523D01*
X19452380Y-57065333D01*
X19528571Y-57027238D01*
X19642857Y-57027238D01*
X19719047Y-56989142D01*
X19757142Y-56912952D01*
X19757142Y-56874857D01*
X19719047Y-56798666D01*
X19642857Y-56760571D01*
X19528571Y-56760571D01*
X19452380Y-56798666D01*
X18957142Y-57293904D02*
X19033333Y-57255809D01*
X19071428Y-57179619D01*
X19071428Y-56493904D01*
X18538095Y-57293904D02*
X18614285Y-57255809D01*
X18652380Y-57217714D01*
X18690476Y-57141523D01*
X18690476Y-56912952D01*
X18652380Y-56836761D01*
X18614285Y-56798666D01*
X18538095Y-56760571D01*
X18423809Y-56760571D01*
X18347619Y-56798666D01*
X18309523Y-56836761D01*
X18271428Y-56912952D01*
X18271428Y-57141523D01*
X18309523Y-57217714D01*
X18347619Y-57255809D01*
X18423809Y-57293904D01*
X18538095Y-57293904D01*
X18004761Y-56760571D02*
X17852380Y-57293904D01*
X17700000Y-56912952D01*
X17547619Y-57293904D01*
X17395238Y-56760571D01*
X16366666Y-57293904D02*
X16442857Y-57255809D01*
X16480952Y-57217714D01*
X16519047Y-57141523D01*
X16519047Y-56912952D01*
X16480952Y-56836761D01*
X16442857Y-56798666D01*
X16366666Y-56760571D01*
X16252380Y-56760571D01*
X16176190Y-56798666D01*
X16138095Y-56836761D01*
X16100000Y-56912952D01*
X16100000Y-57141523D01*
X16138095Y-57217714D01*
X16176190Y-57255809D01*
X16252380Y-57293904D01*
X16366666Y-57293904D01*
X15757142Y-57293904D02*
X15757142Y-56760571D01*
X15757142Y-56912952D02*
X15719047Y-56836761D01*
X15680952Y-56798666D01*
X15604761Y-56760571D01*
X15528571Y-56760571D01*
X14690476Y-57255809D02*
X14614285Y-57293904D01*
X14461904Y-57293904D01*
X14385714Y-57255809D01*
X14347619Y-57179619D01*
X14347619Y-57141523D01*
X14385714Y-57065333D01*
X14461904Y-57027238D01*
X14576190Y-57027238D01*
X14652380Y-56989142D01*
X14690476Y-56912952D01*
X14690476Y-56874857D01*
X14652380Y-56798666D01*
X14576190Y-56760571D01*
X14461904Y-56760571D01*
X14385714Y-56798666D01*
X14004761Y-57293904D02*
X14004761Y-56760571D01*
X14004761Y-56493904D02*
X14042857Y-56532000D01*
X14004761Y-56570095D01*
X13966666Y-56532000D01*
X14004761Y-56493904D01*
X14004761Y-56570095D01*
X13280952Y-56760571D02*
X13280952Y-57408190D01*
X13319047Y-57484380D01*
X13357142Y-57522476D01*
X13433333Y-57560571D01*
X13547619Y-57560571D01*
X13623809Y-57522476D01*
X13280952Y-57255809D02*
X13357142Y-57293904D01*
X13509523Y-57293904D01*
X13585714Y-57255809D01*
X13623809Y-57217714D01*
X13661904Y-57141523D01*
X13661904Y-56912952D01*
X13623809Y-56836761D01*
X13585714Y-56798666D01*
X13509523Y-56760571D01*
X13357142Y-56760571D01*
X13280952Y-56798666D01*
X12900000Y-56760571D02*
X12900000Y-57293904D01*
X12900000Y-56836761D02*
X12861904Y-56798666D01*
X12785714Y-56760571D01*
X12671428Y-56760571D01*
X12595238Y-56798666D01*
X12557142Y-56874857D01*
X12557142Y-57293904D01*
X11833333Y-57293904D02*
X11833333Y-56874857D01*
X11871428Y-56798666D01*
X11947619Y-56760571D01*
X12100000Y-56760571D01*
X12176190Y-56798666D01*
X11833333Y-57255809D02*
X11909523Y-57293904D01*
X12100000Y-57293904D01*
X12176190Y-57255809D01*
X12214285Y-57179619D01*
X12214285Y-57103428D01*
X12176190Y-57027238D01*
X12100000Y-56989142D01*
X11909523Y-56989142D01*
X11833333Y-56951047D01*
X11338095Y-57293904D02*
X11414285Y-57255809D01*
X11452380Y-57179619D01*
X11452380Y-56493904D01*
X11071428Y-57255809D02*
X10995238Y-57293904D01*
X10842857Y-57293904D01*
X10766666Y-57255809D01*
X10728571Y-57179619D01*
X10728571Y-57141523D01*
X10766666Y-57065333D01*
X10842857Y-57027238D01*
X10957142Y-57027238D01*
X11033333Y-56989142D01*
X11071428Y-56912952D01*
X11071428Y-56874857D01*
X11033333Y-56798666D01*
X10957142Y-56760571D01*
X10842857Y-56760571D01*
X10766666Y-56798666D01*
X20290476Y-58581904D02*
X20290476Y-58162857D01*
X20328571Y-58086666D01*
X20404761Y-58048571D01*
X20557142Y-58048571D01*
X20633333Y-58086666D01*
X20290476Y-58543809D02*
X20366666Y-58581904D01*
X20557142Y-58581904D01*
X20633333Y-58543809D01*
X20671428Y-58467619D01*
X20671428Y-58391428D01*
X20633333Y-58315238D01*
X20557142Y-58277142D01*
X20366666Y-58277142D01*
X20290476Y-58239047D01*
X19909523Y-58581904D02*
X19909523Y-58048571D01*
X19909523Y-58200952D02*
X19871428Y-58124761D01*
X19833333Y-58086666D01*
X19757142Y-58048571D01*
X19680952Y-58048571D01*
X19109523Y-58543809D02*
X19185714Y-58581904D01*
X19338095Y-58581904D01*
X19414285Y-58543809D01*
X19452380Y-58467619D01*
X19452380Y-58162857D01*
X19414285Y-58086666D01*
X19338095Y-58048571D01*
X19185714Y-58048571D01*
X19109523Y-58086666D01*
X19071428Y-58162857D01*
X19071428Y-58239047D01*
X19452380Y-58315238D01*
X18119047Y-58048571D02*
X18119047Y-58581904D01*
X18119047Y-58124761D02*
X18080952Y-58086666D01*
X18004761Y-58048571D01*
X17890476Y-58048571D01*
X17814285Y-58086666D01*
X17776190Y-58162857D01*
X17776190Y-58581904D01*
X17280952Y-58581904D02*
X17357142Y-58543809D01*
X17395238Y-58505714D01*
X17433333Y-58429523D01*
X17433333Y-58200952D01*
X17395238Y-58124761D01*
X17357142Y-58086666D01*
X17280952Y-58048571D01*
X17166666Y-58048571D01*
X17090476Y-58086666D01*
X17052380Y-58124761D01*
X17014285Y-58200952D01*
X17014285Y-58429523D01*
X17052380Y-58505714D01*
X17090476Y-58543809D01*
X17166666Y-58581904D01*
X17280952Y-58581904D01*
X16785714Y-58048571D02*
X16480952Y-58048571D01*
X16671428Y-57781904D02*
X16671428Y-58467619D01*
X16633333Y-58543809D01*
X16557142Y-58581904D01*
X16480952Y-58581904D01*
X15261904Y-58543809D02*
X15338095Y-58581904D01*
X15490476Y-58581904D01*
X15566666Y-58543809D01*
X15604761Y-58505714D01*
X15642857Y-58429523D01*
X15642857Y-58200952D01*
X15604761Y-58124761D01*
X15566666Y-58086666D01*
X15490476Y-58048571D01*
X15338095Y-58048571D01*
X15261904Y-58086666D01*
X14804761Y-58581904D02*
X14880952Y-58543809D01*
X14919047Y-58467619D01*
X14919047Y-57781904D01*
X14195238Y-58543809D02*
X14271428Y-58581904D01*
X14423809Y-58581904D01*
X14500000Y-58543809D01*
X14538095Y-58467619D01*
X14538095Y-58162857D01*
X14500000Y-58086666D01*
X14423809Y-58048571D01*
X14271428Y-58048571D01*
X14195238Y-58086666D01*
X14157142Y-58162857D01*
X14157142Y-58239047D01*
X14538095Y-58315238D01*
X13471428Y-58581904D02*
X13471428Y-58162857D01*
X13509523Y-58086666D01*
X13585714Y-58048571D01*
X13738095Y-58048571D01*
X13814285Y-58086666D01*
X13471428Y-58543809D02*
X13547619Y-58581904D01*
X13738095Y-58581904D01*
X13814285Y-58543809D01*
X13852380Y-58467619D01*
X13852380Y-58391428D01*
X13814285Y-58315238D01*
X13738095Y-58277142D01*
X13547619Y-58277142D01*
X13471428Y-58239047D01*
X13090476Y-58048571D02*
X13090476Y-58581904D01*
X13090476Y-58124761D02*
X13052380Y-58086666D01*
X12976190Y-58048571D01*
X12861904Y-58048571D01*
X12785714Y-58086666D01*
X12747619Y-58162857D01*
X12747619Y-58581904D01*
X12366666Y-58505714D02*
X12328571Y-58543809D01*
X12366666Y-58581904D01*
X12404761Y-58543809D01*
X12366666Y-58505714D01*
X12366666Y-58581904D01*
X30214285Y-35452380D02*
X30785714Y-35452380D01*
X30500000Y-35452380D02*
X30500000Y-34452380D01*
X30595238Y-34595238D01*
X30690476Y-34690476D01*
X30785714Y-34738095D01*
%TO.C,Q1*%
X46147619Y-55904761D02*
X46100000Y-55809523D01*
X46004761Y-55714285D01*
X45861904Y-55571428D01*
X45814285Y-55476190D01*
X45814285Y-55380952D01*
X46052380Y-55428571D02*
X46004761Y-55333333D01*
X45909523Y-55238095D01*
X45719047Y-55190476D01*
X45385714Y-55190476D01*
X45195238Y-55238095D01*
X45100000Y-55333333D01*
X45052380Y-55428571D01*
X45052380Y-55619047D01*
X45100000Y-55714285D01*
X45195238Y-55809523D01*
X45385714Y-55857142D01*
X45719047Y-55857142D01*
X45909523Y-55809523D01*
X46004761Y-55714285D01*
X46052380Y-55619047D01*
X46052380Y-55428571D01*
X46052380Y-56809523D02*
X46052380Y-56238095D01*
X46052380Y-56523809D02*
X45052380Y-56523809D01*
X45195238Y-56428571D01*
X45290476Y-56333333D01*
X45338095Y-56238095D01*
%TO.C,R10*%
X43642857Y-61602380D02*
X43976190Y-61126190D01*
X44214285Y-61602380D02*
X44214285Y-60602380D01*
X43833333Y-60602380D01*
X43738095Y-60650000D01*
X43690476Y-60697619D01*
X43642857Y-60792857D01*
X43642857Y-60935714D01*
X43690476Y-61030952D01*
X43738095Y-61078571D01*
X43833333Y-61126190D01*
X44214285Y-61126190D01*
X42690476Y-61602380D02*
X43261904Y-61602380D01*
X42976190Y-61602380D02*
X42976190Y-60602380D01*
X43071428Y-60745238D01*
X43166666Y-60840476D01*
X43261904Y-60888095D01*
X42071428Y-60602380D02*
X41976190Y-60602380D01*
X41880952Y-60650000D01*
X41833333Y-60697619D01*
X41785714Y-60792857D01*
X41738095Y-60983333D01*
X41738095Y-61221428D01*
X41785714Y-61411904D01*
X41833333Y-61507142D01*
X41880952Y-61554761D01*
X41976190Y-61602380D01*
X42071428Y-61602380D01*
X42166666Y-61554761D01*
X42214285Y-61507142D01*
X42261904Y-61411904D01*
X42309523Y-61221428D01*
X42309523Y-60983333D01*
X42261904Y-60792857D01*
X42214285Y-60697619D01*
X42166666Y-60650000D01*
X42071428Y-60602380D01*
%TO.C,R11*%
X14142857Y-59952380D02*
X14476190Y-59476190D01*
X14714285Y-59952380D02*
X14714285Y-58952380D01*
X14333333Y-58952380D01*
X14238095Y-59000000D01*
X14190476Y-59047619D01*
X14142857Y-59142857D01*
X14142857Y-59285714D01*
X14190476Y-59380952D01*
X14238095Y-59428571D01*
X14333333Y-59476190D01*
X14714285Y-59476190D01*
X13190476Y-59952380D02*
X13761904Y-59952380D01*
X13476190Y-59952380D02*
X13476190Y-58952380D01*
X13571428Y-59095238D01*
X13666666Y-59190476D01*
X13761904Y-59238095D01*
X12238095Y-59952380D02*
X12809523Y-59952380D01*
X12523809Y-59952380D02*
X12523809Y-58952380D01*
X12619047Y-59095238D01*
X12714285Y-59190476D01*
X12809523Y-59238095D01*
%TO.C,R14*%
X27302380Y-39857142D02*
X26826190Y-39523809D01*
X27302380Y-39285714D02*
X26302380Y-39285714D01*
X26302380Y-39666666D01*
X26350000Y-39761904D01*
X26397619Y-39809523D01*
X26492857Y-39857142D01*
X26635714Y-39857142D01*
X26730952Y-39809523D01*
X26778571Y-39761904D01*
X26826190Y-39666666D01*
X26826190Y-39285714D01*
X27302380Y-40809523D02*
X27302380Y-40238095D01*
X27302380Y-40523809D02*
X26302380Y-40523809D01*
X26445238Y-40428571D01*
X26540476Y-40333333D01*
X26588095Y-40238095D01*
X26635714Y-41666666D02*
X27302380Y-41666666D01*
X26254761Y-41428571D02*
X26969047Y-41190476D01*
X26969047Y-41809523D01*
%TO.C,R9*%
X38302380Y-55833333D02*
X37826190Y-55500000D01*
X38302380Y-55261904D02*
X37302380Y-55261904D01*
X37302380Y-55642857D01*
X37350000Y-55738095D01*
X37397619Y-55785714D01*
X37492857Y-55833333D01*
X37635714Y-55833333D01*
X37730952Y-55785714D01*
X37778571Y-55738095D01*
X37826190Y-55642857D01*
X37826190Y-55261904D01*
X38302380Y-56309523D02*
X38302380Y-56500000D01*
X38254761Y-56595238D01*
X38207142Y-56642857D01*
X38064285Y-56738095D01*
X37873809Y-56785714D01*
X37492857Y-56785714D01*
X37397619Y-56738095D01*
X37350000Y-56690476D01*
X37302380Y-56595238D01*
X37302380Y-56404761D01*
X37350000Y-56309523D01*
X37397619Y-56261904D01*
X37492857Y-56214285D01*
X37730952Y-56214285D01*
X37826190Y-56261904D01*
X37873809Y-56309523D01*
X37921428Y-56404761D01*
X37921428Y-56595238D01*
X37873809Y-56690476D01*
X37826190Y-56738095D01*
X37730952Y-56785714D01*
%TO.C,R12*%
X14142857Y-65552380D02*
X14476190Y-65076190D01*
X14714285Y-65552380D02*
X14714285Y-64552380D01*
X14333333Y-64552380D01*
X14238095Y-64600000D01*
X14190476Y-64647619D01*
X14142857Y-64742857D01*
X14142857Y-64885714D01*
X14190476Y-64980952D01*
X14238095Y-65028571D01*
X14333333Y-65076190D01*
X14714285Y-65076190D01*
X13190476Y-65552380D02*
X13761904Y-65552380D01*
X13476190Y-65552380D02*
X13476190Y-64552380D01*
X13571428Y-64695238D01*
X13666666Y-64790476D01*
X13761904Y-64838095D01*
X12809523Y-64647619D02*
X12761904Y-64600000D01*
X12666666Y-64552380D01*
X12428571Y-64552380D01*
X12333333Y-64600000D01*
X12285714Y-64647619D01*
X12238095Y-64742857D01*
X12238095Y-64838095D01*
X12285714Y-64980952D01*
X12857142Y-65552380D01*
X12238095Y-65552380D01*
%TO.C,R13*%
X32602380Y-39857142D02*
X32126190Y-39523809D01*
X32602380Y-39285714D02*
X31602380Y-39285714D01*
X31602380Y-39666666D01*
X31650000Y-39761904D01*
X31697619Y-39809523D01*
X31792857Y-39857142D01*
X31935714Y-39857142D01*
X32030952Y-39809523D01*
X32078571Y-39761904D01*
X32126190Y-39666666D01*
X32126190Y-39285714D01*
X32602380Y-40809523D02*
X32602380Y-40238095D01*
X32602380Y-40523809D02*
X31602380Y-40523809D01*
X31745238Y-40428571D01*
X31840476Y-40333333D01*
X31888095Y-40238095D01*
X31602380Y-41142857D02*
X31602380Y-41761904D01*
X31983333Y-41428571D01*
X31983333Y-41571428D01*
X32030952Y-41666666D01*
X32078571Y-41714285D01*
X32173809Y-41761904D01*
X32411904Y-41761904D01*
X32507142Y-41714285D01*
X32554761Y-41666666D01*
X32602380Y-41571428D01*
X32602380Y-41285714D01*
X32554761Y-41190476D01*
X32507142Y-41142857D01*
D12*
%TO.C,Q1*%
X43000000Y-54440000D02*
X43650000Y-54440000D01*
X43000000Y-57560000D02*
X41325000Y-57560000D01*
X43000000Y-54440000D02*
X42350000Y-54440000D01*
X43000000Y-57560000D02*
X43650000Y-57560000D01*
%TO.C,R10*%
X42772936Y-60235000D02*
X43227064Y-60235000D01*
X42772936Y-58765000D02*
X43227064Y-58765000D01*
%TO.C,R11*%
X13272936Y-61735000D02*
X13727064Y-61735000D01*
X13272936Y-60265000D02*
X13727064Y-60265000D01*
%TO.C,R14*%
X29235000Y-40272936D02*
X29235000Y-40727064D01*
X27765000Y-40272936D02*
X27765000Y-40727064D01*
%TO.C,R9*%
X40235000Y-55772936D02*
X40235000Y-56227064D01*
X38765000Y-55772936D02*
X38765000Y-56227064D01*
%TO.C,R12*%
X13727064Y-64235000D02*
X13272936Y-64235000D01*
X13727064Y-62765000D02*
X13272936Y-62765000D01*
%TO.C,R13*%
X29765000Y-40727064D02*
X29765000Y-40272936D01*
X31235000Y-40727064D02*
X31235000Y-40272936D01*
%TD*%
M02*
