%TF.GenerationSoftware,KiCad,Pcbnew,(6.0.7-1)-1*%
%TF.CreationDate,2022-08-19T11:56:30+02:00*%
%TF.ProjectId,UULM_Compass,55554c4d-5f43-46f6-9d70-6173732e6b69,rev?*%
%TF.SameCoordinates,Original*%
%TF.FileFunction,AssemblyDrawing,Bot*%
%FSLAX46Y46*%
G04 Gerber Fmt 4.6, Leading zero omitted, Abs format (unit mm)*
G04 Created by KiCad (PCBNEW (6.0.7-1)-1) date 2022-08-19 11:56:30*
%MOMM*%
%LPD*%
G01*
G04 APERTURE LIST*
%ADD10C,0.150000*%
%ADD11C,0.050000*%
%ADD12C,0.080000*%
%ADD13C,0.100000*%
G04 APERTURE END LIST*
D10*
%TO.C,Q1*%
X45333333Y-53528571D02*
X45190476Y-53576190D01*
X45142857Y-53623809D01*
X45095238Y-53719047D01*
X45095238Y-53861904D01*
X45142857Y-53957142D01*
X45190476Y-54004761D01*
X45285714Y-54052380D01*
X45666666Y-54052380D01*
X45666666Y-53052380D01*
X45333333Y-53052380D01*
X45238095Y-53100000D01*
X45190476Y-53147619D01*
X45142857Y-53242857D01*
X45142857Y-53338095D01*
X45190476Y-53433333D01*
X45238095Y-53480952D01*
X45333333Y-53528571D01*
X45666666Y-53528571D01*
X44714285Y-54004761D02*
X44571428Y-54052380D01*
X44333333Y-54052380D01*
X44238095Y-54004761D01*
X44190476Y-53957142D01*
X44142857Y-53861904D01*
X44142857Y-53766666D01*
X44190476Y-53671428D01*
X44238095Y-53623809D01*
X44333333Y-53576190D01*
X44523809Y-53528571D01*
X44619047Y-53480952D01*
X44666666Y-53433333D01*
X44714285Y-53338095D01*
X44714285Y-53242857D01*
X44666666Y-53147619D01*
X44619047Y-53100000D01*
X44523809Y-53052380D01*
X44285714Y-53052380D01*
X44142857Y-53100000D01*
X43761904Y-54004761D02*
X43619047Y-54052380D01*
X43380952Y-54052380D01*
X43285714Y-54004761D01*
X43238095Y-53957142D01*
X43190476Y-53861904D01*
X43190476Y-53766666D01*
X43238095Y-53671428D01*
X43285714Y-53623809D01*
X43380952Y-53576190D01*
X43571428Y-53528571D01*
X43666666Y-53480952D01*
X43714285Y-53433333D01*
X43761904Y-53338095D01*
X43761904Y-53242857D01*
X43714285Y-53147619D01*
X43666666Y-53100000D01*
X43571428Y-53052380D01*
X43333333Y-53052380D01*
X43190476Y-53100000D01*
X42619047Y-53480952D02*
X42714285Y-53433333D01*
X42761904Y-53385714D01*
X42809523Y-53290476D01*
X42809523Y-53242857D01*
X42761904Y-53147619D01*
X42714285Y-53100000D01*
X42619047Y-53052380D01*
X42428571Y-53052380D01*
X42333333Y-53100000D01*
X42285714Y-53147619D01*
X42238095Y-53242857D01*
X42238095Y-53290476D01*
X42285714Y-53385714D01*
X42333333Y-53433333D01*
X42428571Y-53480952D01*
X42619047Y-53480952D01*
X42714285Y-53528571D01*
X42761904Y-53576190D01*
X42809523Y-53671428D01*
X42809523Y-53861904D01*
X42761904Y-53957142D01*
X42714285Y-54004761D01*
X42619047Y-54052380D01*
X42428571Y-54052380D01*
X42333333Y-54004761D01*
X42285714Y-53957142D01*
X42238095Y-53861904D01*
X42238095Y-53671428D01*
X42285714Y-53576190D01*
X42333333Y-53528571D01*
X42428571Y-53480952D01*
X41904761Y-53052380D02*
X41285714Y-53052380D01*
X41619047Y-53433333D01*
X41476190Y-53433333D01*
X41380952Y-53480952D01*
X41333333Y-53528571D01*
X41285714Y-53623809D01*
X41285714Y-53861904D01*
X41333333Y-53957142D01*
X41380952Y-54004761D01*
X41476190Y-54052380D01*
X41761904Y-54052380D01*
X41857142Y-54004761D01*
X41904761Y-53957142D01*
X40857142Y-54052380D02*
X40857142Y-53052380D01*
X40476190Y-53052380D01*
X40380952Y-53100000D01*
X40333333Y-53147619D01*
X40285714Y-53242857D01*
X40285714Y-53385714D01*
X40333333Y-53480952D01*
X40380952Y-53528571D01*
X40476190Y-53576190D01*
X40857142Y-53576190D01*
D11*
X43030476Y-56175238D02*
X43060952Y-56160000D01*
X43091428Y-56129523D01*
X43137142Y-56083809D01*
X43167619Y-56068571D01*
X43198095Y-56068571D01*
X43182857Y-56144761D02*
X43213333Y-56129523D01*
X43243809Y-56099047D01*
X43259047Y-56038095D01*
X43259047Y-55931428D01*
X43243809Y-55870476D01*
X43213333Y-55840000D01*
X43182857Y-55824761D01*
X43121904Y-55824761D01*
X43091428Y-55840000D01*
X43060952Y-55870476D01*
X43045714Y-55931428D01*
X43045714Y-56038095D01*
X43060952Y-56099047D01*
X43091428Y-56129523D01*
X43121904Y-56144761D01*
X43182857Y-56144761D01*
X42740952Y-56144761D02*
X42923809Y-56144761D01*
X42832380Y-56144761D02*
X42832380Y-55824761D01*
X42862857Y-55870476D01*
X42893333Y-55900952D01*
X42923809Y-55916190D01*
D10*
%TO.C,R10*%
X43666666Y-58302380D02*
X44238095Y-58302380D01*
X43952380Y-58302380D02*
X43952380Y-57302380D01*
X44047619Y-57445238D01*
X44142857Y-57540476D01*
X44238095Y-57588095D01*
X43047619Y-57302380D02*
X42952380Y-57302380D01*
X42857142Y-57350000D01*
X42809523Y-57397619D01*
X42761904Y-57492857D01*
X42714285Y-57683333D01*
X42714285Y-57921428D01*
X42761904Y-58111904D01*
X42809523Y-58207142D01*
X42857142Y-58254761D01*
X42952380Y-58302380D01*
X43047619Y-58302380D01*
X43142857Y-58254761D01*
X43190476Y-58207142D01*
X43238095Y-58111904D01*
X43285714Y-57921428D01*
X43285714Y-57683333D01*
X43238095Y-57492857D01*
X43190476Y-57397619D01*
X43142857Y-57350000D01*
X43047619Y-57302380D01*
X42095238Y-57302380D02*
X42000000Y-57302380D01*
X41904761Y-57350000D01*
X41857142Y-57397619D01*
X41809523Y-57492857D01*
X41761904Y-57683333D01*
X41761904Y-57921428D01*
X41809523Y-58111904D01*
X41857142Y-58207142D01*
X41904761Y-58254761D01*
X42000000Y-58302380D01*
X42095238Y-58302380D01*
X42190476Y-58254761D01*
X42238095Y-58207142D01*
X42285714Y-58111904D01*
X42333333Y-57921428D01*
X42333333Y-57683333D01*
X42285714Y-57492857D01*
X42238095Y-57397619D01*
X42190476Y-57350000D01*
X42095238Y-57302380D01*
D12*
X43321428Y-59726190D02*
X43488095Y-59488095D01*
X43607142Y-59726190D02*
X43607142Y-59226190D01*
X43416666Y-59226190D01*
X43369047Y-59250000D01*
X43345238Y-59273809D01*
X43321428Y-59321428D01*
X43321428Y-59392857D01*
X43345238Y-59440476D01*
X43369047Y-59464285D01*
X43416666Y-59488095D01*
X43607142Y-59488095D01*
X42845238Y-59726190D02*
X43130952Y-59726190D01*
X42988095Y-59726190D02*
X42988095Y-59226190D01*
X43035714Y-59297619D01*
X43083333Y-59345238D01*
X43130952Y-59369047D01*
X42535714Y-59226190D02*
X42488095Y-59226190D01*
X42440476Y-59250000D01*
X42416666Y-59273809D01*
X42392857Y-59321428D01*
X42369047Y-59416666D01*
X42369047Y-59535714D01*
X42392857Y-59630952D01*
X42416666Y-59678571D01*
X42440476Y-59702380D01*
X42488095Y-59726190D01*
X42535714Y-59726190D01*
X42583333Y-59702380D01*
X42607142Y-59678571D01*
X42630952Y-59630952D01*
X42654761Y-59535714D01*
X42654761Y-59416666D01*
X42630952Y-59321428D01*
X42607142Y-59273809D01*
X42583333Y-59250000D01*
X42535714Y-59226190D01*
D10*
%TO.C,R11*%
X14523809Y-59802380D02*
X14523809Y-58802380D01*
X14285714Y-58802380D01*
X14142857Y-58850000D01*
X14047619Y-58945238D01*
X14000000Y-59040476D01*
X13952380Y-59230952D01*
X13952380Y-59373809D01*
X14000000Y-59564285D01*
X14047619Y-59659523D01*
X14142857Y-59754761D01*
X14285714Y-59802380D01*
X14523809Y-59802380D01*
X13523809Y-59802380D02*
X13523809Y-58802380D01*
X12952380Y-59802380D01*
X12952380Y-58802380D01*
X12476190Y-59802380D02*
X12476190Y-58802380D01*
D12*
X13821428Y-61226190D02*
X13988095Y-60988095D01*
X14107142Y-61226190D02*
X14107142Y-60726190D01*
X13916666Y-60726190D01*
X13869047Y-60750000D01*
X13845238Y-60773809D01*
X13821428Y-60821428D01*
X13821428Y-60892857D01*
X13845238Y-60940476D01*
X13869047Y-60964285D01*
X13916666Y-60988095D01*
X14107142Y-60988095D01*
X13345238Y-61226190D02*
X13630952Y-61226190D01*
X13488095Y-61226190D02*
X13488095Y-60726190D01*
X13535714Y-60797619D01*
X13583333Y-60845238D01*
X13630952Y-60869047D01*
X12869047Y-61226190D02*
X13154761Y-61226190D01*
X13011904Y-61226190D02*
X13011904Y-60726190D01*
X13059523Y-60797619D01*
X13107142Y-60845238D01*
X13154761Y-60869047D01*
D10*
%TO.C,R14*%
X29602380Y-40452380D02*
X29602380Y-40547619D01*
X29650000Y-40642857D01*
X29697619Y-40690476D01*
X29792857Y-40738095D01*
X29983333Y-40785714D01*
X30221428Y-40785714D01*
X30411904Y-40738095D01*
X30507142Y-40690476D01*
X30554761Y-40642857D01*
X30602380Y-40547619D01*
X30602380Y-40452380D01*
X30554761Y-40357142D01*
X30507142Y-40309523D01*
X30411904Y-40261904D01*
X30221428Y-40214285D01*
X29983333Y-40214285D01*
X29792857Y-40261904D01*
X29697619Y-40309523D01*
X29650000Y-40357142D01*
X29602380Y-40452380D01*
D12*
X28726190Y-40178571D02*
X28488095Y-40011904D01*
X28726190Y-39892857D02*
X28226190Y-39892857D01*
X28226190Y-40083333D01*
X28250000Y-40130952D01*
X28273809Y-40154761D01*
X28321428Y-40178571D01*
X28392857Y-40178571D01*
X28440476Y-40154761D01*
X28464285Y-40130952D01*
X28488095Y-40083333D01*
X28488095Y-39892857D01*
X28726190Y-40654761D02*
X28726190Y-40369047D01*
X28726190Y-40511904D02*
X28226190Y-40511904D01*
X28297619Y-40464285D01*
X28345238Y-40416666D01*
X28369047Y-40369047D01*
X28392857Y-41083333D02*
X28726190Y-41083333D01*
X28202380Y-40964285D02*
X28559523Y-40845238D01*
X28559523Y-41154761D01*
D10*
%TO.C,R9*%
X41602380Y-55404761D02*
X41602380Y-54833333D01*
X41602380Y-55119047D02*
X40602380Y-55119047D01*
X40745238Y-55023809D01*
X40840476Y-54928571D01*
X40888095Y-54833333D01*
X40602380Y-56023809D02*
X40602380Y-56119047D01*
X40650000Y-56214285D01*
X40697619Y-56261904D01*
X40792857Y-56309523D01*
X40983333Y-56357142D01*
X41221428Y-56357142D01*
X41411904Y-56309523D01*
X41507142Y-56261904D01*
X41554761Y-56214285D01*
X41602380Y-56119047D01*
X41602380Y-56023809D01*
X41554761Y-55928571D01*
X41507142Y-55880952D01*
X41411904Y-55833333D01*
X41221428Y-55785714D01*
X40983333Y-55785714D01*
X40792857Y-55833333D01*
X40697619Y-55880952D01*
X40650000Y-55928571D01*
X40602380Y-56023809D01*
X41602380Y-56785714D02*
X40602380Y-56785714D01*
X41221428Y-56880952D02*
X41602380Y-57166666D01*
X40935714Y-57166666D02*
X41316666Y-56785714D01*
D12*
X39726190Y-55916666D02*
X39488095Y-55750000D01*
X39726190Y-55630952D02*
X39226190Y-55630952D01*
X39226190Y-55821428D01*
X39250000Y-55869047D01*
X39273809Y-55892857D01*
X39321428Y-55916666D01*
X39392857Y-55916666D01*
X39440476Y-55892857D01*
X39464285Y-55869047D01*
X39488095Y-55821428D01*
X39488095Y-55630952D01*
X39726190Y-56154761D02*
X39726190Y-56250000D01*
X39702380Y-56297619D01*
X39678571Y-56321428D01*
X39607142Y-56369047D01*
X39511904Y-56392857D01*
X39321428Y-56392857D01*
X39273809Y-56369047D01*
X39250000Y-56345238D01*
X39226190Y-56297619D01*
X39226190Y-56202380D01*
X39250000Y-56154761D01*
X39273809Y-56130952D01*
X39321428Y-56107142D01*
X39440476Y-56107142D01*
X39488095Y-56130952D01*
X39511904Y-56154761D01*
X39535714Y-56202380D01*
X39535714Y-56297619D01*
X39511904Y-56345238D01*
X39488095Y-56369047D01*
X39440476Y-56392857D01*
D10*
%TO.C,R12*%
X14523809Y-65602380D02*
X14523809Y-64602380D01*
X14285714Y-64602380D01*
X14142857Y-64650000D01*
X14047619Y-64745238D01*
X14000000Y-64840476D01*
X13952380Y-65030952D01*
X13952380Y-65173809D01*
X14000000Y-65364285D01*
X14047619Y-65459523D01*
X14142857Y-65554761D01*
X14285714Y-65602380D01*
X14523809Y-65602380D01*
X13523809Y-65602380D02*
X13523809Y-64602380D01*
X12952380Y-65602380D01*
X12952380Y-64602380D01*
X12476190Y-65602380D02*
X12476190Y-64602380D01*
D12*
X13821428Y-63726190D02*
X13988095Y-63488095D01*
X14107142Y-63726190D02*
X14107142Y-63226190D01*
X13916666Y-63226190D01*
X13869047Y-63250000D01*
X13845238Y-63273809D01*
X13821428Y-63321428D01*
X13821428Y-63392857D01*
X13845238Y-63440476D01*
X13869047Y-63464285D01*
X13916666Y-63488095D01*
X14107142Y-63488095D01*
X13345238Y-63726190D02*
X13630952Y-63726190D01*
X13488095Y-63726190D02*
X13488095Y-63226190D01*
X13535714Y-63297619D01*
X13583333Y-63345238D01*
X13630952Y-63369047D01*
X13154761Y-63273809D02*
X13130952Y-63250000D01*
X13083333Y-63226190D01*
X12964285Y-63226190D01*
X12916666Y-63250000D01*
X12892857Y-63273809D01*
X12869047Y-63321428D01*
X12869047Y-63369047D01*
X12892857Y-63440476D01*
X13178571Y-63726190D01*
X12869047Y-63726190D01*
D10*
%TO.C,R13*%
X29302380Y-39476190D02*
X28302380Y-39476190D01*
X28302380Y-39714285D01*
X28350000Y-39857142D01*
X28445238Y-39952380D01*
X28540476Y-40000000D01*
X28730952Y-40047619D01*
X28873809Y-40047619D01*
X29064285Y-40000000D01*
X29159523Y-39952380D01*
X29254761Y-39857142D01*
X29302380Y-39714285D01*
X29302380Y-39476190D01*
X29302380Y-40476190D02*
X28302380Y-40476190D01*
X29302380Y-41047619D01*
X28302380Y-41047619D01*
X29302380Y-41523809D02*
X28302380Y-41523809D01*
D12*
X30726190Y-40178571D02*
X30488095Y-40011904D01*
X30726190Y-39892857D02*
X30226190Y-39892857D01*
X30226190Y-40083333D01*
X30250000Y-40130952D01*
X30273809Y-40154761D01*
X30321428Y-40178571D01*
X30392857Y-40178571D01*
X30440476Y-40154761D01*
X30464285Y-40130952D01*
X30488095Y-40083333D01*
X30488095Y-39892857D01*
X30726190Y-40654761D02*
X30726190Y-40369047D01*
X30726190Y-40511904D02*
X30226190Y-40511904D01*
X30297619Y-40464285D01*
X30345238Y-40416666D01*
X30369047Y-40369047D01*
X30226190Y-40821428D02*
X30226190Y-41130952D01*
X30416666Y-40964285D01*
X30416666Y-41035714D01*
X30440476Y-41083333D01*
X30464285Y-41107142D01*
X30511904Y-41130952D01*
X30630952Y-41130952D01*
X30678571Y-41107142D01*
X30702380Y-41083333D01*
X30726190Y-41035714D01*
X30726190Y-40892857D01*
X30702380Y-40845238D01*
X30678571Y-40821428D01*
D13*
%TO.C,Q1*%
X42350000Y-57125000D02*
X42675000Y-57450000D01*
X42675000Y-57450000D02*
X43650000Y-57450000D01*
X43650000Y-57450000D02*
X43650000Y-54550000D01*
X43650000Y-54550000D02*
X42350000Y-54550000D01*
X42350000Y-54550000D02*
X42350000Y-57125000D01*
%TO.C,R10*%
X42000000Y-58875000D02*
X42000000Y-60125000D01*
X42000000Y-60125000D02*
X44000000Y-60125000D01*
X44000000Y-58875000D02*
X42000000Y-58875000D01*
X44000000Y-60125000D02*
X44000000Y-58875000D01*
%TO.C,R11*%
X12500000Y-61625000D02*
X14500000Y-61625000D01*
X14500000Y-60375000D02*
X12500000Y-60375000D01*
X12500000Y-60375000D02*
X12500000Y-61625000D01*
X14500000Y-61625000D02*
X14500000Y-60375000D01*
%TO.C,R14*%
X27875000Y-41500000D02*
X29125000Y-41500000D01*
X29125000Y-39500000D02*
X27875000Y-39500000D01*
X29125000Y-41500000D02*
X29125000Y-39500000D01*
X27875000Y-39500000D02*
X27875000Y-41500000D01*
%TO.C,R9*%
X38875000Y-55000000D02*
X38875000Y-57000000D01*
X40125000Y-57000000D02*
X40125000Y-55000000D01*
X38875000Y-57000000D02*
X40125000Y-57000000D01*
X40125000Y-55000000D02*
X38875000Y-55000000D01*
%TO.C,R12*%
X14500000Y-62875000D02*
X12500000Y-62875000D01*
X14500000Y-64125000D02*
X14500000Y-62875000D01*
X12500000Y-64125000D02*
X14500000Y-64125000D01*
X12500000Y-62875000D02*
X12500000Y-64125000D01*
%TO.C,R13*%
X29875000Y-41500000D02*
X31125000Y-41500000D01*
X31125000Y-41500000D02*
X31125000Y-39500000D01*
X29875000Y-39500000D02*
X29875000Y-41500000D01*
X31125000Y-39500000D02*
X29875000Y-39500000D01*
%TD*%
M02*
