"ID";"Bezeichner";"Gehäuse";"Stückzahl";"Bezeichnung";"Anbieter und Referenz";
1;"J5";"PinSocket_2x15_P2.54mm_Vertical_SMD_With_Vias";1;"GPIOs (right / top)";;;
2;"C1,C2,C3";"C_0805_1.0x1.4mm_Pad";3;"100n";;;
3;"U2";"Bosch_LGA-8_2.5x2.5mm_P0.65mm_ClockwisePinNumbering";1;"BME280";;;
4;"R2,R1";"R_0805_1.0x1.4mm_Pad";2;"R_DNI_0805";;;
5;"H1,H4,H3,H2";"MountingHole_M3_DIN965_Pad";4;"M3";;;
6;"U1";"Sensirion_SHT4x";1;"SHT4x";;;
7;"J4";"PinSocket_2x15_P2.54mm_Vertical_SMD_With_Vias";1;"Bussystems (left / top)";;;
8;"J6";"PinHeader_2x15_P2.54mm_Vertical_SMD";1;"Bussystems (left / bottom)";;;
9;"J7";"PinHeader_2x15_P2.54mm_Vertical_SMD";1;"GPIOs (right / bottom)";;;
