%TF.GenerationSoftware,KiCad,Pcbnew,(6.0.4-0)*%
%TF.CreationDate,2022-04-10T15:58:27+02:00*%
%TF.ProjectId,Stratberry_Module,53747261-7462-4657-9272-795f4d6f6475,rev?*%
%TF.SameCoordinates,Original*%
%TF.FileFunction,Soldermask,Top*%
%TF.FilePolarity,Negative*%
%FSLAX46Y46*%
G04 Gerber Fmt 4.6, Leading zero omitted, Abs format (unit mm)*
G04 Created by KiCad (PCBNEW (6.0.4-0)) date 2022-04-10 15:58:27*
%MOMM*%
%LPD*%
G01*
G04 APERTURE LIST*
G04 Aperture macros list*
%AMRoundRect*
0 Rectangle with rounded corners*
0 $1 Rounding radius*
0 $2 $3 $4 $5 $6 $7 $8 $9 X,Y pos of 4 corners*
0 Add a 4 corners polygon primitive as box body*
4,1,4,$2,$3,$4,$5,$6,$7,$8,$9,$2,$3,0*
0 Add four circle primitives for the rounded corners*
1,1,$1+$1,$2,$3*
1,1,$1+$1,$4,$5*
1,1,$1+$1,$6,$7*
1,1,$1+$1,$8,$9*
0 Add four rect primitives between the rounded corners*
20,1,$1+$1,$2,$3,$4,$5,0*
20,1,$1+$1,$4,$5,$6,$7,0*
20,1,$1+$1,$6,$7,$8,$9,0*
20,1,$1+$1,$8,$9,$2,$3,0*%
G04 Aperture macros list end*
%ADD10R,3.000000X1.000000*%
%ADD11C,0.800000*%
%ADD12RoundRect,0.243902X0.456098X-0.256098X0.456098X0.256098X-0.456098X0.256098X-0.456098X-0.256098X0*%
%ADD13RoundRect,0.243902X-0.256098X-0.456098X0.256098X-0.456098X0.256098X0.456098X-0.256098X0.456098X0*%
%ADD14R,0.500000X0.350000*%
%ADD15C,5.600000*%
%ADD16RoundRect,0.243902X-0.456098X0.256098X-0.456098X-0.256098X0.456098X-0.256098X0.456098X0.256098X0*%
%ADD17R,0.500000X0.300000*%
G04 APERTURE END LIST*
D10*
%TO.C,J5*%
X50520000Y-9720000D03*
D11*
X52826000Y-9720000D03*
X43174000Y-9720000D03*
D10*
X45480000Y-9720000D03*
X50520000Y-12260000D03*
D11*
X52826000Y-12260000D03*
D10*
X45480000Y-12260000D03*
D11*
X43174000Y-12260000D03*
D10*
X50520000Y-14800000D03*
D11*
X52826000Y-14800000D03*
X43174000Y-14800000D03*
D10*
X45480000Y-14800000D03*
D11*
X52826000Y-17340000D03*
D10*
X50520000Y-17340000D03*
D11*
X43174000Y-17340000D03*
D10*
X45480000Y-17340000D03*
X50520000Y-19880000D03*
D11*
X52826000Y-19880000D03*
D10*
X45480000Y-19880000D03*
D11*
X43174000Y-19880000D03*
D10*
X50520000Y-22420000D03*
D11*
X52826000Y-22420000D03*
D10*
X45480000Y-22420000D03*
D11*
X43174000Y-22420000D03*
X52826000Y-24960000D03*
D10*
X50520000Y-24960000D03*
D11*
X43174000Y-24960000D03*
D10*
X45480000Y-24960000D03*
D11*
X52826000Y-27500000D03*
D10*
X50520000Y-27500000D03*
X45480000Y-27500000D03*
D11*
X43174000Y-27500000D03*
D10*
X50520000Y-30040000D03*
D11*
X52826000Y-30040000D03*
D10*
X45480000Y-30040000D03*
D11*
X43174000Y-30040000D03*
X52826000Y-32580000D03*
D10*
X50520000Y-32580000D03*
D11*
X43174000Y-32580000D03*
D10*
X45480000Y-32580000D03*
D11*
X52826000Y-35120000D03*
D10*
X50520000Y-35120000D03*
D11*
X43174000Y-35120000D03*
D10*
X45480000Y-35120000D03*
D11*
X52826000Y-37660000D03*
D10*
X50520000Y-37660000D03*
D11*
X43174000Y-37660000D03*
D10*
X45480000Y-37660000D03*
D11*
X52826000Y-40200000D03*
D10*
X50520000Y-40200000D03*
D11*
X43174000Y-40200000D03*
D10*
X45480000Y-40200000D03*
X50520000Y-42740000D03*
D11*
X52826000Y-42740000D03*
X43174000Y-42740000D03*
D10*
X45480000Y-42740000D03*
X50520000Y-45280000D03*
D11*
X52826000Y-45280000D03*
D10*
X45480000Y-45280000D03*
D11*
X43174000Y-45280000D03*
%TD*%
D12*
%TO.C,C1*%
X23500000Y-13912500D03*
X23500000Y-12087500D03*
%TD*%
D13*
%TO.C,C2*%
X23687500Y-22000000D03*
X25512500Y-22000000D03*
%TD*%
D14*
%TO.C,U2*%
X19475000Y-23725000D03*
X19475000Y-23075000D03*
X19475000Y-22425000D03*
X19475000Y-21775000D03*
X21525000Y-21775000D03*
X21525000Y-22425000D03*
X21525000Y-23075000D03*
X21525000Y-23725000D03*
%TD*%
D12*
%TO.C,R2*%
X16250000Y-16662500D03*
X16250000Y-14837500D03*
%TD*%
D15*
%TO.C,H1*%
X48000000Y-4000000D03*
%TD*%
%TO.C,H4*%
X48000000Y-51000000D03*
%TD*%
D16*
%TO.C,R1*%
X16250000Y-10337500D03*
X16250000Y-12162500D03*
%TD*%
D17*
%TO.C,U1*%
X19800000Y-13100000D03*
X19800000Y-13900000D03*
X21200000Y-13900000D03*
X21200000Y-13100000D03*
%TD*%
D10*
%TO.C,J4*%
X9520000Y-9720000D03*
D11*
X11826000Y-9720000D03*
X2174000Y-9720000D03*
D10*
X4480000Y-9720000D03*
D11*
X11826000Y-12260000D03*
D10*
X9520000Y-12260000D03*
X4480000Y-12260000D03*
D11*
X2174000Y-12260000D03*
X11826000Y-14800000D03*
D10*
X9520000Y-14800000D03*
X4480000Y-14800000D03*
D11*
X2174000Y-14800000D03*
D10*
X9520000Y-17340000D03*
D11*
X11826000Y-17340000D03*
D10*
X4480000Y-17340000D03*
D11*
X2174000Y-17340000D03*
D10*
X9520000Y-19880000D03*
D11*
X11826000Y-19880000D03*
D10*
X4480000Y-19880000D03*
D11*
X2174000Y-19880000D03*
X11826000Y-22420000D03*
D10*
X9520000Y-22420000D03*
X4480000Y-22420000D03*
D11*
X2174000Y-22420000D03*
X11826000Y-24960000D03*
D10*
X9520000Y-24960000D03*
D11*
X2174000Y-24960000D03*
D10*
X4480000Y-24960000D03*
D11*
X11826000Y-27500000D03*
D10*
X9520000Y-27500000D03*
X4480000Y-27500000D03*
D11*
X2174000Y-27500000D03*
X11826000Y-30040000D03*
D10*
X9520000Y-30040000D03*
D11*
X2174000Y-30040000D03*
D10*
X4480000Y-30040000D03*
X9520000Y-32580000D03*
D11*
X11826000Y-32580000D03*
D10*
X4480000Y-32580000D03*
D11*
X2174000Y-32580000D03*
X11826000Y-35120000D03*
D10*
X9520000Y-35120000D03*
X4480000Y-35120000D03*
D11*
X2174000Y-35120000D03*
X11826000Y-37660000D03*
D10*
X9520000Y-37660000D03*
D11*
X2174000Y-37660000D03*
D10*
X4480000Y-37660000D03*
X9520000Y-40200000D03*
D11*
X11826000Y-40200000D03*
D10*
X4480000Y-40200000D03*
D11*
X2174000Y-40200000D03*
X11826000Y-42740000D03*
D10*
X9520000Y-42740000D03*
D11*
X2174000Y-42740000D03*
D10*
X4480000Y-42740000D03*
X9520000Y-45280000D03*
D11*
X11826000Y-45280000D03*
X2174000Y-45280000D03*
D10*
X4480000Y-45280000D03*
%TD*%
D13*
%TO.C,C3*%
X23687500Y-24000000D03*
X25512500Y-24000000D03*
%TD*%
D15*
%TO.C,H3*%
X7000000Y-51000000D03*
%TD*%
%TO.C,H2*%
X7000000Y-4000000D03*
%TD*%
M02*
