%TF.GenerationSoftware,KiCad,Pcbnew,(6.0.4-0)*%
%TF.CreationDate,2022-04-10T15:58:27+02:00*%
%TF.ProjectId,Stratberry_Module,53747261-7462-4657-9272-795f4d6f6475,rev?*%
%TF.SameCoordinates,Original*%
%TF.FileFunction,Legend,Bot*%
%TF.FilePolarity,Positive*%
%FSLAX46Y46*%
G04 Gerber Fmt 4.6, Leading zero omitted, Abs format (unit mm)*
G04 Created by KiCad (PCBNEW (6.0.4-0)) date 2022-04-10 15:58:27*
%MOMM*%
%LPD*%
G01*
G04 APERTURE LIST*
%ADD10C,0.120000*%
G04 APERTURE END LIST*
D10*
%TO.C,J6*%
X9600000Y-43500000D02*
X9600000Y-44520000D01*
X9600000Y-8390000D02*
X4400000Y-8390000D01*
X9600000Y-35880000D02*
X9600000Y-36900000D01*
X11040000Y-8960000D02*
X9600000Y-8960000D01*
X4400000Y-10480000D02*
X4400000Y-11500000D01*
X9600000Y-46610000D02*
X4400000Y-46610000D01*
X4400000Y-35880000D02*
X4400000Y-36900000D01*
X4400000Y-8390000D02*
X4400000Y-8960000D01*
X4400000Y-23180000D02*
X4400000Y-24200000D01*
X9600000Y-28260000D02*
X9600000Y-29280000D01*
X9600000Y-40960000D02*
X9600000Y-41980000D01*
X4400000Y-25720000D02*
X4400000Y-26740000D01*
X9600000Y-25720000D02*
X9600000Y-26740000D01*
X4400000Y-28260000D02*
X4400000Y-29280000D01*
X4400000Y-13020000D02*
X4400000Y-14040000D01*
X9600000Y-18100000D02*
X9600000Y-19120000D01*
X4400000Y-46040000D02*
X4400000Y-46610000D01*
X4400000Y-33340000D02*
X4400000Y-34360000D01*
X9600000Y-33340000D02*
X9600000Y-34360000D01*
X9600000Y-8390000D02*
X9600000Y-8960000D01*
X9600000Y-23180000D02*
X9600000Y-24200000D01*
X9600000Y-13020000D02*
X9600000Y-14040000D01*
X4400000Y-40960000D02*
X4400000Y-41980000D01*
X4400000Y-30800000D02*
X4400000Y-31820000D01*
X4400000Y-43500000D02*
X4400000Y-44520000D01*
X9600000Y-30800000D02*
X9600000Y-31820000D01*
X4400000Y-20640000D02*
X4400000Y-21660000D01*
X9600000Y-38420000D02*
X9600000Y-39440000D01*
X4400000Y-38420000D02*
X4400000Y-39440000D01*
X9600000Y-10480000D02*
X9600000Y-11500000D01*
X9600000Y-20640000D02*
X9600000Y-21660000D01*
X4400000Y-18100000D02*
X4400000Y-19120000D01*
X9600000Y-46040000D02*
X9600000Y-46610000D01*
X4400000Y-15560000D02*
X4400000Y-16580000D01*
X9600000Y-15560000D02*
X9600000Y-16580000D01*
%TO.C,J7*%
X45400000Y-10480000D02*
X45400000Y-11500000D01*
X50600000Y-33340000D02*
X50600000Y-34360000D01*
X45400000Y-28260000D02*
X45400000Y-29280000D01*
X45400000Y-20640000D02*
X45400000Y-21660000D01*
X50600000Y-8390000D02*
X50600000Y-8960000D01*
X45400000Y-18100000D02*
X45400000Y-19120000D01*
X52040000Y-8960000D02*
X50600000Y-8960000D01*
X45400000Y-33340000D02*
X45400000Y-34360000D01*
X50600000Y-25720000D02*
X50600000Y-26740000D01*
X50600000Y-13020000D02*
X50600000Y-14040000D01*
X45400000Y-13020000D02*
X45400000Y-14040000D01*
X50600000Y-46040000D02*
X50600000Y-46610000D01*
X50600000Y-38420000D02*
X50600000Y-39440000D01*
X45400000Y-46040000D02*
X45400000Y-46610000D01*
X45400000Y-38420000D02*
X45400000Y-39440000D01*
X45400000Y-43500000D02*
X45400000Y-44520000D01*
X50600000Y-40960000D02*
X50600000Y-41980000D01*
X50600000Y-46610000D02*
X45400000Y-46610000D01*
X45400000Y-15560000D02*
X45400000Y-16580000D01*
X45400000Y-35880000D02*
X45400000Y-36900000D01*
X50600000Y-43500000D02*
X50600000Y-44520000D01*
X50600000Y-10480000D02*
X50600000Y-11500000D01*
X45400000Y-23180000D02*
X45400000Y-24200000D01*
X50600000Y-35880000D02*
X50600000Y-36900000D01*
X45400000Y-8390000D02*
X45400000Y-8960000D01*
X45400000Y-25720000D02*
X45400000Y-26740000D01*
X50600000Y-18100000D02*
X50600000Y-19120000D01*
X50600000Y-30800000D02*
X50600000Y-31820000D01*
X50600000Y-8390000D02*
X45400000Y-8390000D01*
X45400000Y-30800000D02*
X45400000Y-31820000D01*
X50600000Y-28260000D02*
X50600000Y-29280000D01*
X50600000Y-23180000D02*
X50600000Y-24200000D01*
X50600000Y-15560000D02*
X50600000Y-16580000D01*
X45400000Y-40960000D02*
X45400000Y-41980000D01*
X50600000Y-20640000D02*
X50600000Y-21660000D01*
%TD*%
M02*
