%TF.GenerationSoftware,KiCad,Pcbnew,(6.0.4-0)*%
%TF.CreationDate,2022-04-10T15:58:27+02:00*%
%TF.ProjectId,Stratberry_Module,53747261-7462-4657-9272-795f4d6f6475,rev?*%
%TF.SameCoordinates,Original*%
%TF.FileFunction,Profile,NP*%
%FSLAX46Y46*%
G04 Gerber Fmt 4.6, Leading zero omitted, Abs format (unit mm)*
G04 Created by KiCad (PCBNEW (6.0.4-0)) date 2022-04-10 15:58:27*
%MOMM*%
%LPD*%
G01*
G04 APERTURE LIST*
%TA.AperFunction,Profile*%
%ADD10C,0.100000*%
%TD*%
G04 APERTURE END LIST*
D10*
X4000000Y-55000000D02*
X51000000Y-55000000D01*
X55000000Y-4000000D02*
G75*
G03*
X51000000Y0I-4000000J0D01*
G01*
X0Y-4000000D02*
X0Y-51000000D01*
X55000000Y-51000000D02*
X55000000Y-4000000D01*
X51000000Y0D02*
X4000000Y0D01*
X51000000Y-55000000D02*
G75*
G03*
X55000000Y-51000000I0J4000000D01*
G01*
X4000000Y0D02*
G75*
G03*
X0Y-4000000I0J-4000000D01*
G01*
X0Y-51000000D02*
G75*
G03*
X4000000Y-55000000I4000000J0D01*
G01*
M02*
